<?xml version="1.0" encoding="UTF-8"?>
<svg xmlns="http://www.w3.org/2000/svg" xmlns:xlink="http://www.w3.org/1999/xlink" viewBox="0 0 31.658 11.627">
<defs>
<g>
<g id="glyph-0-0">
</g>
<g id="glyph-0-1">
<path d="M 6.765625 -6.953125 C 6.765625 -7.671875 6.15625 -8.421875 5.0625 -8.421875 C 3.53125 -8.421875 2.546875 -6.53125 2.234375 -5.296875 L 0.34375 2.203125 C 0.328125 2.296875 0.390625 2.3125 0.453125 2.3125 C 0.53125 2.3125 0.59375 2.3125 0.609375 2.25 L 1.453125 -1.09375 C 1.5625 -0.4375 2.21875 0.125 2.921875 0.125 C 4.640625 0.125 6.25 -1.21875 6.25 -3 C 6.25 -3.453125 6.140625 -3.90625 5.890625 -4.296875 C 5.75 -4.515625 5.5625 -4.6875 5.375 -4.828125 C 6.234375 -5.28125 6.765625 -6.015625 6.765625 -6.953125 Z M 4.6875 -4.84375 C 4.5 -4.765625 4.296875 -4.75 4.078125 -4.75 C 3.90625 -4.75 3.75 -4.734375 3.53125 -4.8125 C 3.65625 -4.890625 3.84375 -4.90625 4.09375 -4.90625 C 4.296875 -4.90625 4.515625 -4.890625 4.6875 -4.84375 Z M 6.140625 -7.0625 C 6.140625 -6.40625 5.828125 -5.453125 5.046875 -5.015625 C 4.8125 -5.09375 4.5 -5.15625 4.25 -5.15625 C 4 -5.15625 3.28125 -5.171875 3.28125 -4.796875 C 3.28125 -4.46875 3.9375 -4.5 4.140625 -4.5 C 4.453125 -4.5 4.71875 -4.578125 5.015625 -4.65625 C 5.390625 -4.34375 5.5625 -3.9375 5.5625 -3.34375 C 5.5625 -2.65625 5.359375 -2.09375 5.140625 -1.578125 C 4.75 -0.6875 3.8125 -0.125 2.984375 -0.125 C 2.109375 -0.125 1.65625 -0.8125 1.65625 -1.625 C 1.65625 -1.734375 1.65625 -1.890625 1.703125 -2.0625 L 2.484375 -5.21875 C 2.875 -6.78125 3.890625 -8.1875 5.046875 -8.1875 C 5.90625 -8.1875 6.140625 -7.59375 6.140625 -7.0625 Z M 6.140625 -7.0625 "/>
</g>
<g id="glyph-0-2">
<path d="M 2.03125 -1.328125 C 1.609375 -0.625 1.203125 -0.375 0.640625 -0.34375 C 0.5 -0.328125 0.40625 -0.328125 0.40625 -0.125 C 0.40625 -0.046875 0.46875 0 0.546875 0 C 0.765625 0 1.296875 -0.03125 1.515625 -0.03125 C 1.859375 -0.03125 2.25 0 2.578125 0 C 2.65625 0 2.796875 0 2.796875 -0.234375 C 2.796875 -0.328125 2.703125 -0.34375 2.625 -0.34375 C 2.359375 -0.375 2.125 -0.46875 2.125 -0.75 C 2.125 -0.921875 2.203125 -1.046875 2.359375 -1.3125 L 3.265625 -2.828125 L 6.3125 -2.828125 C 6.328125 -2.71875 6.328125 -2.625 6.328125 -2.515625 C 6.375 -2.203125 6.515625 -0.953125 6.515625 -0.734375 C 6.515625 -0.375 5.90625 -0.34375 5.71875 -0.34375 C 5.578125 -0.34375 5.453125 -0.34375 5.453125 -0.125 C 5.453125 0 5.5625 0 5.625 0 C 5.828125 0 6.078125 -0.03125 6.28125 -0.03125 L 6.953125 -0.03125 C 7.6875 -0.03125 8.21875 0 8.21875 0 C 8.3125 0 8.4375 0 8.4375 -0.234375 C 8.4375 -0.34375 8.328125 -0.34375 8.15625 -0.34375 C 7.5 -0.34375 7.484375 -0.453125 7.453125 -0.8125 L 6.71875 -8.265625 C 6.6875 -8.515625 6.640625 -8.53125 6.515625 -8.53125 C 6.390625 -8.53125 6.328125 -8.515625 6.21875 -8.328125 Z M 3.46875 -3.171875 L 5.875 -7.1875 L 6.28125 -3.171875 Z M 3.46875 -3.171875 "/>
</g>
<g id="glyph-1-0">
</g>
<g id="glyph-1-1">
<path d="M 6.546875 -2.75 C 6.75 -2.75 6.96875 -2.75 6.96875 -2.984375 C 6.96875 -3.234375 6.75 -3.234375 6.546875 -3.234375 L 1.484375 -3.234375 C 1.625 -4.828125 3 -5.96875 4.6875 -5.96875 L 6.546875 -5.96875 C 6.75 -5.96875 6.96875 -5.96875 6.96875 -6.21875 C 6.96875 -6.453125 6.75 -6.453125 6.546875 -6.453125 L 4.65625 -6.453125 C 2.625 -6.453125 0.984375 -4.90625 0.984375 -2.984375 C 0.984375 -1.078125 2.625 0.484375 4.65625 0.484375 L 6.546875 0.484375 C 6.75 0.484375 6.96875 0.484375 6.96875 0.234375 C 6.96875 0 6.75 0 6.546875 0 L 4.6875 0 C 3 0 1.625 -1.140625 1.484375 -2.75 Z M 6.546875 -2.75 "/>
</g>
</g>
<clipPath id="clip-0">
<path clip-rule="nonzero" d="M 0 0 L 8 0 L 8 11.628906 L 0 11.628906 Z M 0 0 "/>
</clipPath>
</defs>
<g clip-path="url(#clip-0)">
<g fill="rgb(0%, 0%, 0%)" fill-opacity="1">
<use xlink:href="#glyph-0-1" x="0.5" y="8.802"/>
</g>
</g>
<g fill="rgb(0%, 0%, 0%)" fill-opacity="1">
<use xlink:href="#glyph-1-1" x="11.092" y="8.802"/>
</g>
<g fill="rgb(0%, 0%, 0%)" fill-opacity="1">
<use xlink:href="#glyph-0-2" x="22.383" y="8.802"/>
</g>
</svg>
