<?xml version="1.0" encoding="UTF-8"?>
<svg xmlns="http://www.w3.org/2000/svg" xmlns:xlink="http://www.w3.org/1999/xlink" viewBox="0 0 49.29 8.97">
<defs>
<g>
<g id="glyph-0-0">
</g>
<g id="glyph-0-1">
<path d="M 3.59375 -1.421875 C 3.53125 -1.21875 3.53125 -1.1875 3.375 -0.96875 C 3.109375 -0.640625 2.578125 -0.125 2.015625 -0.125 C 1.53125 -0.125 1.25 -0.5625 1.25 -1.265625 C 1.25 -1.921875 1.625 -3.265625 1.859375 -3.765625 C 2.265625 -4.609375 2.828125 -5.03125 3.28125 -5.03125 C 4.078125 -5.03125 4.234375 -4.046875 4.234375 -3.953125 C 4.234375 -3.9375 4.203125 -3.796875 4.1875 -3.765625 Z M 4.359375 -4.484375 C 4.234375 -4.796875 3.90625 -5.265625 3.28125 -5.265625 C 1.9375 -5.265625 0.484375 -3.53125 0.484375 -1.75 C 0.484375 -0.578125 1.171875 0.125 1.984375 0.125 C 2.640625 0.125 3.203125 -0.390625 3.53125 -0.78125 C 3.65625 -0.078125 4.21875 0.125 4.578125 0.125 C 4.9375 0.125 5.21875 -0.09375 5.4375 -0.53125 C 5.625 -0.9375 5.796875 -1.65625 5.796875 -1.703125 C 5.796875 -1.765625 5.75 -1.8125 5.671875 -1.8125 C 5.5625 -1.8125 5.5625 -1.75 5.515625 -1.578125 C 5.328125 -0.875 5.109375 -0.125 4.609375 -0.125 C 4.265625 -0.125 4.25 -0.4375 4.25 -0.671875 C 4.25 -0.9375 4.28125 -1.078125 4.390625 -1.546875 C 4.46875 -1.84375 4.53125 -2.109375 4.625 -2.453125 C 5.0625 -4.25 5.171875 -4.671875 5.171875 -4.75 C 5.171875 -4.90625 5.046875 -5.046875 4.859375 -5.046875 C 4.484375 -5.046875 4.390625 -4.625 4.359375 -4.484375 Z M 4.359375 -4.484375 "/>
</g>
<g id="glyph-0-2">
<path d="M 7.875 -2.71875 C 8.109375 -2.828125 8.109375 -2.90625 8.109375 -2.984375 C 8.109375 -3.0625 8.09375 -3.140625 7.875 -3.234375 L 1.40625 -6.21875 C 1.25 -6.28125 1.234375 -6.296875 1.203125 -6.296875 C 1.0625 -6.296875 0.984375 -6.1875 0.984375 -6.078125 C 0.984375 -5.9375 1.078125 -5.890625 1.234375 -5.828125 L 7.375 -2.984375 L 1.21875 -0.140625 C 0.984375 -0.03125 0.984375 0.046875 0.984375 0.125 C 0.984375 0.21875 1.0625 0.328125 1.203125 0.328125 C 1.234375 0.328125 1.25 0.328125 1.40625 0.25 Z M 7.875 -2.71875 "/>
</g>
<g id="glyph-1-0">
</g>
<g id="glyph-1-1">
<path d="M 7.875 -2.75 C 8.078125 -2.75 8.296875 -2.75 8.296875 -2.984375 C 8.296875 -3.234375 8.078125 -3.234375 7.875 -3.234375 L 1.40625 -3.234375 C 1.203125 -3.234375 0.984375 -3.234375 0.984375 -2.984375 C 0.984375 -2.75 1.203125 -2.75 1.40625 -2.75 Z M 7.875 -2.75 "/>
</g>
<g id="glyph-1-2">
<path d="M 6.078125 -3.234375 C 5.421875 -4.046875 5.28125 -4.234375 4.90625 -4.53125 C 4.25 -5.0625 3.578125 -5.28125 2.96875 -5.28125 C 1.5625 -5.28125 0.65625 -3.96875 0.65625 -2.5625 C 0.65625 -1.1875 1.546875 0.125 2.921875 0.125 C 4.296875 0.125 5.28125 -0.953125 5.875 -1.90625 C 6.515625 -1.09375 6.65625 -0.921875 7.03125 -0.625 C 7.703125 -0.078125 8.359375 0.125 8.984375 0.125 C 10.375 0.125 11.28125 -1.1875 11.28125 -2.578125 C 11.28125 -3.953125 10.40625 -5.28125 9.03125 -5.28125 C 7.65625 -5.28125 6.65625 -4.203125 6.078125 -3.234375 Z M 6.390625 -2.828125 C 6.875 -3.6875 7.75 -4.90625 9.109375 -4.90625 C 10.375 -4.90625 11.015625 -3.65625 11.015625 -2.578125 C 11.015625 -1.40625 10.21875 -0.4375 9.171875 -0.4375 C 8.46875 -0.4375 7.9375 -0.9375 7.6875 -1.1875 C 7.390625 -1.515625 7.109375 -1.890625 6.390625 -2.828125 Z M 5.5625 -2.3125 C 5.0625 -1.453125 4.1875 -0.25 2.828125 -0.25 C 1.5625 -0.25 0.921875 -1.5 0.921875 -2.5625 C 0.921875 -3.734375 1.71875 -4.703125 2.765625 -4.703125 C 3.46875 -4.703125 4 -4.203125 4.25 -3.953125 C 4.546875 -3.640625 4.828125 -3.265625 5.5625 -2.3125 Z M 5.5625 -2.3125 "/>
</g>
</g>
</defs>
<g fill="rgb(0%, 0%, 0%)" fill-opacity="1">
<use xlink:href="#glyph-0-1" x="0.5" y="7.474"/>
</g>
<g fill="rgb(0%, 0%, 0%)" fill-opacity="1">
<use xlink:href="#glyph-0-2" x="12.538886" y="7.474"/>
</g>
<g fill="rgb(0%, 0%, 0%)" fill-opacity="1">
<use xlink:href="#glyph-1-1" x="27.537" y="7.474"/>
<use xlink:href="#glyph-1-2" x="36.835755" y="7.474"/>
</g>
</svg>
