<?xml version="1.0" encoding="UTF-8"?>
<svg xmlns="http://www.w3.org/2000/svg" xmlns:xlink="http://www.w3.org/1999/xlink" viewBox="0 0 241.204 22.519">
<defs>
<g>
<g id="glyph-0-0">
</g>
<g id="glyph-0-1">
<path d="M 8.578125 -2.90625 C 8.578125 -4.015625 8.578125 -4.34375 8.296875 -4.734375 C 7.953125 -5.203125 7.390625 -5.265625 6.984375 -5.265625 C 5.984375 -5.265625 5.484375 -4.546875 5.296875 -4.09375 C 5.125 -5.015625 4.484375 -5.265625 3.734375 -5.265625 C 2.5625 -5.265625 2.109375 -4.28125 2.015625 -4.046875 L 2.015625 -5.265625 L 0.375 -5.140625 L 0.375 -4.796875 C 1.1875 -4.796875 1.296875 -4.703125 1.296875 -4.125 L 1.296875 -0.890625 C 1.296875 -0.34375 1.15625 -0.34375 0.375 -0.34375 L 0.375 0 C 0.6875 -0.03125 1.34375 -0.03125 1.671875 -0.03125 C 2.015625 -0.03125 2.671875 -0.03125 2.96875 0 L 2.96875 -0.34375 C 2.21875 -0.34375 2.0625 -0.34375 2.0625 -0.890625 L 2.0625 -3.109375 C 2.0625 -4.359375 2.890625 -5.03125 3.640625 -5.03125 C 4.375 -5.03125 4.546875 -4.421875 4.546875 -3.6875 L 4.546875 -0.890625 C 4.546875 -0.34375 4.40625 -0.34375 3.640625 -0.34375 L 3.640625 0 C 3.9375 -0.03125 4.59375 -0.03125 4.921875 -0.03125 C 5.265625 -0.03125 5.921875 -0.03125 6.234375 0 L 6.234375 -0.34375 C 5.46875 -0.34375 5.3125 -0.34375 5.3125 -0.890625 L 5.3125 -3.109375 C 5.3125 -4.359375 6.140625 -5.03125 6.890625 -5.03125 C 7.625 -5.03125 7.796875 -4.421875 7.796875 -3.6875 L 7.796875 -0.890625 C 7.796875 -0.34375 7.65625 -0.34375 6.890625 -0.34375 L 6.890625 0 C 7.203125 -0.03125 7.84375 -0.03125 8.171875 -0.03125 C 8.515625 -0.03125 9.171875 -0.03125 9.484375 0 L 9.484375 -0.34375 C 8.875 -0.34375 8.578125 -0.34375 8.578125 -0.703125 Z M 8.578125 -2.90625 "/>
</g>
<g id="glyph-0-2">
<path d="M 4.609375 -3.1875 C 4.609375 -3.84375 4.609375 -4.3125 4.09375 -4.78125 C 3.671875 -5.15625 3.125 -5.328125 2.609375 -5.328125 C 1.625 -5.328125 0.875 -4.6875 0.875 -3.90625 C 0.875 -3.5625 1.09375 -3.390625 1.375 -3.390625 C 1.65625 -3.390625 1.859375 -3.59375 1.859375 -3.890625 C 1.859375 -4.375 1.4375 -4.375 1.25 -4.375 C 1.53125 -4.875 2.109375 -5.09375 2.578125 -5.09375 C 3.125 -5.09375 3.84375 -4.640625 3.84375 -3.5625 L 3.84375 -3.078125 C 1.4375 -3.046875 0.53125 -2.046875 0.53125 -1.125 C 0.53125 -0.171875 1.625 0.125 2.359375 0.125 C 3.140625 0.125 3.6875 -0.359375 3.90625 -0.9375 C 3.953125 -0.375 4.328125 0.0625 4.84375 0.0625 C 5.09375 0.0625 5.78125 -0.109375 5.78125 -1.0625 L 5.78125 -1.734375 L 5.515625 -1.734375 L 5.515625 -1.0625 C 5.515625 -0.375 5.234375 -0.28125 5.0625 -0.28125 C 4.609375 -0.28125 4.609375 -0.921875 4.609375 -1.09375 Z M 3.84375 -1.6875 C 3.84375 -0.515625 2.96875 -0.125 2.453125 -0.125 C 1.859375 -0.125 1.375 -0.546875 1.375 -1.125 C 1.375 -2.703125 3.40625 -2.84375 3.84375 -2.875 Z M 3.84375 -1.6875 "/>
</g>
<g id="glyph-0-3">
<path d="M 3.34375 -2.828125 C 3.6875 -3.28125 4.203125 -3.921875 4.421875 -4.171875 C 4.90625 -4.71875 5.46875 -4.8125 5.859375 -4.8125 L 5.859375 -5.15625 C 5.34375 -5.125 5.3125 -5.125 4.859375 -5.125 C 4.40625 -5.125 4.375 -5.125 3.78125 -5.15625 L 3.78125 -4.8125 C 3.9375 -4.78125 4.125 -4.703125 4.125 -4.4375 C 4.125 -4.234375 4.015625 -4.09375 3.9375 -4 L 3.171875 -3.03125 L 2.25 -4.265625 C 2.21875 -4.3125 2.140625 -4.421875 2.140625 -4.5 C 2.140625 -4.578125 2.203125 -4.796875 2.5625 -4.8125 L 2.5625 -5.15625 C 2.265625 -5.125 1.65625 -5.125 1.328125 -5.125 C 0.9375 -5.125 0.90625 -5.125 0.171875 -5.15625 L 0.171875 -4.8125 C 0.78125 -4.8125 1.015625 -4.78125 1.265625 -4.453125 L 2.671875 -2.625 C 2.6875 -2.609375 2.734375 -2.53125 2.734375 -2.5 C 2.734375 -2.46875 1.8125 -1.296875 1.6875 -1.140625 C 1.15625 -0.484375 0.640625 -0.359375 0.125 -0.34375 L 0.125 0 C 0.578125 -0.03125 0.59375 -0.03125 1.109375 -0.03125 C 1.5625 -0.03125 1.59375 -0.03125 2.1875 0 L 2.1875 -0.34375 C 1.90625 -0.375 1.859375 -0.5625 1.859375 -0.734375 C 1.859375 -0.921875 1.9375 -1.015625 2.0625 -1.171875 C 2.234375 -1.421875 2.625 -1.90625 2.921875 -2.28125 L 3.890625 -1 C 4.09375 -0.734375 4.09375 -0.71875 4.09375 -0.640625 C 4.09375 -0.546875 4 -0.359375 3.6875 -0.34375 L 3.6875 0 C 4 -0.03125 4.578125 -0.03125 4.90625 -0.03125 C 5.3125 -0.03125 5.328125 -0.03125 6.046875 0 L 6.046875 -0.34375 C 5.421875 -0.34375 5.203125 -0.375 4.90625 -0.75 Z M 3.34375 -2.828125 "/>
</g>
<g id="glyph-0-4">
<path d="M 2.078125 -7.359375 C 2.078125 -7.671875 1.828125 -7.953125 1.5 -7.953125 C 1.1875 -7.953125 0.921875 -7.703125 0.921875 -7.375 C 0.921875 -7.015625 1.203125 -6.796875 1.5 -6.796875 C 1.859375 -6.796875 2.078125 -7.09375 2.078125 -7.359375 Z M 0.4375 -5.140625 L 0.4375 -4.796875 C 1.1875 -4.796875 1.296875 -4.71875 1.296875 -4.140625 L 1.296875 -0.890625 C 1.296875 -0.34375 1.171875 -0.34375 0.390625 -0.34375 L 0.390625 0 C 0.734375 -0.03125 1.296875 -0.03125 1.65625 -0.03125 C 1.78125 -0.03125 2.46875 -0.03125 2.875 0 L 2.875 -0.34375 C 2.109375 -0.34375 2.0625 -0.40625 2.0625 -0.875 L 2.0625 -5.265625 Z M 0.4375 -5.140625 "/>
</g>
<g id="glyph-0-5">
<path d="M 8.0625 -3.875 C 8.234375 -3.875 8.453125 -3.875 8.453125 -4.09375 C 8.453125 -4.3125 8.25 -4.3125 8.0625 -4.3125 L 1.03125 -4.3125 C 0.859375 -4.3125 0.640625 -4.3125 0.640625 -4.09375 C 0.640625 -3.875 0.84375 -3.875 1.03125 -3.875 Z M 8.0625 -1.65625 C 8.234375 -1.65625 8.453125 -1.65625 8.453125 -1.859375 C 8.453125 -2.09375 8.25 -2.09375 8.0625 -2.09375 L 1.03125 -2.09375 C 0.859375 -2.09375 0.640625 -2.09375 0.640625 -1.875 C 0.640625 -1.65625 0.84375 -1.65625 1.03125 -1.65625 Z M 8.0625 -1.65625 "/>
</g>
<g id="glyph-0-6">
<path d="M 2.203125 -4.578125 C 2.203125 -4.90625 1.921875 -5.15625 1.625 -5.15625 C 1.28125 -5.15625 1.046875 -4.875 1.046875 -4.578125 C 1.046875 -4.21875 1.34375 -4 1.609375 -4 C 1.9375 -4 2.203125 -4.25 2.203125 -4.578125 Z M 2.203125 -0.578125 C 2.203125 -0.90625 1.921875 -1.15625 1.625 -1.15625 C 1.28125 -1.15625 1.046875 -0.890625 1.046875 -0.578125 C 1.046875 -0.234375 1.34375 0 1.609375 0 C 1.9375 0 2.203125 -0.25 2.203125 -0.578125 Z M 2.203125 -0.578125 "/>
</g>
<g id="glyph-0-7">
<path d="M 2.421875 -7.359375 C 2.421875 -7.71875 2.140625 -7.953125 1.859375 -7.953125 C 1.515625 -7.953125 1.265625 -7.6875 1.265625 -7.359375 C 1.265625 -7.046875 1.53125 -6.796875 1.84375 -6.796875 C 2.203125 -6.796875 2.421875 -7.078125 2.421875 -7.359375 Z M 0.671875 -5.140625 L 0.671875 -4.796875 C 1.5625 -4.796875 1.671875 -4.703125 1.671875 -4.125 L 1.671875 0.65625 C 1.671875 1.3125 1.546875 2.203125 0.84375 2.203125 C 0.828125 2.203125 0.453125 2.203125 0.171875 2.03125 C 0.484375 1.96875 0.578125 1.75 0.578125 1.546875 C 0.578125 1.265625 0.375 1.046875 0.09375 1.046875 C -0.203125 1.046875 -0.40625 1.265625 -0.40625 1.546875 C -0.40625 2.125 0.234375 2.4375 0.859375 2.4375 C 1.71875 2.4375 2.421875 1.703125 2.421875 0.609375 L 2.421875 -5.265625 Z M 0.671875 -5.140625 "/>
</g>
<g id="glyph-0-8">
<path d="M 5.484375 -2.5625 C 5.484375 -4.09375 4.3125 -5.328125 2.921875 -5.328125 C 1.5 -5.328125 0.359375 -4.0625 0.359375 -2.5625 C 0.359375 -1.03125 1.546875 0.125 2.921875 0.125 C 4.328125 0.125 5.484375 -1.046875 5.484375 -2.5625 Z M 2.921875 -0.140625 C 2.484375 -0.140625 1.953125 -0.328125 1.609375 -0.921875 C 1.28125 -1.453125 1.265625 -2.15625 1.265625 -2.671875 C 1.265625 -3.125 1.265625 -3.84375 1.640625 -4.390625 C 1.96875 -4.90625 2.5 -5.09375 2.921875 -5.09375 C 3.375 -5.09375 3.890625 -4.875 4.203125 -4.40625 C 4.578125 -3.859375 4.578125 -3.109375 4.578125 -2.671875 C 4.578125 -2.25 4.578125 -1.5 4.265625 -0.9375 C 3.9375 -0.375 3.375 -0.140625 2.921875 -0.140625 Z M 2.921875 -0.140625 "/>
</g>
<g id="glyph-0-9">
<path d="M 2 -2.78125 C 2 -3.9375 2.46875 -5.03125 3.390625 -5.03125 C 3.484375 -5.03125 3.515625 -5.03125 3.5625 -5.015625 C 3.46875 -4.96875 3.28125 -4.90625 3.28125 -4.578125 C 3.28125 -4.234375 3.546875 -4.09375 3.734375 -4.09375 C 3.984375 -4.09375 4.21875 -4.25 4.21875 -4.578125 C 4.21875 -4.9375 3.890625 -5.265625 3.375 -5.265625 C 2.359375 -5.265625 2.015625 -4.171875 1.953125 -3.9375 L 1.9375 -3.9375 L 1.9375 -5.265625 L 0.328125 -5.140625 L 0.328125 -4.796875 C 1.140625 -4.796875 1.25 -4.703125 1.25 -4.125 L 1.25 -0.890625 C 1.25 -0.34375 1.109375 -0.34375 0.328125 -0.34375 L 0.328125 0 C 0.671875 -0.03125 1.328125 -0.03125 1.6875 -0.03125 C 2.015625 -0.03125 2.859375 -0.03125 3.125 0 L 3.125 -0.34375 L 2.890625 -0.34375 C 2.015625 -0.34375 2 -0.484375 2 -0.90625 Z M 2 -2.78125 "/>
</g>
<g id="glyph-1-0">
</g>
<g id="glyph-1-1">
<path d="M 2.03125 -1.328125 C 1.609375 -0.625 1.203125 -0.375 0.640625 -0.34375 C 0.5 -0.328125 0.40625 -0.328125 0.40625 -0.125 C 0.40625 -0.046875 0.46875 0 0.546875 0 C 0.765625 0 1.296875 -0.03125 1.515625 -0.03125 C 1.859375 -0.03125 2.25 0 2.578125 0 C 2.65625 0 2.796875 0 2.796875 -0.234375 C 2.796875 -0.328125 2.703125 -0.34375 2.625 -0.34375 C 2.359375 -0.375 2.125 -0.46875 2.125 -0.75 C 2.125 -0.921875 2.203125 -1.046875 2.359375 -1.3125 L 3.265625 -2.828125 L 6.3125 -2.828125 C 6.328125 -2.71875 6.328125 -2.625 6.328125 -2.515625 C 6.375 -2.203125 6.515625 -0.953125 6.515625 -0.734375 C 6.515625 -0.375 5.90625 -0.34375 5.71875 -0.34375 C 5.578125 -0.34375 5.453125 -0.34375 5.453125 -0.125 C 5.453125 0 5.5625 0 5.625 0 C 5.828125 0 6.078125 -0.03125 6.28125 -0.03125 L 6.953125 -0.03125 C 7.6875 -0.03125 8.21875 0 8.21875 0 C 8.3125 0 8.4375 0 8.4375 -0.234375 C 8.4375 -0.34375 8.328125 -0.34375 8.15625 -0.34375 C 7.5 -0.34375 7.484375 -0.453125 7.453125 -0.8125 L 6.71875 -8.265625 C 6.6875 -8.515625 6.640625 -8.53125 6.515625 -8.53125 C 6.390625 -8.53125 6.328125 -8.515625 6.21875 -8.328125 Z M 3.46875 -3.171875 L 5.875 -7.1875 L 6.28125 -3.171875 Z M 3.46875 -3.171875 "/>
</g>
<g id="glyph-1-2">
<path d="M 10.859375 -7.296875 C 10.96875 -7.703125 10.984375 -7.8125 11.828125 -7.8125 C 12.0625 -7.8125 12.171875 -7.8125 12.171875 -8.046875 C 12.171875 -8.15625 12.078125 -8.15625 11.859375 -8.15625 L 10.421875 -8.15625 C 10.125 -8.15625 10.109375 -8.15625 9.984375 -7.953125 L 5.625 -1.0625 L 4.71875 -7.90625 C 4.6875 -8.15625 4.671875 -8.15625 4.359375 -8.15625 L 2.875 -8.15625 C 2.65625 -8.15625 2.546875 -8.15625 2.546875 -7.9375 C 2.546875 -7.8125 2.65625 -7.8125 2.828125 -7.8125 C 3.5625 -7.8125 3.5625 -7.71875 3.5625 -7.59375 C 3.5625 -7.5625 3.5625 -7.5 3.515625 -7.3125 L 1.984375 -1.21875 C 1.84375 -0.640625 1.5625 -0.375 0.765625 -0.34375 C 0.734375 -0.34375 0.578125 -0.328125 0.578125 -0.125 C 0.578125 0 0.6875 0 0.734375 0 C 0.984375 0 1.59375 -0.03125 1.828125 -0.03125 L 2.40625 -0.03125 C 2.5625 -0.03125 2.765625 0 2.9375 0 C 3.03125 0 3.15625 0 3.15625 -0.234375 C 3.15625 -0.328125 3.03125 -0.34375 2.984375 -0.34375 C 2.59375 -0.359375 2.21875 -0.4375 2.21875 -0.859375 C 2.21875 -0.984375 2.21875 -0.984375 2.265625 -1.15625 L 3.90625 -7.75 L 3.921875 -7.75 L 4.90625 -0.328125 C 4.953125 -0.03125 4.953125 0 5.0625 0 C 5.203125 0 5.265625 -0.09375 5.3125 -0.203125 L 10.125 -7.8125 L 10.140625 -7.8125 L 8.40625 -0.890625 C 8.296875 -0.46875 8.265625 -0.34375 7.4375 -0.34375 C 7.203125 -0.34375 7.09375 -0.34375 7.09375 -0.125 C 7.09375 0 7.203125 0 7.265625 0 C 7.46875 0 7.703125 -0.03125 7.90625 -0.03125 L 9.328125 -0.03125 C 9.53125 -0.03125 9.78125 0 9.984375 0 C 10.078125 0 10.203125 0 10.203125 -0.234375 C 10.203125 -0.34375 10.09375 -0.34375 9.921875 -0.34375 C 9.1875 -0.34375 9.1875 -0.4375 9.1875 -0.5625 C 9.1875 -0.578125 9.1875 -0.65625 9.21875 -0.75 Z M 10.859375 -7.296875 "/>
</g>
<g id="glyph-2-0">
</g>
<g id="glyph-2-1">
<path d="M 4.4375 13.578125 C 4.4375 12.8125 4.4375 12.640625 4.3125 12.3125 C 3.9375 11.21875 2.890625 10.59375 2.109375 10.28125 C 3.484375 9.6875 4.15625 8.890625 4.375 8.0625 C 4.40625 7.90625 4.4375 7.703125 4.4375 7.640625 L 4.4375 2.265625 C 4.4375 1.265625 5.21875 0.515625 6.34375 0.03125 C 6.53125 -0.046875 6.53125 -0.0625 6.53125 -0.234375 C 6.53125 -0.46875 6.53125 -0.484375 6.296875 -0.484375 C 5.953125 -0.484375 5.0625 -0.03125 4.578125 0.328125 C 4.171875 0.65625 3.53125 1.328125 3.53125 2.140625 C 3.515625 3.09375 3.53125 4.0625 3.53125 5.015625 L 3.53125 6.890625 C 3.53125 7.9375 3.53125 8.328125 2.90625 9.078125 C 2.765625 9.234375 2.421875 9.609375 1.59375 10 C 1.4375 10.078125 1.421875 10.09375 1.421875 10.265625 C 1.421875 10.453125 1.4375 10.46875 1.671875 10.578125 C 2.9375 11.171875 3.53125 12.1875 3.53125 12.9375 L 3.53125 17.90625 C 3.53125 18.46875 3.53125 19.1875 4.140625 19.8125 C 4.40625 20.0625 4.65625 20.3125 5.21875 20.625 C 5.359375 20.703125 5.96875 21.03125 6.296875 21.03125 C 6.53125 21.03125 6.53125 21.015625 6.53125 20.78125 C 6.53125 20.625 6.53125 20.578125 6.4375 20.546875 C 5.71875 20.25 4.65625 19.6875 4.453125 18.578125 C 4.4375 18.4375 4.4375 18.03125 4.4375 17.765625 Z M 4.4375 13.578125 "/>
</g>
<g id="glyph-2-2">
<path d="M 4.4375 13.65625 C 4.4375 12.609375 4.4375 12.21875 5.0625 11.46875 C 5.1875 11.328125 5.5625 10.921875 6.375 10.546875 C 6.53125 10.46875 6.53125 10.453125 6.53125 10.28125 C 6.53125 10.140625 6.53125 10.125 6.515625 10.078125 C 6.5 10.0625 6.484375 10.0625 6.28125 9.96875 C 5.03125 9.390625 4.4375 8.375 4.4375 7.609375 L 4.4375 2.640625 C 4.4375 2.078125 4.4375 1.359375 3.828125 0.734375 C 3.5625 0.484375 3.3125 0.234375 2.734375 -0.078125 C 2.625 -0.125 1.984375 -0.484375 1.671875 -0.484375 C 1.453125 -0.484375 1.421875 -0.46875 1.421875 -0.234375 C 1.421875 -0.078125 1.421875 -0.03125 1.53125 0.015625 C 2 0.203125 3.28125 0.734375 3.5 1.96875 C 3.53125 2.109375 3.53125 2.515625 3.53125 2.78125 L 3.53125 6.96875 C 3.53125 7.734375 3.53125 7.90625 3.640625 8.234375 C 4.015625 9.328125 5.0625 9.953125 5.859375 10.265625 C 4.484375 10.859375 3.796875 11.65625 3.578125 12.484375 C 3.546875 12.640625 3.53125 12.84375 3.53125 12.90625 L 3.53125 18.28125 C 3.53125 19.25 2.765625 20.015625 1.609375 20.515625 C 1.4375 20.59375 1.421875 20.609375 1.421875 20.78125 C 1.421875 21.015625 1.453125 21.03125 1.671875 21.03125 C 2 21.03125 2.875 20.59375 3.375 20.21875 C 3.796875 19.890625 4.421875 19.21875 4.4375 18.40625 C 4.453125 17.453125 4.4375 16.484375 4.4375 15.53125 Z M 4.4375 13.65625 "/>
</g>
<g id="glyph-3-0">
</g>
<g id="glyph-3-1">
<path d="M 6.546875 -2.75 C 6.75 -2.75 6.96875 -2.75 6.96875 -2.984375 C 6.96875 -3.234375 6.75 -3.234375 6.546875 -3.234375 L 1.484375 -3.234375 C 1.625 -4.828125 3 -5.96875 4.6875 -5.96875 L 6.546875 -5.96875 C 6.75 -5.96875 6.96875 -5.96875 6.96875 -6.21875 C 6.96875 -6.453125 6.75 -6.453125 6.546875 -6.453125 L 4.65625 -6.453125 C 2.625 -6.453125 0.984375 -4.90625 0.984375 -2.984375 C 0.984375 -1.078125 2.625 0.484375 4.65625 0.484375 L 6.546875 0.484375 C 6.75 0.484375 6.96875 0.484375 6.96875 0.234375 C 6.96875 0 6.75 0 6.546875 0 L 4.6875 0 C 3 0 1.625 -1.140625 1.484375 -2.75 Z M 6.546875 -2.75 "/>
</g>
<g id="glyph-3-2">
<path d="M 3.375 -7.375 C 3.375 -7.859375 3.6875 -8.625 5 -8.703125 C 5.0625 -8.71875 5.109375 -8.765625 5.109375 -8.828125 C 5.109375 -8.96875 5.015625 -8.96875 4.875 -8.96875 C 3.6875 -8.96875 2.59375 -8.359375 2.578125 -7.46875 L 2.578125 -4.75 C 2.578125 -4.28125 2.578125 -3.890625 2.109375 -3.5 C 1.6875 -3.15625 1.234375 -3.125 0.96875 -3.125 C 0.90625 -3.109375 0.859375 -3.0625 0.859375 -2.984375 C 0.859375 -2.875 0.9375 -2.875 1.046875 -2.859375 C 1.84375 -2.8125 2.421875 -2.375 2.546875 -1.796875 C 2.578125 -1.65625 2.578125 -1.640625 2.578125 -1.203125 L 2.578125 1.15625 C 2.578125 1.65625 2.578125 2.046875 3.15625 2.5 C 3.625 2.859375 4.40625 2.984375 4.875 2.984375 C 5.015625 2.984375 5.109375 2.984375 5.109375 2.859375 C 5.109375 2.734375 5.03125 2.734375 4.90625 2.71875 C 4.15625 2.671875 3.578125 2.296875 3.421875 1.6875 C 3.375 1.578125 3.375 1.546875 3.375 1.125 L 3.375 -1.390625 C 3.375 -1.9375 3.28125 -2.140625 2.90625 -2.515625 C 2.65625 -2.765625 2.3125 -2.890625 1.96875 -2.984375 C 2.953125 -3.265625 3.375 -3.8125 3.375 -4.5 Z M 3.375 -7.375 "/>
</g>
<g id="glyph-3-3">
<path d="M 2.578125 1.40625 C 2.578125 1.875 2.265625 2.640625 0.96875 2.71875 C 0.90625 2.734375 0.859375 2.78125 0.859375 2.859375 C 0.859375 2.984375 0.984375 2.984375 1.09375 2.984375 C 2.265625 2.984375 3.375 2.40625 3.375 1.5 L 3.375 -1.234375 C 3.375 -1.703125 3.375 -2.078125 3.859375 -2.46875 C 4.28125 -2.828125 4.734375 -2.84375 5 -2.859375 C 5.0625 -2.875 5.109375 -2.921875 5.109375 -2.984375 C 5.109375 -3.109375 5.03125 -3.109375 4.90625 -3.125 C 4.125 -3.171875 3.546875 -3.59375 3.421875 -4.1875 C 3.375 -4.3125 3.375 -4.34375 3.375 -4.765625 L 3.375 -7.140625 C 3.375 -7.640625 3.375 -8.015625 2.8125 -8.46875 C 2.328125 -8.84375 1.5 -8.96875 1.09375 -8.96875 C 0.984375 -8.96875 0.859375 -8.96875 0.859375 -8.828125 C 0.859375 -8.71875 0.9375 -8.71875 1.046875 -8.703125 C 1.8125 -8.65625 2.390625 -8.265625 2.546875 -7.65625 C 2.578125 -7.546875 2.578125 -7.53125 2.578125 -7.09375 L 2.578125 -4.59375 C 2.578125 -4.046875 2.671875 -3.84375 3.0625 -3.453125 C 3.3125 -3.203125 3.65625 -3.078125 4 -2.984375 C 3.015625 -2.71875 2.578125 -2.15625 2.578125 -1.46875 Z M 2.578125 1.40625 "/>
</g>
<g id="glyph-3-4">
<path d="M 7.296875 -4.546875 C 7.296875 -6.359375 5.46875 -7.140625 3.984375 -7.140625 C 2.421875 -7.140625 0.65625 -6.3125 0.65625 -4.546875 L 0.65625 -0.171875 C 0.65625 0.046875 0.65625 0.265625 0.890625 0.265625 C 1.140625 0.265625 1.140625 0.046875 1.140625 -0.171875 L 1.140625 -4.5 C 1.140625 -6.28125 3.078125 -6.671875 3.984375 -6.671875 C 4.515625 -6.671875 5.265625 -6.5625 5.90625 -6.15625 C 6.828125 -5.5625 6.828125 -4.8125 6.828125 -4.484375 L 6.828125 -0.171875 C 6.828125 0.046875 6.828125 0.265625 7.0625 0.265625 C 7.296875 0.265625 7.296875 0.046875 7.296875 -0.171875 Z M 7.296875 -4.546875 "/>
</g>
</g>
<clipPath id="clip-0">
<path clip-rule="nonzero" d="M 63 0 L 69 0 L 69 22.519531 L 63 22.519531 Z M 63 0 "/>
</clipPath>
<clipPath id="clip-1">
<path clip-rule="nonzero" d="M 234 0 L 240 0 L 240 22.519531 L 234 22.519531 Z M 234 0 "/>
</clipPath>
</defs>
<g fill="rgb(0%, 0%, 0%)" fill-opacity="1">
<use xlink:href="#glyph-0-1" x="0.5" y="14.248"/>
<use xlink:href="#glyph-0-2" x="10.255443" y="14.248"/>
<use xlink:href="#glyph-0-3" x="16.108709" y="14.248"/>
<use xlink:href="#glyph-0-4" x="22.287156" y="14.248"/>
<use xlink:href="#glyph-0-1" x="25.538971" y="14.248"/>
</g>
<g fill="rgb(0%, 0%, 0%)" fill-opacity="1">
<use xlink:href="#glyph-1-1" x="37.285" y="14.248"/>
</g>
<g fill="rgb(0%, 0%, 0%)" fill-opacity="1">
<use xlink:href="#glyph-0-5" x="49.381" y="14.248"/>
</g>
<g clip-path="url(#clip-0)">
<g fill="rgb(0%, 0%, 0%)" fill-opacity="1">
<use xlink:href="#glyph-2-1" x="61.807" y="0.978"/>
</g>
</g>
<g fill="rgb(0%, 0%, 0%)" fill-opacity="1">
<use xlink:href="#glyph-1-2" x="69.777" y="14.248"/>
</g>
<g fill="rgb(0%, 0%, 0%)" fill-opacity="1">
<use xlink:href="#glyph-3-1" x="85.671" y="14.248"/>
</g>
<g fill="rgb(0%, 0%, 0%)" fill-opacity="1">
<use xlink:href="#glyph-1-1" x="96.962" y="14.248"/>
</g>
<g fill="rgb(0%, 0%, 0%)" fill-opacity="1">
<use xlink:href="#glyph-0-6" x="109.059" y="14.248"/>
</g>
<g fill="rgb(0%, 0%, 0%)" fill-opacity="1">
<use xlink:href="#glyph-0-1" x="115.63436" y="14.248"/>
<use xlink:href="#glyph-0-2" x="125.389803" y="14.248"/>
</g>
<g fill="rgb(0%, 0%, 0%)" fill-opacity="1">
<use xlink:href="#glyph-0-7" x="131.88865" y="14.248"/>
<use xlink:href="#glyph-0-8" x="135.465646" y="14.248"/>
<use xlink:href="#glyph-0-9" x="141.318912" y="14.248"/>
</g>
<g fill="rgb(0%, 0%, 0%)" fill-opacity="1">
<use xlink:href="#glyph-3-2" x="145.872" y="14.248"/>
</g>
<g fill="rgb(0%, 0%, 0%)" fill-opacity="1">
<use xlink:href="#glyph-1-2" x="151.849" y="14.248"/>
</g>
<g fill="rgb(0%, 0%, 0%)" fill-opacity="1">
<use xlink:href="#glyph-3-3" x="164.423" y="14.248"/>
</g>
<g fill="rgb(0%, 0%, 0%)" fill-opacity="1">
<use xlink:href="#glyph-3-4" x="173.054654" y="14.248"/>
</g>
<g fill="rgb(0%, 0%, 0%)" fill-opacity="1">
<use xlink:href="#glyph-1-1" x="183.684" y="14.248"/>
</g>
<g fill="rgb(0%, 0%, 0%)" fill-opacity="1">
<use xlink:href="#glyph-0-5" x="195.78" y="14.248"/>
</g>
<g fill="rgb(0%, 0%, 0%)" fill-opacity="1">
<use xlink:href="#glyph-3-2" x="208.205" y="14.248"/>
</g>
<g fill="rgb(0%, 0%, 0%)" fill-opacity="1">
<use xlink:href="#glyph-1-2" x="214.183" y="14.248"/>
</g>
<g fill="rgb(0%, 0%, 0%)" fill-opacity="1">
<use xlink:href="#glyph-3-3" x="226.757" y="14.248"/>
</g>
<g clip-path="url(#clip-1)">
<g fill="rgb(0%, 0%, 0%)" fill-opacity="1">
<use xlink:href="#glyph-2-2" x="232.734" y="0.978"/>
</g>
</g>
</svg>
