<?xml version="1.0" encoding="UTF-8"?>
<svg xmlns="http://www.w3.org/2000/svg" xmlns:xlink="http://www.w3.org/1999/xlink" viewBox="0 0 36.166 10.795">
<defs>
<g>
<g id="glyph-0-0">
</g>
<g id="glyph-0-1">
<path d="M 5.671875 -4.875 C 5.28125 -4.8125 5.140625 -4.515625 5.140625 -4.296875 C 5.140625 -4 5.359375 -3.90625 5.53125 -3.90625 C 5.890625 -3.90625 6.140625 -4.21875 6.140625 -4.546875 C 6.140625 -5.046875 5.5625 -5.265625 5.0625 -5.265625 C 4.34375 -5.265625 3.9375 -4.546875 3.828125 -4.328125 C 3.546875 -5.21875 2.8125 -5.265625 2.59375 -5.265625 C 1.375 -5.265625 0.734375 -3.703125 0.734375 -3.4375 C 0.734375 -3.390625 0.78125 -3.328125 0.859375 -3.328125 C 0.953125 -3.328125 0.984375 -3.40625 1 -3.453125 C 1.40625 -4.78125 2.21875 -5.03125 2.5625 -5.03125 C 3.09375 -5.03125 3.203125 -4.53125 3.203125 -4.25 C 3.203125 -3.984375 3.125 -3.703125 2.984375 -3.125 L 2.578125 -1.5 C 2.40625 -0.78125 2.0625 -0.125 1.421875 -0.125 C 1.359375 -0.125 1.0625 -0.125 0.8125 -0.28125 C 1.25 -0.359375 1.34375 -0.71875 1.34375 -0.859375 C 1.34375 -1.09375 1.15625 -1.25 0.9375 -1.25 C 0.640625 -1.25 0.328125 -0.984375 0.328125 -0.609375 C 0.328125 -0.109375 0.890625 0.125 1.40625 0.125 C 1.984375 0.125 2.390625 -0.328125 2.640625 -0.828125 C 2.828125 -0.125 3.4375 0.125 3.875 0.125 C 5.09375 0.125 5.734375 -1.453125 5.734375 -1.703125 C 5.734375 -1.765625 5.6875 -1.8125 5.625 -1.8125 C 5.515625 -1.8125 5.5 -1.75 5.46875 -1.65625 C 5.140625 -0.609375 4.453125 -0.125 3.90625 -0.125 C 3.484375 -0.125 3.265625 -0.4375 3.265625 -0.921875 C 3.265625 -1.1875 3.3125 -1.375 3.5 -2.15625 L 3.921875 -3.796875 C 4.09375 -4.5 4.5 -5.03125 5.0625 -5.03125 C 5.078125 -5.03125 5.421875 -5.03125 5.671875 -4.875 Z M 5.671875 -4.875 "/>
</g>
<g id="glyph-0-2">
<path d="M 10.859375 -7.296875 C 10.96875 -7.703125 10.984375 -7.8125 11.828125 -7.8125 C 12.0625 -7.8125 12.171875 -7.8125 12.171875 -8.046875 C 12.171875 -8.15625 12.078125 -8.15625 11.859375 -8.15625 L 10.421875 -8.15625 C 10.125 -8.15625 10.109375 -8.15625 9.984375 -7.953125 L 5.625 -1.0625 L 4.71875 -7.90625 C 4.6875 -8.15625 4.671875 -8.15625 4.359375 -8.15625 L 2.875 -8.15625 C 2.65625 -8.15625 2.546875 -8.15625 2.546875 -7.9375 C 2.546875 -7.8125 2.65625 -7.8125 2.828125 -7.8125 C 3.5625 -7.8125 3.5625 -7.71875 3.5625 -7.59375 C 3.5625 -7.5625 3.5625 -7.5 3.515625 -7.3125 L 1.984375 -1.21875 C 1.84375 -0.640625 1.5625 -0.375 0.765625 -0.34375 C 0.734375 -0.34375 0.578125 -0.328125 0.578125 -0.125 C 0.578125 0 0.6875 0 0.734375 0 C 0.984375 0 1.59375 -0.03125 1.828125 -0.03125 L 2.40625 -0.03125 C 2.5625 -0.03125 2.765625 0 2.9375 0 C 3.03125 0 3.15625 0 3.15625 -0.234375 C 3.15625 -0.328125 3.03125 -0.34375 2.984375 -0.34375 C 2.59375 -0.359375 2.21875 -0.4375 2.21875 -0.859375 C 2.21875 -0.984375 2.21875 -0.984375 2.265625 -1.15625 L 3.90625 -7.75 L 3.921875 -7.75 L 4.90625 -0.328125 C 4.953125 -0.03125 4.953125 0 5.0625 0 C 5.203125 0 5.265625 -0.09375 5.3125 -0.203125 L 10.125 -7.8125 L 10.140625 -7.8125 L 8.40625 -0.890625 C 8.296875 -0.46875 8.265625 -0.34375 7.4375 -0.34375 C 7.203125 -0.34375 7.09375 -0.34375 7.09375 -0.125 C 7.09375 0 7.203125 0 7.265625 0 C 7.46875 0 7.703125 -0.03125 7.90625 -0.03125 L 9.328125 -0.03125 C 9.53125 -0.03125 9.78125 0 9.984375 0 C 10.078125 0 10.203125 0 10.203125 -0.234375 C 10.203125 -0.34375 10.09375 -0.34375 9.921875 -0.34375 C 9.1875 -0.34375 9.1875 -0.4375 9.1875 -0.5625 C 9.1875 -0.578125 9.1875 -0.65625 9.21875 -0.75 Z M 10.859375 -7.296875 "/>
</g>
<g id="glyph-1-0">
</g>
<g id="glyph-1-1">
<path d="M 8.0625 -7.09375 C 8.203125 -7.15625 8.296875 -7.21875 8.296875 -7.359375 C 8.296875 -7.5 8.203125 -7.609375 8.0625 -7.609375 C 8 -7.609375 7.890625 -7.546875 7.84375 -7.53125 L 1.234375 -4.40625 C 1.03125 -4.3125 0.984375 -4.234375 0.984375 -4.140625 C 0.984375 -4.03125 1.0625 -3.9375 1.234375 -3.875 L 7.84375 -0.765625 C 8 -0.6875 8.015625 -0.6875 8.0625 -0.6875 C 8.1875 -0.6875 8.296875 -0.78125 8.296875 -0.921875 C 8.296875 -1.03125 8.25 -1.09375 8.046875 -1.1875 L 1.796875 -4.140625 Z M 7.875 1.640625 C 8.078125 1.640625 8.296875 1.640625 8.296875 1.40625 C 8.296875 1.15625 8.046875 1.15625 7.859375 1.15625 L 1.421875 1.15625 C 1.25 1.15625 0.984375 1.15625 0.984375 1.40625 C 0.984375 1.640625 1.203125 1.640625 1.40625 1.640625 Z M 7.875 1.640625 "/>
</g>
</g>
<clipPath id="clip-0">
<path clip-rule="nonzero" d="M 11 1 L 19 1 L 19 10.796875 L 11 10.796875 Z M 11 1 "/>
</clipPath>
</defs>
<g fill="rgb(0%, 0%, 0%)" fill-opacity="1">
<use xlink:href="#glyph-0-1" x="0.5" y="8.669"/>
</g>
<g clip-path="url(#clip-0)">
<g fill="rgb(0%, 0%, 0%)" fill-opacity="1">
<use xlink:href="#glyph-1-1" x="10.473" y="8.669"/>
</g>
</g>
<g fill="rgb(0%, 0%, 0%)" fill-opacity="1">
<use xlink:href="#glyph-0-2" x="23.092" y="8.669"/>
</g>
</svg>
