<?xml version="1.0" encoding="UTF-8"?>
<svg xmlns="http://www.w3.org/2000/svg" xmlns:xlink="http://www.w3.org/1999/xlink" viewBox="0 0 95.237 11.494">
<defs>
<g>
<g id="glyph-0-0">
</g>
<g id="glyph-0-1">
<path d="M 8.578125 -2.90625 C 8.578125 -4.015625 8.578125 -4.34375 8.296875 -4.734375 C 7.953125 -5.203125 7.390625 -5.265625 6.984375 -5.265625 C 5.984375 -5.265625 5.484375 -4.546875 5.296875 -4.09375 C 5.125 -5.015625 4.484375 -5.265625 3.734375 -5.265625 C 2.5625 -5.265625 2.109375 -4.28125 2.015625 -4.046875 L 2.015625 -5.265625 L 0.375 -5.140625 L 0.375 -4.796875 C 1.1875 -4.796875 1.296875 -4.703125 1.296875 -4.125 L 1.296875 -0.890625 C 1.296875 -0.34375 1.15625 -0.34375 0.375 -0.34375 L 0.375 0 C 0.6875 -0.03125 1.34375 -0.03125 1.671875 -0.03125 C 2.015625 -0.03125 2.671875 -0.03125 2.96875 0 L 2.96875 -0.34375 C 2.21875 -0.34375 2.0625 -0.34375 2.0625 -0.890625 L 2.0625 -3.109375 C 2.0625 -4.359375 2.890625 -5.03125 3.640625 -5.03125 C 4.375 -5.03125 4.546875 -4.421875 4.546875 -3.6875 L 4.546875 -0.890625 C 4.546875 -0.34375 4.40625 -0.34375 3.640625 -0.34375 L 3.640625 0 C 3.9375 -0.03125 4.59375 -0.03125 4.921875 -0.03125 C 5.265625 -0.03125 5.921875 -0.03125 6.234375 0 L 6.234375 -0.34375 C 5.46875 -0.34375 5.3125 -0.34375 5.3125 -0.890625 L 5.3125 -3.109375 C 5.3125 -4.359375 6.140625 -5.03125 6.890625 -5.03125 C 7.625 -5.03125 7.796875 -4.421875 7.796875 -3.6875 L 7.796875 -0.890625 C 7.796875 -0.34375 7.65625 -0.34375 6.890625 -0.34375 L 6.890625 0 C 7.203125 -0.03125 7.84375 -0.03125 8.171875 -0.03125 C 8.515625 -0.03125 9.171875 -0.03125 9.484375 0 L 9.484375 -0.34375 C 8.875 -0.34375 8.578125 -0.34375 8.578125 -0.703125 Z M 8.578125 -2.90625 "/>
</g>
<g id="glyph-0-2">
<path d="M 4.609375 -3.1875 C 4.609375 -3.84375 4.609375 -4.3125 4.09375 -4.78125 C 3.671875 -5.15625 3.125 -5.328125 2.609375 -5.328125 C 1.625 -5.328125 0.875 -4.6875 0.875 -3.90625 C 0.875 -3.5625 1.09375 -3.390625 1.375 -3.390625 C 1.65625 -3.390625 1.859375 -3.59375 1.859375 -3.890625 C 1.859375 -4.375 1.4375 -4.375 1.25 -4.375 C 1.53125 -4.875 2.109375 -5.09375 2.578125 -5.09375 C 3.125 -5.09375 3.84375 -4.640625 3.84375 -3.5625 L 3.84375 -3.078125 C 1.4375 -3.046875 0.53125 -2.046875 0.53125 -1.125 C 0.53125 -0.171875 1.625 0.125 2.359375 0.125 C 3.140625 0.125 3.6875 -0.359375 3.90625 -0.9375 C 3.953125 -0.375 4.328125 0.0625 4.84375 0.0625 C 5.09375 0.0625 5.78125 -0.109375 5.78125 -1.0625 L 5.78125 -1.734375 L 5.515625 -1.734375 L 5.515625 -1.0625 C 5.515625 -0.375 5.234375 -0.28125 5.0625 -0.28125 C 4.609375 -0.28125 4.609375 -0.921875 4.609375 -1.09375 Z M 3.84375 -1.6875 C 3.84375 -0.515625 2.96875 -0.125 2.453125 -0.125 C 1.859375 -0.125 1.375 -0.546875 1.375 -1.125 C 1.375 -2.703125 3.40625 -2.84375 3.84375 -2.875 Z M 3.84375 -1.6875 "/>
</g>
<g id="glyph-0-3">
<path d="M 2.421875 -7.359375 C 2.421875 -7.71875 2.140625 -7.953125 1.859375 -7.953125 C 1.515625 -7.953125 1.265625 -7.6875 1.265625 -7.359375 C 1.265625 -7.046875 1.53125 -6.796875 1.84375 -6.796875 C 2.203125 -6.796875 2.421875 -7.078125 2.421875 -7.359375 Z M 0.671875 -5.140625 L 0.671875 -4.796875 C 1.5625 -4.796875 1.671875 -4.703125 1.671875 -4.125 L 1.671875 0.65625 C 1.671875 1.3125 1.546875 2.203125 0.84375 2.203125 C 0.828125 2.203125 0.453125 2.203125 0.171875 2.03125 C 0.484375 1.96875 0.578125 1.75 0.578125 1.546875 C 0.578125 1.265625 0.375 1.046875 0.09375 1.046875 C -0.203125 1.046875 -0.40625 1.265625 -0.40625 1.546875 C -0.40625 2.125 0.234375 2.4375 0.859375 2.4375 C 1.71875 2.4375 2.421875 1.703125 2.421875 0.609375 L 2.421875 -5.265625 Z M 0.671875 -5.140625 "/>
</g>
<g id="glyph-0-4">
<path d="M 5.484375 -2.5625 C 5.484375 -4.09375 4.3125 -5.328125 2.921875 -5.328125 C 1.5 -5.328125 0.359375 -4.0625 0.359375 -2.5625 C 0.359375 -1.03125 1.546875 0.125 2.921875 0.125 C 4.328125 0.125 5.484375 -1.046875 5.484375 -2.5625 Z M 2.921875 -0.140625 C 2.484375 -0.140625 1.953125 -0.328125 1.609375 -0.921875 C 1.28125 -1.453125 1.265625 -2.15625 1.265625 -2.671875 C 1.265625 -3.125 1.265625 -3.84375 1.640625 -4.390625 C 1.96875 -4.90625 2.5 -5.09375 2.921875 -5.09375 C 3.375 -5.09375 3.890625 -4.875 4.203125 -4.40625 C 4.578125 -3.859375 4.578125 -3.109375 4.578125 -2.671875 C 4.578125 -2.25 4.578125 -1.5 4.265625 -0.9375 C 3.9375 -0.375 3.375 -0.140625 2.921875 -0.140625 Z M 2.921875 -0.140625 "/>
</g>
<g id="glyph-0-5">
<path d="M 2 -2.78125 C 2 -3.9375 2.46875 -5.03125 3.390625 -5.03125 C 3.484375 -5.03125 3.515625 -5.03125 3.5625 -5.015625 C 3.46875 -4.96875 3.28125 -4.90625 3.28125 -4.578125 C 3.28125 -4.234375 3.546875 -4.09375 3.734375 -4.09375 C 3.984375 -4.09375 4.21875 -4.25 4.21875 -4.578125 C 4.21875 -4.9375 3.890625 -5.265625 3.375 -5.265625 C 2.359375 -5.265625 2.015625 -4.171875 1.953125 -3.9375 L 1.9375 -3.9375 L 1.9375 -5.265625 L 0.328125 -5.140625 L 0.328125 -4.796875 C 1.140625 -4.796875 1.25 -4.703125 1.25 -4.125 L 1.25 -0.890625 C 1.25 -0.34375 1.109375 -0.34375 0.328125 -0.34375 L 0.328125 0 C 0.671875 -0.03125 1.328125 -0.03125 1.6875 -0.03125 C 2.015625 -0.03125 2.859375 -0.03125 3.125 0 L 3.125 -0.34375 L 2.890625 -0.34375 C 2.015625 -0.34375 2 -0.484375 2 -0.90625 Z M 2 -2.78125 "/>
</g>
<g id="glyph-1-0">
</g>
<g id="glyph-1-1">
<path d="M 2.03125 -1.328125 C 1.609375 -0.625 1.203125 -0.375 0.640625 -0.34375 C 0.5 -0.328125 0.40625 -0.328125 0.40625 -0.125 C 0.40625 -0.046875 0.46875 0 0.546875 0 C 0.765625 0 1.296875 -0.03125 1.515625 -0.03125 C 1.859375 -0.03125 2.25 0 2.578125 0 C 2.65625 0 2.796875 0 2.796875 -0.234375 C 2.796875 -0.328125 2.703125 -0.34375 2.625 -0.34375 C 2.359375 -0.375 2.125 -0.46875 2.125 -0.75 C 2.125 -0.921875 2.203125 -1.046875 2.359375 -1.3125 L 3.265625 -2.828125 L 6.3125 -2.828125 C 6.328125 -2.71875 6.328125 -2.625 6.328125 -2.515625 C 6.375 -2.203125 6.515625 -0.953125 6.515625 -0.734375 C 6.515625 -0.375 5.90625 -0.34375 5.71875 -0.34375 C 5.578125 -0.34375 5.453125 -0.34375 5.453125 -0.125 C 5.453125 0 5.5625 0 5.625 0 C 5.828125 0 6.078125 -0.03125 6.28125 -0.03125 L 6.953125 -0.03125 C 7.6875 -0.03125 8.21875 0 8.21875 0 C 8.3125 0 8.4375 0 8.4375 -0.234375 C 8.4375 -0.34375 8.328125 -0.34375 8.15625 -0.34375 C 7.5 -0.34375 7.484375 -0.453125 7.453125 -0.8125 L 6.71875 -8.265625 C 6.6875 -8.515625 6.640625 -8.53125 6.515625 -8.53125 C 6.390625 -8.53125 6.328125 -8.515625 6.21875 -8.328125 Z M 3.46875 -3.171875 L 5.875 -7.1875 L 6.28125 -3.171875 Z M 3.46875 -3.171875 "/>
</g>
<g id="glyph-1-2">
<path d="M 10.859375 -7.296875 C 10.96875 -7.703125 10.984375 -7.8125 11.828125 -7.8125 C 12.0625 -7.8125 12.171875 -7.8125 12.171875 -8.046875 C 12.171875 -8.15625 12.078125 -8.15625 11.859375 -8.15625 L 10.421875 -8.15625 C 10.125 -8.15625 10.109375 -8.15625 9.984375 -7.953125 L 5.625 -1.0625 L 4.71875 -7.90625 C 4.6875 -8.15625 4.671875 -8.15625 4.359375 -8.15625 L 2.875 -8.15625 C 2.65625 -8.15625 2.546875 -8.15625 2.546875 -7.9375 C 2.546875 -7.8125 2.65625 -7.8125 2.828125 -7.8125 C 3.5625 -7.8125 3.5625 -7.71875 3.5625 -7.59375 C 3.5625 -7.5625 3.5625 -7.5 3.515625 -7.3125 L 1.984375 -1.21875 C 1.84375 -0.640625 1.5625 -0.375 0.765625 -0.34375 C 0.734375 -0.34375 0.578125 -0.328125 0.578125 -0.125 C 0.578125 0 0.6875 0 0.734375 0 C 0.984375 0 1.59375 -0.03125 1.828125 -0.03125 L 2.40625 -0.03125 C 2.5625 -0.03125 2.765625 0 2.9375 0 C 3.03125 0 3.15625 0 3.15625 -0.234375 C 3.15625 -0.328125 3.03125 -0.34375 2.984375 -0.34375 C 2.59375 -0.359375 2.21875 -0.4375 2.21875 -0.859375 C 2.21875 -0.984375 2.21875 -0.984375 2.265625 -1.15625 L 3.90625 -7.75 L 3.921875 -7.75 L 4.90625 -0.328125 C 4.953125 -0.03125 4.953125 0 5.0625 0 C 5.203125 0 5.265625 -0.09375 5.3125 -0.203125 L 10.125 -7.8125 L 10.140625 -7.8125 L 8.40625 -0.890625 C 8.296875 -0.46875 8.265625 -0.34375 7.4375 -0.34375 C 7.203125 -0.34375 7.09375 -0.34375 7.09375 -0.125 C 7.09375 0 7.203125 0 7.265625 0 C 7.46875 0 7.703125 -0.03125 7.90625 -0.03125 L 9.328125 -0.03125 C 9.53125 -0.03125 9.78125 0 9.984375 0 C 10.078125 0 10.203125 0 10.203125 -0.234375 C 10.203125 -0.34375 10.09375 -0.34375 9.921875 -0.34375 C 9.1875 -0.34375 9.1875 -0.4375 9.1875 -0.5625 C 9.1875 -0.578125 9.1875 -0.65625 9.21875 -0.75 Z M 10.859375 -7.296875 "/>
</g>
<g id="glyph-2-0">
</g>
<g id="glyph-2-1">
<path d="M 8.0625 -3.875 C 8.21875 -3.9375 8.296875 -4.03125 8.296875 -4.140625 C 8.296875 -4.25 8.25 -4.328125 8.0625 -4.40625 L 1.46875 -7.515625 C 1.296875 -7.609375 1.25 -7.609375 1.234375 -7.609375 C 1.09375 -7.609375 0.984375 -7.5 0.984375 -7.359375 C 0.984375 -7.21875 1.09375 -7.15625 1.21875 -7.09375 L 7.5 -4.140625 L 1.25 -1.1875 C 1 -1.09375 0.984375 -0.984375 0.984375 -0.921875 C 0.984375 -0.78125 1.09375 -0.6875 1.234375 -0.6875 C 1.265625 -0.6875 1.296875 -0.6875 1.453125 -0.765625 Z M 7.875 1.640625 C 8.078125 1.640625 8.296875 1.640625 8.296875 1.40625 C 8.296875 1.15625 8.046875 1.15625 7.859375 1.15625 L 1.421875 1.15625 C 1.25 1.15625 0.984375 1.15625 0.984375 1.40625 C 0.984375 1.640625 1.203125 1.640625 1.40625 1.640625 Z M 7.875 1.640625 "/>
</g>
</g>
<clipPath id="clip-0">
<path clip-rule="nonzero" d="M 16 0 L 31 0 L 31 11.492188 L 16 11.492188 Z M 16 0 "/>
</clipPath>
</defs>
<g fill="rgb(0%, 0%, 0%)" fill-opacity="1">
<use xlink:href="#glyph-0-1" x="0.5" y="8.669"/>
<use xlink:href="#glyph-0-2" x="10.255443" y="8.669"/>
</g>
<g clip-path="url(#clip-0)">
<g fill="rgb(0%, 0%, 0%)" fill-opacity="1">
<use xlink:href="#glyph-0-3" x="16.75429" y="8.669"/>
<use xlink:href="#glyph-0-4" x="20.331286" y="8.669"/>
<use xlink:href="#glyph-0-5" x="26.184552" y="8.669"/>
</g>
</g>
<g fill="rgb(0%, 0%, 0%)" fill-opacity="1">
<use xlink:href="#glyph-1-1" x="32.733" y="8.669"/>
</g>
<g fill="rgb(0%, 0%, 0%)" fill-opacity="1">
<use xlink:href="#glyph-2-1" x="44.829" y="8.669"/>
</g>
<g fill="rgb(0%, 0%, 0%)" fill-opacity="1">
<use xlink:href="#glyph-1-2" x="57.448" y="8.669"/>
</g>
<g fill="rgb(0%, 0%, 0%)" fill-opacity="1">
<use xlink:href="#glyph-2-1" x="73.343" y="8.669"/>
</g>
<g fill="rgb(0%, 0%, 0%)" fill-opacity="1">
<use xlink:href="#glyph-1-1" x="85.962" y="8.669"/>
</g>
</svg>
