<?xml version="1.0" encoding="UTF-8"?>
<svg xmlns="http://www.w3.org/2000/svg" xmlns:xlink="http://www.w3.org/1999/xlink" viewBox="0 0 180.451 29.693">
<defs>
<g>
<g id="glyph-0-0">
</g>
<g id="glyph-0-1">
<path d="M 1.734375 6.984375 C 1.734375 7.171875 1.734375 7.421875 1.984375 7.421875 C 2.25 7.421875 2.25 7.1875 2.25 6.984375 L 2.25 0.1875 C 2.25 0 2.25 -0.25 2 -0.25 C 1.734375 -0.25 1.734375 -0.015625 1.734375 0.1875 Z M 4.390625 6.984375 C 4.390625 7.171875 4.390625 7.421875 4.640625 7.421875 C 4.90625 7.421875 4.90625 7.1875 4.90625 6.984375 L 4.90625 0.1875 C 4.90625 0 4.90625 -0.25 4.65625 -0.25 C 4.390625 -0.25 4.390625 -0.015625 4.390625 0.1875 Z M 4.390625 6.984375 "/>
</g>
<g id="glyph-0-2">
<path d="M 4.96875 17.796875 C 4.96875 17.234375 4.96875 16.359375 4.21875 15.390625 C 3.75 14.78125 3.078125 14.234375 2.25 13.859375 C 4.578125 12.734375 4.96875 11.015625 4.96875 10.34375 L 4.96875 3.453125 C 4.96875 2.71875 4.96875 1.1875 7.296875 0.03125 C 7.390625 -0.015625 7.390625 -0.03125 7.390625 -0.21875 C 7.390625 -0.46875 7.390625 -0.484375 7.125 -0.484375 C 6.953125 -0.484375 6.9375 -0.484375 6.625 -0.328125 C 5.4375 0.25 4.265625 1.1875 4.015625 2.65625 C 3.984375 2.890625 3.984375 3 3.984375 3.796875 L 3.984375 9.328125 C 3.984375 9.6875 3.984375 10.3125 3.96875 10.453125 C 3.859375 11.703125 3.125 12.796875 1.765625 13.546875 C 1.578125 13.65625 1.5625 13.65625 1.5625 13.859375 C 1.5625 14.0625 1.578125 14.0625 1.75 14.171875 C 2.546875 14.609375 3.6875 15.46875 3.9375 16.96875 C 3.984375 17.234375 3.984375 17.265625 3.984375 17.390625 L 3.984375 24.484375 C 3.984375 26.21875 5.171875 27.359375 6.65625 28.0625 C 6.921875 28.203125 6.9375 28.203125 7.125 28.203125 C 7.375 28.203125 7.390625 28.203125 7.390625 27.9375 C 7.390625 27.75 7.375 27.734375 7.28125 27.671875 C 6.796875 27.4375 5.25 26.65625 5 24.9375 C 4.96875 24.765625 4.96875 24.640625 4.96875 23.921875 Z M 4.96875 17.796875 "/>
</g>
<g id="glyph-0-3">
<path d="M 4.96875 17.609375 C 4.96875 16.203125 5.6875 14.984375 7.296875 14.109375 C 7.375 14.0625 7.390625 14.0625 7.390625 13.859375 C 7.390625 13.65625 7.375 13.65625 7.25 13.578125 C 5.09375 12.4375 4.96875 10.671875 4.96875 10.328125 L 4.96875 3.234375 C 4.96875 1.5 3.78125 0.359375 2.296875 -0.34375 C 2.03125 -0.484375 2.015625 -0.484375 1.828125 -0.484375 C 1.578125 -0.484375 1.5625 -0.46875 1.5625 -0.21875 C 1.5625 -0.03125 1.5625 -0.015625 1.671875 0.046875 C 2.1875 0.296875 3.71875 1.078125 3.953125 2.78125 C 3.984375 2.953125 3.984375 3.078125 3.984375 3.796875 L 3.984375 9.921875 C 3.984375 10.484375 3.984375 11.375 4.734375 12.328125 C 5.203125 12.9375 5.875 13.484375 6.703125 13.859375 C 4.375 14.984375 3.984375 16.703125 3.984375 17.375 L 3.984375 24.265625 C 3.984375 24.890625 3.984375 25.578125 3.28125 26.453125 C 2.75 27.125 2.15625 27.4375 1.65625 27.6875 C 1.5625 27.734375 1.5625 27.78125 1.5625 27.9375 C 1.5625 28.1875 1.578125 28.203125 1.828125 28.203125 C 2 28.203125 2.015625 28.203125 2.328125 28.046875 C 3.515625 27.46875 4.6875 26.53125 4.9375 25.0625 C 4.96875 24.828125 4.96875 24.71875 4.96875 23.921875 Z M 4.96875 17.609375 "/>
</g>
<g id="glyph-1-0">
</g>
<g id="glyph-1-1">
<path d="M 4.40625 -6.6875 C 3.578125 -6.25 2.546875 -5.5625 2.546875 -4.640625 C 2.546875 -4.421875 3.109375 -3.71875 3.1875 -3.625 C 3.40625 -3.375 3.578125 -3.078125 3.578125 -2.734375 C 3.578125 -1.9375 2.4375 -1.59375 1.65625 -1.59375 C 1.140625 -1.140625 0.6875 -0.609375 0.375 0 L 0.578125 0.1875 C 0.859375 -0.265625 1.296875 -0.765625 1.859375 -0.765625 C 2.609375 -0.765625 3.515625 -0.390625 4.265625 -0.09375 C 4.65625 0.0625 5.359375 0.328125 5.609375 0.328125 C 6.3125 0.328125 7.5 -0.9375 8.265625 -1.75 C 8.671875 -2.828125 8.921875 -3.75 8.921875 -4.90625 C 8.921875 -6.3125 7.9375 -7.625 6.59375 -8.015625 C 5.8125 -8.21875 5.1875 -8.25 4.453125 -8.25 C 3.375 -8.25 2.125 -7.859375 1.34375 -7.09375 C 0.640625 -6.390625 0.328125 -5.5 0.328125 -4.515625 L 0.578125 -4.390625 C 0.609375 -5.09375 0.84375 -5.875 1.375 -6.40625 C 2.078125 -7.125 3.140625 -7.3125 4.140625 -7.3125 C 5.265625 -7.3125 6.390625 -7.046875 7.203125 -6.234375 C 7.8125 -5.625 8.015625 -4.734375 8.015625 -3.890625 C 8.015625 -3.109375 7.9375 -2.21875 7.515625 -1.59375 C 7.109375 -0.984375 6.890625 -0.578125 6.125 -0.578125 C 5.875 -0.578125 5.015625 -0.890625 4.484375 -1.09375 C 3.984375 -1.265625 3.390625 -1.453125 2.875 -1.5625 C 3.609375 -1.875 4.65625 -2.453125 4.65625 -3.3125 C 4.65625 -3.890625 3.578125 -4.8125 3.578125 -5.28125 C 3.578125 -5.734375 4.28125 -6.34375 4.59375 -6.546875 Z M 4.40625 -6.6875 "/>
</g>
<g id="glyph-2-0">
</g>
<g id="glyph-2-1">
<path d="M 3.046875 -3.171875 L 3.796875 -3.171875 C 3.953125 -3.171875 4.046875 -3.171875 4.046875 -3.328125 C 4.046875 -3.4375 3.9375 -3.4375 3.8125 -3.4375 L 3.09375 -3.4375 C 3.234375 -4.15625 3.3125 -4.609375 3.390625 -4.96875 C 3.421875 -5.09375 3.4375 -5.1875 3.5625 -5.28125 C 3.671875 -5.375 3.734375 -5.390625 3.8125 -5.390625 C 3.9375 -5.390625 4.0625 -5.359375 4.171875 -5.296875 C 4.125 -5.28125 4.078125 -5.265625 4.046875 -5.234375 C 3.90625 -5.15625 3.8125 -5.015625 3.8125 -4.859375 C 3.8125 -4.671875 3.953125 -4.5625 4.125 -4.5625 C 4.359375 -4.5625 4.578125 -4.765625 4.578125 -5.046875 C 4.578125 -5.421875 4.1875 -5.609375 3.8125 -5.609375 C 3.53125 -5.609375 3.03125 -5.484375 2.78125 -4.75 C 2.703125 -4.5625 2.703125 -4.546875 2.5 -3.4375 L 1.890625 -3.4375 C 1.734375 -3.4375 1.640625 -3.4375 1.640625 -3.28125 C 1.640625 -3.171875 1.75 -3.171875 1.875 -3.171875 L 2.453125 -3.171875 L 1.875 -0.078125 C 1.71875 0.71875 1.609375 1.40625 1.171875 1.40625 C 1.15625 1.40625 0.984375 1.40625 0.84375 1.3125 C 1.203125 1.21875 1.203125 0.890625 1.203125 0.875 C 1.203125 0.6875 1.0625 0.578125 0.890625 0.578125 C 0.671875 0.578125 0.4375 0.765625 0.4375 1.0625 C 0.4375 1.40625 0.78125 1.625 1.171875 1.625 C 1.671875 1.625 2 1.109375 2.109375 0.921875 C 2.390625 0.390625 2.578125 -0.609375 2.59375 -0.6875 Z M 3.046875 -3.171875 "/>
</g>
<g id="glyph-2-2">
<path d="M 3.125 -3.03125 C 3.046875 -3.171875 2.828125 -3.515625 2.328125 -3.515625 C 1.390625 -3.515625 0.34375 -2.40625 0.34375 -1.234375 C 0.34375 -0.390625 0.875 0.078125 1.484375 0.078125 C 2 0.078125 2.4375 -0.328125 2.578125 -0.484375 C 2.71875 0.0625 3.265625 0.078125 3.359375 0.078125 C 3.734375 0.078125 3.90625 -0.21875 3.96875 -0.359375 C 4.140625 -0.640625 4.25 -1.109375 4.25 -1.140625 C 4.25 -1.1875 4.21875 -1.25 4.125 -1.25 C 4.03125 -1.25 4.015625 -1.1875 3.953125 -1 C 3.84375 -0.5625 3.703125 -0.140625 3.390625 -0.140625 C 3.203125 -0.140625 3.125 -0.296875 3.125 -0.515625 C 3.125 -0.65625 3.203125 -0.921875 3.25 -1.125 C 3.296875 -1.328125 3.421875 -1.796875 3.453125 -1.9375 L 3.609375 -2.546875 C 3.65625 -2.734375 3.734375 -3.078125 3.734375 -3.109375 C 3.734375 -3.296875 3.578125 -3.359375 3.484375 -3.359375 C 3.359375 -3.359375 3.15625 -3.28125 3.125 -3.03125 Z M 2.578125 -0.859375 C 2.1875 -0.3125 1.765625 -0.140625 1.515625 -0.140625 C 1.140625 -0.140625 0.96875 -0.484375 0.96875 -0.890625 C 0.96875 -1.265625 1.171875 -2.125 1.359375 -2.46875 C 1.578125 -2.953125 1.96875 -3.296875 2.34375 -3.296875 C 2.859375 -3.296875 3.015625 -2.703125 3.015625 -2.609375 C 3.015625 -2.578125 2.8125 -1.796875 2.765625 -1.59375 C 2.65625 -1.21875 2.65625 -1.203125 2.578125 -0.859375 Z M 2.578125 -0.859375 "/>
</g>
<g id="glyph-3-0">
</g>
<g id="glyph-3-1">
<path d="M 8.0625 -3.875 C 8.234375 -3.875 8.453125 -3.875 8.453125 -4.09375 C 8.453125 -4.3125 8.25 -4.3125 8.0625 -4.3125 L 1.03125 -4.3125 C 0.859375 -4.3125 0.640625 -4.3125 0.640625 -4.09375 C 0.640625 -3.875 0.84375 -3.875 1.03125 -3.875 Z M 8.0625 -1.65625 C 8.234375 -1.65625 8.453125 -1.65625 8.453125 -1.859375 C 8.453125 -2.09375 8.25 -2.09375 8.0625 -2.09375 L 1.03125 -2.09375 C 0.859375 -2.09375 0.640625 -2.09375 0.640625 -1.875 C 0.640625 -1.65625 0.84375 -1.65625 1.03125 -1.65625 Z M 8.0625 -1.65625 "/>
</g>
<g id="glyph-3-2">
<path d="M 3.921875 -5.0625 C 3.921875 -5.265625 3.921875 -5.328125 3.796875 -5.328125 C 3.703125 -5.328125 3.484375 -5.0625 3.390625 -4.953125 C 3.03125 -5.265625 2.65625 -5.328125 2.265625 -5.328125 C 0.828125 -5.328125 0.390625 -4.546875 0.390625 -3.890625 C 0.390625 -3.75 0.390625 -3.328125 0.84375 -2.921875 C 1.234375 -2.578125 1.640625 -2.5 2.1875 -2.390625 C 2.84375 -2.265625 3 -2.21875 3.296875 -1.984375 C 3.515625 -1.8125 3.671875 -1.546875 3.671875 -1.203125 C 3.671875 -0.6875 3.375 -0.125 2.3125 -0.125 C 1.53125 -0.125 0.953125 -0.578125 0.6875 -1.765625 C 0.640625 -1.984375 0.640625 -2 0.640625 -2.015625 C 0.609375 -2.0625 0.5625 -2.0625 0.53125 -2.0625 C 0.390625 -2.0625 0.390625 -2 0.390625 -1.78125 L 0.390625 -0.15625 C 0.390625 0.0625 0.390625 0.125 0.515625 0.125 C 0.578125 0.125 0.578125 0.109375 0.78125 -0.140625 C 0.84375 -0.234375 0.84375 -0.25 1.03125 -0.4375 C 1.484375 0.125 2.125 0.125 2.328125 0.125 C 3.578125 0.125 4.203125 -0.578125 4.203125 -1.515625 C 4.203125 -2.15625 3.8125 -2.546875 3.703125 -2.65625 C 3.28125 -3.03125 2.953125 -3.09375 2.15625 -3.234375 C 1.8125 -3.3125 0.9375 -3.484375 0.9375 -4.203125 C 0.9375 -4.5625 1.1875 -5.109375 2.265625 -5.109375 C 3.5625 -5.109375 3.640625 -4 3.65625 -3.640625 C 3.671875 -3.53125 3.75 -3.53125 3.796875 -3.53125 C 3.921875 -3.53125 3.921875 -3.59375 3.921875 -3.8125 Z M 3.921875 -5.0625 "/>
</g>
<g id="glyph-3-3">
<path d="M 3.640625 -5.140625 L 3.640625 -4.796875 C 4.453125 -4.796875 4.546875 -4.703125 4.546875 -4.125 L 4.546875 -1.984375 C 4.546875 -0.96875 4 -0.125 3.109375 -0.125 C 2.125 -0.125 2.0625 -0.6875 2.0625 -1.3125 L 2.0625 -5.265625 L 0.375 -5.140625 L 0.375 -4.796875 C 1.296875 -4.796875 1.296875 -4.75 1.296875 -3.6875 L 1.296875 -1.90625 C 1.296875 -1.15625 1.296875 -0.734375 1.65625 -0.328125 C 1.9375 -0.03125 2.421875 0.125 3.03125 0.125 C 3.234375 0.125 3.625 0.125 4.03125 -0.234375 C 4.375 -0.5 4.5625 -0.953125 4.5625 -0.953125 L 4.5625 0.125 L 6.234375 0 L 6.234375 -0.34375 C 5.421875 -0.34375 5.3125 -0.4375 5.3125 -1.015625 L 5.3125 -5.265625 Z M 3.640625 -5.140625 "/>
</g>
<g id="glyph-3-4">
<path d="M 2.921875 1.96875 C 2.15625 1.96875 2.015625 1.96875 2.015625 1.4375 L 2.015625 -0.640625 C 2.234375 -0.34375 2.71875 0.125 3.484375 0.125 C 4.859375 0.125 6.078125 -1.046875 6.078125 -2.578125 C 6.078125 -4.09375 4.953125 -5.265625 3.640625 -5.265625 C 2.59375 -5.265625 2.03125 -4.515625 2 -4.46875 L 2 -5.265625 L 0.328125 -5.140625 L 0.328125 -4.796875 C 1.171875 -4.796875 1.25 -4.703125 1.25 -4.1875 L 1.25 1.4375 C 1.25 1.96875 1.109375 1.96875 0.328125 1.96875 L 0.328125 2.3125 C 0.640625 2.296875 1.296875 2.296875 1.625 2.296875 C 1.96875 2.296875 2.625 2.296875 2.921875 2.3125 Z M 2.015625 -3.8125 C 2.015625 -4.046875 2.015625 -4.046875 2.15625 -4.25 C 2.515625 -4.78125 3.09375 -5.015625 3.546875 -5.015625 C 4.453125 -5.015625 5.15625 -3.921875 5.15625 -2.578125 C 5.15625 -1.15625 4.34375 -0.125 3.4375 -0.125 C 3.0625 -0.125 2.71875 -0.28125 2.46875 -0.5 C 2.203125 -0.78125 2.015625 -1.015625 2.015625 -1.34375 Z M 2.015625 -3.8125 "/>
</g>
<g id="glyph-3-5">
<path d="M 3.4375 -7.65625 C 3.4375 -7.9375 3.4375 -7.953125 3.203125 -7.953125 C 2.921875 -7.625 2.3125 -7.1875 1.09375 -7.1875 L 1.09375 -6.84375 C 1.359375 -6.84375 1.953125 -6.84375 2.625 -7.140625 L 2.625 -0.921875 C 2.625 -0.484375 2.578125 -0.34375 1.53125 -0.34375 L 1.15625 -0.34375 L 1.15625 0 C 1.484375 -0.03125 2.640625 -0.03125 3.03125 -0.03125 C 3.4375 -0.03125 4.578125 -0.03125 4.90625 0 L 4.90625 -0.34375 L 4.53125 -0.34375 C 3.484375 -0.34375 3.4375 -0.484375 3.4375 -0.921875 Z M 3.4375 -7.65625 "/>
</g>
<g id="glyph-3-6">
<path d="M 3.890625 2.90625 C 3.890625 2.875 3.890625 2.84375 3.6875 2.640625 C 2.484375 1.4375 1.8125 -0.53125 1.8125 -2.96875 C 1.8125 -5.296875 2.375 -7.296875 3.765625 -8.703125 C 3.890625 -8.8125 3.890625 -8.828125 3.890625 -8.875 C 3.890625 -8.9375 3.828125 -8.96875 3.78125 -8.96875 C 3.625 -8.96875 2.640625 -8.109375 2.0625 -6.9375 C 1.453125 -5.71875 1.171875 -4.453125 1.171875 -2.96875 C 1.171875 -1.90625 1.34375 -0.484375 1.953125 0.78125 C 2.671875 2.21875 3.640625 3 3.78125 3 C 3.828125 3 3.890625 2.96875 3.890625 2.90625 Z M 3.890625 2.90625 "/>
</g>
<g id="glyph-3-7">
<path d="M 3.375 -2.96875 C 3.375 -3.890625 3.25 -5.359375 2.578125 -6.75 C 1.875 -8.1875 0.890625 -8.96875 0.765625 -8.96875 C 0.71875 -8.96875 0.65625 -8.9375 0.65625 -8.875 C 0.65625 -8.828125 0.65625 -8.8125 0.859375 -8.609375 C 2.0625 -7.40625 2.71875 -5.421875 2.71875 -2.984375 C 2.71875 -0.671875 2.15625 1.328125 0.78125 2.734375 C 0.65625 2.84375 0.65625 2.875 0.65625 2.90625 C 0.65625 2.96875 0.71875 3 0.765625 3 C 0.921875 3 1.90625 2.140625 2.484375 0.96875 C 3.09375 -0.25 3.375 -1.546875 3.375 -2.96875 Z M 3.375 -2.96875 "/>
</g>
<g id="glyph-3-8">
<path d="M 2.203125 -4.578125 C 2.203125 -4.90625 1.921875 -5.15625 1.625 -5.15625 C 1.28125 -5.15625 1.046875 -4.875 1.046875 -4.578125 C 1.046875 -4.21875 1.34375 -4 1.609375 -4 C 1.9375 -4 2.203125 -4.25 2.203125 -4.578125 Z M 2.203125 -0.578125 C 2.203125 -0.90625 1.921875 -1.15625 1.625 -1.15625 C 1.28125 -1.15625 1.046875 -0.890625 1.046875 -0.578125 C 1.046875 -0.234375 1.34375 0 1.609375 0 C 1.9375 0 2.203125 -0.25 2.203125 -0.578125 Z M 2.203125 -0.578125 "/>
</g>
<g id="glyph-4-0">
</g>
<g id="glyph-4-1">
<path d="M 4.515625 -1.453125 C 4.5 -2.046875 4.46875 -2.96875 4.015625 -4.046875 C 3.78125 -4.640625 3.375 -5.265625 2.5 -5.265625 C 1.03125 -5.265625 0.234375 -3.390625 0.234375 -3.078125 C 0.234375 -2.96875 0.3125 -2.96875 0.34375 -2.96875 C 0.453125 -2.96875 0.453125 -3 0.515625 -3.15625 C 0.765625 -3.890625 1.53125 -4.484375 2.359375 -4.484375 C 4.015625 -4.484375 4.25 -2.625 4.25 -1.453125 C 4.25 -0.6875 4.171875 -0.4375 4.09375 -0.203125 C 3.875 0.53125 3.484375 2.015625 3.484375 2.359375 C 3.484375 2.453125 3.515625 2.5625 3.609375 2.5625 C 3.796875 2.5625 3.890625 2.15625 4.03125 1.6875 C 4.3125 0.640625 4.390625 0.109375 4.453125 -0.375 C 4.484375 -0.65625 5.15625 -2.625 6.109375 -4.5 C 6.1875 -4.703125 6.359375 -5.015625 6.359375 -5.0625 C 6.359375 -5.0625 6.34375 -5.15625 6.234375 -5.15625 C 6.21875 -5.15625 6.15625 -5.15625 6.125 -5.109375 C 6.109375 -5.078125 5.6875 -4.265625 5.328125 -3.453125 C 5.15625 -3.046875 4.90625 -2.515625 4.515625 -1.453125 Z M 4.515625 -1.453125 "/>
</g>
<g id="glyph-4-2">
<path d="M 3.359375 -8 C 3.375 -8.046875 3.390625 -8.109375 3.390625 -8.171875 C 3.390625 -8.296875 3.28125 -8.296875 3.25 -8.296875 C 3.234375 -8.296875 2.65625 -8.25 2.59375 -8.234375 C 2.390625 -8.21875 2.21875 -8.203125 2 -8.1875 C 1.703125 -8.15625 1.609375 -8.15625 1.609375 -7.9375 C 1.609375 -7.8125 1.703125 -7.8125 1.875 -7.8125 C 2.46875 -7.8125 2.46875 -7.703125 2.46875 -7.59375 C 2.46875 -7.515625 2.453125 -7.421875 2.4375 -7.390625 L 0.703125 -0.46875 C 0.65625 -0.28125 0.65625 -0.265625 0.65625 -0.1875 C 0.65625 0.078125 0.859375 0.125 0.984375 0.125 C 1.1875 0.125 1.34375 -0.03125 1.40625 -0.171875 L 1.9375 -2.328125 C 2 -2.59375 2.0625 -2.84375 2.125 -3.109375 C 2.265625 -3.609375 2.265625 -3.625 2.484375 -3.96875 C 2.71875 -4.3125 3.25 -5.03125 4.171875 -5.03125 C 4.65625 -5.03125 4.8125 -4.671875 4.8125 -4.203125 C 4.8125 -3.53125 4.34375 -2.21875 4.09375 -1.5 C 3.984375 -1.21875 3.921875 -1.0625 3.921875 -0.84375 C 3.921875 -0.3125 4.296875 0.125 4.859375 0.125 C 5.96875 0.125 6.390625 -1.640625 6.390625 -1.703125 C 6.390625 -1.765625 6.34375 -1.8125 6.28125 -1.8125 C 6.171875 -1.8125 6.15625 -1.78125 6.09375 -1.578125 C 5.828125 -0.625 5.375 -0.125 4.90625 -0.125 C 4.78125 -0.125 4.59375 -0.125 4.59375 -0.515625 C 4.59375 -0.828125 4.734375 -1.203125 4.78125 -1.34375 C 5 -1.90625 5.53125 -3.328125 5.53125 -4.015625 C 5.53125 -4.734375 5.109375 -5.265625 4.203125 -5.265625 C 3.53125 -5.265625 2.921875 -4.953125 2.4375 -4.328125 Z M 3.359375 -8 "/>
</g>
<g id="glyph-4-3">
<path d="M 8.84375 -6.90625 C 8.984375 -7.421875 9.171875 -7.78125 10.078125 -7.8125 C 10.109375 -7.8125 10.25 -7.828125 10.25 -8.03125 C 10.25 -8.15625 10.140625 -8.15625 10.09375 -8.15625 C 9.859375 -8.15625 9.25 -8.140625 9.015625 -8.140625 L 8.4375 -8.140625 C 8.265625 -8.140625 8.0625 -8.15625 7.890625 -8.15625 C 7.8125 -8.15625 7.671875 -8.15625 7.671875 -7.9375 C 7.671875 -7.8125 7.765625 -7.8125 7.859375 -7.8125 C 8.578125 -7.796875 8.625 -7.515625 8.625 -7.296875 C 8.625 -7.203125 8.609375 -7.15625 8.578125 -7 L 7.21875 -1.609375 L 4.65625 -7.953125 C 4.578125 -8.15625 4.5625 -8.15625 4.296875 -8.15625 L 2.84375 -8.15625 C 2.609375 -8.15625 2.5 -8.15625 2.5 -7.9375 C 2.5 -7.8125 2.578125 -7.8125 2.8125 -7.8125 C 2.875 -7.8125 3.578125 -7.8125 3.578125 -7.703125 C 3.578125 -7.6875 3.546875 -7.59375 3.53125 -7.546875 L 1.953125 -1.21875 C 1.8125 -0.640625 1.515625 -0.375 0.734375 -0.34375 C 0.671875 -0.34375 0.546875 -0.328125 0.546875 -0.125 C 0.546875 0 0.671875 0 0.703125 0 C 0.9375 0 1.546875 -0.03125 1.796875 -0.03125 L 2.359375 -0.03125 C 2.53125 -0.03125 2.734375 0 2.90625 0 C 2.984375 0 3.125 0 3.125 -0.234375 C 3.125 -0.328125 3 -0.34375 2.953125 -0.34375 C 2.5625 -0.359375 2.171875 -0.4375 2.171875 -0.859375 C 2.171875 -0.953125 2.203125 -1.0625 2.21875 -1.15625 L 3.84375 -7.546875 C 3.90625 -7.4375 3.90625 -7.40625 3.953125 -7.296875 L 6.796875 -0.21875 C 6.859375 -0.078125 6.890625 0 7 0 C 7.109375 0 7.125 -0.03125 7.171875 -0.234375 Z M 8.84375 -6.90625 "/>
</g>
<g id="glyph-5-0">
</g>
<g id="glyph-5-1">
<path d="M 6.546875 -2.75 C 6.75 -2.75 6.96875 -2.75 6.96875 -2.984375 C 6.96875 -3.234375 6.75 -3.234375 6.546875 -3.234375 L 1.484375 -3.234375 C 1.625 -4.828125 3 -5.96875 4.6875 -5.96875 L 6.546875 -5.96875 C 6.75 -5.96875 6.96875 -5.96875 6.96875 -6.21875 C 6.96875 -6.453125 6.75 -6.453125 6.546875 -6.453125 L 4.65625 -6.453125 C 2.625 -6.453125 0.984375 -4.90625 0.984375 -2.984375 C 0.984375 -1.078125 2.625 0.484375 4.65625 0.484375 L 6.546875 0.484375 C 6.75 0.484375 6.96875 0.484375 6.96875 0.234375 C 6.96875 0 6.75 0 6.546875 0 L 4.6875 0 C 3 0 1.625 -1.140625 1.484375 -2.75 Z M 6.546875 -2.75 "/>
</g>
</g>
<clipPath id="clip-0">
<path clip-rule="nonzero" d="M 66 0 L 72 0 L 72 29.691406 L 66 29.691406 Z M 66 0 "/>
</clipPath>
<clipPath id="clip-1">
<path clip-rule="nonzero" d="M 172 0 L 179 0 L 179 29.691406 L 172 29.691406 Z M 172 0 "/>
</clipPath>
</defs>
<g fill="rgb(0%, 0%, 0%)" fill-opacity="1">
<use xlink:href="#glyph-0-1" x="0.5" y="7.673"/>
</g>
<g fill="rgb(0%, 0%, 0%)" fill-opacity="1">
<use xlink:href="#glyph-0-1" x="0.5" y="14.847"/>
</g>
<g fill="rgb(0%, 0%, 0%)" fill-opacity="1">
<use xlink:href="#glyph-1-1" x="7.142" y="17.835"/>
</g>
<g fill="rgb(0%, 0%, 0%)" fill-opacity="1">
<use xlink:href="#glyph-2-1" x="17.083" y="12.899"/>
</g>
<g fill="rgb(0%, 0%, 0%)" fill-opacity="1">
<use xlink:href="#glyph-2-2" x="17.083" y="20.791"/>
</g>
<g fill="rgb(0%, 0%, 0%)" fill-opacity="1">
<use xlink:href="#glyph-0-1" x="22.528" y="7.673"/>
</g>
<g fill="rgb(0%, 0%, 0%)" fill-opacity="1">
<use xlink:href="#glyph-0-1" x="22.528" y="14.847"/>
</g>
<g fill="rgb(0%, 0%, 0%)" fill-opacity="1">
<use xlink:href="#glyph-3-1" x="32.491" y="17.835"/>
</g>
<g fill="rgb(0%, 0%, 0%)" fill-opacity="1">
<use xlink:href="#glyph-3-2" x="44.919626" y="17.835"/>
<use xlink:href="#glyph-3-3" x="49.536724" y="17.835"/>
<use xlink:href="#glyph-3-4" x="56.040353" y="17.835"/>
</g>
<g clip-path="url(#clip-0)">
<g fill="rgb(0%, 0%, 0%)" fill-opacity="1">
<use xlink:href="#glyph-0-2" x="64.533" y="0.979"/>
</g>
</g>
<g fill="rgb(0%, 0%, 0%)" fill-opacity="1">
<use xlink:href="#glyph-3-5" x="75.129" y="9.748"/>
</g>
<path fill="none" stroke-width="0.478" stroke-linecap="butt" stroke-linejoin="miter" stroke="rgb(0%, 0%, 0%)" stroke-opacity="1" stroke-miterlimit="10" d="M 0.0003125 -0.00065625 L 6.722969 -0.00065625 " transform="matrix(1, 0, 0, -1, 74.695, 14.847)"/>
<g fill="rgb(0%, 0%, 0%)" fill-opacity="1">
<use xlink:href="#glyph-4-1" x="74.695" y="26.036"/>
</g>
<g fill="rgb(0%, 0%, 0%)" fill-opacity="1">
<use xlink:href="#glyph-0-1" x="84.605" y="7.673"/>
</g>
<g fill="rgb(0%, 0%, 0%)" fill-opacity="1">
<use xlink:href="#glyph-0-1" x="84.605" y="14.847"/>
</g>
<g fill="rgb(0%, 0%, 0%)" fill-opacity="1">
<use xlink:href="#glyph-1-1" x="91.247" y="17.835"/>
</g>
<g fill="rgb(0%, 0%, 0%)" fill-opacity="1">
<use xlink:href="#glyph-2-1" x="101.188" y="12.899"/>
</g>
<g fill="rgb(0%, 0%, 0%)" fill-opacity="1">
<use xlink:href="#glyph-2-2" x="101.188" y="20.791"/>
</g>
<g fill="rgb(0%, 0%, 0%)" fill-opacity="1">
<use xlink:href="#glyph-3-6" x="106.633" y="17.835"/>
</g>
<g fill="rgb(0%, 0%, 0%)" fill-opacity="1">
<use xlink:href="#glyph-4-2" x="111.186" y="17.835"/>
</g>
<g fill="rgb(0%, 0%, 0%)" fill-opacity="1">
<use xlink:href="#glyph-3-7" x="117.924" y="17.835"/>
</g>
<g fill="rgb(0%, 0%, 0%)" fill-opacity="1">
<use xlink:href="#glyph-0-1" x="122.477" y="7.673"/>
</g>
<g fill="rgb(0%, 0%, 0%)" fill-opacity="1">
<use xlink:href="#glyph-0-1" x="122.477" y="14.847"/>
</g>
<g fill="rgb(0%, 0%, 0%)" fill-opacity="1">
<use xlink:href="#glyph-3-8" x="132.439" y="17.835"/>
</g>
<g fill="rgb(0%, 0%, 0%)" fill-opacity="1">
<use xlink:href="#glyph-4-2" x="139.012" y="17.835"/>
</g>
<g fill="rgb(0%, 0%, 0%)" fill-opacity="1">
<use xlink:href="#glyph-5-1" x="149.071" y="17.835"/>
</g>
<g fill="rgb(0%, 0%, 0%)" fill-opacity="1">
<use xlink:href="#glyph-4-3" x="160.362" y="17.835"/>
</g>
<g clip-path="url(#clip-1)">
<g fill="rgb(0%, 0%, 0%)" fill-opacity="1">
<use xlink:href="#glyph-0-3" x="170.985" y="0.978"/>
</g>
</g>
</svg>
