<?xml version="1.0" encoding="UTF-8"?>
<svg xmlns="http://www.w3.org/2000/svg" xmlns:xlink="http://www.w3.org/1999/xlink" viewBox="0 0 46.599 12.799">
<defs>
<g>
<g id="glyph-0-0">
</g>
<g id="glyph-0-1">
<path d="M 5.421875 -4 C 5.359375 -4.65625 4.9375 -5.46875 3.859375 -5.46875 C 2.171875 -5.46875 0.453125 -3.75 0.453125 -1.859375 C 0.453125 -1.125 0.953125 0.25 2.578125 0.25 C 5.40625 0.25 6.609375 -3.859375 6.609375 -5.5 C 6.609375 -7.21875 5.640625 -8.546875 4.109375 -8.546875 C 2.375 -8.546875 1.859375 -7.03125 1.859375 -6.703125 C 1.859375 -6.59375 1.9375 -6.328125 2.265625 -6.328125 C 2.6875 -6.328125 2.875 -6.71875 2.875 -6.921875 C 2.875 -7.296875 2.5 -7.296875 2.34375 -7.296875 C 2.828125 -8.171875 3.734375 -8.265625 4.0625 -8.265625 C 5.109375 -8.265625 5.78125 -7.421875 5.78125 -6.078125 C 5.78125 -5.3125 5.5625 -4.4375 5.4375 -4 Z M 2.625 -0.078125 C 1.5 -0.078125 1.296875 -0.953125 1.296875 -1.453125 C 1.296875 -1.984375 1.640625 -3.21875 1.8125 -3.65625 C 1.96875 -4.015625 2.65625 -5.21875 3.890625 -5.21875 C 4.984375 -5.21875 5.234375 -4.28125 5.234375 -3.640625 C 5.234375 -2.75 4.453125 -0.078125 2.625 -0.078125 Z M 2.625 -0.078125 "/>
</g>
<g id="glyph-0-2">
<path d="M 3.59375 -0.53125 C 3.390625 -0.53125 3.21875 -0.53125 3.21875 -0.578125 C 3.21875 -0.609375 3.421875 -1.734375 3.484375 -2 C 3.875 -3.53125 4.78125 -4.625 5.828125 -4.625 C 6.59375 -4.625 6.953125 -4.046875 6.953125 -3.375 C 6.953125 -2.015625 5.421875 -0.53125 3.59375 -0.53125 Z M 3.078125 0.09375 C 3.15625 0.109375 3.28125 0.125 3.484375 0.125 C 5.453125 0.125 7.25 -1.765625 7.25 -3.65625 C 7.25 -4.390625 6.9375 -5.265625 5.921875 -5.265625 C 4.203125 -5.265625 3.484375 -2.84375 2.8125 -0.59375 C 1.4375 -0.859375 0.859375 -1.59375 0.859375 -2.390625 C 0.859375 -2.71875 1.109375 -4 1.8125 -4.859375 C 1.9375 -5.015625 1.9375 -5.03125 1.9375 -5.0625 C 1.9375 -5.15625 1.84375 -5.15625 1.8125 -5.15625 C 1.5 -5.15625 0.578125 -3.40625 0.578125 -2.265625 C 0.578125 -0.9375 1.640625 -0.203125 2.609375 0.015625 L 1.984375 2.03125 C 1.921875 2.21875 1.921875 2.234375 1.921875 2.28125 C 1.921875 2.5625 2.21875 2.578125 2.234375 2.578125 C 2.359375 2.578125 2.5625 2.53125 2.671875 2.296875 C 2.703125 2.1875 3.03125 0.328125 3.078125 0.09375 Z M 3.078125 0.09375 "/>
</g>
<g id="glyph-0-3">
<path d="M 8.9375 -7.296875 C 9.046875 -7.703125 9.078125 -7.8125 9.921875 -7.8125 C 10.140625 -7.8125 10.25 -7.8125 10.25 -8.03125 C 10.25 -8.15625 10.140625 -8.15625 10.078125 -8.15625 C 9.859375 -8.15625 9.609375 -8.140625 9.390625 -8.140625 L 7.96875 -8.140625 C 7.75 -8.140625 7.5 -8.15625 7.265625 -8.15625 C 7.1875 -8.15625 7.046875 -8.15625 7.046875 -7.9375 C 7.046875 -7.8125 7.125 -7.8125 7.34375 -7.8125 C 8.0625 -7.8125 8.0625 -7.71875 8.0625 -7.59375 C 8.0625 -7.5625 8.0625 -7.5 8.015625 -7.3125 L 7.296875 -4.421875 L 3.6875 -4.421875 L 4.40625 -7.296875 C 4.5 -7.703125 4.53125 -7.8125 5.375 -7.8125 C 5.59375 -7.8125 5.71875 -7.8125 5.71875 -8.03125 C 5.71875 -8.15625 5.609375 -8.15625 5.53125 -8.15625 C 5.3125 -8.15625 5.0625 -8.140625 4.84375 -8.140625 L 3.4375 -8.140625 C 3.203125 -8.140625 2.953125 -8.15625 2.71875 -8.15625 C 2.640625 -8.15625 2.5 -8.15625 2.5 -7.9375 C 2.5 -7.8125 2.578125 -7.8125 2.8125 -7.8125 C 3.53125 -7.8125 3.53125 -7.71875 3.53125 -7.59375 C 3.53125 -7.5625 3.53125 -7.5 3.484375 -7.3125 L 1.859375 -0.890625 C 1.75 -0.46875 1.734375 -0.34375 0.90625 -0.34375 C 0.640625 -0.34375 0.546875 -0.34375 0.546875 -0.125 C 0.546875 0 0.6875 0 0.71875 0 C 0.9375 0 1.1875 -0.03125 1.40625 -0.03125 L 2.828125 -0.03125 C 3.046875 -0.03125 3.296875 0 3.53125 0 C 3.625 0 3.75 0 3.75 -0.234375 C 3.75 -0.34375 3.640625 -0.34375 3.46875 -0.34375 C 2.734375 -0.34375 2.734375 -0.4375 2.734375 -0.5625 C 2.734375 -0.578125 2.734375 -0.65625 2.765625 -0.75 L 3.578125 -4.078125 L 7.203125 -4.078125 C 7 -3.28125 6.390625 -0.78125 6.375 -0.71875 C 6.234375 -0.359375 6.046875 -0.359375 5.34375 -0.34375 C 5.203125 -0.34375 5.09375 -0.34375 5.09375 -0.125 C 5.09375 0 5.21875 0 5.265625 0 C 5.46875 0 5.71875 -0.03125 5.953125 -0.03125 L 7.359375 -0.03125 C 7.59375 -0.03125 7.84375 0 8.0625 0 C 8.15625 0 8.296875 0 8.296875 -0.234375 C 8.296875 -0.34375 8.1875 -0.34375 8.015625 -0.34375 C 7.28125 -0.34375 7.28125 -0.4375 7.28125 -0.5625 C 7.28125 -0.578125 7.28125 -0.65625 7.296875 -0.75 Z M 8.9375 -7.296875 "/>
</g>
<g id="glyph-1-0">
</g>
<g id="glyph-1-1">
<path d="M 2.25 -1.625 C 2.375 -1.75 2.703125 -2.015625 2.84375 -2.125 C 3.328125 -2.578125 3.796875 -3.015625 3.796875 -3.734375 C 3.796875 -4.6875 3 -5.296875 2.015625 -5.296875 C 1.046875 -5.296875 0.421875 -4.578125 0.421875 -3.859375 C 0.421875 -3.46875 0.734375 -3.421875 0.84375 -3.421875 C 1.015625 -3.421875 1.265625 -3.53125 1.265625 -3.84375 C 1.265625 -4.25 0.859375 -4.25 0.765625 -4.25 C 1 -4.84375 1.53125 -5.03125 1.921875 -5.03125 C 2.65625 -5.03125 3.046875 -4.40625 3.046875 -3.734375 C 3.046875 -2.90625 2.46875 -2.296875 1.515625 -1.34375 L 0.515625 -0.296875 C 0.421875 -0.21875 0.421875 -0.203125 0.421875 0 L 3.5625 0 L 3.796875 -1.421875 L 3.546875 -1.421875 C 3.53125 -1.265625 3.46875 -0.875 3.375 -0.71875 C 3.328125 -0.65625 2.71875 -0.65625 2.59375 -0.65625 L 1.171875 -0.65625 Z M 2.25 -1.625 "/>
</g>
<g id="glyph-2-0">
</g>
<g id="glyph-2-1">
<path d="M 8.0625 -3.875 C 8.234375 -3.875 8.453125 -3.875 8.453125 -4.09375 C 8.453125 -4.3125 8.25 -4.3125 8.0625 -4.3125 L 1.03125 -4.3125 C 0.859375 -4.3125 0.640625 -4.3125 0.640625 -4.09375 C 0.640625 -3.875 0.84375 -3.875 1.03125 -3.875 Z M 8.0625 -1.65625 C 8.234375 -1.65625 8.453125 -1.65625 8.453125 -1.859375 C 8.453125 -2.09375 8.25 -2.09375 8.0625 -2.09375 L 1.03125 -2.09375 C 0.859375 -2.09375 0.640625 -2.09375 0.640625 -1.875 C 0.640625 -1.65625 0.84375 -1.65625 1.03125 -1.65625 Z M 8.0625 -1.65625 "/>
</g>
</g>
<clipPath id="clip-0">
<path clip-rule="nonzero" d="M 12 4 L 20 4 L 20 12.800781 L 12 12.800781 Z M 12 4 "/>
</clipPath>
</defs>
<g fill="rgb(0%, 0%, 0%)" fill-opacity="1">
<use xlink:href="#glyph-0-1" x="0.5" y="9.974"/>
</g>
<g fill="rgb(0%, 0%, 0%)" fill-opacity="1">
<use xlink:href="#glyph-1-1" x="7.33" y="5.636"/>
</g>
<g clip-path="url(#clip-0)">
<g fill="rgb(0%, 0%, 0%)" fill-opacity="1">
<use xlink:href="#glyph-0-2" x="12.062" y="9.974"/>
</g>
</g>
<g fill="rgb(0%, 0%, 0%)" fill-opacity="1">
<use xlink:href="#glyph-2-1" x="23.051" y="9.974"/>
</g>
<g fill="rgb(0%, 0%, 0%)" fill-opacity="1">
<use xlink:href="#glyph-0-3" x="35.477" y="9.974"/>
</g>
</svg>
