<?xml version="1.0" encoding="UTF-8"?>
<svg xmlns="http://www.w3.org/2000/svg" xmlns:xlink="http://www.w3.org/1999/xlink" width="121.157" height="32.88" viewBox="0 0 121.157 32.88">
<defs>
<g>
<g id="glyph-0-0">
</g>
<g id="glyph-0-1">
<path d="M 0.515625 1.515625 C 0.4375 1.875 0.375 1.96875 -0.109375 1.96875 C -0.25 1.96875 -0.375 1.96875 -0.375 2.203125 C -0.375 2.21875 -0.359375 2.3125 -0.234375 2.3125 C -0.078125 2.3125 0.09375 2.296875 0.25 2.296875 L 0.765625 2.296875 C 1.015625 2.296875 1.625 2.3125 1.875 2.3125 C 1.953125 2.3125 2.09375 2.3125 2.09375 2.109375 C 2.09375 1.96875 2.015625 1.96875 1.8125 1.96875 C 1.25 1.96875 1.21875 1.890625 1.21875 1.796875 C 1.21875 1.65625 1.75 -0.40625 1.828125 -0.6875 C 1.953125 -0.34375 2.28125 0.125 2.90625 0.125 C 4.25 0.125 5.71875 -1.640625 5.71875 -3.390625 C 5.71875 -4.5 5.09375 -5.265625 4.203125 -5.265625 C 3.4375 -5.265625 2.78125 -4.53125 2.65625 -4.359375 C 2.5625 -4.953125 2.09375 -5.265625 1.609375 -5.265625 C 1.265625 -5.265625 0.984375 -5.109375 0.765625 -4.65625 C 0.546875 -4.21875 0.375 -3.484375 0.375 -3.4375 C 0.375 -3.390625 0.4375 -3.328125 0.515625 -3.328125 C 0.609375 -3.328125 0.625 -3.34375 0.6875 -3.625 C 0.875 -4.328125 1.09375 -5.03125 1.578125 -5.03125 C 1.859375 -5.03125 1.953125 -4.84375 1.953125 -4.484375 C 1.953125 -4.203125 1.90625 -4.078125 1.859375 -3.859375 Z M 2.578125 -3.734375 C 2.671875 -4.0625 3 -4.40625 3.1875 -4.578125 C 3.328125 -4.703125 3.71875 -5.03125 4.171875 -5.03125 C 4.703125 -5.03125 4.9375 -4.5 4.9375 -3.890625 C 4.9375 -3.3125 4.609375 -1.953125 4.296875 -1.34375 C 4 -0.6875 3.453125 -0.125 2.90625 -0.125 C 2.09375 -0.125 1.953125 -1.140625 1.953125 -1.1875 C 1.953125 -1.234375 1.984375 -1.328125 2 -1.390625 Z M 2.578125 -3.734375 "/>
</g>
<g id="glyph-0-2">
<path d="M 4.65625 -4.890625 C 4.28125 -4.8125 4.09375 -4.546875 4.09375 -4.296875 C 4.09375 -4 4.3125 -3.90625 4.484375 -3.90625 C 4.8125 -3.90625 5.09375 -4.203125 5.09375 -4.546875 C 5.09375 -4.9375 4.71875 -5.265625 4.125 -5.265625 C 3.640625 -5.265625 3.09375 -5.0625 2.59375 -4.328125 C 2.515625 -4.953125 2.03125 -5.265625 1.546875 -5.265625 C 1.09375 -5.265625 0.84375 -4.90625 0.703125 -4.65625 C 0.5 -4.21875 0.328125 -3.5 0.328125 -3.4375 C 0.328125 -3.390625 0.375 -3.328125 0.453125 -3.328125 C 0.546875 -3.328125 0.5625 -3.34375 0.640625 -3.625 C 0.8125 -4.34375 1.046875 -5.03125 1.515625 -5.03125 C 1.8125 -5.03125 1.890625 -4.828125 1.890625 -4.484375 C 1.890625 -4.21875 1.765625 -3.75 1.6875 -3.375 L 1.34375 -2.09375 C 1.296875 -1.859375 1.171875 -1.328125 1.109375 -1.109375 C 1.03125 -0.796875 0.890625 -0.234375 0.890625 -0.171875 C 0.890625 -0.015625 1.03125 0.125 1.203125 0.125 C 1.34375 0.125 1.5625 0.03125 1.640625 -0.203125 C 1.671875 -0.296875 2.109375 -2.109375 2.1875 -2.375 C 2.25 -2.640625 2.3125 -2.890625 2.375 -3.15625 C 2.421875 -3.328125 2.46875 -3.515625 2.515625 -3.671875 C 2.546875 -3.78125 2.875 -4.359375 3.171875 -4.625 C 3.3125 -4.75 3.625 -5.03125 4.109375 -5.03125 C 4.296875 -5.03125 4.5 -5 4.65625 -4.890625 Z M 4.65625 -4.890625 "/>
</g>
<g id="glyph-0-3">
<path d="M 6.765625 -6.953125 C 6.765625 -7.671875 6.15625 -8.421875 5.0625 -8.421875 C 3.53125 -8.421875 2.546875 -6.53125 2.234375 -5.296875 L 0.34375 2.203125 C 0.328125 2.296875 0.390625 2.3125 0.453125 2.3125 C 0.53125 2.3125 0.59375 2.3125 0.609375 2.25 L 1.453125 -1.09375 C 1.5625 -0.4375 2.21875 0.125 2.921875 0.125 C 4.640625 0.125 6.25 -1.21875 6.25 -3 C 6.25 -3.453125 6.140625 -3.90625 5.890625 -4.296875 C 5.75 -4.515625 5.5625 -4.6875 5.375 -4.828125 C 6.234375 -5.28125 6.765625 -6.015625 6.765625 -6.953125 Z M 4.6875 -4.84375 C 4.5 -4.765625 4.296875 -4.75 4.078125 -4.75 C 3.90625 -4.75 3.75 -4.734375 3.53125 -4.8125 C 3.65625 -4.890625 3.84375 -4.90625 4.09375 -4.90625 C 4.296875 -4.90625 4.515625 -4.890625 4.6875 -4.84375 Z M 6.140625 -7.0625 C 6.140625 -6.40625 5.828125 -5.453125 5.046875 -5.015625 C 4.8125 -5.09375 4.5 -5.15625 4.25 -5.15625 C 4 -5.15625 3.28125 -5.171875 3.28125 -4.796875 C 3.28125 -4.46875 3.9375 -4.5 4.140625 -4.5 C 4.453125 -4.5 4.71875 -4.578125 5.015625 -4.65625 C 5.390625 -4.34375 5.5625 -3.9375 5.5625 -3.34375 C 5.5625 -2.65625 5.359375 -2.09375 5.140625 -1.578125 C 4.75 -0.6875 3.8125 -0.125 2.984375 -0.125 C 2.109375 -0.125 1.65625 -0.8125 1.65625 -1.625 C 1.65625 -1.734375 1.65625 -1.890625 1.703125 -2.0625 L 2.484375 -5.21875 C 2.875 -6.78125 3.890625 -8.1875 5.046875 -8.1875 C 5.90625 -8.1875 6.140625 -7.59375 6.140625 -7.0625 Z M 6.140625 -7.0625 "/>
</g>
<g id="glyph-0-4">
<path d="M 5.265625 -5.15625 C 5.265625 -5.21875 5.21875 -5.265625 5.15625 -5.265625 C 5.0625 -5.265625 4.609375 -4.828125 4.375 -4.40625 C 4.15625 -4.953125 3.796875 -5.265625 3.28125 -5.265625 C 1.921875 -5.265625 0.46875 -3.53125 0.46875 -1.75 C 0.46875 -0.578125 1.15625 0.125 1.96875 0.125 C 2.609375 0.125 3.125 -0.359375 3.375 -0.640625 L 3.390625 -0.625 L 2.9375 1.171875 L 2.828125 1.609375 C 2.71875 1.953125 2.546875 1.953125 1.984375 1.96875 C 1.859375 1.96875 1.734375 1.96875 1.734375 2.203125 C 1.734375 2.28125 1.8125 2.3125 1.890625 2.3125 C 2.0625 2.3125 2.265625 2.296875 2.4375 2.296875 L 3.65625 2.296875 C 3.84375 2.296875 4.046875 2.3125 4.21875 2.3125 C 4.296875 2.3125 4.4375 2.3125 4.4375 2.09375 C 4.4375 1.96875 4.34375 1.96875 4.15625 1.96875 C 3.59375 1.96875 3.5625 1.890625 3.5625 1.796875 C 3.5625 1.734375 3.578125 1.71875 3.609375 1.5625 Z M 3.578125 -1.421875 C 3.53125 -1.21875 3.53125 -1.1875 3.359375 -0.96875 C 3.09375 -0.640625 2.5625 -0.125 2.015625 -0.125 C 1.515625 -0.125 1.25 -0.5625 1.25 -1.265625 C 1.25 -1.921875 1.609375 -3.265625 1.84375 -3.765625 C 2.25 -4.609375 2.8125 -5.03125 3.28125 -5.03125 C 4.0625 -5.03125 4.21875 -4.046875 4.21875 -3.953125 C 4.21875 -3.9375 4.1875 -3.796875 4.171875 -3.765625 Z M 3.578125 -1.421875 "/>
</g>
<g id="glyph-0-5">
<path d="M 2.71875 -2.390625 C 2.921875 -2.359375 3.25 -2.28125 3.328125 -2.265625 C 3.484375 -2.21875 4.015625 -2.03125 4.015625 -1.453125 C 4.015625 -1.09375 3.6875 -0.125 2.296875 -0.125 C 2.046875 -0.125 1.140625 -0.15625 0.90625 -0.8125 C 1.390625 -0.75 1.625 -1.125 1.625 -1.390625 C 1.625 -1.640625 1.453125 -1.765625 1.21875 -1.765625 C 0.953125 -1.765625 0.609375 -1.5625 0.609375 -1.03125 C 0.609375 -0.328125 1.328125 0.125 2.28125 0.125 C 4.09375 0.125 4.640625 -1.21875 4.640625 -1.84375 C 4.640625 -2.015625 4.640625 -2.359375 4.25 -2.734375 C 3.953125 -3.03125 3.671875 -3.078125 3.03125 -3.21875 C 2.703125 -3.28125 2.1875 -3.390625 2.1875 -3.9375 C 2.1875 -4.171875 2.40625 -5.03125 3.53125 -5.03125 C 4.046875 -5.03125 4.53125 -4.84375 4.65625 -4.40625 C 4.125 -4.40625 4.09375 -3.953125 4.09375 -3.9375 C 4.09375 -3.6875 4.328125 -3.625 4.4375 -3.625 C 4.609375 -3.625 4.9375 -3.75 4.9375 -4.25 C 4.9375 -4.75 4.484375 -5.265625 3.546875 -5.265625 C 1.984375 -5.265625 1.5625 -4.046875 1.5625 -3.546875 C 1.5625 -2.640625 2.453125 -2.453125 2.71875 -2.390625 Z M 2.71875 -2.390625 "/>
</g>
<g id="glyph-0-6">
<path d="M 3.109375 -5.21875 C 1.578125 -4.84375 0.484375 -3.25 0.484375 -1.859375 C 0.484375 -0.578125 1.34375 0.140625 2.296875 0.140625 C 3.703125 0.140625 4.65625 -1.796875 4.65625 -3.375 C 4.65625 -4.453125 4.15625 -5.109375 3.859375 -5.515625 C 3.421875 -6.078125 2.703125 -7 2.703125 -7.5625 C 2.703125 -7.765625 2.859375 -8.125 3.375 -8.125 C 3.75 -8.125 3.984375 -8 4.34375 -7.796875 C 4.453125 -7.71875 4.71875 -7.5625 4.875 -7.5625 C 5.125 -7.5625 5.3125 -7.8125 5.3125 -8.015625 C 5.3125 -8.234375 5.125 -8.265625 4.703125 -8.359375 C 4.140625 -8.484375 3.984375 -8.484375 3.78125 -8.484375 C 3.578125 -8.484375 2.40625 -8.484375 2.40625 -7.265625 C 2.40625 -6.6875 2.703125 -6 3.109375 -5.21875 Z M 3.234375 -4.984375 C 3.6875 -4.046875 3.875 -3.6875 3.875 -2.90625 C 3.875 -1.96875 3.375 -0.09375 2.3125 -0.09375 C 1.84375 -0.09375 1.171875 -0.40625 1.171875 -1.515625 C 1.171875 -2.296875 1.609375 -4.546875 3.234375 -4.984375 Z M 3.234375 -4.984375 "/>
</g>
<g id="glyph-1-0">
</g>
<g id="glyph-1-1">
<path d="M 2.328125 -5.296875 C 2.328125 -5.3125 2.359375 -5.40625 2.359375 -5.421875 C 2.359375 -5.453125 2.328125 -5.53125 2.234375 -5.53125 C 2.203125 -5.53125 1.953125 -5.5 1.765625 -5.484375 L 1.328125 -5.453125 C 1.140625 -5.4375 1.0625 -5.4375 1.0625 -5.296875 C 1.0625 -5.171875 1.171875 -5.171875 1.28125 -5.171875 C 1.65625 -5.171875 1.65625 -5.125 1.65625 -5.0625 C 1.65625 -5.03125 1.65625 -5.015625 1.625 -4.875 L 0.484375 -0.34375 C 0.453125 -0.21875 0.453125 -0.171875 0.453125 -0.171875 C 0.453125 -0.03125 0.5625 0.078125 0.71875 0.078125 C 0.984375 0.078125 1.046875 -0.171875 1.078125 -0.28125 C 1.15625 -0.625 1.375 -1.46875 1.453125 -1.796875 C 1.890625 -1.75 2.4375 -1.609375 2.4375 -1.140625 C 2.4375 -1.109375 2.4375 -1.0625 2.421875 -0.984375 C 2.390625 -0.890625 2.375 -0.765625 2.375 -0.734375 C 2.375 -0.265625 2.71875 0.078125 3.1875 0.078125 C 3.515625 0.078125 3.734375 -0.171875 3.828125 -0.3125 C 4.03125 -0.609375 4.15625 -1.09375 4.15625 -1.140625 C 4.15625 -1.21875 4.09375 -1.25 4.03125 -1.25 C 3.9375 -1.25 3.921875 -1.1875 3.890625 -1.046875 C 3.78125 -0.671875 3.578125 -0.140625 3.203125 -0.140625 C 3 -0.140625 2.953125 -0.3125 2.953125 -0.53125 C 2.953125 -0.640625 2.953125 -0.734375 3 -0.921875 C 3 -0.953125 3.03125 -1.078125 3.03125 -1.15625 C 3.03125 -1.8125 2.21875 -1.953125 1.8125 -2.015625 C 2.109375 -2.1875 2.375 -2.46875 2.46875 -2.5625 C 2.90625 -3 3.265625 -3.296875 3.65625 -3.296875 C 3.75 -3.296875 3.84375 -3.265625 3.90625 -3.1875 C 3.484375 -3.125 3.484375 -2.75 3.484375 -2.75 C 3.484375 -2.578125 3.625 -2.453125 3.796875 -2.453125 C 4.015625 -2.453125 4.25 -2.625 4.25 -2.953125 C 4.25 -3.234375 4.0625 -3.515625 3.65625 -3.515625 C 3.203125 -3.515625 2.78125 -3.15625 2.328125 -2.703125 C 1.859375 -2.25 1.671875 -2.171875 1.53125 -2.109375 Z M 2.328125 -5.296875 "/>
</g>
<g id="glyph-2-0">
</g>
<g id="glyph-2-1">
<path d="M 3.46875 -1.8125 L 5.8125 -1.8125 C 5.921875 -1.8125 6.109375 -1.8125 6.109375 -1.984375 C 6.109375 -2.171875 5.921875 -2.171875 5.8125 -2.171875 L 3.46875 -2.171875 L 3.46875 -4.53125 C 3.46875 -4.640625 3.46875 -4.8125 3.296875 -4.8125 C 3.109375 -4.8125 3.109375 -4.640625 3.109375 -4.53125 L 3.109375 -2.171875 L 0.75 -2.171875 C 0.640625 -2.171875 0.46875 -2.171875 0.46875 -1.984375 C 0.46875 -1.8125 0.640625 -1.8125 0.75 -1.8125 L 3.109375 -1.8125 L 3.109375 0.546875 C 3.109375 0.65625 3.109375 0.828125 3.296875 0.828125 C 3.46875 0.828125 3.46875 0.65625 3.46875 0.546875 Z M 3.46875 -1.8125 "/>
</g>
<g id="glyph-2-2">
<path d="M 2.5 -5.078125 C 2.5 -5.296875 2.484375 -5.296875 2.265625 -5.296875 C 1.9375 -4.984375 1.515625 -4.796875 0.765625 -4.796875 L 0.765625 -4.53125 C 0.984375 -4.53125 1.40625 -4.53125 1.875 -4.734375 L 1.875 -0.65625 C 1.875 -0.359375 1.84375 -0.265625 1.09375 -0.265625 L 0.8125 -0.265625 L 0.8125 0 C 1.140625 -0.03125 1.828125 -0.03125 2.1875 -0.03125 C 2.546875 -0.03125 3.234375 -0.03125 3.5625 0 L 3.5625 -0.265625 L 3.28125 -0.265625 C 2.53125 -0.265625 2.5 -0.359375 2.5 -0.65625 Z M 2.5 -5.078125 "/>
</g>
<g id="glyph-3-0">
</g>
<g id="glyph-3-1">
<path d="M 8.0625 -3.875 C 8.234375 -3.875 8.453125 -3.875 8.453125 -4.09375 C 8.453125 -4.3125 8.25 -4.3125 8.0625 -4.3125 L 1.03125 -4.3125 C 0.859375 -4.3125 0.640625 -4.3125 0.640625 -4.09375 C 0.640625 -3.875 0.84375 -3.875 1.03125 -3.875 Z M 8.0625 -1.65625 C 8.234375 -1.65625 8.453125 -1.65625 8.453125 -1.859375 C 8.453125 -2.09375 8.25 -2.09375 8.0625 -2.09375 L 1.03125 -2.09375 C 0.859375 -2.09375 0.640625 -2.09375 0.640625 -1.875 C 0.640625 -1.65625 0.84375 -1.65625 1.03125 -1.65625 Z M 8.0625 -1.65625 "/>
</g>
<g id="glyph-3-2">
<path d="M 4.765625 -2.765625 L 8.0625 -2.765625 C 8.234375 -2.765625 8.453125 -2.765625 8.453125 -2.96875 C 8.453125 -3.203125 8.25 -3.203125 8.0625 -3.203125 L 4.765625 -3.203125 L 4.765625 -6.5 C 4.765625 -6.671875 4.765625 -6.890625 4.546875 -6.890625 C 4.328125 -6.890625 4.328125 -6.6875 4.328125 -6.5 L 4.328125 -3.203125 L 1.03125 -3.203125 C 0.859375 -3.203125 0.640625 -3.203125 0.640625 -2.984375 C 0.640625 -2.765625 0.84375 -2.765625 1.03125 -2.765625 L 4.328125 -2.765625 L 4.328125 0.53125 C 4.328125 0.703125 4.328125 0.921875 4.546875 0.921875 C 4.765625 0.921875 4.765625 0.71875 4.765625 0.53125 Z M 4.765625 -2.765625 "/>
</g>
<g id="glyph-4-0">
</g>
<g id="glyph-4-1">
<path d="M 2.296875 -2.984375 C 2.296875 -3.328125 2.015625 -3.625 1.65625 -3.625 C 1.3125 -3.625 1.03125 -3.328125 1.03125 -2.984375 C 1.03125 -2.640625 1.3125 -2.359375 1.65625 -2.359375 C 2.015625 -2.359375 2.296875 -2.640625 2.296875 -2.984375 Z M 2.296875 -2.984375 "/>
</g>
</g>
</defs>
<g fill="rgb(0%, 0%, 0%)" fill-opacity="1">
<use xlink:href="#glyph-0-1" x="8.302" y="10.612"/>
</g>
<g fill="rgb(0%, 0%, 0%)" fill-opacity="1">
<use xlink:href="#glyph-1-1" x="14.177" y="12.405"/>
</g>
<g fill="rgb(0%, 0%, 0%)" fill-opacity="1">
<use xlink:href="#glyph-2-1" x="18.799" y="12.405"/>
<use xlink:href="#glyph-2-2" x="25.385491" y="12.405"/>
</g>
<g fill="rgb(0%, 0%, 0%)" fill-opacity="1">
<use xlink:href="#glyph-3-1" x="33.439" y="10.612"/>
</g>
<g fill="rgb(0%, 0%, 0%)" fill-opacity="1">
<use xlink:href="#glyph-0-2" x="45.864" y="10.612"/>
</g>
<g fill="rgb(0%, 0%, 0%)" fill-opacity="1">
<use xlink:href="#glyph-1-1" x="51.139" y="12.405"/>
</g>
<g fill="rgb(0%, 0%, 0%)" fill-opacity="1">
<use xlink:href="#glyph-2-1" x="55.761" y="12.405"/>
<use xlink:href="#glyph-2-2" x="62.347491" y="12.405"/>
</g>
<g fill="rgb(0%, 0%, 0%)" fill-opacity="1">
<use xlink:href="#glyph-3-2" x="69.736" y="10.612"/>
</g>
<g fill="rgb(0%, 0%, 0%)" fill-opacity="1">
<use xlink:href="#glyph-0-3" x="81.498" y="10.612"/>
</g>
<g fill="rgb(0%, 0%, 0%)" fill-opacity="1">
<use xlink:href="#glyph-1-1" x="88.106" y="12.405"/>
</g>
<g fill="rgb(0%, 0%, 0%)" fill-opacity="1">
<use xlink:href="#glyph-4-1" x="95.883" y="10.612"/>
</g>
<g fill="rgb(0%, 0%, 0%)" fill-opacity="1">
<use xlink:href="#glyph-0-1" x="101.86" y="10.612"/>
</g>
<g fill="rgb(0%, 0%, 0%)" fill-opacity="1">
<use xlink:href="#glyph-1-1" x="107.735" y="12.405"/>
</g>
<g fill="rgb(0%, 0%, 0%)" fill-opacity="1">
<use xlink:href="#glyph-0-4" x="9.58" y="28.046"/>
</g>
<g fill="rgb(0%, 0%, 0%)" fill-opacity="1">
<use xlink:href="#glyph-1-1" x="14.77" y="29.84"/>
</g>
<g fill="rgb(0%, 0%, 0%)" fill-opacity="1">
<use xlink:href="#glyph-2-1" x="19.391" y="29.84"/>
<use xlink:href="#glyph-2-2" x="25.977491" y="29.84"/>
</g>
<g fill="rgb(0%, 0%, 0%)" fill-opacity="1">
<use xlink:href="#glyph-3-1" x="34.031" y="28.046"/>
</g>
<g fill="rgb(0%, 0%, 0%)" fill-opacity="1">
<use xlink:href="#glyph-0-5" x="46.457" y="28.046"/>
</g>
<g fill="rgb(0%, 0%, 0%)" fill-opacity="1">
<use xlink:href="#glyph-1-1" x="51.971" y="29.84"/>
</g>
<g fill="rgb(0%, 0%, 0%)" fill-opacity="1">
<use xlink:href="#glyph-2-1" x="56.592" y="29.84"/>
<use xlink:href="#glyph-2-2" x="63.178491" y="29.84"/>
</g>
<g fill="rgb(0%, 0%, 0%)" fill-opacity="1">
<use xlink:href="#glyph-3-2" x="70.568" y="28.046"/>
</g>
<g fill="rgb(0%, 0%, 0%)" fill-opacity="1">
<use xlink:href="#glyph-0-6" x="82.329" y="28.046"/>
</g>
<g fill="rgb(0%, 0%, 0%)" fill-opacity="1">
<use xlink:href="#glyph-1-1" x="87.514" y="29.84"/>
</g>
<g fill="rgb(0%, 0%, 0%)" fill-opacity="1">
<use xlink:href="#glyph-4-1" x="95.29" y="28.046"/>
</g>
<g fill="rgb(0%, 0%, 0%)" fill-opacity="1">
<use xlink:href="#glyph-0-4" x="101.268" y="28.046"/>
</g>
<g fill="rgb(0%, 0%, 0%)" fill-opacity="1">
<use xlink:href="#glyph-1-1" x="106.458" y="29.84"/>
</g>
</svg>
