<?xml version="1.0" encoding="UTF-8"?>
<svg xmlns="http://www.w3.org/2000/svg" xmlns:xlink="http://www.w3.org/1999/xlink" viewBox="0 0 15.408 10.873">
<defs>
<g>
<g id="glyph-0-0">
</g>
<g id="glyph-0-1">
<path d="M 3.1875 -7.1875 C 2.484375 -6.875 1.828125 -6.4375 1.21875 -5.96875 C 0.890625 -5.3125 0.703125 -4.5625 0.703125 -3.8125 C 0.703125 -2.765625 0.890625 -1.515625 1.65625 -0.78125 C 2.390625 -0.046875 3.4375 0.28125 4.5 0.28125 C 4.828125 0.28125 5.15625 0.265625 5.46875 0.1875 C 6.046875 -0.171875 6.6875 -0.609375 7.203125 -1.03125 L 7.203125 -1.265625 L 6.171875 -0.703125 C 6 -0.625 5.703125 -0.546875 5.3125 -0.546875 C 4.3125 -0.546875 3.328125 -0.875 2.625 -1.59375 C 1.90625 -2.3125 1.65625 -3.328125 1.65625 -4.328125 C 1.65625 -5.359375 2.0625 -6.703125 3.3125 -6.734375 C 3.28125 -6.625 3.28125 -6.5 3.28125 -6.390625 C 3.28125 -5.75 3.640625 -4.875 3.640625 -4.390625 C 3.640625 -4.09375 3.640625 -3.75 3.4375 -3.5625 C 3.1875 -3.3125 2.890625 -3.125 2.5625 -3.046875 L 2.703125 -2.859375 C 3.71875 -3.015625 4.78125 -3.5 4.78125 -4.765625 C 4.78125 -5.140625 4.609375 -5.6875 4.546875 -5.875 C 4.453125 -6.125 4.390625 -6.484375 4.390625 -6.6875 C 4.390625 -6.8125 4.4375 -7.34375 4.96875 -7.5 C 5.25 -7.0625 5.609375 -6.484375 5.921875 -6.296875 C 6.390625 -6.359375 6.90625 -6.59375 7.328125 -6.796875 L 7.328125 -7.0625 C 7.1875 -7.015625 6.921875 -6.953125 6.734375 -6.953125 C 6.484375 -6.953125 6.453125 -7.0625 6.390625 -7.234375 L 6.046875 -8.203125 C 5.1875 -7.875 4.328125 -7.53125 3.578125 -7 Z M 3.1875 -7.1875 "/>
</g>
<g id="glyph-1-0">
</g>
<g id="glyph-1-1">
<path d="M 3.46875 -5.15625 L 5.8125 -5.15625 C 5.9375 -5.15625 6.109375 -5.15625 6.109375 -5.34375 C 6.109375 -5.53125 5.9375 -5.53125 5.8125 -5.53125 L 0.78125 -5.53125 C 0.640625 -5.53125 0.46875 -5.53125 0.46875 -5.34375 C 0.46875 -5.15625 0.640625 -5.15625 0.78125 -5.15625 L 3.109375 -5.15625 L 3.109375 -0.3125 C 3.109375 -0.171875 3.109375 0 3.296875 0 C 3.46875 0 3.46875 -0.171875 3.46875 -0.296875 Z M 3.46875 -5.15625 "/>
</g>
</g>
<clipPath id="clip-0">
<path clip-rule="nonzero" d="M 1 2 L 8 2 L 8 10.871094 L 1 10.871094 Z M 1 2 "/>
</clipPath>
</defs>
<g clip-path="url(#clip-0)">
<g fill="rgb(0%, 0%, 0%)" fill-opacity="1">
<use xlink:href="#glyph-0-1" x="0.5" y="10.373"/>
</g>
</g>
<g fill="rgb(0%, 0%, 0%)" fill-opacity="1">
<use xlink:href="#glyph-1-1" x="7.823" y="6.035"/>
</g>
</svg>
