<?xml version="1.0" encoding="UTF-8"?>
<svg xmlns="http://www.w3.org/2000/svg" xmlns:xlink="http://www.w3.org/1999/xlink" viewBox="0 0 83.358 11.228">
<defs>
<g>
<g id="glyph-0-0">
</g>
<g id="glyph-0-1">
<path d="M 1.34375 -7.109375 L 1.34375 -1.28125 C 1.34375 -0.640625 1.25 -0.4375 0.640625 -0.421875 C 0.5 -0.421875 0.296875 -0.40625 0.296875 -0.21875 C 0.296875 0 0.484375 0 0.703125 0 L 2.5625 0 C 2.765625 0 2.953125 0 2.953125 -0.21875 C 2.953125 -0.40625 2.765625 -0.421875 2.59375 -0.421875 C 1.9375 -0.4375 1.84375 -0.6875 1.84375 -1.296875 L 1.84375 -6.78125 L 7 0.046875 C 7.109375 0.1875 7.171875 0.234375 7.25 0.234375 C 7.453125 0.234375 7.453125 0.03125 7.453125 -0.171875 L 7.453125 -6.921875 C 7.453125 -7.59375 7.5625 -7.75 8.109375 -7.765625 C 8.1875 -7.765625 8.390625 -7.78125 8.390625 -7.96875 C 8.390625 -8.1875 8.21875 -8.1875 8 -8.1875 L 6.25 -8.1875 C 6.03125 -8.1875 5.84375 -8.1875 5.84375 -7.96875 C 5.84375 -7.765625 6.0625 -7.765625 6.1875 -7.765625 C 6.859375 -7.75 6.953125 -7.515625 6.953125 -6.890625 L 6.953125 -3.140625 L 3.34375 -8.015625 C 3.234375 -8.1875 3.1875 -8.1875 2.921875 -8.1875 L 0.84375 -8.1875 C 0.625 -8.1875 0.4375 -8.1875 0.4375 -7.96875 C 0.4375 -7.796875 0.625 -7.765625 0.6875 -7.765625 C 1.015625 -7.734375 1.25 -7.546875 1.359375 -7.40625 C 1.34375 -7.296875 1.34375 -7.28125 1.34375 -7.109375 Z M 7.046875 -0.609375 L 1.84375 -7.484375 C 1.71875 -7.625 1.71875 -7.65625 1.59375 -7.765625 L 3.015625 -7.765625 L 7.046875 -2.328125 Z M 7.046875 -0.609375 "/>
</g>
<g id="glyph-0-2">
<path d="M 7.125 -7.75 C 7.234375 -7.90625 7.234375 -7.9375 7.234375 -7.96875 C 7.234375 -8.1875 7.046875 -8.1875 6.84375 -8.1875 L 1.359375 -8.1875 C 0.984375 -8.1875 0.984375 -8.15625 0.9375 -7.84375 L 0.765625 -6.234375 L 0.734375 -6.078125 C 0.734375 -5.90625 0.875 -5.84375 0.953125 -5.84375 C 1.0625 -5.84375 1.140625 -5.921875 1.15625 -6.03125 C 1.203125 -6.3125 1.3125 -6.84375 2.046875 -7.296875 C 2.71875 -7.734375 3.5625 -7.765625 3.96875 -7.765625 L 4.9375 -7.765625 L 0.4375 -0.4375 C 0.328125 -0.28125 0.328125 -0.25 0.328125 -0.21875 C 0.328125 0 0.53125 0 0.734375 0 L 6.875 0 C 7.234375 0 7.234375 -0.03125 7.28125 -0.328125 L 7.609375 -2.6875 C 7.609375 -2.828125 7.5 -2.90625 7.40625 -2.90625 C 7.21875 -2.90625 7.203125 -2.78125 7.15625 -2.546875 C 6.953125 -1.5625 6.03125 -0.421875 4.328125 -0.421875 L 2.625 -0.421875 Z M 1.34375 -7.765625 L 1.984375 -7.765625 L 1.984375 -7.75 C 1.65625 -7.578125 1.4375 -7.359375 1.296875 -7.234375 Z M 5.421875 -7.765625 L 6.640625 -7.765625 L 2.140625 -0.421875 L 0.921875 -0.421875 Z M 6.0625 -0.4375 C 6.390625 -0.625 6.703125 -0.890625 6.984375 -1.21875 C 6.953125 -0.984375 6.9375 -0.84375 6.875 -0.421875 L 6.0625 -0.421875 Z M 6.0625 -0.4375 "/>
</g>
<g id="glyph-0-3">
<path d="M 5.71875 0.109375 C 7.40625 -0.234375 8.90625 -1.578125 8.90625 -4.09375 C 8.90625 -7.09375 6.796875 -8.421875 4.65625 -8.421875 C 2.46875 -8.421875 0.390625 -7.046875 0.390625 -4.09375 C 0.390625 -1.546875 1.921875 -0.328125 3.328125 0.046875 C 3.875 1.28125 5.0625 2.140625 6.53125 2.140625 C 7.140625 2.140625 7.796875 2.015625 8.421875 1.78125 C 8.625 1.703125 8.75 1.65625 8.75 1.5 C 8.75 1.359375 8.640625 1.296875 8.546875 1.296875 C 8.515625 1.296875 8.515625 1.296875 8.421875 1.3125 C 8.09375 1.40625 7.953125 1.40625 7.765625 1.40625 C 6.671875 1.40625 5.984375 0.703125 5.71875 0.109375 Z M 3 -7.65625 C 2.265625 -6.8125 2.078125 -5.421875 2.078125 -4.09375 C 2.078125 -2.921875 2.21875 -1.4375 3.015625 -0.5 C 2.1875 -0.8125 0.8125 -1.765625 0.8125 -4.09375 C 0.8125 -6.53125 2.296875 -7.40625 2.984375 -7.671875 Z M 6.3125 -7.671875 C 7.109375 -7.375 8.484375 -6.421875 8.484375 -4.09375 C 8.484375 -1.65625 7 -0.78125 6.28125 -0.5 C 7.03125 -1.375 7.21875 -2.765625 7.21875 -4.09375 C 7.21875 -5.265625 7.078125 -6.75 6.296875 -7.65625 Z M 4.65625 -0.1875 C 2.71875 -0.1875 2.5 -2.71875 2.5 -4.09375 C 2.5 -5.515625 2.734375 -8 4.65625 -8 C 6.59375 -8 6.796875 -5.46875 6.796875 -4.09375 C 6.796875 -2.671875 6.5625 -0.1875 4.65625 -0.1875 Z M 3.859375 0.171875 C 4.203125 0.234375 4.640625 0.234375 4.65625 0.234375 C 4.703125 0.234375 4.953125 0.234375 5.296875 0.1875 C 5.625 0.9375 6.1875 1.40625 6.78125 1.640625 C 6.890625 1.6875 6.90625 1.6875 6.90625 1.703125 C 6.90625 1.71875 6.6875 1.71875 6.53125 1.71875 C 5.515625 1.71875 4.484375 1.25 3.859375 0.171875 Z M 3.859375 0.171875 "/>
</g>
<g id="glyph-0-4">
<path d="M 3.203125 -3.75 L 3.640625 -3.75 L 5.421875 -0.984375 C 5.546875 -0.78125 5.828125 -0.328125 5.96875 -0.140625 C 6.046875 0 6.078125 0 6.359375 0 L 8.015625 0 C 8.21875 0 8.40625 0 8.40625 -0.21875 C 8.40625 -0.3125 8.328125 -0.390625 8.21875 -0.421875 C 7.78125 -0.515625 7.203125 -1.296875 6.90625 -1.6875 C 6.828125 -1.8125 6.234375 -2.59375 5.421875 -3.890625 C 6.484375 -4.078125 7.515625 -4.53125 7.515625 -5.953125 C 7.515625 -7.609375 5.765625 -8.1875 4.34375 -8.1875 L 0.59375 -8.1875 C 0.375 -8.1875 0.1875 -8.1875 0.1875 -7.96875 C 0.1875 -7.765625 0.421875 -7.765625 0.515625 -7.765625 C 1.1875 -7.765625 1.25 -7.6875 1.25 -7.09375 L 1.25 -1.09375 C 1.25 -0.5 1.1875 -0.421875 0.515625 -0.421875 C 0.421875 -0.421875 0.1875 -0.421875 0.1875 -0.21875 C 0.1875 0 0.375 0 0.59375 0 L 3.875 0 C 4.09375 0 4.265625 0 4.265625 -0.21875 C 4.265625 -0.421875 4.0625 -0.421875 3.9375 -0.421875 C 3.25 -0.421875 3.203125 -0.515625 3.203125 -1.09375 Z M 5.515625 -4.34375 C 5.84375 -4.78125 5.875 -5.421875 5.875 -5.9375 C 5.875 -6.515625 5.8125 -7.140625 5.421875 -7.640625 C 5.921875 -7.53125 7.09375 -7.15625 7.09375 -5.953125 C 7.09375 -5.171875 6.734375 -4.5625 5.515625 -4.34375 Z M 3.203125 -7.125 C 3.203125 -7.375 3.203125 -7.765625 3.9375 -7.765625 C 4.953125 -7.765625 5.46875 -7.34375 5.46875 -5.9375 C 5.46875 -4.40625 5.09375 -4.171875 3.203125 -4.171875 Z M 1.578125 -0.421875 C 1.671875 -0.640625 1.671875 -0.96875 1.671875 -1.078125 L 1.671875 -7.109375 C 1.671875 -7.234375 1.671875 -7.546875 1.578125 -7.765625 L 2.9375 -7.765625 C 2.78125 -7.578125 2.78125 -7.34375 2.78125 -7.15625 L 2.78125 -1.078125 C 2.78125 -0.953125 2.78125 -0.640625 2.875 -0.421875 Z M 4.125 -3.75 C 4.203125 -3.765625 4.25 -3.78125 4.34375 -3.78125 C 4.53125 -3.78125 4.796875 -3.796875 4.96875 -3.828125 C 5.15625 -3.53125 6.4375 -1.40625 7.4375 -0.421875 L 6.28125 -0.421875 Z M 4.125 -3.75 "/>
</g>
<g id="glyph-1-0">
</g>
<g id="glyph-1-1">
<path d="M 7.875 -7.125 C 8.078125 -7.125 8.296875 -7.125 8.296875 -7.359375 C 8.296875 -7.609375 8.078125 -7.609375 7.875 -7.609375 L 4.65625 -7.609375 C 2.609375 -7.609375 0.984375 -6.03125 0.984375 -4.140625 C 0.984375 -2.21875 2.640625 -0.6875 4.65625 -0.6875 L 7.875 -0.6875 C 8.078125 -0.6875 8.296875 -0.6875 8.296875 -0.921875 C 8.296875 -1.15625 8.078125 -1.15625 7.875 -1.15625 L 4.6875 -1.15625 C 2.796875 -1.15625 1.46875 -2.5625 1.46875 -4.140625 C 1.46875 -5.765625 2.828125 -7.125 4.6875 -7.125 Z M 1.65625 1.15625 C 1.453125 1.15625 1.234375 1.15625 1.234375 1.40625 C 1.234375 1.640625 1.453125 1.640625 1.65625 1.640625 L 7.875 1.640625 C 8.078125 1.640625 8.296875 1.640625 8.296875 1.40625 C 8.296875 1.15625 8.078125 1.15625 7.875 1.15625 Z M 1.65625 1.15625 "/>
</g>
</g>
</defs>
<g fill="rgb(0%, 0%, 0%)" fill-opacity="1">
<use xlink:href="#glyph-0-1" x="0.5" y="8.735"/>
</g>
<g fill="rgb(0%, 0%, 0%)" fill-opacity="1">
<use xlink:href="#glyph-1-1" x="12.455" y="8.735"/>
</g>
<g fill="rgb(0%, 0%, 0%)" fill-opacity="1">
<use xlink:href="#glyph-0-2" x="25.074" y="8.735"/>
</g>
<g fill="rgb(0%, 0%, 0%)" fill-opacity="1">
<use xlink:href="#glyph-1-1" x="36.365" y="8.735"/>
</g>
<g fill="rgb(0%, 0%, 0%)" fill-opacity="1">
<use xlink:href="#glyph-0-3" x="48.985" y="8.735"/>
</g>
<g fill="rgb(0%, 0%, 0%)" fill-opacity="1">
<use xlink:href="#glyph-1-1" x="61.604" y="8.735"/>
</g>
<g fill="rgb(0%, 0%, 0%)" fill-opacity="1">
<use xlink:href="#glyph-0-4" x="74.223" y="8.735"/>
</g>
</svg>
