<?xml version="1.0" encoding="UTF-8"?>
<svg xmlns="http://www.w3.org/2000/svg" xmlns:xlink="http://www.w3.org/1999/xlink" viewBox="0 0 30.763 11.228">
<defs>
<g>
<g id="glyph-0-0">
</g>
<g id="glyph-0-1">
<path d="M 5.359375 -3.828125 C 5.359375 -4.8125 5.296875 -5.78125 4.859375 -6.6875 C 4.375 -7.6875 3.515625 -7.953125 2.921875 -7.953125 C 2.234375 -7.953125 1.390625 -7.609375 0.9375 -6.609375 C 0.609375 -5.859375 0.484375 -5.109375 0.484375 -3.828125 C 0.484375 -2.671875 0.578125 -1.796875 1 -0.9375 C 1.46875 -0.03125 2.296875 0.25 2.921875 0.25 C 3.953125 0.25 4.546875 -0.375 4.90625 -1.0625 C 5.328125 -1.953125 5.359375 -3.125 5.359375 -3.828125 Z M 2.921875 0.015625 C 2.53125 0.015625 1.75 -0.203125 1.53125 -1.5 C 1.40625 -2.21875 1.40625 -3.125 1.40625 -3.96875 C 1.40625 -4.953125 1.40625 -5.828125 1.59375 -6.53125 C 1.796875 -7.34375 2.40625 -7.703125 2.921875 -7.703125 C 3.375 -7.703125 4.0625 -7.4375 4.296875 -6.40625 C 4.453125 -5.71875 4.453125 -4.78125 4.453125 -3.96875 C 4.453125 -3.171875 4.453125 -2.265625 4.3125 -1.53125 C 4.09375 -0.21875 3.328125 0.015625 2.921875 0.015625 Z M 2.921875 0.015625 "/>
</g>
<g id="glyph-1-0">
</g>
<g id="glyph-1-1">
<path d="M 6.546875 -2.75 C 6.75 -2.75 6.96875 -2.75 6.96875 -2.984375 C 6.96875 -3.234375 6.75 -3.234375 6.546875 -3.234375 L 1.484375 -3.234375 C 1.625 -4.828125 3 -5.96875 4.6875 -5.96875 L 6.546875 -5.96875 C 6.75 -5.96875 6.96875 -5.96875 6.96875 -6.21875 C 6.96875 -6.453125 6.75 -6.453125 6.546875 -6.453125 L 4.65625 -6.453125 C 2.625 -6.453125 0.984375 -4.90625 0.984375 -2.984375 C 0.984375 -1.078125 2.625 0.484375 4.65625 0.484375 L 6.546875 0.484375 C 6.75 0.484375 6.96875 0.484375 6.96875 0.234375 C 6.96875 0 6.75 0 6.546875 0 L 4.6875 0 C 3 0 1.625 -1.140625 1.484375 -2.75 Z M 6.546875 -2.75 "/>
</g>
<g id="glyph-2-0">
</g>
<g id="glyph-2-1">
<path d="M 5.71875 0.109375 C 7.40625 -0.234375 8.90625 -1.578125 8.90625 -4.09375 C 8.90625 -7.09375 6.796875 -8.421875 4.65625 -8.421875 C 2.46875 -8.421875 0.390625 -7.046875 0.390625 -4.09375 C 0.390625 -1.546875 1.921875 -0.328125 3.328125 0.046875 C 3.875 1.28125 5.0625 2.140625 6.53125 2.140625 C 7.140625 2.140625 7.796875 2.015625 8.421875 1.78125 C 8.625 1.703125 8.75 1.65625 8.75 1.5 C 8.75 1.359375 8.640625 1.296875 8.546875 1.296875 C 8.515625 1.296875 8.515625 1.296875 8.421875 1.3125 C 8.09375 1.40625 7.953125 1.40625 7.765625 1.40625 C 6.671875 1.40625 5.984375 0.703125 5.71875 0.109375 Z M 3 -7.65625 C 2.265625 -6.8125 2.078125 -5.421875 2.078125 -4.09375 C 2.078125 -2.921875 2.21875 -1.4375 3.015625 -0.5 C 2.1875 -0.8125 0.8125 -1.765625 0.8125 -4.09375 C 0.8125 -6.53125 2.296875 -7.40625 2.984375 -7.671875 Z M 6.3125 -7.671875 C 7.109375 -7.375 8.484375 -6.421875 8.484375 -4.09375 C 8.484375 -1.65625 7 -0.78125 6.28125 -0.5 C 7.03125 -1.375 7.21875 -2.765625 7.21875 -4.09375 C 7.21875 -5.265625 7.078125 -6.75 6.296875 -7.65625 Z M 4.65625 -0.1875 C 2.71875 -0.1875 2.5 -2.71875 2.5 -4.09375 C 2.5 -5.515625 2.734375 -8 4.65625 -8 C 6.59375 -8 6.796875 -5.46875 6.796875 -4.09375 C 6.796875 -2.671875 6.5625 -0.1875 4.65625 -0.1875 Z M 3.859375 0.171875 C 4.203125 0.234375 4.640625 0.234375 4.65625 0.234375 C 4.703125 0.234375 4.953125 0.234375 5.296875 0.1875 C 5.625 0.9375 6.1875 1.40625 6.78125 1.640625 C 6.890625 1.6875 6.90625 1.6875 6.90625 1.703125 C 6.90625 1.71875 6.6875 1.71875 6.53125 1.71875 C 5.515625 1.71875 4.484375 1.25 3.859375 0.171875 Z M 3.859375 0.171875 "/>
</g>
</g>
</defs>
<g fill="rgb(0%, 0%, 0%)" fill-opacity="1">
<use xlink:href="#glyph-0-1" x="0.5" y="8.735"/>
</g>
<g fill="rgb(0%, 0%, 0%)" fill-opacity="1">
<use xlink:href="#glyph-1-1" x="9.674" y="8.735"/>
</g>
<g fill="rgb(0%, 0%, 0%)" fill-opacity="1">
<use xlink:href="#glyph-2-1" x="20.965" y="8.735"/>
</g>
</svg>
