<?xml version="1.0" encoding="UTF-8"?>
<svg xmlns="http://www.w3.org/2000/svg" xmlns:xlink="http://www.w3.org/1999/xlink" viewBox="0 0 6.78 9.302">
<defs>
<g>
<g id="glyph-0-0">
</g>
<g id="glyph-0-1">
<path d="M 5.296875 -6.015625 C 5.296875 -7.234375 4.90625 -8.421875 3.9375 -8.421875 C 2.265625 -8.421875 0.484375 -4.90625 0.484375 -2.28125 C 0.484375 -1.734375 0.59375 0.125 1.859375 0.125 C 3.484375 0.125 5.296875 -3.296875 5.296875 -6.015625 Z M 1.671875 -4.328125 C 1.859375 -5.03125 2.109375 -6.03125 2.578125 -6.890625 C 2.96875 -7.609375 3.390625 -8.171875 3.921875 -8.171875 C 4.3125 -8.171875 4.578125 -7.84375 4.578125 -6.6875 C 4.578125 -6.265625 4.546875 -5.671875 4.203125 -4.328125 Z M 4.109375 -3.96875 C 3.8125 -2.796875 3.5625 -2.046875 3.125 -1.296875 C 2.78125 -0.6875 2.359375 -0.125 1.859375 -0.125 C 1.5 -0.125 1.1875 -0.40625 1.1875 -1.59375 C 1.1875 -2.359375 1.390625 -3.171875 1.578125 -3.96875 Z M 4.109375 -3.96875 "/>
</g>
</g>
</defs>
<g fill="rgb(0%, 0%, 0%)" fill-opacity="1">
<use xlink:href="#glyph-0-1" x="0.5" y="8.802"/>
</g>
</svg>
