<?xml version="1.0" encoding="UTF-8"?>
<svg xmlns="http://www.w3.org/2000/svg" xmlns:xlink="http://www.w3.org/1999/xlink" viewBox="0 0 87.002 15.346">
<defs>
<g>
<g id="glyph-0-0">
</g>
<g id="glyph-0-1">
<path d="M 4.796875 -1.296875 C 5.109375 -2.09375 5.140625 -2.859375 5.140625 -3.921875 C 5.140625 -4.546875 5.109375 -5.21875 5.109375 -5.4375 C 4.09375 -6.265625 2.875 -7.171875 1.8125 -7.3125 C 1.265625 -7.0625 0.671875 -6.78125 0.15625 -6.484375 L 0.3125 -6.296875 L 0.859375 -6.515625 C 0.890625 -6.53125 1.046875 -6.53125 1.140625 -6.53125 C 2.1875 -6.53125 3.28125 -5.5625 4.03125 -4.765625 C 4.125 -4.25 4.171875 -3.71875 4.171875 -3.1875 C 4.171875 -2.328125 4.046875 -1.453125 3.578125 -0.703125 C 3.53125 -0.625 3.453125 -0.578125 3.390625 -0.578125 C 3.171875 -0.578125 2.671875 -0.953125 2.4375 -1.125 C 2.25 -1.265625 2.0625 -1.421875 1.90625 -1.609375 C 1.859375 -2.046875 1.8125 -2.5625 1.8125 -3.03125 C 1.8125 -3.46875 1.859375 -3.859375 1.96875 -4.140625 C 2.0625 -4.375 2.203125 -4.703125 2.75 -5.296875 L 2.515625 -5.34375 C 2 -5 1.453125 -4.484375 0.9375 -4 C 0.890625 -3.09375 0.875 -2.515625 0.875 -1.984375 C 0.875 -1.65625 0.890625 -1.328125 0.90625 -0.96875 C 1.375 -0.421875 1.953125 0 2.5625 0.40625 Z M 4.796875 -1.296875 "/>
</g>
<g id="glyph-0-2">
<path d="M 0.328125 -4.40625 C 0.484375 -4.53125 0.6875 -4.625 0.828125 -4.671875 L 1.078125 -4.390625 C 1.109375 -3.6875 1.125 -3.015625 1.125 -2.3125 C 1.125 -1.765625 1.125 -1.296875 1.09375 -0.65625 L 1.734375 0.25 C 2.234375 -0.125 2.734375 -0.546875 3.203125 -0.984375 L 3.125 -1.21875 C 3.015625 -1.140625 2.671875 -0.890625 2.484375 -0.890625 C 1.96875 -1.40625 2.046875 -2.0625 2.046875 -2.859375 C 2.046875 -3.578125 2.0625 -4.296875 2.140625 -5.015625 C 1.875 -5.21875 1.65625 -5.4375 1.421875 -5.671875 C 1.015625 -5.296875 0.578125 -4.90625 0.171875 -4.5625 Z M 2.234375 -7.359375 C 2.0625 -7.5 1.796875 -7.8125 1.578125 -8.0625 C 1.359375 -7.8125 1.09375 -7.609375 0.859375 -7.375 C 1.078125 -7.125 1.296875 -6.875 1.546875 -6.640625 Z M 2.234375 -7.359375 "/>
</g>
<g id="glyph-0-3">
<path d="M 2.296875 -2.921875 C 2.234375 -2.890625 2.15625 -2.890625 2.09375 -2.890625 C 1.796875 -2.890625 1.703125 -3.625 1.703125 -4.015625 C 1.703125 -4.296875 1.703125 -4.734375 1.953125 -4.953125 C 2.265625 -4.65625 2.90625 -4.390625 3.765625 -4.34375 L 4.859375 -5.265625 L 4.796875 -5.46875 C 4.484375 -5.265625 4.203125 -5.109375 3.9375 -5.109375 C 3.8125 -5.109375 3.71875 -5.125 3.625 -5.171875 L 2.65625 -5.71875 L 0.84375 -4.5 C 0.78125 -3.96875 0.765625 -3.390625 0.765625 -2.8125 C 0.90625 -2.546875 1.09375 -2.234375 1.28125 -2.015625 L 2.5 -2.703125 C 2.640625 -2.78125 2.75 -2.828125 2.921875 -2.828125 C 3.21875 -2.828125 3.53125 -2.578125 3.53125 -1.671875 C 3.53125 -1.296875 3.5 -0.40625 3.234375 -0.40625 C 3.203125 -0.40625 3.1875 -0.40625 3.171875 -0.421875 L 2.21875 -1.0625 C 1.953125 -1.234375 1.65625 -1.328125 1.34375 -1.328125 C 0.609375 -1.328125 0.078125 -0.578125 -0.328125 -0.140625 L -0.234375 -0.03125 C 0.15625 -0.375 0.484375 -0.5625 0.84375 -0.5625 C 1.34375 -0.5625 1.953125 -0.03125 2.359375 0.359375 C 2.96875 -0.015625 3.640625 -0.3125 4.28125 -0.59375 C 4.421875 -1.125 4.46875 -1.65625 4.46875 -2.21875 C 4.46875 -2.515625 4.453125 -2.828125 4.4375 -3.125 C 4.234375 -3.328125 4.03125 -3.5 3.765625 -3.578125 Z M 2.296875 -2.921875 "/>
</g>
<g id="glyph-0-4">
<path d="M 2.71875 -7.65625 L 1.375 -6.671875 L 1.375 -4.609375 L 0.5 -4.609375 L 0.3125 -4.203125 L 1.390625 -4.203125 C 1.375 -3.03125 1.375 -0.75 1.375 -0.734375 L 2.53125 0.25 L 4.171875 -0.9375 L 4.140625 -1.1875 C 3.734375 -0.921875 3.484375 -0.8125 3.296875 -0.8125 C 3.0625 -0.8125 2.65625 -1.1875 2.34375 -1.46875 L 2.328125 -4.203125 L 3.40625 -4.203125 L 3.609375 -4.609375 L 2.3125 -4.609375 C 2.3125 -5.390625 2.328125 -6.1875 2.46875 -6.953125 C 2.46875 -7.046875 2.515625 -7.125 2.5625 -7.1875 L 2.890625 -7.5 Z M 2.71875 -7.65625 "/>
</g>
<g id="glyph-1-0">
</g>
<g id="glyph-1-1">
<path d="M 4.9375 13.734375 C 4.9375 13.6875 4.90625 13.65625 4.890625 13.625 C 4.34375 13.046875 3.53125 12.078125 3.03125 10.125 C 2.75 9.03125 2.640625 7.8125 2.640625 6.6875 C 2.640625 3.546875 3.390625 1.34375 4.828125 -0.203125 C 4.9375 -0.3125 4.9375 -0.328125 4.9375 -0.359375 C 4.9375 -0.484375 4.84375 -0.484375 4.796875 -0.484375 C 4.609375 -0.484375 3.96875 0.234375 3.8125 0.421875 C 2.59375 1.859375 1.8125 4.015625 1.8125 6.6875 C 1.8125 8.375 2.109375 10.78125 3.6875 12.796875 C 3.796875 12.9375 4.578125 13.859375 4.796875 13.859375 C 4.84375 13.859375 4.9375 13.859375 4.9375 13.734375 Z M 4.9375 13.734375 "/>
</g>
<g id="glyph-1-2">
<path d="M 3.640625 6.6875 C 3.640625 5 3.34375 2.59375 1.78125 0.578125 C 1.65625 0.4375 0.890625 -0.484375 0.671875 -0.484375 C 0.609375 -0.484375 0.53125 -0.453125 0.53125 -0.359375 C 0.53125 -0.3125 0.546875 -0.28125 0.59375 -0.234375 C 1.171875 0.375 1.953125 1.34375 2.4375 3.25 C 2.71875 4.34375 2.828125 5.5625 2.828125 6.6875 C 2.828125 7.890625 2.71875 9.109375 2.40625 10.28125 C 1.953125 11.953125 1.25 12.90625 0.640625 13.578125 C 0.53125 13.6875 0.53125 13.703125 0.53125 13.734375 C 0.53125 13.828125 0.609375 13.859375 0.671875 13.859375 C 0.84375 13.859375 1.5 13.125 1.65625 12.953125 C 2.875 11.515625 3.640625 9.359375 3.640625 6.6875 Z M 3.640625 6.6875 "/>
</g>
<g id="glyph-2-0">
</g>
<g id="glyph-2-1">
<path d="M 2.03125 -1.328125 C 1.609375 -0.625 1.203125 -0.375 0.640625 -0.34375 C 0.5 -0.328125 0.40625 -0.328125 0.40625 -0.125 C 0.40625 -0.046875 0.46875 0 0.546875 0 C 0.765625 0 1.296875 -0.03125 1.515625 -0.03125 C 1.859375 -0.03125 2.25 0 2.578125 0 C 2.65625 0 2.796875 0 2.796875 -0.234375 C 2.796875 -0.328125 2.703125 -0.34375 2.625 -0.34375 C 2.359375 -0.375 2.125 -0.46875 2.125 -0.75 C 2.125 -0.921875 2.203125 -1.046875 2.359375 -1.3125 L 3.265625 -2.828125 L 6.3125 -2.828125 C 6.328125 -2.71875 6.328125 -2.625 6.328125 -2.515625 C 6.375 -2.203125 6.515625 -0.953125 6.515625 -0.734375 C 6.515625 -0.375 5.90625 -0.34375 5.71875 -0.34375 C 5.578125 -0.34375 5.453125 -0.34375 5.453125 -0.125 C 5.453125 0 5.5625 0 5.625 0 C 5.828125 0 6.078125 -0.03125 6.28125 -0.03125 L 6.953125 -0.03125 C 7.6875 -0.03125 8.21875 0 8.21875 0 C 8.3125 0 8.4375 0 8.4375 -0.234375 C 8.4375 -0.34375 8.328125 -0.34375 8.15625 -0.34375 C 7.5 -0.34375 7.484375 -0.453125 7.453125 -0.8125 L 6.71875 -8.265625 C 6.6875 -8.515625 6.640625 -8.53125 6.515625 -8.53125 C 6.390625 -8.53125 6.328125 -8.515625 6.21875 -8.328125 Z M 3.46875 -3.171875 L 5.875 -7.1875 L 6.28125 -3.171875 Z M 3.46875 -3.171875 "/>
</g>
<g id="glyph-2-2">
<path d="M 0.515625 1.515625 C 0.4375 1.875 0.375 1.96875 -0.109375 1.96875 C -0.25 1.96875 -0.375 1.96875 -0.375 2.203125 C -0.375 2.21875 -0.359375 2.3125 -0.234375 2.3125 C -0.078125 2.3125 0.09375 2.296875 0.25 2.296875 L 0.765625 2.296875 C 1.015625 2.296875 1.625 2.3125 1.875 2.3125 C 1.953125 2.3125 2.09375 2.3125 2.09375 2.109375 C 2.09375 1.96875 2.015625 1.96875 1.8125 1.96875 C 1.25 1.96875 1.21875 1.890625 1.21875 1.796875 C 1.21875 1.65625 1.75 -0.40625 1.828125 -0.6875 C 1.953125 -0.34375 2.28125 0.125 2.90625 0.125 C 4.25 0.125 5.71875 -1.640625 5.71875 -3.390625 C 5.71875 -4.5 5.09375 -5.265625 4.203125 -5.265625 C 3.4375 -5.265625 2.78125 -4.53125 2.65625 -4.359375 C 2.5625 -4.953125 2.09375 -5.265625 1.609375 -5.265625 C 1.265625 -5.265625 0.984375 -5.109375 0.765625 -4.65625 C 0.546875 -4.21875 0.375 -3.484375 0.375 -3.4375 C 0.375 -3.390625 0.4375 -3.328125 0.515625 -3.328125 C 0.609375 -3.328125 0.625 -3.34375 0.6875 -3.625 C 0.875 -4.328125 1.09375 -5.03125 1.578125 -5.03125 C 1.859375 -5.03125 1.953125 -4.84375 1.953125 -4.484375 C 1.953125 -4.203125 1.90625 -4.078125 1.859375 -3.859375 Z M 2.578125 -3.734375 C 2.671875 -4.0625 3 -4.40625 3.1875 -4.578125 C 3.328125 -4.703125 3.71875 -5.03125 4.171875 -5.03125 C 4.703125 -5.03125 4.9375 -4.5 4.9375 -3.890625 C 4.9375 -3.3125 4.609375 -1.953125 4.296875 -1.34375 C 4 -0.6875 3.453125 -0.125 2.90625 -0.125 C 2.09375 -0.125 1.953125 -1.140625 1.953125 -1.1875 C 1.953125 -1.234375 1.984375 -1.328125 2 -1.390625 Z M 2.578125 -3.734375 "/>
</g>
<g id="glyph-2-3">
<path d="M 2.328125 0.046875 C 2.328125 -0.640625 2.109375 -1.15625 1.609375 -1.15625 C 1.234375 -1.15625 1.046875 -0.84375 1.046875 -0.578125 C 1.046875 -0.328125 1.21875 0 1.625 0 C 1.78125 0 1.90625 -0.046875 2.015625 -0.15625 C 2.046875 -0.171875 2.0625 -0.171875 2.0625 -0.171875 C 2.09375 -0.171875 2.09375 -0.015625 2.09375 0.046875 C 2.09375 0.4375 2.015625 1.21875 1.328125 2 C 1.1875 2.140625 1.1875 2.15625 1.1875 2.1875 C 1.1875 2.25 1.25 2.3125 1.3125 2.3125 C 1.40625 2.3125 2.328125 1.421875 2.328125 0.046875 Z M 2.328125 0.046875 "/>
</g>
<g id="glyph-3-0">
</g>
<g id="glyph-3-1">
<path d="M 3.890625 2.90625 C 3.890625 2.875 3.890625 2.84375 3.6875 2.640625 C 2.484375 1.4375 1.8125 -0.53125 1.8125 -2.96875 C 1.8125 -5.296875 2.375 -7.296875 3.765625 -8.703125 C 3.890625 -8.8125 3.890625 -8.828125 3.890625 -8.875 C 3.890625 -8.9375 3.828125 -8.96875 3.78125 -8.96875 C 3.625 -8.96875 2.640625 -8.109375 2.0625 -6.9375 C 1.453125 -5.71875 1.171875 -4.453125 1.171875 -2.96875 C 1.171875 -1.90625 1.34375 -0.484375 1.953125 0.78125 C 2.671875 2.21875 3.640625 3 3.78125 3 C 3.828125 3 3.890625 2.96875 3.890625 2.90625 Z M 3.890625 2.90625 "/>
</g>
<g id="glyph-3-2">
<path d="M 3.375 -2.96875 C 3.375 -3.890625 3.25 -5.359375 2.578125 -6.75 C 1.875 -8.1875 0.890625 -8.96875 0.765625 -8.96875 C 0.71875 -8.96875 0.65625 -8.9375 0.65625 -8.875 C 0.65625 -8.828125 0.65625 -8.8125 0.859375 -8.609375 C 2.0625 -7.40625 2.71875 -5.421875 2.71875 -2.984375 C 2.71875 -0.671875 2.15625 1.328125 0.78125 2.734375 C 0.65625 2.84375 0.65625 2.875 0.65625 2.90625 C 0.65625 2.96875 0.71875 3 0.765625 3 C 0.921875 3 1.90625 2.140625 2.484375 0.96875 C 3.09375 -0.25 3.375 -1.546875 3.375 -2.96875 Z M 3.375 -2.96875 "/>
</g>
<g id="glyph-3-3">
<path d="M 8.0625 -3.875 C 8.234375 -3.875 8.453125 -3.875 8.453125 -4.09375 C 8.453125 -4.3125 8.25 -4.3125 8.0625 -4.3125 L 1.03125 -4.3125 C 0.859375 -4.3125 0.640625 -4.3125 0.640625 -4.09375 C 0.640625 -3.875 0.84375 -3.875 1.03125 -3.875 Z M 8.0625 -1.65625 C 8.234375 -1.65625 8.453125 -1.65625 8.453125 -1.859375 C 8.453125 -2.09375 8.25 -2.09375 8.0625 -2.09375 L 1.03125 -2.09375 C 0.859375 -2.09375 0.640625 -2.09375 0.640625 -1.875 C 0.640625 -1.65625 0.84375 -1.65625 1.03125 -1.65625 Z M 8.0625 -1.65625 "/>
</g>
<g id="glyph-3-4">
<path d="M 5.359375 -3.828125 C 5.359375 -4.8125 5.296875 -5.78125 4.859375 -6.6875 C 4.375 -7.6875 3.515625 -7.953125 2.921875 -7.953125 C 2.234375 -7.953125 1.390625 -7.609375 0.9375 -6.609375 C 0.609375 -5.859375 0.484375 -5.109375 0.484375 -3.828125 C 0.484375 -2.671875 0.578125 -1.796875 1 -0.9375 C 1.46875 -0.03125 2.296875 0.25 2.921875 0.25 C 3.953125 0.25 4.546875 -0.375 4.90625 -1.0625 C 5.328125 -1.953125 5.359375 -3.125 5.359375 -3.828125 Z M 2.921875 0.015625 C 2.53125 0.015625 1.75 -0.203125 1.53125 -1.5 C 1.40625 -2.21875 1.40625 -3.125 1.40625 -3.96875 C 1.40625 -4.953125 1.40625 -5.828125 1.59375 -6.53125 C 1.796875 -7.34375 2.40625 -7.703125 2.921875 -7.703125 C 3.375 -7.703125 4.0625 -7.4375 4.296875 -6.40625 C 4.453125 -5.71875 4.453125 -4.78125 4.453125 -3.96875 C 4.453125 -3.171875 4.453125 -2.265625 4.3125 -1.53125 C 4.09375 -0.21875 3.328125 0.015625 2.921875 0.015625 Z M 2.921875 0.015625 "/>
</g>
</g>
</defs>
<g fill="rgb(0%, 0%, 0%)" fill-opacity="1">
<use xlink:href="#glyph-0-1" x="0.5" y="10.662"/>
<use xlink:href="#glyph-0-2" x="6.460863" y="10.662"/>
<use xlink:href="#glyph-0-3" x="9.796364" y="10.662"/>
<use xlink:href="#glyph-0-4" x="15.088931" y="10.662"/>
</g>
<g fill="rgb(0%, 0%, 0%)" fill-opacity="1">
<use xlink:href="#glyph-1-1" x="19.069" y="0.978"/>
</g>
<g fill="rgb(0%, 0%, 0%)" fill-opacity="1">
<use xlink:href="#glyph-2-1" x="24.549" y="10.662"/>
</g>
<g fill="rgb(0%, 0%, 0%)" fill-opacity="1">
<use xlink:href="#glyph-3-1" x="33.324" y="10.662"/>
</g>
<g fill="rgb(0%, 0%, 0%)" fill-opacity="1">
<use xlink:href="#glyph-2-2" x="37.876" y="10.662"/>
</g>
<g fill="rgb(0%, 0%, 0%)" fill-opacity="1">
<use xlink:href="#glyph-3-2" x="43.751" y="10.662"/>
</g>
<g fill="rgb(0%, 0%, 0%)" fill-opacity="1">
<use xlink:href="#glyph-2-3" x="48.304" y="10.662"/>
</g>
<g fill="rgb(0%, 0%, 0%)" fill-opacity="1">
<use xlink:href="#glyph-2-2" x="53.552333" y="10.662"/>
</g>
<g fill="rgb(0%, 0%, 0%)" fill-opacity="1">
<use xlink:href="#glyph-1-2" x="59.423" y="0.978"/>
</g>
<g fill="rgb(0%, 0%, 0%)" fill-opacity="1">
<use xlink:href="#glyph-3-3" x="68.223" y="10.662"/>
</g>
<g fill="rgb(0%, 0%, 0%)" fill-opacity="1">
<use xlink:href="#glyph-3-4" x="80.651626" y="10.662"/>
</g>
</svg>
