<?xml version="1.0" encoding="UTF-8"?>
<svg xmlns="http://www.w3.org/2000/svg" xmlns:xlink="http://www.w3.org/1999/xlink" viewBox="0 0 244.009 14.903">
<defs>
<g>
<g id="glyph-0-0">
</g>
<g id="glyph-0-1">
<path d="M 4.40625 -6.6875 C 3.578125 -6.25 2.546875 -5.5625 2.546875 -4.640625 C 2.546875 -4.421875 3.109375 -3.71875 3.1875 -3.625 C 3.40625 -3.375 3.578125 -3.078125 3.578125 -2.734375 C 3.578125 -1.9375 2.4375 -1.59375 1.65625 -1.59375 C 1.140625 -1.140625 0.6875 -0.609375 0.375 0 L 0.578125 0.1875 C 0.859375 -0.265625 1.296875 -0.765625 1.859375 -0.765625 C 2.609375 -0.765625 3.515625 -0.390625 4.265625 -0.09375 C 4.65625 0.0625 5.359375 0.328125 5.609375 0.328125 C 6.3125 0.328125 7.5 -0.9375 8.265625 -1.75 C 8.671875 -2.828125 8.921875 -3.75 8.921875 -4.90625 C 8.921875 -6.3125 7.9375 -7.625 6.59375 -8.015625 C 5.8125 -8.21875 5.1875 -8.25 4.453125 -8.25 C 3.375 -8.25 2.125 -7.859375 1.34375 -7.09375 C 0.640625 -6.390625 0.328125 -5.5 0.328125 -4.515625 L 0.578125 -4.390625 C 0.609375 -5.09375 0.84375 -5.875 1.375 -6.40625 C 2.078125 -7.125 3.140625 -7.3125 4.140625 -7.3125 C 5.265625 -7.3125 6.390625 -7.046875 7.203125 -6.234375 C 7.8125 -5.625 8.015625 -4.734375 8.015625 -3.890625 C 8.015625 -3.109375 7.9375 -2.21875 7.515625 -1.59375 C 7.109375 -0.984375 6.890625 -0.578125 6.125 -0.578125 C 5.875 -0.578125 5.015625 -0.890625 4.484375 -1.09375 C 3.984375 -1.265625 3.390625 -1.453125 2.875 -1.5625 C 3.609375 -1.875 4.65625 -2.453125 4.65625 -3.3125 C 4.65625 -3.890625 3.578125 -4.8125 3.578125 -5.28125 C 3.578125 -5.734375 4.28125 -6.34375 4.59375 -6.546875 Z M 4.40625 -6.6875 "/>
</g>
<g id="glyph-1-0">
</g>
<g id="glyph-1-1">
<path d="M 2.765625 -5.640625 C 2.8125 -5.75 2.8125 -5.765625 2.8125 -5.796875 C 2.8125 -5.890625 2.734375 -5.96875 2.625 -5.96875 C 2.515625 -5.96875 2.46875 -5.890625 2.4375 -5.796875 L 0.984375 -2.140625 C 0.9375 -2.046875 0.9375 -2.03125 0.9375 -1.984375 C 0.9375 -1.953125 0.9375 -1.9375 0.984375 -1.84375 L 2.421875 1.796875 C 2.484375 1.921875 2.53125 1.984375 2.625 1.984375 C 2.734375 1.984375 2.8125 1.90625 2.8125 1.8125 C 2.8125 1.78125 2.8125 1.765625 2.765625 1.65625 L 1.3125 -1.984375 Z M 2.765625 -5.640625 "/>
</g>
<g id="glyph-1-2">
<path d="M 1.359375 -5.671875 C 1.359375 -5.796875 1.359375 -5.96875 1.171875 -5.96875 C 0.984375 -5.96875 0.984375 -5.796875 0.984375 -5.671875 L 0.984375 1.6875 C 0.984375 1.8125 0.984375 1.984375 1.171875 1.984375 C 1.359375 1.984375 1.359375 1.8125 1.359375 1.6875 Z M 1.359375 -5.671875 "/>
</g>
<g id="glyph-1-3">
<path d="M 2.296875 -1.84375 C 2.34375 -1.9375 2.34375 -1.953125 2.34375 -1.984375 C 2.34375 -2.03125 2.34375 -2.046875 2.296875 -2.140625 L 0.859375 -5.78125 C 0.8125 -5.90625 0.75 -5.96875 0.65625 -5.96875 C 0.546875 -5.96875 0.46875 -5.890625 0.46875 -5.796875 C 0.46875 -5.765625 0.46875 -5.75 0.515625 -5.640625 L 1.96875 -1.984375 L 0.515625 1.65625 C 0.46875 1.765625 0.46875 1.78125 0.46875 1.8125 C 0.46875 1.90625 0.546875 1.984375 0.65625 1.984375 C 0.765625 1.984375 0.8125 1.90625 0.84375 1.8125 Z M 2.296875 -1.84375 "/>
</g>
<g id="glyph-2-0">
</g>
<g id="glyph-2-1">
<path d="M 3.046875 -3.171875 L 3.796875 -3.171875 C 3.953125 -3.171875 4.046875 -3.171875 4.046875 -3.328125 C 4.046875 -3.4375 3.9375 -3.4375 3.8125 -3.4375 L 3.09375 -3.4375 C 3.234375 -4.15625 3.3125 -4.609375 3.390625 -4.96875 C 3.421875 -5.09375 3.4375 -5.1875 3.5625 -5.28125 C 3.671875 -5.375 3.734375 -5.390625 3.8125 -5.390625 C 3.9375 -5.390625 4.0625 -5.359375 4.171875 -5.296875 C 4.125 -5.28125 4.078125 -5.265625 4.046875 -5.234375 C 3.90625 -5.15625 3.8125 -5.015625 3.8125 -4.859375 C 3.8125 -4.671875 3.953125 -4.5625 4.125 -4.5625 C 4.359375 -4.5625 4.578125 -4.765625 4.578125 -5.046875 C 4.578125 -5.421875 4.1875 -5.609375 3.8125 -5.609375 C 3.53125 -5.609375 3.03125 -5.484375 2.78125 -4.75 C 2.703125 -4.5625 2.703125 -4.546875 2.5 -3.4375 L 1.890625 -3.4375 C 1.734375 -3.4375 1.640625 -3.4375 1.640625 -3.28125 C 1.640625 -3.171875 1.75 -3.171875 1.875 -3.171875 L 2.453125 -3.171875 L 1.875 -0.078125 C 1.71875 0.71875 1.609375 1.40625 1.171875 1.40625 C 1.15625 1.40625 0.984375 1.40625 0.84375 1.3125 C 1.203125 1.21875 1.203125 0.890625 1.203125 0.875 C 1.203125 0.6875 1.0625 0.578125 0.890625 0.578125 C 0.671875 0.578125 0.4375 0.765625 0.4375 1.0625 C 0.4375 1.40625 0.78125 1.625 1.171875 1.625 C 1.671875 1.625 2 1.109375 2.109375 0.921875 C 2.390625 0.390625 2.578125 -0.609375 2.59375 -0.6875 Z M 3.046875 -3.171875 "/>
</g>
<g id="glyph-2-2">
<path d="M 3.953125 -2.9375 C 3.984375 -3.0625 3.984375 -3.109375 3.984375 -3.109375 C 3.984375 -3.296875 3.828125 -3.359375 3.734375 -3.359375 C 3.546875 -3.359375 3.40625 -3.21875 3.375 -3.046875 C 3.3125 -3.171875 3.0625 -3.515625 2.59375 -3.515625 C 1.640625 -3.515625 0.609375 -2.453125 0.609375 -1.296875 C 0.609375 -0.4375 1.171875 0 1.765625 0 C 2.125 0 2.453125 -0.203125 2.71875 -0.4375 L 2.546875 0.28125 C 2.453125 0.625 2.40625 0.859375 2.09375 1.109375 C 1.75 1.40625 1.453125 1.40625 1.25 1.40625 C 1.046875 1.40625 0.859375 1.390625 0.671875 1.359375 C 0.84375 1.265625 0.921875 1.09375 0.921875 0.953125 C 0.921875 0.765625 0.78125 0.65625 0.609375 0.65625 C 0.421875 0.65625 0.171875 0.828125 0.171875 1.140625 C 0.171875 1.59375 0.78125 1.625 1.265625 1.625 C 2.40625 1.625 2.96875 1.015625 3.078125 0.53125 Z M 2.875 -1.046875 C 2.828125 -0.828125 2.640625 -0.671875 2.484375 -0.515625 C 2.40625 -0.46875 2.109375 -0.21875 1.78125 -0.21875 C 1.453125 -0.21875 1.234375 -0.484375 1.234375 -0.96875 C 1.234375 -1.296875 1.421875 -2.171875 1.640625 -2.578125 C 1.890625 -3.03125 2.265625 -3.296875 2.59375 -3.296875 C 3.125 -3.296875 3.265625 -2.703125 3.265625 -2.625 L 3.25 -2.515625 Z M 2.875 -1.046875 "/>
</g>
<g id="glyph-2-3">
<path d="M 3.125 -3.03125 C 3.046875 -3.171875 2.828125 -3.515625 2.328125 -3.515625 C 1.390625 -3.515625 0.34375 -2.40625 0.34375 -1.234375 C 0.34375 -0.390625 0.875 0.078125 1.484375 0.078125 C 2 0.078125 2.4375 -0.328125 2.578125 -0.484375 C 2.71875 0.0625 3.265625 0.078125 3.359375 0.078125 C 3.734375 0.078125 3.90625 -0.21875 3.96875 -0.359375 C 4.140625 -0.640625 4.25 -1.109375 4.25 -1.140625 C 4.25 -1.1875 4.21875 -1.25 4.125 -1.25 C 4.03125 -1.25 4.015625 -1.1875 3.953125 -1 C 3.84375 -0.5625 3.703125 -0.140625 3.390625 -0.140625 C 3.203125 -0.140625 3.125 -0.296875 3.125 -0.515625 C 3.125 -0.65625 3.203125 -0.921875 3.25 -1.125 C 3.296875 -1.328125 3.421875 -1.796875 3.453125 -1.9375 L 3.609375 -2.546875 C 3.65625 -2.734375 3.734375 -3.078125 3.734375 -3.109375 C 3.734375 -3.296875 3.578125 -3.359375 3.484375 -3.359375 C 3.359375 -3.359375 3.15625 -3.28125 3.125 -3.03125 Z M 2.578125 -0.859375 C 2.1875 -0.3125 1.765625 -0.140625 1.515625 -0.140625 C 1.140625 -0.140625 0.96875 -0.484375 0.96875 -0.890625 C 0.96875 -1.265625 1.171875 -2.125 1.359375 -2.46875 C 1.578125 -2.953125 1.96875 -3.296875 2.34375 -3.296875 C 2.859375 -3.296875 3.015625 -2.703125 3.015625 -2.609375 C 3.015625 -2.578125 2.8125 -1.796875 2.765625 -1.59375 C 2.65625 -1.21875 2.65625 -1.203125 2.578125 -0.859375 Z M 2.578125 -0.859375 "/>
</g>
<g id="glyph-3-0">
</g>
<g id="glyph-3-1">
<path d="M 3.890625 2.90625 C 3.890625 2.875 3.890625 2.84375 3.6875 2.640625 C 2.484375 1.4375 1.8125 -0.53125 1.8125 -2.96875 C 1.8125 -5.296875 2.375 -7.296875 3.765625 -8.703125 C 3.890625 -8.8125 3.890625 -8.828125 3.890625 -8.875 C 3.890625 -8.9375 3.828125 -8.96875 3.78125 -8.96875 C 3.625 -8.96875 2.640625 -8.109375 2.0625 -6.9375 C 1.453125 -5.71875 1.171875 -4.453125 1.171875 -2.96875 C 1.171875 -1.90625 1.34375 -0.484375 1.953125 0.78125 C 2.671875 2.21875 3.640625 3 3.78125 3 C 3.828125 3 3.890625 2.96875 3.890625 2.90625 Z M 3.890625 2.90625 "/>
</g>
<g id="glyph-3-2">
<path d="M 3.375 -2.96875 C 3.375 -3.890625 3.25 -5.359375 2.578125 -6.75 C 1.875 -8.1875 0.890625 -8.96875 0.765625 -8.96875 C 0.71875 -8.96875 0.65625 -8.9375 0.65625 -8.875 C 0.65625 -8.828125 0.65625 -8.8125 0.859375 -8.609375 C 2.0625 -7.40625 2.71875 -5.421875 2.71875 -2.984375 C 2.71875 -0.671875 2.15625 1.328125 0.78125 2.734375 C 0.65625 2.84375 0.65625 2.875 0.65625 2.90625 C 0.65625 2.96875 0.71875 3 0.765625 3 C 0.921875 3 1.90625 2.140625 2.484375 0.96875 C 3.09375 -0.25 3.375 -1.546875 3.375 -2.96875 Z M 3.375 -2.96875 "/>
</g>
<g id="glyph-3-3">
<path d="M 8.0625 -3.875 C 8.234375 -3.875 8.453125 -3.875 8.453125 -4.09375 C 8.453125 -4.3125 8.25 -4.3125 8.0625 -4.3125 L 1.03125 -4.3125 C 0.859375 -4.3125 0.640625 -4.3125 0.640625 -4.09375 C 0.640625 -3.875 0.84375 -3.875 1.03125 -3.875 Z M 8.0625 -1.65625 C 8.234375 -1.65625 8.453125 -1.65625 8.453125 -1.859375 C 8.453125 -2.09375 8.25 -2.09375 8.0625 -2.09375 L 1.03125 -2.09375 C 0.859375 -2.09375 0.640625 -2.09375 0.640625 -1.875 C 0.640625 -1.65625 0.84375 -1.65625 1.03125 -1.65625 Z M 8.0625 -1.65625 "/>
</g>
<g id="glyph-3-4">
<path d="M 4.765625 -2.765625 L 8.0625 -2.765625 C 8.234375 -2.765625 8.453125 -2.765625 8.453125 -2.96875 C 8.453125 -3.203125 8.25 -3.203125 8.0625 -3.203125 L 4.765625 -3.203125 L 4.765625 -6.5 C 4.765625 -6.671875 4.765625 -6.890625 4.546875 -6.890625 C 4.328125 -6.890625 4.328125 -6.6875 4.328125 -6.5 L 4.328125 -3.203125 L 1.03125 -3.203125 C 0.859375 -3.203125 0.640625 -3.203125 0.640625 -2.984375 C 0.640625 -2.765625 0.84375 -2.765625 1.03125 -2.765625 L 4.328125 -2.765625 L 4.328125 0.53125 C 4.328125 0.703125 4.328125 0.921875 4.546875 0.921875 C 4.765625 0.921875 4.765625 0.71875 4.765625 0.53125 Z M 4.765625 -2.765625 "/>
</g>
<g id="glyph-4-0">
</g>
<g id="glyph-4-1">
<path d="M 3.359375 -8 C 3.375 -8.046875 3.390625 -8.109375 3.390625 -8.171875 C 3.390625 -8.296875 3.28125 -8.296875 3.25 -8.296875 C 3.234375 -8.296875 2.65625 -8.25 2.59375 -8.234375 C 2.390625 -8.21875 2.21875 -8.203125 2 -8.1875 C 1.703125 -8.15625 1.609375 -8.15625 1.609375 -7.9375 C 1.609375 -7.8125 1.703125 -7.8125 1.875 -7.8125 C 2.46875 -7.8125 2.46875 -7.703125 2.46875 -7.59375 C 2.46875 -7.515625 2.453125 -7.421875 2.4375 -7.390625 L 0.703125 -0.46875 C 0.65625 -0.28125 0.65625 -0.265625 0.65625 -0.1875 C 0.65625 0.078125 0.859375 0.125 0.984375 0.125 C 1.1875 0.125 1.34375 -0.03125 1.40625 -0.171875 L 1.9375 -2.328125 C 2 -2.59375 2.0625 -2.84375 2.125 -3.109375 C 2.265625 -3.609375 2.265625 -3.625 2.484375 -3.96875 C 2.71875 -4.3125 3.25 -5.03125 4.171875 -5.03125 C 4.65625 -5.03125 4.8125 -4.671875 4.8125 -4.203125 C 4.8125 -3.53125 4.34375 -2.21875 4.09375 -1.5 C 3.984375 -1.21875 3.921875 -1.0625 3.921875 -0.84375 C 3.921875 -0.3125 4.296875 0.125 4.859375 0.125 C 5.96875 0.125 6.390625 -1.640625 6.390625 -1.703125 C 6.390625 -1.765625 6.34375 -1.8125 6.28125 -1.8125 C 6.171875 -1.8125 6.15625 -1.78125 6.09375 -1.578125 C 5.828125 -0.625 5.375 -0.125 4.90625 -0.125 C 4.78125 -0.125 4.59375 -0.125 4.59375 -0.515625 C 4.59375 -0.828125 4.734375 -1.203125 4.78125 -1.34375 C 5 -1.90625 5.53125 -3.328125 5.53125 -4.015625 C 5.53125 -4.734375 5.109375 -5.265625 4.203125 -5.265625 C 3.53125 -5.265625 2.921875 -4.953125 2.4375 -4.328125 Z M 3.359375 -8 "/>
</g>
<g id="glyph-4-2">
<path d="M 5.328125 -4.8125 C 5.5625 -4.8125 5.671875 -4.8125 5.671875 -5.03125 C 5.671875 -5.15625 5.5625 -5.15625 5.359375 -5.15625 L 4.390625 -5.15625 C 4.609375 -6.390625 4.78125 -7.234375 4.875 -7.609375 C 4.953125 -7.90625 5.203125 -8.171875 5.515625 -8.171875 C 5.765625 -8.171875 6.015625 -8.0625 6.125 -7.953125 C 5.671875 -7.90625 5.515625 -7.5625 5.515625 -7.359375 C 5.515625 -7.125 5.703125 -6.984375 5.921875 -6.984375 C 6.171875 -6.984375 6.53125 -7.1875 6.53125 -7.640625 C 6.53125 -8.140625 6.03125 -8.421875 5.5 -8.421875 C 4.984375 -8.421875 4.484375 -8.03125 4.25 -7.5625 C 4.03125 -7.140625 3.90625 -6.71875 3.640625 -5.15625 L 2.828125 -5.15625 C 2.609375 -5.15625 2.484375 -5.15625 2.484375 -4.9375 C 2.484375 -4.8125 2.5625 -4.8125 2.796875 -4.8125 L 3.5625 -4.8125 C 3.34375 -3.6875 2.859375 -0.984375 2.578125 0.28125 C 2.375 1.328125 2.203125 2.203125 1.609375 2.203125 C 1.5625 2.203125 1.21875 2.203125 1 1.96875 C 1.609375 1.921875 1.609375 1.40625 1.609375 1.390625 C 1.609375 1.140625 1.4375 1 1.203125 1 C 0.96875 1 0.609375 1.203125 0.609375 1.65625 C 0.609375 2.171875 1.140625 2.4375 1.609375 2.4375 C 2.828125 2.4375 3.328125 0.25 3.453125 -0.34375 C 3.671875 -1.265625 4.25 -4.453125 4.3125 -4.8125 Z M 5.328125 -4.8125 "/>
</g>
<g id="glyph-4-3">
<path d="M 3.59375 -1.421875 C 3.53125 -1.21875 3.53125 -1.1875 3.375 -0.96875 C 3.109375 -0.640625 2.578125 -0.125 2.015625 -0.125 C 1.53125 -0.125 1.25 -0.5625 1.25 -1.265625 C 1.25 -1.921875 1.625 -3.265625 1.859375 -3.765625 C 2.265625 -4.609375 2.828125 -5.03125 3.28125 -5.03125 C 4.078125 -5.03125 4.234375 -4.046875 4.234375 -3.953125 C 4.234375 -3.9375 4.203125 -3.796875 4.1875 -3.765625 Z M 4.359375 -4.484375 C 4.234375 -4.796875 3.90625 -5.265625 3.28125 -5.265625 C 1.9375 -5.265625 0.484375 -3.53125 0.484375 -1.75 C 0.484375 -0.578125 1.171875 0.125 1.984375 0.125 C 2.640625 0.125 3.203125 -0.390625 3.53125 -0.78125 C 3.65625 -0.078125 4.21875 0.125 4.578125 0.125 C 4.9375 0.125 5.21875 -0.09375 5.4375 -0.53125 C 5.625 -0.9375 5.796875 -1.65625 5.796875 -1.703125 C 5.796875 -1.765625 5.75 -1.8125 5.671875 -1.8125 C 5.5625 -1.8125 5.5625 -1.75 5.515625 -1.578125 C 5.328125 -0.875 5.109375 -0.125 4.609375 -0.125 C 4.265625 -0.125 4.25 -0.4375 4.25 -0.671875 C 4.25 -0.9375 4.28125 -1.078125 4.390625 -1.546875 C 4.46875 -1.84375 4.53125 -2.109375 4.625 -2.453125 C 5.0625 -4.25 5.171875 -4.671875 5.171875 -4.75 C 5.171875 -4.90625 5.046875 -5.046875 4.859375 -5.046875 C 4.484375 -5.046875 4.390625 -4.625 4.359375 -4.484375 Z M 4.359375 -4.484375 "/>
</g>
<g id="glyph-4-4">
<path d="M 5.421875 -4 C 5.359375 -4.65625 4.9375 -5.46875 3.859375 -5.46875 C 2.171875 -5.46875 0.453125 -3.75 0.453125 -1.859375 C 0.453125 -1.125 0.953125 0.25 2.578125 0.25 C 5.40625 0.25 6.609375 -3.859375 6.609375 -5.5 C 6.609375 -7.21875 5.640625 -8.546875 4.109375 -8.546875 C 2.375 -8.546875 1.859375 -7.03125 1.859375 -6.703125 C 1.859375 -6.59375 1.9375 -6.328125 2.265625 -6.328125 C 2.6875 -6.328125 2.875 -6.71875 2.875 -6.921875 C 2.875 -7.296875 2.5 -7.296875 2.34375 -7.296875 C 2.828125 -8.171875 3.734375 -8.265625 4.0625 -8.265625 C 5.109375 -8.265625 5.78125 -7.421875 5.78125 -6.078125 C 5.78125 -5.3125 5.5625 -4.4375 5.4375 -4 Z M 2.625 -0.078125 C 1.5 -0.078125 1.296875 -0.953125 1.296875 -1.453125 C 1.296875 -1.984375 1.640625 -3.21875 1.8125 -3.65625 C 1.96875 -4.015625 2.65625 -5.21875 3.890625 -5.21875 C 4.984375 -5.21875 5.234375 -4.28125 5.234375 -3.640625 C 5.234375 -2.75 4.453125 -0.078125 2.625 -0.078125 Z M 2.625 -0.078125 "/>
</g>
<g id="glyph-4-5">
<path d="M 4.046875 -1.515625 C 4 -1.328125 3.96875 -1.28125 3.8125 -1.09375 C 3.328125 -0.46875 2.828125 -0.234375 2.453125 -0.234375 C 2.0625 -0.234375 1.6875 -0.546875 1.6875 -1.375 C 1.6875 -2.015625 2.046875 -3.34375 2.3125 -3.890625 C 2.65625 -4.546875 3.1875 -5.03125 3.6875 -5.03125 C 4.484375 -5.03125 4.640625 -4.046875 4.640625 -3.984375 L 4.609375 -3.8125 Z M 4.78125 -4.484375 C 4.625 -4.828125 4.296875 -5.265625 3.6875 -5.265625 C 2.390625 -5.265625 0.90625 -3.640625 0.90625 -1.859375 C 0.90625 -0.609375 1.65625 0 2.421875 0 C 3.0625 0 3.625 -0.5 3.84375 -0.734375 L 3.578125 0.328125 C 3.40625 0.984375 3.328125 1.296875 2.90625 1.703125 C 2.421875 2.203125 1.953125 2.203125 1.703125 2.203125 C 1.34375 2.203125 1.046875 2.171875 0.734375 2.078125 C 1.125 1.96875 1.21875 1.640625 1.21875 1.5 C 1.21875 1.3125 1.078125 1.125 0.8125 1.125 C 0.53125 1.125 0.21875 1.359375 0.21875 1.75 C 0.21875 2.25 0.703125 2.4375 1.71875 2.4375 C 3.265625 2.4375 4.0625 1.453125 4.21875 0.796875 L 5.546875 -4.546875 C 5.578125 -4.703125 5.578125 -4.71875 5.578125 -4.75 C 5.578125 -4.90625 5.453125 -5.046875 5.265625 -5.046875 C 4.984375 -5.046875 4.8125 -4.8125 4.78125 -4.484375 Z M 4.78125 -4.484375 "/>
</g>
<g id="glyph-5-0">
</g>
<g id="glyph-5-1">
<path d="M 3.921875 -8.515625 C 3.984375 -8.640625 3.984375 -8.671875 3.984375 -8.71875 C 3.984375 -8.859375 3.875 -8.96875 3.734375 -8.96875 C 3.640625 -8.96875 3.546875 -8.90625 3.46875 -8.6875 L 1.375 -3.203125 C 1.34375 -3.125 1.3125 -3.0625 1.3125 -2.984375 C 1.3125 -2.953125 1.3125 -2.921875 1.375 -2.78125 L 3.46875 2.703125 C 3.515625 2.828125 3.578125 2.984375 3.734375 2.984375 C 3.875 2.984375 3.984375 2.875 3.984375 2.75 C 3.984375 2.71875 3.984375 2.6875 3.921875 2.5625 L 1.8125 -2.984375 Z M 3.921875 -8.515625 "/>
</g>
<g id="glyph-5-2">
<path d="M 1.90625 -8.53125 C 1.90625 -8.75 1.90625 -8.96875 1.65625 -8.96875 C 1.421875 -8.96875 1.421875 -8.75 1.421875 -8.53125 L 1.421875 2.5625 C 1.421875 2.765625 1.421875 2.984375 1.65625 2.984375 C 1.90625 2.984375 1.90625 2.765625 1.90625 2.5625 Z M 1.90625 -8.53125 "/>
</g>
<g id="glyph-5-3">
<path d="M 2.296875 -2.984375 C 2.296875 -3.328125 2.015625 -3.625 1.65625 -3.625 C 1.3125 -3.625 1.03125 -3.328125 1.03125 -2.984375 C 1.03125 -2.640625 1.3125 -2.359375 1.65625 -2.359375 C 2.015625 -2.359375 2.296875 -2.640625 2.296875 -2.984375 Z M 2.296875 -2.984375 "/>
</g>
<g id="glyph-5-4">
<path d="M 3.265625 -2.78125 C 3.328125 -2.921875 3.328125 -2.953125 3.328125 -2.984375 C 3.328125 -3.03125 3.328125 -3.046875 3.265625 -3.1875 L 1.171875 -8.6875 C 1.09375 -8.890625 1.03125 -8.96875 0.890625 -8.96875 C 0.765625 -8.96875 0.65625 -8.859375 0.65625 -8.71875 C 0.65625 -8.6875 0.65625 -8.671875 0.71875 -8.53125 L 2.828125 -2.984375 L 0.71875 2.53125 C 0.65625 2.671875 0.65625 2.6875 0.65625 2.75 C 0.65625 2.875 0.765625 2.984375 0.890625 2.984375 C 1.046875 2.984375 1.09375 2.875 1.140625 2.75 Z M 3.265625 -2.78125 "/>
</g>
</g>
<clipPath id="clip-0">
<path clip-rule="nonzero" d="M 10 10 L 15 10 L 15 14.902344 L 10 14.902344 Z M 10 10 "/>
</clipPath>
<clipPath id="clip-1">
<path clip-rule="nonzero" d="M 31 2 L 35 2 L 35 14.902344 L 31 14.902344 Z M 31 2 "/>
</clipPath>
<clipPath id="clip-2">
<path clip-rule="nonzero" d="M 42 2 L 45 2 L 45 14.902344 L 42 14.902344 Z M 42 2 "/>
</clipPath>
<clipPath id="clip-3">
<path clip-rule="nonzero" d="M 63 2 L 66 2 L 66 14.902344 L 63 14.902344 Z M 63 2 "/>
</clipPath>
<clipPath id="clip-4">
<path clip-rule="nonzero" d="M 74 2 L 78 2 L 78 14.902344 L 74 14.902344 Z M 74 2 "/>
</clipPath>
<clipPath id="clip-5">
<path clip-rule="nonzero" d="M 84 2 L 88 2 L 88 14.902344 L 84 14.902344 Z M 84 2 "/>
</clipPath>
<clipPath id="clip-6">
<path clip-rule="nonzero" d="M 92 2 L 93 2 L 93 14.902344 L 92 14.902344 Z M 92 2 "/>
</clipPath>
<clipPath id="clip-7">
<path clip-rule="nonzero" d="M 111 2 L 115 2 L 115 14.902344 L 111 14.902344 Z M 111 2 "/>
</clipPath>
<clipPath id="clip-8">
<path clip-rule="nonzero" d="M 121 2 L 125 2 L 125 14.902344 L 121 14.902344 Z M 121 2 "/>
</clipPath>
<clipPath id="clip-9">
<path clip-rule="nonzero" d="M 141 2 L 145 2 L 145 14.902344 L 141 14.902344 Z M 141 2 "/>
</clipPath>
<clipPath id="clip-10">
<path clip-rule="nonzero" d="M 161 2 L 164 2 L 164 14.902344 L 161 14.902344 Z M 161 2 "/>
</clipPath>
<clipPath id="clip-11">
<path clip-rule="nonzero" d="M 179 2 L 183 2 L 183 14.902344 L 179 14.902344 Z M 179 2 "/>
</clipPath>
<clipPath id="clip-12">
<path clip-rule="nonzero" d="M 189 2 L 193 2 L 193 14.902344 L 189 14.902344 Z M 189 2 "/>
</clipPath>
<clipPath id="clip-13">
<path clip-rule="nonzero" d="M 212 2 L 213 2 L 213 14.902344 L 212 14.902344 Z M 212 2 "/>
</clipPath>
<clipPath id="clip-14">
<path clip-rule="nonzero" d="M 224 2 L 228 2 L 228 14.902344 L 224 14.902344 Z M 224 2 "/>
</clipPath>
<clipPath id="clip-15">
<path clip-rule="nonzero" d="M 234 2 L 238 2 L 238 14.902344 L 234 14.902344 Z M 234 2 "/>
</clipPath>
<clipPath id="clip-16">
<path clip-rule="nonzero" d="M 239 2 L 243 2 L 243 14.902344 L 239 14.902344 Z M 239 2 "/>
</clipPath>
</defs>
<g fill="rgb(0%, 0%, 0%)" fill-opacity="1">
<use xlink:href="#glyph-0-1" x="0.5" y="11.414"/>
</g>
<g fill="rgb(0%, 0%, 0%)" fill-opacity="1">
<use xlink:href="#glyph-1-1" x="10.442" y="6.478"/>
</g>
<g fill="rgb(0%, 0%, 0%)" fill-opacity="1">
<use xlink:href="#glyph-2-1" x="13.735" y="6.478"/>
</g>
<g fill="rgb(0%, 0%, 0%)" fill-opacity="1">
<use xlink:href="#glyph-1-2" x="18.682" y="6.478"/>
</g>
<g fill="rgb(0%, 0%, 0%)" fill-opacity="1">
<use xlink:href="#glyph-2-2" x="22.23" y="6.478"/>
</g>
<g fill="rgb(0%, 0%, 0%)" fill-opacity="1">
<use xlink:href="#glyph-1-3" x="26.545" y="6.478"/>
</g>
<g clip-path="url(#clip-0)">
<g fill="rgb(0%, 0%, 0%)" fill-opacity="1">
<use xlink:href="#glyph-2-3" x="10.442" y="14.37"/>
</g>
</g>
<g clip-path="url(#clip-1)">
<g fill="rgb(0%, 0%, 0%)" fill-opacity="1">
<use xlink:href="#glyph-3-1" x="30.337" y="11.414"/>
</g>
</g>
<g fill="rgb(0%, 0%, 0%)" fill-opacity="1">
<use xlink:href="#glyph-4-1" x="34.889" y="11.414"/>
</g>
<g clip-path="url(#clip-2)">
<g fill="rgb(0%, 0%, 0%)" fill-opacity="1">
<use xlink:href="#glyph-3-2" x="41.628" y="11.414"/>
</g>
</g>
<g fill="rgb(0%, 0%, 0%)" fill-opacity="1">
<use xlink:href="#glyph-3-3" x="49.504086" y="11.414"/>
</g>
<g clip-path="url(#clip-3)">
<g fill="rgb(0%, 0%, 0%)" fill-opacity="1">
<use xlink:href="#glyph-5-1" x="61.926" y="11.414"/>
</g>
</g>
<g fill="rgb(0%, 0%, 0%)" fill-opacity="1">
<use xlink:href="#glyph-4-2" x="66.575" y="11.414"/>
</g>
<g clip-path="url(#clip-4)">
<g fill="rgb(0%, 0%, 0%)" fill-opacity="1">
<use xlink:href="#glyph-3-1" x="73.622" y="11.414"/>
</g>
</g>
<g fill="rgb(0%, 0%, 0%)" fill-opacity="1">
<use xlink:href="#glyph-4-3" x="78.174" y="11.414"/>
</g>
<g clip-path="url(#clip-5)">
<g fill="rgb(0%, 0%, 0%)" fill-opacity="1">
<use xlink:href="#glyph-3-2" x="84.319" y="11.414"/>
</g>
</g>
<g clip-path="url(#clip-6)">
<g fill="rgb(0%, 0%, 0%)" fill-opacity="1">
<use xlink:href="#glyph-5-2" x="90.864" y="11.414"/>
</g>
</g>
<g fill="rgb(0%, 0%, 0%)" fill-opacity="1">
<use xlink:href="#glyph-4-4" x="97.373" y="11.414"/>
</g>
<g fill="rgb(0%, 0%, 0%)" fill-opacity="1">
<use xlink:href="#glyph-4-5" x="104.198224" y="11.414"/>
</g>
<g clip-path="url(#clip-7)">
<g fill="rgb(0%, 0%, 0%)" fill-opacity="1">
<use xlink:href="#glyph-3-1" x="110.237" y="11.414"/>
</g>
</g>
<g fill="rgb(0%, 0%, 0%)" fill-opacity="1">
<use xlink:href="#glyph-4-3" x="114.789" y="11.414"/>
</g>
<g clip-path="url(#clip-8)">
<g fill="rgb(0%, 0%, 0%)" fill-opacity="1">
<use xlink:href="#glyph-3-2" x="120.934" y="11.414"/>
</g>
</g>
<g fill="rgb(0%, 0%, 0%)" fill-opacity="1">
<use xlink:href="#glyph-5-3" x="128.143" y="11.414"/>
</g>
<g fill="rgb(0%, 0%, 0%)" fill-opacity="1">
<use xlink:href="#glyph-4-1" x="134.121" y="11.414"/>
</g>
<g clip-path="url(#clip-9)">
<g fill="rgb(0%, 0%, 0%)" fill-opacity="1">
<use xlink:href="#glyph-5-4" x="140.859" y="11.414"/>
</g>
</g>
<g fill="rgb(0%, 0%, 0%)" fill-opacity="1">
<use xlink:href="#glyph-3-4" x="148.165" y="11.414"/>
</g>
<g clip-path="url(#clip-10)">
<g fill="rgb(0%, 0%, 0%)" fill-opacity="1">
<use xlink:href="#glyph-5-1" x="159.927" y="11.414"/>
</g>
</g>
<g fill="rgb(0%, 0%, 0%)" fill-opacity="1">
<use xlink:href="#glyph-4-4" x="164.576" y="11.414"/>
</g>
<g fill="rgb(0%, 0%, 0%)" fill-opacity="1">
<use xlink:href="#glyph-4-2" x="171.401224" y="11.414"/>
</g>
<g clip-path="url(#clip-11)">
<g fill="rgb(0%, 0%, 0%)" fill-opacity="1">
<use xlink:href="#glyph-3-1" x="178.452" y="11.414"/>
</g>
</g>
<g fill="rgb(0%, 0%, 0%)" fill-opacity="1">
<use xlink:href="#glyph-4-3" x="183.004" y="11.414"/>
</g>
<g clip-path="url(#clip-12)">
<g fill="rgb(0%, 0%, 0%)" fill-opacity="1">
<use xlink:href="#glyph-3-2" x="189.149" y="11.414"/>
</g>
</g>
<g fill="rgb(0%, 0%, 0%)" fill-opacity="1">
<use xlink:href="#glyph-5-3" x="196.358" y="11.414"/>
</g>
<g fill="rgb(0%, 0%, 0%)" fill-opacity="1">
<use xlink:href="#glyph-4-1" x="202.336" y="11.414"/>
</g>
<g clip-path="url(#clip-13)">
<g fill="rgb(0%, 0%, 0%)" fill-opacity="1">
<use xlink:href="#glyph-5-2" x="211.067" y="11.414"/>
</g>
</g>
<g fill="rgb(0%, 0%, 0%)" fill-opacity="1">
<use xlink:href="#glyph-4-5" x="217.576" y="11.414"/>
</g>
<g clip-path="url(#clip-14)">
<g fill="rgb(0%, 0%, 0%)" fill-opacity="1">
<use xlink:href="#glyph-3-1" x="223.61" y="11.414"/>
</g>
</g>
<g fill="rgb(0%, 0%, 0%)" fill-opacity="1">
<use xlink:href="#glyph-4-3" x="228.162" y="11.414"/>
</g>
<g clip-path="url(#clip-15)">
<g fill="rgb(0%, 0%, 0%)" fill-opacity="1">
<use xlink:href="#glyph-3-2" x="234.307" y="11.414"/>
</g>
</g>
<g clip-path="url(#clip-16)">
<g fill="rgb(0%, 0%, 0%)" fill-opacity="1">
<use xlink:href="#glyph-5-4" x="238.86" y="11.414"/>
</g>
</g>
</svg>
