<?xml version="1.0" encoding="UTF-8"?>
<svg xmlns="http://www.w3.org/2000/svg" xmlns:xlink="http://www.w3.org/1999/xlink" viewBox="0 0 92.915 12.955">
<defs>
<g>
<g id="glyph-0-0">
</g>
<g id="glyph-0-1">
<path d="M 2.0625 -8.5625 C 2.0625 -8.75 2.0625 -8.96875 1.8125 -8.96875 C 1.578125 -8.96875 1.578125 -8.703125 1.578125 -8.515625 L 1.578125 2.546875 C 1.578125 2.734375 1.578125 2.984375 1.8125 2.984375 C 2.0625 2.984375 2.0625 2.765625 2.0625 2.578125 Z M 4.390625 -8.515625 C 4.390625 -8.71875 4.390625 -8.96875 4.140625 -8.96875 C 3.90625 -8.96875 3.90625 -8.75 3.90625 -8.5625 L 3.90625 2.578125 C 3.90625 2.765625 3.90625 2.984375 4.140625 2.984375 C 4.390625 2.984375 4.390625 2.71875 4.390625 2.546875 Z M 4.390625 -8.515625 "/>
</g>
<g id="glyph-0-2">
<path d="M 2.296875 -2.984375 C 2.296875 -3.328125 2.015625 -3.625 1.65625 -3.625 C 1.3125 -3.625 1.03125 -3.328125 1.03125 -2.984375 C 1.03125 -2.640625 1.3125 -2.359375 1.65625 -2.359375 C 2.015625 -2.359375 2.296875 -2.640625 2.296875 -2.984375 Z M 2.296875 -2.984375 "/>
</g>
<g id="glyph-0-3">
<path d="M 1.90625 -8.53125 C 1.90625 -8.75 1.90625 -8.96875 1.65625 -8.96875 C 1.421875 -8.96875 1.421875 -8.75 1.421875 -8.53125 L 1.421875 2.5625 C 1.421875 2.765625 1.421875 2.984375 1.65625 2.984375 C 1.90625 2.984375 1.90625 2.765625 1.90625 2.5625 Z M 1.90625 -8.53125 "/>
</g>
<g id="glyph-1-0">
</g>
<g id="glyph-1-1">
<path d="M 5.53125 -3.03125 C 5.53125 -4.1875 4.875 -5.265625 3.609375 -5.265625 C 2.046875 -5.265625 0.484375 -3.5625 0.484375 -1.859375 C 0.484375 -0.828125 1.125 0.125 2.34375 0.125 C 3.078125 0.125 3.96875 -0.171875 4.8125 -0.890625 C 4.984375 -0.21875 5.359375 0.125 5.875 0.125 C 6.515625 0.125 6.84375 -0.546875 6.84375 -0.703125 C 6.84375 -0.8125 6.75 -0.8125 6.71875 -0.8125 C 6.625 -0.8125 6.609375 -0.78125 6.578125 -0.6875 C 6.46875 -0.375 6.1875 -0.125 5.90625 -0.125 C 5.53125 -0.125 5.53125 -0.890625 5.53125 -1.609375 C 6.75 -3.078125 7.046875 -4.578125 7.046875 -4.59375 C 7.046875 -4.703125 6.9375 -4.703125 6.90625 -4.703125 C 6.796875 -4.703125 6.796875 -4.65625 6.734375 -4.453125 C 6.59375 -3.921875 6.28125 -2.984375 5.53125 -2.015625 Z M 4.78125 -1.171875 C 3.734375 -0.234375 2.78125 -0.125 2.359375 -0.125 C 1.515625 -0.125 1.28125 -0.875 1.28125 -1.4375 C 1.28125 -1.953125 1.546875 -3.171875 1.90625 -3.828125 C 2.40625 -4.65625 3.078125 -5.03125 3.609375 -5.03125 C 4.765625 -5.03125 4.765625 -3.515625 4.765625 -2.515625 C 4.765625 -2.21875 4.75 -1.90625 4.75 -1.609375 C 4.75 -1.359375 4.765625 -1.296875 4.78125 -1.171875 Z M 4.78125 -1.171875 "/>
</g>
<g id="glyph-1-2">
<path d="M 5.671875 -4.875 C 5.28125 -4.8125 5.140625 -4.515625 5.140625 -4.296875 C 5.140625 -4 5.359375 -3.90625 5.53125 -3.90625 C 5.890625 -3.90625 6.140625 -4.21875 6.140625 -4.546875 C 6.140625 -5.046875 5.5625 -5.265625 5.0625 -5.265625 C 4.34375 -5.265625 3.9375 -4.546875 3.828125 -4.328125 C 3.546875 -5.21875 2.8125 -5.265625 2.59375 -5.265625 C 1.375 -5.265625 0.734375 -3.703125 0.734375 -3.4375 C 0.734375 -3.390625 0.78125 -3.328125 0.859375 -3.328125 C 0.953125 -3.328125 0.984375 -3.40625 1 -3.453125 C 1.40625 -4.78125 2.21875 -5.03125 2.5625 -5.03125 C 3.09375 -5.03125 3.203125 -4.53125 3.203125 -4.25 C 3.203125 -3.984375 3.125 -3.703125 2.984375 -3.125 L 2.578125 -1.5 C 2.40625 -0.78125 2.0625 -0.125 1.421875 -0.125 C 1.359375 -0.125 1.0625 -0.125 0.8125 -0.28125 C 1.25 -0.359375 1.34375 -0.71875 1.34375 -0.859375 C 1.34375 -1.09375 1.15625 -1.25 0.9375 -1.25 C 0.640625 -1.25 0.328125 -0.984375 0.328125 -0.609375 C 0.328125 -0.109375 0.890625 0.125 1.40625 0.125 C 1.984375 0.125 2.390625 -0.328125 2.640625 -0.828125 C 2.828125 -0.125 3.4375 0.125 3.875 0.125 C 5.09375 0.125 5.734375 -1.453125 5.734375 -1.703125 C 5.734375 -1.765625 5.6875 -1.8125 5.625 -1.8125 C 5.515625 -1.8125 5.5 -1.75 5.46875 -1.65625 C 5.140625 -0.609375 4.453125 -0.125 3.90625 -0.125 C 3.484375 -0.125 3.265625 -0.4375 3.265625 -0.921875 C 3.265625 -1.1875 3.3125 -1.375 3.5 -2.15625 L 3.921875 -3.796875 C 4.09375 -4.5 4.5 -5.03125 5.0625 -5.03125 C 5.078125 -5.03125 5.421875 -5.03125 5.671875 -4.875 Z M 5.671875 -4.875 "/>
</g>
<g id="glyph-2-0">
</g>
<g id="glyph-2-1">
<path d="M 8.0625 -3.875 C 8.234375 -3.875 8.453125 -3.875 8.453125 -4.09375 C 8.453125 -4.3125 8.25 -4.3125 8.0625 -4.3125 L 1.03125 -4.3125 C 0.859375 -4.3125 0.640625 -4.3125 0.640625 -4.09375 C 0.640625 -3.875 0.84375 -3.875 1.03125 -3.875 Z M 8.0625 -1.65625 C 8.234375 -1.65625 8.453125 -1.65625 8.453125 -1.859375 C 8.453125 -2.09375 8.25 -2.09375 8.0625 -2.09375 L 1.03125 -2.09375 C 0.859375 -2.09375 0.640625 -2.09375 0.640625 -1.875 C 0.640625 -1.65625 0.84375 -1.65625 1.03125 -1.65625 Z M 8.0625 -1.65625 "/>
</g>
</g>
<clipPath id="clip-0">
<path clip-rule="nonzero" d="M 2 0 L 5 0 L 5 12.953125 L 2 12.953125 Z M 2 0 "/>
</clipPath>
<clipPath id="clip-1">
<path clip-rule="nonzero" d="M 30 0 L 34 0 L 34 12.953125 L 30 12.953125 Z M 30 0 "/>
</clipPath>
<clipPath id="clip-2">
<path clip-rule="nonzero" d="M 52 0 L 53 0 L 53 12.953125 L 52 12.953125 Z M 52 0 "/>
</clipPath>
<clipPath id="clip-3">
<path clip-rule="nonzero" d="M 63 0 L 64 0 L 64 12.953125 L 63 12.953125 Z M 63 0 "/>
</clipPath>
<clipPath id="clip-4">
<path clip-rule="nonzero" d="M 75 0 L 79 0 L 79 12.953125 L 75 12.953125 Z M 75 0 "/>
</clipPath>
<clipPath id="clip-5">
<path clip-rule="nonzero" d="M 88 0 L 91 0 L 91 12.953125 L 88 12.953125 Z M 88 0 "/>
</clipPath>
</defs>
<g clip-path="url(#clip-0)">
<g fill="rgb(0%, 0%, 0%)" fill-opacity="1">
<use xlink:href="#glyph-0-1" x="0.5" y="9.466"/>
</g>
</g>
<g fill="rgb(0%, 0%, 0%)" fill-opacity="1">
<use xlink:href="#glyph-1-1" x="6.478" y="9.466"/>
</g>
<g fill="rgb(0%, 0%, 0%)" fill-opacity="1">
<use xlink:href="#glyph-0-2" x="16.656" y="9.466"/>
</g>
<g fill="rgb(0%, 0%, 0%)" fill-opacity="1">
<use xlink:href="#glyph-1-2" x="22.634" y="9.466"/>
</g>
<g clip-path="url(#clip-1)">
<g fill="rgb(0%, 0%, 0%)" fill-opacity="1">
<use xlink:href="#glyph-0-1" x="29.286" y="9.466"/>
</g>
</g>
<g fill="rgb(0%, 0%, 0%)" fill-opacity="1">
<use xlink:href="#glyph-2-1" x="38.584" y="9.466"/>
</g>
<g clip-path="url(#clip-2)">
<g fill="rgb(0%, 0%, 0%)" fill-opacity="1">
<use xlink:href="#glyph-0-3" x="51.01" y="9.466"/>
</g>
</g>
<g fill="rgb(0%, 0%, 0%)" fill-opacity="1">
<use xlink:href="#glyph-1-1" x="54.33" y="9.466"/>
</g>
<g clip-path="url(#clip-3)">
<g fill="rgb(0%, 0%, 0%)" fill-opacity="1">
<use xlink:href="#glyph-0-3" x="61.852" y="9.466"/>
</g>
</g>
<g fill="rgb(0%, 0%, 0%)" fill-opacity="1">
<use xlink:href="#glyph-0-2" x="67.827209" y="9.466"/>
</g>
<g clip-path="url(#clip-4)">
<g fill="rgb(0%, 0%, 0%)" fill-opacity="1">
<use xlink:href="#glyph-0-1" x="73.802418" y="9.466"/>
</g>
</g>
<g fill="rgb(0%, 0%, 0%)" fill-opacity="1">
<use xlink:href="#glyph-1-2" x="79.785" y="9.466"/>
</g>
<g clip-path="url(#clip-5)">
<g fill="rgb(0%, 0%, 0%)" fill-opacity="1">
<use xlink:href="#glyph-0-1" x="86.437" y="9.466"/>
</g>
</g>
</svg>
