<?xml version="1.0" encoding="UTF-8"?>
<svg xmlns="http://www.w3.org/2000/svg" xmlns:xlink="http://www.w3.org/1999/xlink" viewBox="0 0 80.922 12.955">
<defs>
<g>
<g id="glyph-0-0">
</g>
<g id="glyph-0-1">
<path d="M 3.359375 -8 C 3.375 -8.046875 3.390625 -8.109375 3.390625 -8.171875 C 3.390625 -8.296875 3.28125 -8.296875 3.25 -8.296875 C 3.234375 -8.296875 2.8125 -8.265625 2.59375 -8.234375 C 2.390625 -8.21875 2.21875 -8.203125 2 -8.1875 C 1.703125 -8.15625 1.625 -8.15625 1.625 -7.9375 C 1.625 -7.8125 1.75 -7.8125 1.859375 -7.8125 C 2.46875 -7.8125 2.46875 -7.703125 2.46875 -7.59375 C 2.46875 -7.546875 2.46875 -7.515625 2.421875 -7.296875 L 0.703125 -0.46875 C 0.65625 -0.28125 0.65625 -0.265625 0.65625 -0.1875 C 0.65625 0.078125 0.859375 0.125 0.984375 0.125 C 1.3125 0.125 1.390625 -0.140625 1.484375 -0.515625 L 2.046875 -2.75 C 2.90625 -2.65625 3.421875 -2.296875 3.421875 -1.71875 C 3.421875 -1.65625 3.421875 -1.609375 3.375 -1.421875 C 3.328125 -1.25 3.328125 -1.09375 3.328125 -1.046875 C 3.328125 -0.34375 3.796875 0.125 4.40625 0.125 C 4.953125 0.125 5.234375 -0.375 5.328125 -0.546875 C 5.578125 -0.984375 5.734375 -1.65625 5.734375 -1.703125 C 5.734375 -1.765625 5.6875 -1.8125 5.625 -1.8125 C 5.515625 -1.8125 5.5 -1.765625 5.453125 -1.578125 C 5.28125 -0.953125 5.03125 -0.125 4.421875 -0.125 C 4.1875 -0.125 4.03125 -0.234375 4.03125 -0.6875 C 4.03125 -0.921875 4.078125 -1.1875 4.125 -1.359375 C 4.171875 -1.578125 4.171875 -1.59375 4.171875 -1.734375 C 4.171875 -2.4375 3.53125 -2.828125 2.4375 -2.96875 C 2.875 -3.234375 3.296875 -3.703125 3.46875 -3.890625 C 4.140625 -4.65625 4.609375 -5.03125 5.15625 -5.03125 C 5.4375 -5.03125 5.515625 -4.953125 5.59375 -4.890625 C 5.15625 -4.84375 4.984375 -4.53125 4.984375 -4.296875 C 4.984375 -4 5.21875 -3.90625 5.375 -3.90625 C 5.703125 -3.90625 5.984375 -4.1875 5.984375 -4.5625 C 5.984375 -4.90625 5.71875 -5.265625 5.171875 -5.265625 C 4.515625 -5.265625 3.984375 -4.8125 3.125 -3.84375 C 3.015625 -3.703125 2.5625 -3.25 2.125 -3.078125 Z M 3.359375 -8 "/>
</g>
<g id="glyph-1-0">
</g>
<g id="glyph-1-1">
<path d="M 2.203125 -7.984375 C 2.203125 -8.359375 1.875 -8.546875 1.625 -8.546875 C 1.375 -8.546875 1 -8.375 1.046875 -7.875 L 1.46875 -2.40625 C 1.484375 -2.203125 1.5 -2.15625 1.609375 -2.15625 C 1.734375 -2.15625 1.75 -2.1875 1.765625 -2.40625 Z M 2.203125 -0.578125 C 2.203125 -0.890625 1.9375 -1.15625 1.625 -1.15625 C 1.296875 -1.15625 1.046875 -0.890625 1.046875 -0.578125 C 1.046875 -0.265625 1.296875 0 1.609375 0 C 1.953125 0 2.203125 -0.265625 2.203125 -0.578125 Z M 2.203125 -0.578125 "/>
</g>
<g id="glyph-1-2">
<path d="M 8.0625 -3.875 C 8.234375 -3.875 8.453125 -3.875 8.453125 -4.09375 C 8.453125 -4.3125 8.25 -4.3125 8.0625 -4.3125 L 1.03125 -4.3125 C 0.859375 -4.3125 0.640625 -4.3125 0.640625 -4.09375 C 0.640625 -3.875 0.84375 -3.875 1.03125 -3.875 Z M 8.0625 -1.65625 C 8.234375 -1.65625 8.453125 -1.65625 8.453125 -1.859375 C 8.453125 -2.09375 8.25 -2.09375 8.0625 -2.09375 L 1.03125 -2.09375 C 0.859375 -2.09375 0.640625 -2.09375 0.640625 -1.875 C 0.640625 -1.65625 0.84375 -1.65625 1.03125 -1.65625 Z M 8.0625 -1.65625 "/>
</g>
<g id="glyph-1-3">
<path d="M 3.890625 2.90625 C 3.890625 2.875 3.890625 2.84375 3.6875 2.640625 C 2.484375 1.4375 1.8125 -0.53125 1.8125 -2.96875 C 1.8125 -5.296875 2.375 -7.296875 3.765625 -8.703125 C 3.890625 -8.8125 3.890625 -8.828125 3.890625 -8.875 C 3.890625 -8.9375 3.828125 -8.96875 3.78125 -8.96875 C 3.625 -8.96875 2.640625 -8.109375 2.0625 -6.9375 C 1.453125 -5.71875 1.171875 -4.453125 1.171875 -2.96875 C 1.171875 -1.90625 1.34375 -0.484375 1.953125 0.78125 C 2.671875 2.21875 3.640625 3 3.78125 3 C 3.828125 3 3.890625 2.96875 3.890625 2.90625 Z M 3.890625 2.90625 "/>
</g>
<g id="glyph-1-4">
<path d="M 3.4375 -7.65625 C 3.4375 -7.9375 3.4375 -7.953125 3.203125 -7.953125 C 2.921875 -7.625 2.3125 -7.1875 1.09375 -7.1875 L 1.09375 -6.84375 C 1.359375 -6.84375 1.953125 -6.84375 2.625 -7.140625 L 2.625 -0.921875 C 2.625 -0.484375 2.578125 -0.34375 1.53125 -0.34375 L 1.15625 -0.34375 L 1.15625 0 C 1.484375 -0.03125 2.640625 -0.03125 3.03125 -0.03125 C 3.4375 -0.03125 4.578125 -0.03125 4.90625 0 L 4.90625 -0.34375 L 4.53125 -0.34375 C 3.484375 -0.34375 3.4375 -0.484375 3.4375 -0.921875 Z M 3.4375 -7.65625 "/>
</g>
<g id="glyph-1-5">
<path d="M 3.375 -2.96875 C 3.375 -3.890625 3.25 -5.359375 2.578125 -6.75 C 1.875 -8.1875 0.890625 -8.96875 0.765625 -8.96875 C 0.71875 -8.96875 0.65625 -8.9375 0.65625 -8.875 C 0.65625 -8.828125 0.65625 -8.8125 0.859375 -8.609375 C 2.0625 -7.40625 2.71875 -5.421875 2.71875 -2.984375 C 2.71875 -0.671875 2.15625 1.328125 0.78125 2.734375 C 0.65625 2.84375 0.65625 2.875 0.65625 2.90625 C 0.65625 2.96875 0.71875 3 0.765625 3 C 0.921875 3 1.90625 2.140625 2.484375 0.96875 C 3.09375 -0.25 3.375 -1.546875 3.375 -2.96875 Z M 3.375 -2.96875 "/>
</g>
<g id="glyph-2-0">
</g>
<g id="glyph-2-1">
<path d="M 2.296875 -2.984375 C 2.296875 -3.328125 2.015625 -3.625 1.65625 -3.625 C 1.3125 -3.625 1.03125 -3.328125 1.03125 -2.984375 C 1.03125 -2.640625 1.3125 -2.359375 1.65625 -2.359375 C 2.015625 -2.359375 2.296875 -2.640625 2.296875 -2.984375 Z M 2.296875 -2.984375 "/>
</g>
<g id="glyph-2-2">
<path d="M 7.875 -2.75 C 8.078125 -2.75 8.296875 -2.75 8.296875 -2.984375 C 8.296875 -3.234375 8.078125 -3.234375 7.875 -3.234375 L 1.40625 -3.234375 C 1.203125 -3.234375 0.984375 -3.234375 0.984375 -2.984375 C 0.984375 -2.75 1.203125 -2.75 1.40625 -2.75 Z M 7.875 -2.75 "/>
</g>
</g>
<clipPath id="clip-0">
<path clip-rule="nonzero" d="M 42 0 L 45 0 L 45 12.953125 L 42 12.953125 Z M 42 0 "/>
</clipPath>
<clipPath id="clip-1">
<path clip-rule="nonzero" d="M 67 0 L 80 0 L 80 12.953125 L 67 12.953125 Z M 67 0 "/>
</clipPath>
</defs>
<g fill="rgb(0%, 0%, 0%)" fill-opacity="1">
<use xlink:href="#glyph-0-1" x="0.5" y="9.466"/>
</g>
<g fill="rgb(0%, 0%, 0%)" fill-opacity="1">
<use xlink:href="#glyph-1-1" x="6.99" y="9.466"/>
</g>
<g fill="rgb(0%, 0%, 0%)" fill-opacity="1">
<use xlink:href="#glyph-1-2" x="13.56536" y="9.466"/>
</g>
<g fill="rgb(0%, 0%, 0%)" fill-opacity="1">
<use xlink:href="#glyph-0-1" x="25.987" y="9.466"/>
</g>
<g fill="rgb(0%, 0%, 0%)" fill-opacity="1">
<use xlink:href="#glyph-2-1" x="35.134" y="9.466"/>
</g>
<g clip-path="url(#clip-0)">
<g fill="rgb(0%, 0%, 0%)" fill-opacity="1">
<use xlink:href="#glyph-1-3" x="41.111" y="9.466"/>
</g>
</g>
<g fill="rgb(0%, 0%, 0%)" fill-opacity="1">
<use xlink:href="#glyph-0-1" x="45.664" y="9.466"/>
</g>
<g fill="rgb(0%, 0%, 0%)" fill-opacity="1">
<use xlink:href="#glyph-2-2" x="54.81" y="9.466"/>
</g>
<g clip-path="url(#clip-1)">
<g fill="rgb(0%, 0%, 0%)" fill-opacity="1">
<use xlink:href="#glyph-1-4" x="66.765" y="9.466"/>
<use xlink:href="#glyph-1-5" x="72.618266" y="9.466"/>
<use xlink:href="#glyph-1-1" x="77.170806" y="9.466"/>
</g>
</g>
</svg>
