<?xml version="1.0" encoding="UTF-8"?>
<svg xmlns="http://www.w3.org/2000/svg" xmlns:xlink="http://www.w3.org/1999/xlink" width="653.502" height="12.955" viewBox="0 0 653.502 12.955">
<defs>
<g>
<g id="glyph-0-0">
</g>
<g id="glyph-0-1">
<path d="M 1.703125 -0.640625 C 2.109375 -0.03125 2.765625 0.234375 3.453125 0.234375 C 5.078125 0.234375 6.28125 -1.375 6.28125 -2.84375 C 6.28125 -3.484375 6.03125 -4.171875 5.359375 -4.46875 C 4.609375 -4.796875 3.421875 -4.734375 3.171875 -5.609375 C 3.125 -5.703125 3.109375 -5.8125 3.109375 -5.921875 L 3.109375 -6 C 3.109375 -7.046875 4.015625 -8.109375 5.109375 -8.109375 C 6.046875 -8.109375 6.5 -7.3125 6.5 -6.4375 C 6.5 -6.125 6.421875 -5.859375 6.421875 -5.5625 C 6.4375 -5.484375 6.515625 -5.453125 6.59375 -5.453125 C 6.703125 -5.453125 6.75 -5.53125 6.78125 -5.625 L 7.40625 -8.140625 C 7.421875 -8.203125 7.4375 -8.25 7.453125 -8.3125 C 7.453125 -8.375 7.40625 -8.421875 7.34375 -8.421875 C 7.171875 -8.421875 6.9375 -8.015625 6.796875 -7.828125 C 6.734375 -7.75 6.6875 -7.65625 6.59375 -7.578125 C 6.390625 -8.1875 5.671875 -8.421875 5.09375 -8.421875 C 3.640625 -8.421875 2.359375 -7 2.359375 -5.609375 C 2.359375 -5.015625 2.625 -4.421875 3.15625 -4.125 C 4.03125 -3.640625 5.5625 -3.921875 5.5625 -2.390625 C 5.5625 -1.25 4.546875 -0.109375 3.515625 -0.109375 C 2.578125 -0.109375 1.765625 -0.6875 1.765625 -1.75 C 1.765625 -1.96875 1.796875 -2.21875 1.84375 -2.421875 C 1.859375 -2.46875 1.875 -2.53125 1.875 -2.59375 L 1.875 -2.625 C 1.859375 -2.703125 1.796875 -2.734375 1.71875 -2.734375 C 1.5625 -2.734375 1.546875 -2.625 1.515625 -2.515625 L 0.984375 -0.375 C 0.9375 -0.234375 0.859375 -0.015625 0.859375 0.125 C 0.859375 0.171875 0.90625 0.234375 0.953125 0.234375 C 1.15625 0.234375 1.65625 -0.5625 1.703125 -0.640625 Z M 1.703125 -0.640625 "/>
</g>
<g id="glyph-0-2">
<path d="M 4.109375 -5.265625 C 2.53125 -5.078125 1.3125 -3.375 1.3125 -1.828125 C 1.3125 -0.90625 1.8125 0.109375 2.984375 0.109375 L 3.109375 0.109375 C 4.671875 -0.03125 5.9375 -1.75 5.9375 -3.3125 C 5.9375 -4.21875 5.5 -5.265625 4.25 -5.265625 Z M 5.15625 -3.71875 C 5.0625 -2.703125 4.8125 -1.390625 4.015625 -0.640625 C 3.75 -0.375 3.375 -0.125 3 -0.125 C 2.3125 -0.125 2.078125 -0.828125 2.078125 -1.390625 L 2.078125 -1.5 C 2.109375 -1.859375 2.1875 -2.21875 2.265625 -2.5625 C 2.46875 -3.3125 2.71875 -4.078125 3.3125 -4.609375 C 3.5625 -4.8125 3.90625 -5.03125 4.265625 -5.03125 L 4.296875 -5.03125 C 4.90625 -5.03125 5.140625 -4.390625 5.15625 -3.921875 Z M 5.15625 -3.71875 "/>
</g>
<g id="glyph-0-3">
<path d="M 2.359375 -5.265625 C 1.578125 -5.15625 1.21875 -4.234375 1.046875 -3.640625 C 1.015625 -3.578125 0.984375 -3.515625 0.984375 -3.453125 C 0.984375 -3.375 1.078125 -3.328125 1.15625 -3.328125 C 1.5 -3.328125 1.5 -5.03125 2.46875 -5.03125 C 2.640625 -5.03125 2.71875 -4.875 2.71875 -4.6875 C 2.71875 -4.375 2.609375 -4.078125 2.5 -3.796875 C 2.234375 -3.0625 1.953125 -2.3125 1.703125 -1.578125 C 1.609375 -1.34375 1.5 -1.09375 1.5 -0.84375 C 1.5 -0.296875 1.8125 0.109375 2.46875 0.109375 C 3.28125 0.109375 3.859375 -1.265625 3.859375 -1.71875 C 3.859375 -1.796875 3.796875 -1.828125 3.703125 -1.828125 C 3.484375 -1.828125 3.453125 -1.46875 3.40625 -1.296875 C 3.265625 -0.84375 2.953125 -0.125 2.40625 -0.125 C 2.21875 -0.125 2.125 -0.296875 2.125 -0.46875 C 2.125 -0.75 2.234375 -1.0625 2.34375 -1.34375 C 2.5625 -1.921875 2.765625 -2.515625 2.984375 -3.109375 C 3.125 -3.484375 3.34375 -3.90625 3.34375 -4.328125 C 3.34375 -4.796875 3.09375 -5.265625 2.453125 -5.265625 Z M 3.375 -7.8125 C 3.125 -7.765625 2.90625 -7.53125 2.90625 -7.28125 C 2.90625 -7.078125 3.078125 -6.9375 3.28125 -6.9375 C 3.578125 -6.9375 3.8125 -7.203125 3.8125 -7.453125 C 3.8125 -7.65625 3.640625 -7.8125 3.4375 -7.8125 C 3.421875 -7.8125 3.390625 -7.8125 3.375 -7.8125 Z M 3.375 -7.8125 "/>
</g>
<g id="glyph-0-4">
<path d="M 2.328125 -4.8125 C 2.28125 -4.6875 2.265625 -4.546875 2.234375 -4.421875 L 1.5625 -1.75 C 1.5 -1.46875 1.40625 -1.1875 1.40625 -0.90625 C 1.40625 -0.484375 1.671875 0.109375 2.390625 0.109375 C 3.28125 0.109375 3.84375 -0.875 4.09375 -1.515625 C 4.125 -1.578125 4.15625 -1.65625 4.15625 -1.71875 C 4.15625 -1.78125 4.109375 -1.8125 4.046875 -1.8125 C 3.765625 -1.8125 3.75 -1.546875 3.671875 -1.34375 C 3.4375 -0.84375 3.03125 -0.125 2.421875 -0.125 C 2.1875 -0.125 2.078125 -0.296875 2.078125 -0.578125 L 2.078125 -0.703125 C 2.09375 -0.921875 2.140625 -1.125 2.1875 -1.34375 L 3.03125 -4.65625 C 3.0625 -4.765625 3.078125 -4.8125 3.171875 -4.8125 L 4 -4.8125 C 4.046875 -4.8125 4.109375 -4.796875 4.171875 -4.796875 C 4.296875 -4.796875 4.375 -4.859375 4.375 -5 C 4.375 -5.140625 4.296875 -5.15625 4.140625 -5.15625 C 4.0625 -5.15625 3.984375 -5.15625 3.890625 -5.15625 L 3.140625 -5.15625 C 3.265625 -5.578125 3.359375 -6.03125 3.46875 -6.453125 L 3.578125 -6.890625 C 3.609375 -7 3.640625 -7.078125 3.640625 -7.171875 C 3.640625 -7.390625 3.5 -7.484375 3.34375 -7.484375 C 2.9375 -7.484375 2.90625 -7.09375 2.828125 -6.796875 L 2.46875 -5.359375 C 2.4375 -5.25 2.4375 -5.140625 2.28125 -5.140625 C 2.21875 -5.140625 2.15625 -5.15625 2.125 -5.15625 L 1.515625 -5.15625 C 1.453125 -5.15625 1.40625 -5.15625 1.34375 -5.15625 C 1.203125 -5.15625 1.09375 -5.09375 1.09375 -4.953125 C 1.09375 -4.828125 1.171875 -4.8125 1.28125 -4.8125 Z M 2.328125 -4.8125 "/>
</g>
<g id="glyph-0-5">
<path d="M 3.40625 -8.3125 C 2.921875 -8.265625 1.953125 -8.234375 1.90625 -8.09375 C 1.890625 -8.0625 1.875 -8.03125 1.859375 -8.015625 L 1.859375 -7.953125 C 1.859375 -7.84375 1.953125 -7.828125 2.0625 -7.828125 L 2.140625 -7.828125 C 2.359375 -7.828125 2.71875 -7.828125 2.71875 -7.609375 C 2.71875 -7.359375 2.59375 -7.03125 2.515625 -6.765625 L 2.203125 -5.484375 C 1.859375 -4.09375 1.5 -2.703125 1.15625 -1.3125 C 1.125 -1.1875 1.109375 -1.0625 1.109375 -0.9375 C 1.109375 -0.40625 1.421875 0.109375 2.09375 0.109375 L 2.171875 0.109375 C 3.015625 0 3.21875 -1.5 3.234375 -1.546875 C 3.25 -1.59375 3.265625 -1.640625 3.265625 -1.6875 L 3.265625 -1.71875 C 3.265625 -1.796875 3.1875 -1.828125 3.109375 -1.828125 C 2.890625 -1.828125 2.875 -1.5 2.828125 -1.34375 C 2.71875 -0.890625 2.515625 -0.125 2.0625 -0.125 C 1.859375 -0.125 1.765625 -0.390625 1.765625 -0.609375 C 1.765625 -1.09375 1.96875 -1.65625 2.09375 -2.15625 L 3.53125 -7.859375 C 3.546875 -7.953125 3.578125 -8.0625 3.59375 -8.171875 C 3.59375 -8.234375 3.546875 -8.296875 3.484375 -8.3125 Z M 3.40625 -8.3125 "/>
</g>
<g id="glyph-0-6">
<path d="M 4.09375 -0.734375 C 4.203125 -0.265625 4.5 0.109375 5.03125 0.109375 C 5.671875 0.109375 5.921875 -0.53125 6.078125 -1.046875 L 6.234375 -1.546875 C 6.234375 -1.59375 6.25 -1.65625 6.25 -1.703125 C 6.25 -1.796875 6.1875 -1.828125 6.09375 -1.828125 C 5.625 -1.828125 5.859375 -0.125 5.046875 -0.125 C 4.828125 -0.125 4.75 -0.390625 4.75 -0.609375 L 4.75 -0.6875 C 4.78125 -0.953125 4.84375 -1.21875 4.90625 -1.5 L 5.625 -4.328125 C 5.65625 -4.453125 5.6875 -4.59375 5.703125 -4.71875 L 5.703125 -4.765625 C 5.703125 -4.953125 5.5625 -5.046875 5.40625 -5.046875 C 5.109375 -5.046875 4.96875 -4.78125 4.953125 -4.546875 C 4.703125 -4.953125 4.46875 -5.265625 3.953125 -5.265625 C 3.5625 -5.265625 3.140625 -5.078125 2.828125 -4.859375 L 2.578125 -4.640625 C 1.78125 -3.96875 1.296875 -2.6875 1.296875 -1.703125 C 1.296875 -0.953125 1.65625 0.109375 2.65625 0.109375 C 3.25 0.109375 3.71875 -0.296875 4.09375 -0.734375 Z M 4.75 -3.84375 C 4.734375 -3.6875 4.6875 -3.515625 4.640625 -3.359375 L 4.234375 -1.703125 C 4.203125 -1.59375 4.1875 -1.453125 4.125 -1.328125 C 3.84375 -0.65625 3.078125 -0.125 2.71875 -0.125 L 2.6875 -0.125 C 2.203125 -0.125 2.03125 -0.765625 2.03125 -1.1875 C 2.03125 -1.6875 2.171875 -2.15625 2.296875 -2.640625 C 2.46875 -3.359375 2.6875 -4.125 3.234375 -4.65625 C 3.4375 -4.859375 3.6875 -5.03125 3.96875 -5.03125 L 4 -5.03125 C 4.515625 -5.015625 4.765625 -4.296875 4.765625 -3.921875 C 4.765625 -3.890625 4.75 -3.859375 4.75 -3.84375 Z M 4.75 -3.84375 "/>
</g>
<g id="glyph-0-7">
<path d="M 2.59375 -5.15625 L 1.65625 -5.15625 C 1.578125 -5.125 1.53125 -5.015625 1.53125 -4.9375 C 1.53125 -4.828125 1.609375 -4.8125 1.703125 -4.8125 L 2.515625 -4.8125 C 2.109375 -2.9375 1.859375 -1.03125 1.390625 0.828125 C 1.265625 1.3125 1.140625 2.1875 0.625 2.1875 C 0.40625 2.1875 0.265625 2.109375 0.125 1.953125 C 0.375 1.90625 0.609375 1.71875 0.609375 1.4375 C 0.609375 1.25 0.515625 1.140625 0.28125 1.078125 C -0.09375 1.078125 -0.3125 1.359375 -0.3125 1.6875 C -0.3125 2.15625 0.15625 2.421875 0.578125 2.421875 C 1.78125 2.421875 2.1875 0.4375 2.34375 -0.234375 C 2.59375 -1.3125 2.765625 -2.421875 3 -3.5 C 3.078125 -3.890625 3.125 -4.328125 3.234375 -4.71875 C 3.25 -4.796875 3.328125 -4.8125 3.40625 -4.8125 L 4.25 -4.8125 C 4.390625 -4.8125 4.5 -4.84375 4.5 -5.015625 L 4.5 -5.046875 C 4.484375 -5.140625 4.390625 -5.15625 4.296875 -5.15625 L 3.3125 -5.15625 C 3.5625 -6.125 3.609375 -8.1875 4.390625 -8.1875 C 4.5625 -8.1875 4.75 -8.078125 4.890625 -7.953125 C 4.609375 -7.90625 4.40625 -7.703125 4.40625 -7.421875 C 4.40625 -7.25 4.53125 -7.078125 4.765625 -7.078125 C 5.09375 -7.078125 5.3125 -7.375 5.3125 -7.671875 C 5.3125 -8.140625 4.875 -8.421875 4.40625 -8.421875 C 3.203125 -8.421875 2.953125 -6.984375 2.765625 -6.09375 C 2.703125 -5.78125 2.625 -5.46875 2.59375 -5.15625 Z M 2.59375 -5.15625 "/>
</g>
<g id="glyph-0-8">
<path d="M 3.171875 -4.296875 L 3.125 -4.5 C 3.015625 -4.96875 2.671875 -5.265625 2.21875 -5.265625 C 1.40625 -5.265625 1.15625 -4.140625 1.03125 -3.640625 C 1.015625 -3.578125 0.984375 -3.515625 0.984375 -3.453125 C 0.984375 -3.375 1.046875 -3.34375 1.125 -3.34375 C 1.375 -3.34375 1.375 -3.578125 1.40625 -3.765625 C 1.546875 -4.25 1.75 -5.03125 2.203125 -5.03125 C 2.4375 -5.03125 2.5 -4.75 2.5 -4.546875 C 2.5 -4.25 2.421875 -3.9375 2.34375 -3.640625 L 1.515625 -0.359375 C 1.5 -0.296875 1.5 -0.234375 1.5 -0.171875 C 1.5 -0.015625 1.609375 0.109375 1.78125 0.109375 C 2.125 0.109375 2.203125 -0.171875 2.265625 -0.453125 L 2.921875 -3.078125 C 3.125 -3.890625 3.828125 -5.03125 4.8125 -5.03125 L 4.859375 -5.03125 C 5.28125 -5.03125 5.375 -4.59375 5.375 -4.265625 C 5.375 -3.4375 5.015625 -2.515625 4.734375 -1.71875 C 4.625 -1.421875 4.5 -1.109375 4.5 -0.796875 C 4.5 -0.359375 4.8125 0.109375 5.359375 0.109375 C 6.21875 0.109375 6.640625 -0.921875 6.8125 -1.515625 C 6.828125 -1.5625 6.84375 -1.625 6.84375 -1.6875 L 6.84375 -1.71875 C 6.84375 -1.796875 6.78125 -1.8125 6.6875 -1.8125 C 6.359375 -1.8125 6.375 -0.640625 5.71875 -0.234375 C 5.625 -0.171875 5.5 -0.125 5.375 -0.125 C 5.15625 -0.125 5.109375 -0.328125 5.109375 -0.484375 C 5.109375 -0.59375 5.140625 -0.71875 5.15625 -0.8125 L 5.203125 -0.953125 C 5.484375 -1.90625 6.078125 -3.03125 6.078125 -4.078125 C 6.078125 -4.84375 5.546875 -5.265625 4.859375 -5.265625 C 4.203125 -5.265625 3.484375 -4.859375 3.171875 -4.296875 Z M 3.171875 -4.296875 "/>
</g>
<g id="glyph-0-9">
<path d="M 5.140625 -4.46875 C 4.859375 -4.46875 4.578125 -4.25 4.578125 -3.9375 C 4.578125 -3.734375 4.734375 -3.578125 4.9375 -3.578125 C 5.296875 -3.578125 5.515625 -3.9375 5.515625 -4.25 C 5.515625 -4.90625 4.875 -5.265625 4.25 -5.265625 C 2.625 -5.265625 1.3125 -3.375 1.3125 -1.8125 C 1.3125 -0.796875 1.90625 0.109375 3.03125 0.109375 C 3.9375 0.109375 4.78125 -0.375 5.328125 -1.03125 C 5.375 -1.09375 5.46875 -1.1875 5.46875 -1.28125 L 5.46875 -1.296875 C 5.453125 -1.375 5.359375 -1.453125 5.296875 -1.453125 C 5.1875 -1.453125 4.953125 -1.09375 4.8125 -0.9375 C 4.34375 -0.5 3.6875 -0.125 3.03125 -0.125 L 2.96875 -0.125 C 2.328125 -0.171875 2.078125 -0.8125 2.078125 -1.34375 C 2.078125 -1.890625 2.21875 -2.453125 2.375 -2.96875 C 2.640625 -3.84375 3.234375 -5.03125 4.296875 -5.03125 C 4.65625 -5.03125 5.015625 -4.859375 5.140625 -4.46875 Z M 5.140625 -4.46875 "/>
</g>
<g id="glyph-0-10">
<path d="M 5.3125 -5.265625 C 5.0625 -5.265625 4.8125 -5.03125 4.8125 -4.765625 C 4.8125 -4.5625 4.953125 -4.46875 5.046875 -4.3125 C 5.171875 -4.09375 5.25 -3.828125 5.25 -3.578125 C 5.25 -3.234375 5.15625 -2.890625 5.0625 -2.5625 C 4.78125 -1.578125 4.328125 -0.125 3.265625 -0.125 C 2.703125 -0.125 2.515625 -0.6875 2.515625 -1.125 C 2.515625 -1.453125 2.609375 -1.75 2.671875 -2.0625 C 2.796875 -2.578125 2.984375 -3.078125 3.171875 -3.5625 C 3.25 -3.8125 3.359375 -4.0625 3.359375 -4.34375 C 3.359375 -4.8125 3.0625 -5.265625 2.515625 -5.265625 L 2.484375 -5.265625 C 1.609375 -5.265625 1.171875 -4.1875 1.015625 -3.5625 C 1 -3.53125 0.984375 -3.484375 0.984375 -3.453125 C 0.984375 -3.375 1.0625 -3.34375 1.15625 -3.34375 C 1.390625 -3.34375 1.375 -3.640625 1.4375 -3.8125 C 1.578125 -4.28125 1.90625 -5.03125 2.4375 -5.03125 C 2.671875 -5.03125 2.71875 -4.859375 2.71875 -4.703125 L 2.71875 -4.609375 C 2.65625 -3.90625 2.265625 -3.171875 2.078125 -2.546875 L 1.96875 -2.1875 C 1.90625 -1.90625 1.84375 -1.578125 1.84375 -1.265625 C 1.84375 -0.65625 2.109375 0.109375 3.28125 0.109375 L 3.375 0.109375 C 4.421875 0.03125 4.984375 -1.25 5.265625 -2.140625 C 5.4375 -2.640625 5.5625 -3.171875 5.671875 -3.6875 C 5.734375 -3.9375 5.78125 -4.203125 5.78125 -4.484375 C 5.78125 -4.765625 5.71875 -5.265625 5.34375 -5.265625 Z M 5.3125 -5.265625 "/>
</g>
<g id="glyph-0-11">
<path d="M 2.3125 -2.78125 L 2.421875 -2.78125 C 3.265625 -2.78125 4.296875 -2.796875 4.921875 -3.296875 C 5.21875 -3.53125 5.421875 -3.921875 5.421875 -4.296875 C 5.421875 -4.8125 4.96875 -5.265625 4.234375 -5.265625 C 3.515625 -5.265625 2.828125 -4.90625 2.34375 -4.40625 C 1.703125 -3.78125 1.359375 -2.875 1.359375 -1.984375 C 1.359375 -1.0625 1.765625 0.109375 3 0.109375 C 3.90625 0.109375 4.828125 -0.375 5.359375 -1.0625 C 5.40625 -1.125 5.46875 -1.1875 5.46875 -1.265625 C 5.46875 -1.34375 5.375 -1.453125 5.296875 -1.453125 C 5.1875 -1.453125 4.984375 -1.109375 4.859375 -0.984375 C 4.390625 -0.515625 3.71875 -0.125 3.015625 -0.125 C 2.3125 -0.125 2.109375 -0.890625 2.109375 -1.453125 C 2.109375 -1.90625 2.265625 -2.34375 2.3125 -2.78125 Z M 2.390625 -3.03125 C 2.5625 -3.9375 3.296875 -5.03125 4.25 -5.03125 C 4.734375 -5.03125 5.015625 -4.671875 5.015625 -4.296875 C 5.015625 -3.03125 3.171875 -3.03125 2.390625 -3.03125 Z M 2.390625 -3.03125 "/>
</g>
<g id="glyph-0-12">
<path d="M 1.953125 -1.15625 C 1.65625 -1.125 1.34375 -0.84375 1.34375 -0.5 C 1.34375 -0.25 1.5 -0.015625 1.796875 -0.015625 C 2.15625 -0.015625 2.515625 -0.328125 2.515625 -0.703125 C 2.515625 -0.984375 2.3125 -1.171875 2.046875 -1.171875 C 2.015625 -1.171875 1.984375 -1.15625 1.953125 -1.15625 Z M 1.953125 -1.15625 "/>
</g>
<g id="glyph-0-13">
<path d="M 1.25 -0.859375 L 1.296875 -0.859375 C 1.5625 -0.859375 1.8125 -1.109375 1.8125 -1.40625 C 1.8125 -1.609375 1.65625 -1.75 1.453125 -1.75 C 1.0625 -1.75 0.890625 -1.375 0.890625 -1.046875 C 0.890625 -0.203125 1.734375 0.109375 2.390625 0.109375 C 3.5625 0.109375 4.609375 -0.6875 4.609375 -1.90625 C 4.609375 -2.46875 4.1875 -2.921875 3.6875 -3.078125 C 3.203125 -3.25 2.421875 -3.203125 2.421875 -3.90625 C 2.421875 -4.578125 3.046875 -5.03125 3.625 -5.03125 C 4.015625 -5.03125 4.484375 -4.84375 4.546875 -4.40625 C 4.3125 -4.375 4.109375 -4.203125 4.109375 -3.953125 C 4.109375 -3.796875 4.234375 -3.640625 4.4375 -3.640625 C 4.75 -3.640625 4.90625 -3.96875 4.90625 -4.25 C 4.90625 -4.953125 4.25 -5.265625 3.640625 -5.265625 C 2.703125 -5.265625 1.8125 -4.546875 1.8125 -3.53125 C 1.8125 -1.953125 4 -2.8125 4 -1.5 C 4 -0.65625 3.171875 -0.125 2.421875 -0.125 C 1.9375 -0.125 1.34375 -0.328125 1.25 -0.859375 Z M 1.25 -0.859375 "/>
</g>
<g id="glyph-0-14">
<path d="M 5.234375 -4.859375 C 5 -4.8125 4.828125 -4.578125 4.828125 -4.34375 C 4.828125 -4.140625 4.96875 -4 5.21875 -4 C 5.53125 -4.015625 5.75 -4.296875 5.75 -4.578125 C 5.75 -5.203125 4.890625 -5.265625 4.609375 -5.265625 C 3.984375 -5.265625 3.640625 -4.96875 3.140625 -4.40625 C 3.015625 -4.90625 2.71875 -5.265625 2.203125 -5.265625 C 1.34375 -5.265625 1.15625 -4.078125 1.03125 -3.625 C 1.015625 -3.578125 0.984375 -3.53125 0.984375 -3.46875 C 0.984375 -3.359375 1.0625 -3.34375 1.140625 -3.34375 C 1.25 -3.34375 1.296875 -3.359375 1.34375 -3.46875 C 1.484375 -4 1.65625 -5.03125 2.171875 -5.03125 C 2.21875 -5.03125 2.28125 -5.015625 2.328125 -4.984375 L 2.40625 -4.90625 C 2.46875 -4.8125 2.484375 -4.6875 2.484375 -4.5625 C 2.484375 -4.3125 2.421875 -4.0625 2.359375 -3.8125 L 1.546875 -0.5 C 1.515625 -0.390625 1.46875 -0.28125 1.46875 -0.171875 C 1.46875 -0.015625 1.609375 0.109375 1.765625 0.109375 C 2.109375 0.109375 2.203125 -0.1875 2.265625 -0.484375 L 2.953125 -3.234375 C 3.125 -3.984375 3.6875 -4.9375 4.46875 -5.03125 L 4.5625 -5.03125 C 4.8125 -5.03125 5.046875 -4.984375 5.234375 -4.859375 Z M 5.234375 -4.859375 "/>
</g>
<g id="glyph-0-15">
<path d="M 6.078125 -4.1875 C 6.015625 -4.9375 5.5 -5.265625 4.890625 -5.265625 C 4.21875 -5.265625 3.484375 -4.875 3.171875 -4.296875 L 3.125 -4.5 C 3.015625 -4.96875 2.671875 -5.265625 2.21875 -5.265625 C 1.40625 -5.265625 1.15625 -4.140625 1.03125 -3.640625 C 1.015625 -3.578125 0.984375 -3.515625 0.984375 -3.453125 C 0.984375 -3.375 1.0625 -3.328125 1.15625 -3.328125 C 1.59375 -3.328125 1.453125 -5.03125 2.1875 -5.03125 C 2.234375 -5.03125 2.296875 -5.015625 2.34375 -4.984375 L 2.421875 -4.90625 C 2.484375 -4.8125 2.5 -4.6875 2.5 -4.5625 C 2.5 -4.3125 2.4375 -4.0625 2.375 -3.8125 C 2.15625 -2.890625 1.921875 -1.984375 1.703125 -1.0625 L 1.546875 -0.484375 C 1.53125 -0.390625 1.484375 -0.28125 1.484375 -0.171875 C 1.484375 0 1.640625 0.109375 1.8125 0.109375 L 1.828125 0.109375 C 2.15625 0.078125 2.203125 -0.21875 2.28125 -0.484375 L 2.921875 -3.09375 C 3.140625 -3.96875 3.890625 -5.03125 4.8125 -5.03125 C 5.28125 -5.03125 5.390625 -4.625 5.390625 -4.265625 C 5.390625 -3.78125 5.234375 -3.3125 5.109375 -2.828125 L 4.546875 -0.5 C 4.5 -0.390625 4.46875 -0.28125 4.46875 -0.171875 C 4.46875 0 4.625 0.109375 4.796875 0.109375 L 4.84375 0.109375 C 5.1875 0.0625 5.21875 -0.296875 5.296875 -0.59375 L 5.921875 -3.15625 C 6.125 -4 6.890625 -5.015625 7.8125 -5.03125 L 7.875 -5.03125 C 8.296875 -4.921875 8.359375 -4.59375 8.359375 -4.21875 L 8.359375 -4.125 C 8.359375 -3.84375 8.265625 -3.53125 8.21875 -3.28125 C 8.09375 -2.828125 7.953125 -2.375 7.796875 -1.953125 C 7.671875 -1.578125 7.484375 -1.1875 7.484375 -0.78125 L 7.484375 -0.71875 C 7.53125 -0.234375 7.859375 0.109375 8.34375 0.109375 C 9.15625 0.109375 9.734375 -0.96875 9.84375 -1.671875 L 9.84375 -1.703125 C 9.84375 -1.796875 9.765625 -1.8125 9.6875 -1.8125 C 9.328125 -1.8125 9.3125 -0.125 8.40625 -0.125 C 8.1875 -0.125 8.109375 -0.28125 8.109375 -0.4375 L 8.109375 -0.484375 C 8.109375 -0.734375 8.171875 -0.96875 8.265625 -1.1875 C 8.5 -1.875 8.75 -2.546875 8.921875 -3.25 C 9 -3.515625 9.0625 -3.796875 9.0625 -4.0625 C 9.0625 -4.8125 8.5625 -5.265625 7.828125 -5.265625 C 7.25 -5.265625 6.734375 -4.984375 6.359375 -4.5625 C 6.265625 -4.453125 6.140625 -4.328125 6.078125 -4.1875 Z M 6.078125 -4.1875 "/>
</g>
<g id="glyph-0-16">
<path d="M 5.90625 -8.96875 C 5.765625 -8.921875 5.53125 -8.703125 5.375 -8.578125 C 3.6875 -7.140625 2.65625 -5.125 2.109375 -3.015625 C 1.921875 -2.234375 1.78125 -1.421875 1.78125 -0.625 L 1.78125 -0.515625 C 1.78125 0.6875 2.03125 1.859375 2.828125 2.84375 C 2.875 2.90625 2.953125 2.984375 3.03125 2.984375 C 3.078125 2.984375 3.125 2.9375 3.125 2.890625 C 3.125 2.859375 3.109375 2.8125 3.078125 2.765625 C 2.515625 1.859375 2.328125 0.890625 2.328125 -0.125 C 2.328125 -1.09375 2.515625 -2.046875 2.75 -2.96875 C 3.28125 -5.125 4.203125 -7.140625 5.890625 -8.671875 C 5.96875 -8.71875 6.078125 -8.78125 6.078125 -8.875 C 6.078125 -8.9375 6.015625 -8.984375 5.953125 -8.984375 C 5.9375 -8.984375 5.921875 -8.96875 5.90625 -8.96875 Z M 5.90625 -8.96875 "/>
</g>
<g id="glyph-0-17">
<path d="M 4.4375 -0.609375 C 4.5 -0.171875 4.921875 0.109375 5.34375 0.109375 C 6.265625 0.109375 6.5625 -1.5625 6.5625 -1.703125 C 6.5625 -1.796875 6.484375 -1.8125 6.4375 -1.8125 C 6.1875 -1.8125 6.171875 -1.578125 6.125 -1.375 C 6.015625 -0.9375 5.8125 -0.125 5.359375 -0.125 C 5.15625 -0.125 5.046875 -0.359375 5.046875 -0.609375 C 5.046875 -0.890625 5.125 -1.203125 5.21875 -1.5 L 5.796875 -3.84375 C 5.875 -4.15625 6.03125 -4.5625 6.03125 -4.859375 C 6.03125 -5.015625 5.90625 -5.15625 5.734375 -5.15625 C 5.421875 -5.15625 5.3125 -4.875 5.265625 -4.609375 L 4.578125 -1.90625 C 4.484375 -1.5625 4.46875 -1.21875 4.28125 -0.890625 C 4.046875 -0.515625 3.640625 -0.125 3.171875 -0.125 L 3.078125 -0.125 C 2.640625 -0.21875 2.515625 -0.609375 2.515625 -1.015625 C 2.515625 -1.859375 2.859375 -2.71875 3.140625 -3.515625 C 3.25 -3.78125 3.359375 -4.078125 3.359375 -4.34375 C 3.359375 -4.90625 2.96875 -5.265625 2.5 -5.265625 C 1.625 -5.265625 1.234375 -4.265625 1.046875 -3.640625 C 1.015625 -3.578125 0.984375 -3.515625 0.984375 -3.453125 C 0.984375 -3.375 1.078125 -3.328125 1.15625 -3.328125 C 1.53125 -3.328125 1.46875 -5.03125 2.453125 -5.03125 C 2.671875 -5.03125 2.734375 -4.828125 2.734375 -4.640625 C 2.734375 -4.4375 2.65625 -4.203125 2.59375 -4.015625 C 2.296875 -3.125 1.828125 -2.171875 1.828125 -1.25 L 1.828125 -1.125 C 1.90625 -0.34375 2.359375 0.109375 3.109375 0.109375 C 3.484375 0.109375 3.84375 -0.03125 4.125 -0.28125 C 4.234375 -0.390625 4.328125 -0.515625 4.4375 -0.609375 Z M 4.4375 -0.609375 "/>
</g>
<g id="glyph-0-18">
<path d="M 4.953125 -4.546875 L 4.9375 -4.546875 C 4.8125 -4.984375 4.40625 -5.265625 3.953125 -5.265625 C 3.078125 -5.265625 2.40625 -4.515625 2.0625 -4.046875 C 1.578125 -3.375 1.296875 -2.515625 1.296875 -1.703125 C 1.296875 -0.9375 1.65625 0.109375 2.65625 0.109375 C 3.25 0.109375 3.71875 -0.296875 4.09375 -0.734375 C 4.203125 -0.265625 4.5 0.109375 5.03125 0.109375 C 5.890625 0.109375 6.09375 -1.078125 6.234375 -1.5625 C 6.234375 -1.609375 6.25 -1.65625 6.25 -1.703125 C 6.25 -1.796875 6.1875 -1.8125 6.125 -1.8125 C 5.875 -1.8125 5.890625 -1.59375 5.828125 -1.40625 C 5.71875 -0.9375 5.5 -0.125 5.0625 -0.125 C 4.828125 -0.125 4.75 -0.375 4.75 -0.59375 C 4.75 -1.171875 5 -1.84375 5.140625 -2.421875 L 6.53125 -7.984375 C 6.53125 -8.046875 6.578125 -8.109375 6.578125 -8.1875 C 6.5625 -8.28125 6.484375 -8.3125 6.390625 -8.3125 C 5.984375 -8.3125 5.59375 -8.21875 5.1875 -8.203125 C 5.03125 -8.1875 4.84375 -8.203125 4.84375 -7.953125 C 4.84375 -7.6875 5.65625 -7.96875 5.6875 -7.609375 C 5.6875 -7.5 5.65625 -7.375 5.625 -7.265625 L 5.125 -5.3125 C 5.0625 -5.0625 4.984375 -4.796875 4.953125 -4.546875 Z M 4.765625 -3.875 C 4.75 -3.734375 4.703125 -3.609375 4.671875 -3.484375 L 4.25 -1.8125 C 4.140625 -1.34375 4 -1.078125 3.703125 -0.734375 L 3.53125 -0.546875 C 3.328125 -0.34375 3 -0.125 2.703125 -0.125 C 2.15625 -0.125 2.03125 -0.796875 2.03125 -1.21875 C 2.0625 -1.6875 2.15625 -2.125 2.265625 -2.578125 C 2.46875 -3.3125 2.671875 -4.03125 3.171875 -4.609375 C 3.375 -4.8125 3.65625 -5.03125 3.953125 -5.03125 L 3.984375 -5.03125 C 4.515625 -5.015625 4.765625 -4.296875 4.765625 -3.921875 Z M 4.765625 -3.875 "/>
</g>
<g id="glyph-0-19">
<path d="M 2.3125 -2.78125 L 2.421875 -2.78125 C 3.265625 -2.78125 4.296875 -2.796875 4.921875 -3.296875 C 5.21875 -3.53125 5.421875 -3.921875 5.421875 -4.296875 C 5.421875 -4.8125 4.96875 -5.265625 4.234375 -5.265625 C 3.515625 -5.265625 2.828125 -4.90625 2.34375 -4.40625 C 1.703125 -3.78125 1.359375 -2.875 1.359375 -1.984375 C 1.359375 -1.0625 1.765625 0.109375 3 0.109375 C 3.90625 0.109375 4.828125 -0.375 5.359375 -1.0625 C 5.40625 -1.125 5.46875 -1.1875 5.46875 -1.265625 C 5.46875 -1.34375 5.375 -1.453125 5.296875 -1.453125 C 5.1875 -1.453125 4.984375 -1.109375 4.859375 -0.984375 C 4.390625 -0.515625 3.71875 -0.125 3.015625 -0.125 C 2.3125 -0.125 2.109375 -0.890625 2.109375 -1.453125 C 2.109375 -1.90625 2.265625 -2.34375 2.3125 -2.78125 Z M 2.390625 -3.03125 C 2.5625 -3.9375 3.296875 -5.03125 4.25 -5.03125 C 4.734375 -5.03125 5.015625 -4.671875 5.015625 -4.296875 C 5.015625 -3.03125 3.171875 -3.03125 2.390625 -3.03125 Z M 5.765625 -7.75 C 5.5625 -7.734375 5.359375 -7.5 5.1875 -7.359375 C 4.796875 -7.046875 4.40625 -6.71875 4.015625 -6.390625 C 3.9375 -6.328125 3.78125 -6.234375 3.78125 -6.125 C 3.78125 -6.046875 3.84375 -5.953125 3.9375 -5.9375 C 4 -5.9375 4.0625 -5.984375 4.125 -6.03125 L 4.484375 -6.234375 C 4.828125 -6.453125 5.171875 -6.65625 5.515625 -6.875 L 5.828125 -7.046875 C 6 -7.140625 6.125 -7.25 6.125 -7.453125 C 6.125 -7.609375 6.03125 -7.765625 5.828125 -7.765625 C 5.796875 -7.765625 5.765625 -7.75 5.765625 -7.75 Z M 5.765625 -7.75 "/>
</g>
<g id="glyph-0-20">
<path d="M 3.171875 -8.96875 C 3.140625 -8.9375 3.125 -8.921875 3.125 -8.875 C 3.125 -8.734375 3.359375 -8.453125 3.453125 -8.265625 C 3.828125 -7.53125 3.9375 -6.671875 3.9375 -5.859375 C 3.9375 -4.90625 3.75 -3.953125 3.53125 -3.046875 C 3 -0.953125 2.09375 1.140625 0.453125 2.59375 C 0.359375 2.671875 0.171875 2.78125 0.171875 2.890625 C 0.171875 2.953125 0.234375 2.984375 0.3125 2.984375 C 0.453125 2.96875 0.6875 2.734375 0.84375 2.609375 C 3.21875 0.65625 4.46875 -2.6875 4.46875 -5.5625 L 4.46875 -5.875 C 4.421875 -6.921875 4.109375 -8.09375 3.40625 -8.859375 C 3.375 -8.90625 3.296875 -8.984375 3.234375 -8.984375 C 3.21875 -8.984375 3.1875 -8.96875 3.171875 -8.96875 Z M 3.171875 -8.96875 "/>
</g>
<g id="glyph-0-21">
<path d="M 2.28125 -0.1875 C 2.0625 0.75 1.609375 1.421875 0.9375 2.046875 C 0.890625 2.0625 0.84375 2.125 0.84375 2.1875 C 0.84375 2.265625 0.921875 2.296875 0.9375 2.296875 C 1.09375 2.296875 1.4375 1.90625 1.59375 1.71875 C 2.109375 1.109375 2.5625 0.296875 2.5625 -0.53125 C 2.5625 -0.796875 2.46875 -1.171875 2.09375 -1.171875 C 1.703125 -1.171875 1.34375 -0.890625 1.34375 -0.484375 C 1.34375 -0.25 1.5 -0.015625 1.78125 -0.015625 C 1.953125 -0.015625 2.140625 -0.0625 2.28125 -0.1875 Z M 2.28125 -0.1875 "/>
</g>
<g id="glyph-0-22">
<path d="M 2.703125 -4.59375 C 2.9375 -5.4375 3.125 -6.296875 3.34375 -7.15625 L 3.53125 -7.890625 C 3.546875 -7.96875 3.578125 -8.078125 3.578125 -8.15625 L 3.578125 -8.21875 C 3.578125 -8.28125 3.515625 -8.3125 3.4375 -8.3125 C 2.765625 -8.3125 1.859375 -8.234375 1.859375 -7.96875 L 1.859375 -7.953125 C 1.859375 -7.84375 1.953125 -7.828125 2.0625 -7.828125 L 2.140625 -7.828125 C 2.359375 -7.828125 2.71875 -7.828125 2.71875 -7.609375 C 2.71875 -7.421875 2.625 -7.203125 2.578125 -7 L 1.734375 -3.609375 C 1.5625 -2.953125 1.359375 -2.296875 1.359375 -1.609375 C 1.359375 -0.859375 1.734375 0.109375 2.671875 0.109375 C 4.203125 0.109375 5.359375 -1.921875 5.359375 -3.4375 C 5.359375 -4.25 4.984375 -5.265625 4 -5.265625 C 3.484375 -5.265625 3.0625 -4.953125 2.703125 -4.59375 Z M 4.609375 -3.78125 C 4.5625 -3.34375 4.453125 -2.921875 4.359375 -2.515625 C 4.140625 -1.65625 3.6875 -0.125 2.671875 -0.125 C 2.09375 -0.15625 1.984375 -0.90625 1.984375 -1.296875 C 2.015625 -1.828125 2.140625 -2.359375 2.265625 -2.875 L 2.421875 -3.5 C 2.46875 -3.609375 2.46875 -3.734375 2.515625 -3.84375 C 2.78125 -4.390625 3.421875 -5.03125 3.984375 -5.03125 C 4.46875 -5.015625 4.609375 -4.40625 4.609375 -4 C 4.609375 -3.9375 4.609375 -3.84375 4.609375 -3.78125 Z M 4.609375 -3.78125 "/>
</g>
<g id="glyph-1-0">
</g>
<g id="glyph-1-1">
<path d="M 5.328125 -4.8125 C 5.5625 -4.8125 5.671875 -4.8125 5.671875 -5.03125 C 5.671875 -5.15625 5.5625 -5.15625 5.359375 -5.15625 L 4.390625 -5.15625 C 4.609375 -6.390625 4.78125 -7.234375 4.875 -7.609375 C 4.953125 -7.90625 5.203125 -8.171875 5.515625 -8.171875 C 5.765625 -8.171875 6.015625 -8.0625 6.125 -7.953125 C 5.671875 -7.90625 5.515625 -7.5625 5.515625 -7.359375 C 5.515625 -7.125 5.703125 -6.984375 5.921875 -6.984375 C 6.171875 -6.984375 6.53125 -7.1875 6.53125 -7.640625 C 6.53125 -8.140625 6.03125 -8.421875 5.5 -8.421875 C 4.984375 -8.421875 4.484375 -8.03125 4.25 -7.5625 C 4.03125 -7.140625 3.90625 -6.71875 3.640625 -5.15625 L 2.828125 -5.15625 C 2.609375 -5.15625 2.484375 -5.15625 2.484375 -4.9375 C 2.484375 -4.8125 2.5625 -4.8125 2.796875 -4.8125 L 3.5625 -4.8125 C 3.34375 -3.6875 2.859375 -0.984375 2.578125 0.28125 C 2.375 1.328125 2.203125 2.203125 1.609375 2.203125 C 1.5625 2.203125 1.21875 2.203125 1 1.96875 C 1.609375 1.921875 1.609375 1.40625 1.609375 1.390625 C 1.609375 1.140625 1.4375 1 1.203125 1 C 0.96875 1 0.609375 1.203125 0.609375 1.65625 C 0.609375 2.171875 1.140625 2.4375 1.609375 2.4375 C 2.828125 2.4375 3.328125 0.25 3.453125 -0.34375 C 3.671875 -1.265625 4.25 -4.453125 4.3125 -4.8125 Z M 5.328125 -4.8125 "/>
</g>
<g id="glyph-1-2">
<path d="M 2.03125 -1.328125 C 1.609375 -0.625 1.203125 -0.375 0.640625 -0.34375 C 0.5 -0.328125 0.40625 -0.328125 0.40625 -0.125 C 0.40625 -0.046875 0.46875 0 0.546875 0 C 0.765625 0 1.296875 -0.03125 1.515625 -0.03125 C 1.859375 -0.03125 2.25 0 2.578125 0 C 2.65625 0 2.796875 0 2.796875 -0.234375 C 2.796875 -0.328125 2.703125 -0.34375 2.625 -0.34375 C 2.359375 -0.375 2.125 -0.46875 2.125 -0.75 C 2.125 -0.921875 2.203125 -1.046875 2.359375 -1.3125 L 3.265625 -2.828125 L 6.3125 -2.828125 C 6.328125 -2.71875 6.328125 -2.625 6.328125 -2.515625 C 6.375 -2.203125 6.515625 -0.953125 6.515625 -0.734375 C 6.515625 -0.375 5.90625 -0.34375 5.71875 -0.34375 C 5.578125 -0.34375 5.453125 -0.34375 5.453125 -0.125 C 5.453125 0 5.5625 0 5.625 0 C 5.828125 0 6.078125 -0.03125 6.28125 -0.03125 L 6.953125 -0.03125 C 7.6875 -0.03125 8.21875 0 8.21875 0 C 8.3125 0 8.4375 0 8.4375 -0.234375 C 8.4375 -0.34375 8.328125 -0.34375 8.15625 -0.34375 C 7.5 -0.34375 7.484375 -0.453125 7.453125 -0.8125 L 6.71875 -8.265625 C 6.6875 -8.515625 6.640625 -8.53125 6.515625 -8.53125 C 6.390625 -8.53125 6.328125 -8.515625 6.21875 -8.328125 Z M 3.46875 -3.171875 L 5.875 -7.1875 L 6.28125 -3.171875 Z M 3.46875 -3.171875 "/>
</g>
<g id="glyph-1-3">
<path d="M 4.375 -7.34375 C 4.484375 -7.796875 4.53125 -7.8125 5 -7.8125 L 6.546875 -7.8125 C 7.90625 -7.8125 7.90625 -6.671875 7.90625 -6.5625 C 7.90625 -5.59375 6.9375 -4.359375 5.359375 -4.359375 L 3.640625 -4.359375 Z M 6.390625 -4.265625 C 7.703125 -4.5 8.875 -5.421875 8.875 -6.515625 C 8.875 -7.453125 8.0625 -8.15625 6.703125 -8.15625 L 2.875 -8.15625 C 2.640625 -8.15625 2.53125 -8.15625 2.53125 -7.9375 C 2.53125 -7.8125 2.640625 -7.8125 2.828125 -7.8125 C 3.546875 -7.8125 3.546875 -7.71875 3.546875 -7.59375 C 3.546875 -7.5625 3.546875 -7.5 3.5 -7.3125 L 1.890625 -0.890625 C 1.78125 -0.46875 1.75 -0.34375 0.921875 -0.34375 C 0.6875 -0.34375 0.578125 -0.34375 0.578125 -0.125 C 0.578125 0 0.640625 0 0.890625 0 L 4.984375 0 C 6.8125 0 8.21875 -1.390625 8.21875 -2.59375 C 8.21875 -3.578125 7.359375 -4.171875 6.390625 -4.265625 Z M 4.703125 -0.34375 L 3.078125 -0.34375 C 2.921875 -0.34375 2.890625 -0.34375 2.828125 -0.359375 C 2.6875 -0.375 2.671875 -0.390625 2.671875 -0.484375 C 2.671875 -0.578125 2.703125 -0.640625 2.71875 -0.75 L 3.5625 -4.125 L 5.8125 -4.125 C 7.21875 -4.125 7.21875 -2.8125 7.21875 -2.71875 C 7.21875 -1.5625 6.1875 -0.34375 4.703125 -0.34375 Z M 4.703125 -0.34375 "/>
</g>
<g id="glyph-2-0">
</g>
<g id="glyph-2-1">
<path d="M 2.203125 -4.578125 C 2.203125 -4.90625 1.921875 -5.15625 1.625 -5.15625 C 1.28125 -5.15625 1.046875 -4.875 1.046875 -4.578125 C 1.046875 -4.21875 1.34375 -4 1.609375 -4 C 1.9375 -4 2.203125 -4.25 2.203125 -4.578125 Z M 2.203125 -0.578125 C 2.203125 -0.90625 1.921875 -1.15625 1.625 -1.15625 C 1.28125 -1.15625 1.046875 -0.890625 1.046875 -0.578125 C 1.046875 -0.234375 1.34375 0 1.609375 0 C 1.9375 0 2.203125 -0.25 2.203125 -0.578125 Z M 2.203125 -0.578125 "/>
</g>
<g id="glyph-2-2">
<path d="M 8.0625 -3.875 C 8.234375 -3.875 8.453125 -3.875 8.453125 -4.09375 C 8.453125 -4.3125 8.25 -4.3125 8.0625 -4.3125 L 1.03125 -4.3125 C 0.859375 -4.3125 0.640625 -4.3125 0.640625 -4.09375 C 0.640625 -3.875 0.84375 -3.875 1.03125 -3.875 Z M 8.0625 -1.65625 C 8.234375 -1.65625 8.453125 -1.65625 8.453125 -1.859375 C 8.453125 -2.09375 8.25 -2.09375 8.0625 -2.09375 L 1.03125 -2.09375 C 0.859375 -2.09375 0.640625 -2.09375 0.640625 -1.875 C 0.640625 -1.65625 0.84375 -1.65625 1.03125 -1.65625 Z M 8.0625 -1.65625 "/>
</g>
<g id="glyph-2-3">
<path d="M 3.890625 2.90625 C 3.890625 2.875 3.890625 2.84375 3.6875 2.640625 C 2.484375 1.4375 1.8125 -0.53125 1.8125 -2.96875 C 1.8125 -5.296875 2.375 -7.296875 3.765625 -8.703125 C 3.890625 -8.8125 3.890625 -8.828125 3.890625 -8.875 C 3.890625 -8.9375 3.828125 -8.96875 3.78125 -8.96875 C 3.625 -8.96875 2.640625 -8.109375 2.0625 -6.9375 C 1.453125 -5.71875 1.171875 -4.453125 1.171875 -2.96875 C 1.171875 -1.90625 1.34375 -0.484375 1.953125 0.78125 C 2.671875 2.21875 3.640625 3 3.78125 3 C 3.828125 3 3.890625 2.96875 3.890625 2.90625 Z M 3.890625 2.90625 "/>
</g>
<g id="glyph-2-4">
<path d="M 3.375 -2.96875 C 3.375 -3.890625 3.25 -5.359375 2.578125 -6.75 C 1.875 -8.1875 0.890625 -8.96875 0.765625 -8.96875 C 0.71875 -8.96875 0.65625 -8.9375 0.65625 -8.875 C 0.65625 -8.828125 0.65625 -8.8125 0.859375 -8.609375 C 2.0625 -7.40625 2.71875 -5.421875 2.71875 -2.984375 C 2.71875 -0.671875 2.15625 1.328125 0.78125 2.734375 C 0.65625 2.84375 0.65625 2.875 0.65625 2.90625 C 0.65625 2.96875 0.71875 3 0.765625 3 C 0.921875 3 1.90625 2.140625 2.484375 0.96875 C 3.09375 -0.25 3.375 -1.546875 3.375 -2.96875 Z M 3.375 -2.96875 "/>
</g>
<g id="glyph-3-0">
</g>
<g id="glyph-3-1">
<path d="M 1.140625 -2.75 C 1.203125 -2.75 1.46875 -2.75 1.46875 -2.984375 C 1.46875 -3.234375 1.203125 -3.234375 1.140625 -3.234375 L 1.140625 -4.796875 C 1.140625 -4.984375 1.140625 -5.21875 0.890625 -5.21875 C 0.65625 -5.21875 0.65625 -4.984375 0.65625 -4.796875 L 0.65625 -1.1875 C 0.65625 -0.984375 0.65625 -0.765625 0.890625 -0.765625 C 1.140625 -0.765625 1.140625 -0.984375 1.140625 -1.1875 Z M 1.140625 -2.75 "/>
</g>
<g id="glyph-3-2">
<path d="M 9.96875 -2.75 C 9.3125 -2.25 8.984375 -1.75 8.890625 -1.609375 C 8.359375 -0.78125 8.265625 -0.03125 8.265625 -0.015625 C 8.265625 0.125 8.40625 0.125 8.5 0.125 C 8.703125 0.125 8.71875 0.109375 8.765625 -0.109375 C 9.03125 -1.28125 9.734375 -2.28125 11.09375 -2.828125 C 11.234375 -2.875 11.265625 -2.90625 11.265625 -2.984375 C 11.265625 -3.078125 11.203125 -3.109375 11.171875 -3.125 C 10.65625 -3.328125 9.203125 -3.921875 8.75 -5.921875 C 8.71875 -6.078125 8.703125 -6.109375 8.5 -6.109375 C 8.40625 -6.109375 8.265625 -6.109375 8.265625 -5.96875 C 8.265625 -5.9375 8.359375 -5.1875 8.875 -4.390625 C 9.109375 -4.03125 9.453125 -3.609375 9.96875 -3.234375 L 1.09375 -3.234375 C 0.875 -3.234375 0.65625 -3.234375 0.65625 -2.984375 C 0.65625 -2.75 0.875 -2.75 1.09375 -2.75 Z M 9.96875 -2.75 "/>
</g>
</g>
<clipPath id="clip-0">
<path clip-rule="nonzero" d="M 200 0 L 204 0 L 204 12.953125 L 200 12.953125 Z M 200 0 "/>
</clipPath>
<clipPath id="clip-1">
<path clip-rule="nonzero" d="M 213 0 L 217 0 L 217 12.953125 L 213 12.953125 Z M 213 0 "/>
</clipPath>
<clipPath id="clip-2">
<path clip-rule="nonzero" d="M 387 0 L 403 0 L 403 12.953125 L 387 12.953125 Z M 387 0 "/>
</clipPath>
<clipPath id="clip-3">
<path clip-rule="nonzero" d="M 428 0 L 476 0 L 476 12.953125 L 428 12.953125 Z M 428 0 "/>
</clipPath>
</defs>
<g fill="rgb(0%, 0%, 0%)" fill-opacity="1">
<use xlink:href="#glyph-0-1" x="0.5" y="9.466"/>
<use xlink:href="#glyph-0-2" x="7.074164" y="9.466"/>
<use xlink:href="#glyph-0-3" x="13.050569" y="9.466"/>
<use xlink:href="#glyph-0-4" x="16.635933" y="9.466"/>
</g>
<g fill="rgb(0%, 0%, 0%)" fill-opacity="1">
<use xlink:href="#glyph-0-5" x="24.704498" y="9.466"/>
<use xlink:href="#glyph-0-6" x="27.692102" y="9.466"/>
</g>
<g fill="rgb(0%, 0%, 0%)" fill-opacity="1">
<use xlink:href="#glyph-0-7" x="37.852827" y="9.466"/>
<use xlink:href="#glyph-0-2" x="41.438191" y="9.466"/>
<use xlink:href="#glyph-0-8" x="47.414596" y="9.466"/>
<use xlink:href="#glyph-0-9" x="53.98876" y="9.466"/>
<use xlink:href="#glyph-0-4" x="59.367405" y="9.466"/>
<use xlink:href="#glyph-0-3" x="63.251649" y="9.466"/>
<use xlink:href="#glyph-0-2" x="66.837014" y="9.466"/>
<use xlink:href="#glyph-0-8" x="72.813418" y="9.466"/>
</g>
<g fill="rgb(0%, 0%, 0%)" fill-opacity="1">
<use xlink:href="#glyph-1-1" x="83.568" y="9.466"/>
</g>
<g fill="rgb(0%, 0%, 0%)" fill-opacity="1">
<use xlink:href="#glyph-2-1" x="93.935" y="9.466"/>
</g>
<g fill="rgb(0%, 0%, 0%)" fill-opacity="1">
<use xlink:href="#glyph-1-2" x="100.508" y="9.466"/>
</g>
<g fill="rgb(0%, 0%, 0%)" fill-opacity="1">
<use xlink:href="#glyph-3-1" x="112.604" y="9.466"/>
<use xlink:href="#glyph-3-2" x="112.604" y="9.466"/>
</g>
<g fill="rgb(0%, 0%, 0%)" fill-opacity="1">
<use xlink:href="#glyph-1-3" x="127.88" y="9.466"/>
</g>
<g fill="rgb(0%, 0%, 0%)" fill-opacity="1">
<use xlink:href="#glyph-0-6" x="141.56" y="9.466"/>
<use xlink:href="#glyph-0-10" x="147.536404" y="9.466"/>
<use xlink:href="#glyph-0-11" x="152.915049" y="9.466"/>
</g>
<g fill="rgb(0%, 0%, 0%)" fill-opacity="1">
<use xlink:href="#glyph-0-9" x="157.695933" y="9.466"/>
</g>
<g fill="rgb(0%, 0%, 0%)" fill-opacity="1">
<use xlink:href="#glyph-1-3" x="167.257" y="9.466"/>
</g>
<g fill="rgb(0%, 0%, 0%)" fill-opacity="1">
<use xlink:href="#glyph-2-2" x="180.074" y="9.466"/>
</g>
<g fill="rgb(0%, 0%, 0%)" fill-opacity="1">
<use xlink:href="#glyph-1-1" x="192.499" y="9.466"/>
</g>
<g clip-path="url(#clip-0)">
<g fill="rgb(0%, 0%, 0%)" fill-opacity="1">
<use xlink:href="#glyph-2-3" x="199.546" y="9.466"/>
</g>
</g>
<g fill="rgb(0%, 0%, 0%)" fill-opacity="1">
<use xlink:href="#glyph-1-2" x="204.098" y="9.466"/>
</g>
<g clip-path="url(#clip-1)">
<g fill="rgb(0%, 0%, 0%)" fill-opacity="1">
<use xlink:href="#glyph-2-4" x="212.874" y="9.466"/>
</g>
</g>
<g fill="rgb(0%, 0%, 0%)" fill-opacity="1">
<use xlink:href="#glyph-0-12" x="217.426" y="9.466"/>
</g>
<g fill="rgb(0%, 0%, 0%)" fill-opacity="1">
<use xlink:href="#glyph-0-1" x="225.195684" y="9.466"/>
<use xlink:href="#glyph-0-3" x="231.769849" y="9.466"/>
</g>
<g fill="rgb(0%, 0%, 0%)" fill-opacity="1">
<use xlink:href="#glyph-1-1" x="239.538" y="9.466"/>
</g>
<g fill="rgb(0%, 0%, 0%)" fill-opacity="1">
<use xlink:href="#glyph-0-11" x="250.767" y="9.466"/>
<use xlink:href="#glyph-0-13" x="256.145644" y="9.466"/>
<use xlink:href="#glyph-0-4" x="260.926529" y="9.466"/>
</g>
<g fill="rgb(0%, 0%, 0%)" fill-opacity="1">
<use xlink:href="#glyph-0-13" x="268.995093" y="9.466"/>
<use xlink:href="#glyph-0-4" x="273.775978" y="9.466"/>
<use xlink:href="#glyph-0-14" x="277.660222" y="9.466"/>
<use xlink:href="#glyph-0-3" x="282.590547" y="9.466"/>
<use xlink:href="#glyph-0-9" x="286.175911" y="9.466"/>
<use xlink:href="#glyph-0-4" x="291.554556" y="9.466"/>
<use xlink:href="#glyph-0-11" x="295.4388" y="9.466"/>
<use xlink:href="#glyph-0-15" x="300.817445" y="9.466"/>
<use xlink:href="#glyph-0-11" x="310.379214" y="9.466"/>
<use xlink:href="#glyph-0-8" x="315.757858" y="9.466"/>
<use xlink:href="#glyph-0-4" x="322.332023" y="9.466"/>
</g>
<g fill="rgb(0%, 0%, 0%)" fill-opacity="1">
<use xlink:href="#glyph-0-9" x="330.400587" y="9.466"/>
<use xlink:href="#glyph-0-14" x="335.779232" y="9.466"/>
</g>
<g fill="rgb(0%, 0%, 0%)" fill-opacity="1">
<use xlink:href="#glyph-0-2" x="340.111796" y="9.466"/>
<use xlink:href="#glyph-0-3" x="346.088201" y="9.466"/>
<use xlink:href="#glyph-0-13" x="349.673565" y="9.466"/>
<use xlink:href="#glyph-0-13" x="354.45445" y="9.466"/>
<use xlink:href="#glyph-0-6" x="359.235334" y="9.466"/>
<use xlink:href="#glyph-0-8" x="365.211739" y="9.466"/>
<use xlink:href="#glyph-0-4" x="371.785903" y="9.466"/>
<use xlink:href="#glyph-0-11" x="375.670148" y="9.466"/>
</g>
<g clip-path="url(#clip-2)">
<g fill="rgb(0%, 0%, 0%)" fill-opacity="1">
<use xlink:href="#glyph-0-16" x="385.233112" y="9.466"/>
<use xlink:href="#glyph-0-2" x="390.013996" y="9.466"/>
<use xlink:href="#glyph-0-17" x="395.990401" y="9.466"/>
</g>
</g>
<g fill="rgb(0%, 0%, 0%)" fill-opacity="1">
<use xlink:href="#glyph-0-18" x="406.450005" y="9.466"/>
<use xlink:href="#glyph-0-19" x="412.42641" y="9.466"/>
</g>
<g fill="rgb(0%, 0%, 0%)" fill-opacity="1">
<use xlink:href="#glyph-0-9" x="417.207294" y="9.466"/>
<use xlink:href="#glyph-0-14" x="422.585939" y="9.466"/>
</g>
<g clip-path="url(#clip-3)">
<g fill="rgb(0%, 0%, 0%)" fill-opacity="1">
<use xlink:href="#glyph-0-2" x="426.918503" y="9.466"/>
<use xlink:href="#glyph-0-3" x="432.894908" y="9.466"/>
<use xlink:href="#glyph-0-13" x="436.480272" y="9.466"/>
<use xlink:href="#glyph-0-13" x="441.261157" y="9.466"/>
<use xlink:href="#glyph-0-6" x="446.042041" y="9.466"/>
<use xlink:href="#glyph-0-8" x="452.018446" y="9.466"/>
<use xlink:href="#glyph-0-4" x="458.59261" y="9.466"/>
<use xlink:href="#glyph-0-11" x="462.476855" y="9.466"/>
<use xlink:href="#glyph-0-20" x="467.855499" y="9.466"/>
<use xlink:href="#glyph-0-21" x="472.636384" y="9.466"/>
</g>
</g>
<g fill="rgb(0%, 0%, 0%)" fill-opacity="1">
<use xlink:href="#glyph-0-6" x="480.394113" y="9.466"/>
<use xlink:href="#glyph-0-5" x="486.370517" y="9.466"/>
</g>
<g fill="rgb(0%, 0%, 0%)" fill-opacity="1">
<use xlink:href="#glyph-0-2" x="489.370077" y="9.466"/>
</g>
<g fill="rgb(0%, 0%, 0%)" fill-opacity="1">
<use xlink:href="#glyph-0-14" x="495.334526" y="9.466"/>
<use xlink:href="#glyph-0-13" x="500.264851" y="9.466"/>
</g>
<g fill="rgb(0%, 0%, 0%)" fill-opacity="1">
<use xlink:href="#glyph-0-5" x="509.230055" y="9.466"/>
<use xlink:href="#glyph-0-6" x="512.21766" y="9.466"/>
</g>
<g fill="rgb(0%, 0%, 0%)" fill-opacity="1">
<use xlink:href="#glyph-0-7" x="522.378384" y="9.466"/>
<use xlink:href="#glyph-0-2" x="525.963749" y="9.466"/>
<use xlink:href="#glyph-0-8" x="531.940153" y="9.466"/>
<use xlink:href="#glyph-0-9" x="538.514318" y="9.466"/>
<use xlink:href="#glyph-0-4" x="543.892962" y="9.466"/>
<use xlink:href="#glyph-0-3" x="547.777207" y="9.466"/>
<use xlink:href="#glyph-0-2" x="551.362571" y="9.466"/>
<use xlink:href="#glyph-0-8" x="557.338976" y="9.466"/>
</g>
<g fill="rgb(0%, 0%, 0%)" fill-opacity="1">
<use xlink:href="#glyph-1-1" x="568.1" y="9.466"/>
</g>
<g fill="rgb(0%, 0%, 0%)" fill-opacity="1">
<use xlink:href="#glyph-0-11" x="579.329" y="9.466"/>
<use xlink:href="#glyph-0-13" x="584.707644" y="9.466"/>
<use xlink:href="#glyph-0-4" x="589.488529" y="9.466"/>
</g>
<g fill="rgb(0%, 0%, 0%)" fill-opacity="1">
<use xlink:href="#glyph-0-3" x="597.557093" y="9.466"/>
<use xlink:href="#glyph-0-8" x="601.142458" y="9.466"/>
<use xlink:href="#glyph-0-10" x="607.716622" y="9.466"/>
<use xlink:href="#glyph-0-11" x="613.095267" y="9.466"/>
<use xlink:href="#glyph-0-14" x="618.473911" y="9.466"/>
<use xlink:href="#glyph-0-13" x="623.404236" y="9.466"/>
<use xlink:href="#glyph-0-3" x="628.18512" y="9.466"/>
<use xlink:href="#glyph-0-22" x="631.770485" y="9.466"/>
<use xlink:href="#glyph-0-5" x="637.149129" y="9.466"/>
<use xlink:href="#glyph-0-11" x="640.136734" y="9.466"/>
<use xlink:href="#glyph-0-12" x="645.515378" y="9.466"/>
</g>
</svg>
