<?xml version="1.0" encoding="UTF-8"?>
<svg xmlns="http://www.w3.org/2000/svg" xmlns:xlink="http://www.w3.org/1999/xlink" viewBox="0 0 127.214 49.219">
<defs>
<g>
<g id="glyph-0-0">
</g>
<g id="glyph-0-1">
<path d="M 3.921875 -8.515625 C 3.984375 -8.640625 3.984375 -8.671875 3.984375 -8.71875 C 3.984375 -8.859375 3.875 -8.96875 3.734375 -8.96875 C 3.640625 -8.96875 3.546875 -8.90625 3.46875 -8.6875 L 1.375 -3.203125 C 1.34375 -3.125 1.3125 -3.0625 1.3125 -2.984375 C 1.3125 -2.953125 1.3125 -2.921875 1.375 -2.78125 L 3.46875 2.703125 C 3.515625 2.828125 3.578125 2.984375 3.734375 2.984375 C 3.875 2.984375 3.984375 2.875 3.984375 2.75 C 3.984375 2.71875 3.984375 2.6875 3.921875 2.5625 L 1.8125 -2.984375 Z M 3.921875 -8.515625 "/>
</g>
<g id="glyph-0-2">
<path d="M 1.90625 -8.53125 C 1.90625 -8.75 1.90625 -8.96875 1.65625 -8.96875 C 1.421875 -8.96875 1.421875 -8.75 1.421875 -8.53125 L 1.421875 2.5625 C 1.421875 2.765625 1.421875 2.984375 1.65625 2.984375 C 1.90625 2.984375 1.90625 2.765625 1.90625 2.5625 Z M 1.90625 -8.53125 "/>
</g>
<g id="glyph-0-3">
<path d="M 3.265625 -2.78125 C 3.328125 -2.921875 3.328125 -2.953125 3.328125 -2.984375 C 3.328125 -3.03125 3.328125 -3.046875 3.265625 -3.1875 L 1.171875 -8.6875 C 1.09375 -8.890625 1.03125 -8.96875 0.890625 -8.96875 C 0.765625 -8.96875 0.65625 -8.859375 0.65625 -8.71875 C 0.65625 -8.6875 0.65625 -8.671875 0.71875 -8.53125 L 2.828125 -2.984375 L 0.71875 2.53125 C 0.65625 2.671875 0.65625 2.6875 0.65625 2.75 C 0.65625 2.875 0.765625 2.984375 0.890625 2.984375 C 1.046875 2.984375 1.09375 2.875 1.140625 2.75 Z M 3.265625 -2.78125 "/>
</g>
<g id="glyph-1-0">
</g>
<g id="glyph-1-1">
<path d="M 4.078125 -0.6875 C 4.234375 -0.03125 4.8125 0.125 5.09375 0.125 C 5.46875 0.125 5.765625 -0.125 5.953125 -0.53125 C 6.15625 -0.96875 6.3125 -1.671875 6.3125 -1.703125 C 6.3125 -1.765625 6.265625 -1.8125 6.1875 -1.8125 C 6.078125 -1.8125 6.078125 -1.75 6.03125 -1.578125 C 5.8125 -0.75 5.59375 -0.125 5.109375 -0.125 C 4.75 -0.125 4.75 -0.515625 4.75 -0.671875 C 4.75 -0.9375 4.796875 -1.0625 4.90625 -1.5625 C 5 -1.890625 5.078125 -2.21875 5.15625 -2.546875 L 5.640625 -4.5 C 5.71875 -4.796875 5.71875 -4.8125 5.71875 -4.859375 C 5.71875 -5.03125 5.578125 -5.15625 5.40625 -5.15625 C 5.0625 -5.15625 4.96875 -4.859375 4.90625 -4.546875 C 4.78125 -4.09375 4.140625 -1.515625 4.046875 -1.09375 C 4.046875 -1.09375 3.578125 -0.125 2.703125 -0.125 C 2.078125 -0.125 1.953125 -0.65625 1.953125 -1.09375 C 1.953125 -1.78125 2.296875 -2.734375 2.609375 -3.53125 C 2.75 -3.921875 2.8125 -4.078125 2.8125 -4.3125 C 2.8125 -4.828125 2.4375 -5.265625 1.859375 -5.265625 C 0.765625 -5.265625 0.328125 -3.53125 0.328125 -3.4375 C 0.328125 -3.390625 0.375 -3.328125 0.453125 -3.328125 C 0.5625 -3.328125 0.578125 -3.375 0.625 -3.546875 C 0.90625 -4.578125 1.375 -5.03125 1.828125 -5.03125 C 1.953125 -5.03125 2.140625 -5.015625 2.140625 -4.640625 C 2.140625 -4.328125 2.015625 -3.984375 1.828125 -3.53125 C 1.296875 -2.109375 1.25 -1.65625 1.25 -1.296875 C 1.25 -0.078125 2.15625 0.125 2.65625 0.125 C 3.421875 0.125 3.84375 -0.40625 4.078125 -0.6875 Z M 4.078125 -0.6875 "/>
</g>
<g id="glyph-1-2">
<path d="M 5.46875 -4.46875 C 5.46875 -5.21875 5.078125 -5.265625 4.984375 -5.265625 C 4.703125 -5.265625 4.4375 -4.984375 4.4375 -4.75 C 4.4375 -4.609375 4.515625 -4.515625 4.5625 -4.46875 C 4.6875 -4.359375 5 -4.046875 5 -3.421875 C 5 -2.921875 4.28125 -0.125 2.84375 -0.125 C 2.109375 -0.125 1.96875 -0.734375 1.96875 -1.171875 C 1.96875 -1.765625 2.25 -2.609375 2.5625 -3.46875 C 2.765625 -3.953125 2.8125 -4.078125 2.8125 -4.3125 C 2.8125 -4.8125 2.453125 -5.265625 1.859375 -5.265625 C 0.765625 -5.265625 0.328125 -3.53125 0.328125 -3.4375 C 0.328125 -3.390625 0.375 -3.328125 0.453125 -3.328125 C 0.5625 -3.328125 0.578125 -3.375 0.625 -3.546875 C 0.90625 -4.578125 1.375 -5.03125 1.828125 -5.03125 C 1.9375 -5.03125 2.140625 -5.03125 2.140625 -4.640625 C 2.140625 -4.328125 2.015625 -3.984375 1.828125 -3.53125 C 1.25 -2 1.25 -1.625 1.25 -1.34375 C 1.25 -1.078125 1.296875 -0.578125 1.65625 -0.25 C 2.09375 0.125 2.6875 0.125 2.796875 0.125 C 4.78125 0.125 5.46875 -3.796875 5.46875 -4.46875 Z M 5.46875 -4.46875 "/>
</g>
<g id="glyph-1-3">
<path d="M 5.671875 -4.875 C 5.28125 -4.8125 5.140625 -4.515625 5.140625 -4.296875 C 5.140625 -4 5.359375 -3.90625 5.53125 -3.90625 C 5.890625 -3.90625 6.140625 -4.21875 6.140625 -4.546875 C 6.140625 -5.046875 5.5625 -5.265625 5.0625 -5.265625 C 4.34375 -5.265625 3.9375 -4.546875 3.828125 -4.328125 C 3.546875 -5.21875 2.8125 -5.265625 2.59375 -5.265625 C 1.375 -5.265625 0.734375 -3.703125 0.734375 -3.4375 C 0.734375 -3.390625 0.78125 -3.328125 0.859375 -3.328125 C 0.953125 -3.328125 0.984375 -3.40625 1 -3.453125 C 1.40625 -4.78125 2.21875 -5.03125 2.5625 -5.03125 C 3.09375 -5.03125 3.203125 -4.53125 3.203125 -4.25 C 3.203125 -3.984375 3.125 -3.703125 2.984375 -3.125 L 2.578125 -1.5 C 2.40625 -0.78125 2.0625 -0.125 1.421875 -0.125 C 1.359375 -0.125 1.0625 -0.125 0.8125 -0.28125 C 1.25 -0.359375 1.34375 -0.71875 1.34375 -0.859375 C 1.34375 -1.09375 1.15625 -1.25 0.9375 -1.25 C 0.640625 -1.25 0.328125 -0.984375 0.328125 -0.609375 C 0.328125 -0.109375 0.890625 0.125 1.40625 0.125 C 1.984375 0.125 2.390625 -0.328125 2.640625 -0.828125 C 2.828125 -0.125 3.4375 0.125 3.875 0.125 C 5.09375 0.125 5.734375 -1.453125 5.734375 -1.703125 C 5.734375 -1.765625 5.6875 -1.8125 5.625 -1.8125 C 5.515625 -1.8125 5.5 -1.75 5.46875 -1.65625 C 5.140625 -0.609375 4.453125 -0.125 3.90625 -0.125 C 3.484375 -0.125 3.265625 -0.4375 3.265625 -0.921875 C 3.265625 -1.1875 3.3125 -1.375 3.5 -2.15625 L 3.921875 -3.796875 C 4.09375 -4.5 4.5 -5.03125 5.0625 -5.03125 C 5.078125 -5.03125 5.421875 -5.03125 5.671875 -4.875 Z M 5.671875 -4.875 "/>
</g>
<g id="glyph-1-4">
<path d="M 6.015625 -8 C 6.03125 -8.046875 6.046875 -8.109375 6.046875 -8.171875 C 6.046875 -8.296875 5.921875 -8.296875 5.90625 -8.296875 C 5.890625 -8.296875 5.3125 -8.25 5.25 -8.234375 C 5.046875 -8.21875 4.859375 -8.203125 4.65625 -8.1875 C 4.34375 -8.15625 4.265625 -8.15625 4.265625 -7.9375 C 4.265625 -7.8125 4.359375 -7.8125 4.53125 -7.8125 C 5.109375 -7.8125 5.125 -7.703125 5.125 -7.59375 C 5.125 -7.515625 5.109375 -7.421875 5.09375 -7.390625 L 4.359375 -4.484375 C 4.234375 -4.796875 3.90625 -5.265625 3.28125 -5.265625 C 1.9375 -5.265625 0.484375 -3.53125 0.484375 -1.75 C 0.484375 -0.578125 1.171875 0.125 1.984375 0.125 C 2.640625 0.125 3.203125 -0.390625 3.53125 -0.78125 C 3.65625 -0.078125 4.21875 0.125 4.578125 0.125 C 4.9375 0.125 5.21875 -0.09375 5.4375 -0.53125 C 5.625 -0.9375 5.796875 -1.65625 5.796875 -1.703125 C 5.796875 -1.765625 5.75 -1.8125 5.671875 -1.8125 C 5.5625 -1.8125 5.5625 -1.75 5.515625 -1.578125 C 5.328125 -0.875 5.109375 -0.125 4.609375 -0.125 C 4.265625 -0.125 4.25 -0.4375 4.25 -0.671875 C 4.25 -0.71875 4.25 -0.96875 4.328125 -1.296875 Z M 3.59375 -1.421875 C 3.53125 -1.21875 3.53125 -1.1875 3.375 -0.96875 C 3.109375 -0.640625 2.578125 -0.125 2.015625 -0.125 C 1.53125 -0.125 1.25 -0.5625 1.25 -1.265625 C 1.25 -1.921875 1.625 -3.265625 1.859375 -3.765625 C 2.265625 -4.609375 2.828125 -5.03125 3.28125 -5.03125 C 4.078125 -5.03125 4.234375 -4.046875 4.234375 -3.953125 C 4.234375 -3.9375 4.203125 -3.796875 4.1875 -3.765625 Z M 3.59375 -1.421875 "/>
</g>
<g id="glyph-2-0">
</g>
<g id="glyph-2-1">
<path d="M 8.0625 -3.875 C 8.234375 -3.875 8.453125 -3.875 8.453125 -4.09375 C 8.453125 -4.3125 8.25 -4.3125 8.0625 -4.3125 L 1.03125 -4.3125 C 0.859375 -4.3125 0.640625 -4.3125 0.640625 -4.09375 C 0.640625 -3.875 0.84375 -3.875 1.03125 -3.875 Z M 8.0625 -1.65625 C 8.234375 -1.65625 8.453125 -1.65625 8.453125 -1.859375 C 8.453125 -2.09375 8.25 -2.09375 8.0625 -2.09375 L 1.03125 -2.09375 C 0.859375 -2.09375 0.640625 -2.09375 0.640625 -1.875 C 0.640625 -1.65625 0.84375 -1.65625 1.03125 -1.65625 Z M 8.0625 -1.65625 "/>
</g>
<g id="glyph-2-2">
<path d="M 5.03125 -6.65625 L 5.03125 -7 L 0.8125 -7 L 0.8125 -6.65625 Z M 5.03125 -6.65625 "/>
</g>
<g id="glyph-2-3">
<path d="M 3.890625 2.90625 C 3.890625 2.875 3.890625 2.84375 3.6875 2.640625 C 2.484375 1.4375 1.8125 -0.53125 1.8125 -2.96875 C 1.8125 -5.296875 2.375 -7.296875 3.765625 -8.703125 C 3.890625 -8.8125 3.890625 -8.828125 3.890625 -8.875 C 3.890625 -8.9375 3.828125 -8.96875 3.78125 -8.96875 C 3.625 -8.96875 2.640625 -8.109375 2.0625 -6.9375 C 1.453125 -5.71875 1.171875 -4.453125 1.171875 -2.96875 C 1.171875 -1.90625 1.34375 -0.484375 1.953125 0.78125 C 2.671875 2.21875 3.640625 3 3.78125 3 C 3.828125 3 3.890625 2.96875 3.890625 2.90625 Z M 3.890625 2.90625 "/>
</g>
<g id="glyph-2-4">
<path d="M 3.375 -2.96875 C 3.375 -3.890625 3.25 -5.359375 2.578125 -6.75 C 1.875 -8.1875 0.890625 -8.96875 0.765625 -8.96875 C 0.71875 -8.96875 0.65625 -8.9375 0.65625 -8.875 C 0.65625 -8.828125 0.65625 -8.8125 0.859375 -8.609375 C 2.0625 -7.40625 2.71875 -5.421875 2.71875 -2.984375 C 2.71875 -0.671875 2.15625 1.328125 0.78125 2.734375 C 0.65625 2.84375 0.65625 2.875 0.65625 2.90625 C 0.65625 2.96875 0.71875 3 0.765625 3 C 0.921875 3 1.90625 2.140625 2.484375 0.96875 C 3.09375 -0.25 3.375 -1.546875 3.375 -2.96875 Z M 3.375 -2.96875 "/>
</g>
<g id="glyph-3-0">
</g>
<g id="glyph-3-1">
<path d="M 3.609375 -4.828125 C 3.671875 -5.109375 3.6875 -5.125 4.015625 -5.125 L 4.609375 -5.125 C 5.4375 -5.125 5.53125 -4.859375 5.53125 -4.46875 C 5.53125 -4.265625 5.484375 -3.921875 5.484375 -3.875 C 5.46875 -3.796875 5.453125 -3.71875 5.453125 -3.703125 C 5.453125 -3.609375 5.53125 -3.578125 5.578125 -3.578125 C 5.671875 -3.578125 5.703125 -3.625 5.71875 -3.78125 L 5.9375 -5.28125 C 5.9375 -5.390625 5.84375 -5.390625 5.703125 -5.390625 L 1 -5.390625 C 0.8125 -5.390625 0.78125 -5.390625 0.734375 -5.21875 L 0.25 -3.84375 C 0.234375 -3.796875 0.203125 -3.734375 0.203125 -3.6875 C 0.203125 -3.625 0.265625 -3.578125 0.328125 -3.578125 C 0.421875 -3.578125 0.4375 -3.625 0.484375 -3.75 C 0.9375 -5.03125 1.15625 -5.125 2.375 -5.125 L 2.6875 -5.125 C 2.921875 -5.125 2.9375 -5.109375 2.9375 -5.046875 C 2.9375 -5.03125 2.90625 -4.875 2.890625 -4.84375 L 1.84375 -0.65625 C 1.765625 -0.34375 1.75 -0.265625 0.921875 -0.265625 C 0.65625 -0.265625 0.578125 -0.265625 0.578125 -0.109375 C 0.578125 -0.109375 0.578125 0 0.71875 0 C 0.9375 0 1.484375 -0.03125 1.703125 -0.03125 L 2.375 -0.03125 C 2.59375 -0.03125 3.15625 0 3.375 0 C 3.4375 0 3.5625 0 3.5625 -0.15625 C 3.5625 -0.265625 3.46875 -0.265625 3.265625 -0.265625 C 3.0625 -0.265625 3 -0.265625 2.796875 -0.28125 C 2.546875 -0.296875 2.515625 -0.328125 2.515625 -0.4375 C 2.515625 -0.46875 2.515625 -0.5 2.546875 -0.578125 Z M 3.609375 -4.828125 "/>
</g>
<g id="glyph-3-2">
<path d="M 3.703125 -5.640625 C 3.75 -5.75 3.75 -5.765625 3.75 -5.796875 C 3.75 -5.890625 3.671875 -5.96875 3.5625 -5.96875 C 3.4375 -5.96875 3.40625 -5.875 3.375 -5.796875 L 0.515625 1.65625 C 0.46875 1.765625 0.46875 1.78125 0.46875 1.8125 C 0.46875 1.90625 0.546875 1.984375 0.65625 1.984375 C 0.78125 1.984375 0.8125 1.890625 0.84375 1.8125 Z M 3.703125 -5.640625 "/>
</g>
<g id="glyph-4-0">
</g>
<g id="glyph-4-1">
<path d="M 2.25 -1.625 C 2.375 -1.75 2.703125 -2.015625 2.84375 -2.125 C 3.328125 -2.578125 3.796875 -3.015625 3.796875 -3.734375 C 3.796875 -4.6875 3 -5.296875 2.015625 -5.296875 C 1.046875 -5.296875 0.421875 -4.578125 0.421875 -3.859375 C 0.421875 -3.46875 0.734375 -3.421875 0.84375 -3.421875 C 1.015625 -3.421875 1.265625 -3.53125 1.265625 -3.84375 C 1.265625 -4.25 0.859375 -4.25 0.765625 -4.25 C 1 -4.84375 1.53125 -5.03125 1.921875 -5.03125 C 2.65625 -5.03125 3.046875 -4.40625 3.046875 -3.734375 C 3.046875 -2.90625 2.46875 -2.296875 1.515625 -1.34375 L 0.515625 -0.296875 C 0.421875 -0.21875 0.421875 -0.203125 0.421875 0 L 3.5625 0 L 3.796875 -1.421875 L 3.546875 -1.421875 C 3.53125 -1.265625 3.46875 -0.875 3.375 -0.71875 C 3.328125 -0.65625 2.71875 -0.65625 2.59375 -0.65625 L 1.171875 -0.65625 Z M 2.25 -1.625 "/>
</g>
<g id="glyph-5-0">
</g>
<g id="glyph-5-1">
<path d="M 1.25 26.015625 C 1.625 26 1.828125 25.734375 1.828125 25.4375 C 1.828125 25.046875 1.53125 24.84375 1.25 24.84375 C 0.96875 24.84375 0.671875 25.03125 0.671875 25.453125 C 0.671875 26.0625 1.265625 26.5625 2 26.5625 C 3.8125 26.5625 4.5 23.765625 5.34375 20.296875 C 6.265625 16.515625 7.046875 12.703125 7.6875 8.875 C 8.125 6.328125 8.578125 3.9375 8.984375 2.390625 C 9.125 1.8125 9.53125 0.265625 10 0.265625 C 10.359375 0.265625 10.65625 0.484375 10.703125 0.53125 C 10.3125 0.5625 10.109375 0.828125 10.109375 1.125 C 10.109375 1.515625 10.40625 1.703125 10.6875 1.703125 C 10.96875 1.703125 11.265625 1.53125 11.265625 1.109375 C 11.265625 0.46875 10.625 0 9.96875 0 C 9.0625 0 8.390625 1.296875 7.734375 3.734375 C 7.703125 3.875 6.078125 9.875 4.75 17.6875 C 4.453125 19.515625 4.09375 21.515625 3.703125 23.171875 C 3.484375 24.046875 2.9375 26.296875 1.96875 26.296875 C 1.546875 26.296875 1.25 26.015625 1.25 26.015625 Z M 1.25 26.015625 "/>
</g>
<g id="glyph-6-0">
</g>
<g id="glyph-6-1">
<path d="M 5.5625 -1.8125 C 5.703125 -1.8125 5.875 -1.8125 5.875 -1.984375 C 5.875 -2.171875 5.703125 -2.171875 5.5625 -2.171875 L 1 -2.171875 C 0.875 -2.171875 0.703125 -2.171875 0.703125 -1.984375 C 0.703125 -1.8125 0.875 -1.8125 1 -1.8125 Z M 5.5625 -1.8125 "/>
</g>
</g>
</defs>
<g fill="rgb(0%, 0%, 0%)" fill-opacity="1">
<use xlink:href="#glyph-0-1" x="0.5" y="27.266"/>
</g>
<g fill="rgb(0%, 0%, 0%)" fill-opacity="1">
<use xlink:href="#glyph-1-1" x="5.149" y="27.266"/>
</g>
<g fill="rgb(0%, 0%, 0%)" fill-opacity="1">
<use xlink:href="#glyph-0-2" x="13.804" y="27.266"/>
</g>
<g fill="rgb(0%, 0%, 0%)" fill-opacity="1">
<use xlink:href="#glyph-1-2" x="20.313" y="27.266"/>
</g>
<g fill="rgb(0%, 0%, 0%)" fill-opacity="1">
<use xlink:href="#glyph-0-3" x="26.401" y="27.266"/>
</g>
<g fill="rgb(0%, 0%, 0%)" fill-opacity="1">
<use xlink:href="#glyph-2-1" x="34.371" y="27.266"/>
</g>
<g fill="rgb(0%, 0%, 0%)" fill-opacity="1">
<use xlink:href="#glyph-3-1" x="52.747" y="7.673"/>
</g>
<g fill="rgb(0%, 0%, 0%)" fill-opacity="1">
<use xlink:href="#glyph-3-2" x="58.617776" y="7.673"/>
</g>
<g fill="rgb(0%, 0%, 0%)" fill-opacity="1">
<use xlink:href="#glyph-4-1" x="62.852" y="7.673"/>
</g>
<g fill="rgb(0%, 0%, 0%)" fill-opacity="1">
<use xlink:href="#glyph-5-1" x="51.282" y="10.994"/>
</g>
<g fill="rgb(0%, 0%, 0%)" fill-opacity="1">
<use xlink:href="#glyph-6-1" x="44.14" y="45.531"/>
</g>
<g fill="rgb(0%, 0%, 0%)" fill-opacity="1">
<use xlink:href="#glyph-3-1" x="50.727" y="45.531"/>
</g>
<g fill="rgb(0%, 0%, 0%)" fill-opacity="1">
<use xlink:href="#glyph-3-2" x="56.597776" y="45.531"/>
</g>
<g fill="rgb(0%, 0%, 0%)" fill-opacity="1">
<use xlink:href="#glyph-4-1" x="60.832" y="45.531"/>
</g>
<g fill="rgb(0%, 0%, 0%)" fill-opacity="1">
<use xlink:href="#glyph-2-2" x="70.445" y="27.266"/>
</g>
<g fill="rgb(0%, 0%, 0%)" fill-opacity="1">
<use xlink:href="#glyph-1-1" x="69.715" y="27.266"/>
</g>
<g fill="rgb(0%, 0%, 0%)" fill-opacity="1">
<use xlink:href="#glyph-2-3" x="76.378" y="27.266"/>
</g>
<g fill="rgb(0%, 0%, 0%)" fill-opacity="1">
<use xlink:href="#glyph-1-3" x="80.93" y="27.266"/>
</g>
<g fill="rgb(0%, 0%, 0%)" fill-opacity="1">
<use xlink:href="#glyph-2-4" x="87.582" y="27.266"/>
</g>
<g fill="rgb(0%, 0%, 0%)" fill-opacity="1">
<use xlink:href="#glyph-1-2" x="92.134" y="27.266"/>
</g>
<g fill="rgb(0%, 0%, 0%)" fill-opacity="1">
<use xlink:href="#glyph-2-3" x="98.223" y="27.266"/>
</g>
<g fill="rgb(0%, 0%, 0%)" fill-opacity="1">
<use xlink:href="#glyph-1-3" x="102.775" y="27.266"/>
</g>
<g fill="rgb(0%, 0%, 0%)" fill-opacity="1">
<use xlink:href="#glyph-2-4" x="109.427" y="27.266"/>
</g>
<g fill="rgb(0%, 0%, 0%)" fill-opacity="1">
<use xlink:href="#glyph-1-4" x="113.979" y="27.266"/>
<use xlink:href="#glyph-1-3" x="120.061806" y="27.266"/>
</g>
</svg>
