<?xml version="1.0" encoding="UTF-8"?>
<svg xmlns="http://www.w3.org/2000/svg" xmlns:xlink="http://www.w3.org/1999/xlink" viewBox="0 0 126.234 12.955">
<defs>
<g>
<g id="glyph-0-0">
</g>
<g id="glyph-0-1">
<path d="M 3.09375 -4.015625 C 3.390625 -4.015625 3.96875 -4.015625 4.390625 -3.765625 C 4.953125 -3.390625 5.015625 -2.75 5.015625 -2.671875 C 5.015625 -2.515625 5.015625 -2.359375 5.21875 -2.359375 C 5.421875 -2.359375 5.421875 -2.515625 5.421875 -2.734375 L 5.421875 -5.96875 C 5.421875 -6.171875 5.421875 -6.359375 5.21875 -6.359375 C 5.015625 -6.359375 5.015625 -6.1875 5.015625 -6.078125 C 4.9375 -4.546875 3.71875 -4.453125 3.09375 -4.453125 L 3.09375 -6.96875 C 3.09375 -7.765625 3.328125 -7.765625 3.609375 -7.765625 L 4.1875 -7.765625 C 5.796875 -7.765625 6.59375 -6.9375 6.671875 -6.125 C 6.6875 -6.03125 6.6875 -5.84375 6.890625 -5.84375 C 7.09375 -5.84375 7.09375 -6.03125 7.09375 -6.234375 L 7.09375 -7.796875 C 7.09375 -8.15625 7.0625 -8.1875 6.6875 -8.1875 L 0.578125 -8.1875 C 0.359375 -8.1875 0.171875 -8.1875 0.171875 -7.96875 C 0.171875 -7.765625 0.390625 -7.765625 0.484375 -7.765625 C 1.171875 -7.765625 1.21875 -7.671875 1.21875 -7.09375 L 1.21875 -1.09375 C 1.21875 -0.53125 1.1875 -0.421875 0.546875 -0.421875 C 0.375 -0.421875 0.171875 -0.421875 0.171875 -0.21875 C 0.171875 0 0.359375 0 0.578125 0 L 6.90625 0 C 7.140625 0 7.25 0 7.296875 -0.171875 C 7.296875 -0.171875 7.640625 -2.171875 7.640625 -2.234375 C 7.640625 -2.359375 7.53125 -2.453125 7.4375 -2.453125 C 7.265625 -2.453125 7.21875 -2.296875 7.21875 -2.28125 C 7.140625 -1.96875 7.03125 -1.46875 6.15625 -0.953125 C 5.53125 -0.578125 4.921875 -0.421875 4.265625 -0.421875 L 3.609375 -0.421875 C 3.328125 -0.421875 3.09375 -0.421875 3.09375 -1.21875 Z M 6.671875 -7.765625 L 6.671875 -7.203125 C 6.46875 -7.421875 6.234375 -7.609375 5.984375 -7.765625 Z M 4.34375 -4.265625 C 4.53125 -4.34375 4.796875 -4.53125 5.015625 -4.78125 L 5.015625 -3.78125 C 4.71875 -4.09375 4.34375 -4.25 4.34375 -4.25 Z M 1.640625 -7.109375 C 1.640625 -7.25 1.640625 -7.546875 1.546875 -7.765625 L 2.8125 -7.765625 C 2.671875 -7.5 2.671875 -7.09375 2.671875 -7 L 2.671875 -1.1875 C 2.671875 -0.765625 2.765625 -0.53125 2.8125 -0.421875 L 1.546875 -0.421875 C 1.640625 -0.640625 1.640625 -0.9375 1.640625 -1.078125 Z M 6.078125 -0.421875 L 6.078125 -0.4375 C 6.46875 -0.625 6.796875 -0.875 7.03125 -1.09375 C 7.015625 -1.046875 6.9375 -0.515625 6.921875 -0.421875 Z M 6.078125 -0.421875 "/>
</g>
<g id="glyph-1-0">
</g>
<g id="glyph-1-1">
<path d="M 2.984375 2.984375 L 2.984375 2.546875 L 1.828125 2.546875 L 1.828125 -8.515625 L 2.984375 -8.515625 L 2.984375 -8.96875 L 1.390625 -8.96875 L 1.390625 2.984375 Z M 2.984375 2.984375 "/>
</g>
<g id="glyph-1-2">
<path d="M 6.5 -8.140625 L 0.484375 -8.140625 L 0.484375 -7.796875 L 0.734375 -7.796875 C 1.59375 -7.796875 1.625 -7.671875 1.625 -7.234375 L 1.625 -0.90625 C 1.625 -0.46875 1.59375 -0.34375 0.734375 -0.34375 L 0.484375 -0.34375 L 0.484375 0 C 0.78125 -0.03125 1.84375 -0.03125 2.203125 -0.03125 C 2.625 -0.03125 3.671875 -0.03125 4.015625 0 L 4.015625 -0.34375 L 3.65625 -0.34375 C 2.625 -0.34375 2.59375 -0.484375 2.59375 -0.921875 L 2.59375 -7.3125 C 2.59375 -7.703125 2.625 -7.796875 3.140625 -7.796875 L 4.421875 -7.796875 C 6.078125 -7.796875 6.390625 -7.140625 6.546875 -5.46875 L 6.8125 -5.46875 Z M 6.5 -8.140625 "/>
</g>
<g id="glyph-1-3">
<path d="M 1.859375 -8.96875 L 0.25 -8.96875 L 0.25 -8.515625 L 1.40625 -8.515625 L 1.40625 2.546875 L 0.25 2.546875 L 0.25 2.984375 L 1.859375 2.984375 Z M 1.859375 -8.96875 "/>
</g>
<g id="glyph-1-4">
<path d="M 5.15625 -8.3125 C 5.0625 -8.484375 5.046875 -8.53125 4.875 -8.53125 C 4.703125 -8.53125 4.671875 -8.484375 4.59375 -8.3125 L 0.59375 -0.234375 C 0.578125 -0.203125 0.546875 -0.125 0.546875 -0.078125 C 0.546875 -0.015625 0.5625 0 0.796875 0 L 8.9375 0 C 9.1875 0 9.1875 -0.015625 9.1875 -0.078125 C 9.1875 -0.125 9.171875 -0.203125 9.140625 -0.234375 Z M 4.5 -7.4375 L 7.765625 -0.828125 L 1.25 -0.828125 Z M 4.5 -7.4375 "/>
</g>
<g id="glyph-1-5">
<path d="M 8.0625 -3.875 C 8.234375 -3.875 8.453125 -3.875 8.453125 -4.09375 C 8.453125 -4.3125 8.25 -4.3125 8.0625 -4.3125 L 1.03125 -4.3125 C 0.859375 -4.3125 0.640625 -4.3125 0.640625 -4.09375 C 0.640625 -3.875 0.84375 -3.875 1.03125 -3.875 Z M 8.0625 -1.65625 C 8.234375 -1.65625 8.453125 -1.65625 8.453125 -1.859375 C 8.453125 -2.09375 8.25 -2.09375 8.0625 -2.09375 L 1.03125 -2.09375 C 0.859375 -2.09375 0.640625 -2.09375 0.640625 -1.875 C 0.640625 -1.65625 0.84375 -1.65625 1.03125 -1.65625 Z M 8.0625 -1.65625 "/>
</g>
<g id="glyph-2-0">
</g>
<g id="glyph-2-1">
<path d="M 5.671875 -4.859375 L 4.546875 -7.46875 C 4.703125 -7.75 5.0625 -7.8125 5.21875 -7.8125 C 5.28125 -7.8125 5.421875 -7.828125 5.421875 -8.03125 C 5.421875 -8.15625 5.3125 -8.15625 5.234375 -8.15625 C 5.03125 -8.15625 4.796875 -8.140625 4.59375 -8.140625 L 3.890625 -8.140625 C 3.171875 -8.140625 2.640625 -8.15625 2.625 -8.15625 C 2.53125 -8.15625 2.421875 -8.15625 2.421875 -7.9375 C 2.421875 -7.8125 2.515625 -7.8125 2.671875 -7.8125 C 3.375 -7.8125 3.421875 -7.703125 3.53125 -7.40625 L 4.953125 -4.09375 L 2.359375 -1.3125 C 1.9375 -0.84375 1.421875 -0.390625 0.53125 -0.34375 C 0.390625 -0.328125 0.296875 -0.328125 0.296875 -0.125 C 0.296875 -0.078125 0.3125 0 0.4375 0 C 0.609375 0 0.78125 -0.03125 0.953125 -0.03125 L 1.515625 -0.03125 C 1.90625 -0.03125 2.3125 0 2.6875 0 C 2.765625 0 2.921875 0 2.921875 -0.21875 C 2.921875 -0.328125 2.828125 -0.34375 2.765625 -0.34375 C 2.515625 -0.375 2.359375 -0.5 2.359375 -0.6875 C 2.359375 -0.890625 2.515625 -1.046875 2.859375 -1.40625 L 3.921875 -2.5625 C 4.1875 -2.828125 4.8125 -3.53125 5.078125 -3.796875 L 6.328125 -0.84375 C 6.34375 -0.828125 6.390625 -0.703125 6.390625 -0.6875 C 6.390625 -0.578125 6.125 -0.375 5.75 -0.34375 C 5.671875 -0.34375 5.546875 -0.328125 5.546875 -0.125 C 5.546875 0 5.671875 0 5.71875 0 C 5.921875 0 6.171875 -0.03125 6.375 -0.03125 L 7.6875 -0.03125 C 7.90625 -0.03125 8.125 0 8.328125 0 C 8.421875 0 8.546875 0 8.546875 -0.234375 C 8.546875 -0.34375 8.421875 -0.34375 8.3125 -0.34375 C 7.609375 -0.359375 7.578125 -0.421875 7.375 -0.859375 L 5.796875 -4.5625 L 7.3125 -6.1875 C 7.4375 -6.3125 7.703125 -6.609375 7.8125 -6.734375 C 8.328125 -7.265625 8.8125 -7.75 9.78125 -7.8125 C 9.890625 -7.828125 10.015625 -7.828125 10.015625 -8.03125 C 10.015625 -8.15625 9.90625 -8.15625 9.859375 -8.15625 C 9.6875 -8.15625 9.515625 -8.140625 9.34375 -8.140625 L 8.796875 -8.140625 C 8.421875 -8.140625 8 -8.15625 7.625 -8.15625 C 7.546875 -8.15625 7.40625 -8.15625 7.40625 -7.953125 C 7.40625 -7.828125 7.484375 -7.8125 7.546875 -7.8125 C 7.75 -7.796875 7.953125 -7.703125 7.953125 -7.46875 L 7.9375 -7.453125 C 7.921875 -7.359375 7.90625 -7.25 7.765625 -7.09375 Z M 5.671875 -4.859375 "/>
</g>
<g id="glyph-3-0">
</g>
<g id="glyph-3-1">
<path d="M 1.90625 -8.53125 C 1.90625 -8.75 1.90625 -8.96875 1.65625 -8.96875 C 1.421875 -8.96875 1.421875 -8.75 1.421875 -8.53125 L 1.421875 2.5625 C 1.421875 2.765625 1.421875 2.984375 1.65625 2.984375 C 1.90625 2.984375 1.90625 2.765625 1.90625 2.5625 Z M 1.90625 -8.53125 "/>
</g>
</g>
<clipPath id="clip-0">
<path clip-rule="nonzero" d="M 11 0 L 14 0 L 14 12.953125 L 11 12.953125 Z M 11 0 "/>
</clipPath>
<clipPath id="clip-1">
<path clip-rule="nonzero" d="M 25 0 L 27 0 L 27 12.953125 L 25 12.953125 Z M 25 0 "/>
</clipPath>
<clipPath id="clip-2">
<path clip-rule="nonzero" d="M 39 0 L 40 0 L 40 12.953125 L 39 12.953125 Z M 39 0 "/>
</clipPath>
<clipPath id="clip-3">
<path clip-rule="nonzero" d="M 41 0 L 51 0 L 51 12.953125 L 41 12.953125 Z M 41 0 "/>
</clipPath>
<clipPath id="clip-4">
<path clip-rule="nonzero" d="M 54 0 L 56 0 L 56 12.953125 L 54 12.953125 Z M 54 0 "/>
</clipPath>
<clipPath id="clip-5">
<path clip-rule="nonzero" d="M 57 0 L 69 0 L 69 12.953125 L 57 12.953125 Z M 57 0 "/>
</clipPath>
<clipPath id="clip-6">
<path clip-rule="nonzero" d="M 96 0 L 99 0 L 99 12.953125 L 96 12.953125 Z M 96 0 "/>
</clipPath>
<clipPath id="clip-7">
<path clip-rule="nonzero" d="M 110 0 L 112 0 L 112 12.953125 L 110 12.953125 Z M 110 0 "/>
</clipPath>
<clipPath id="clip-8">
<path clip-rule="nonzero" d="M 113 0 L 125 0 L 125 12.953125 L 113 12.953125 Z M 113 0 "/>
</clipPath>
</defs>
<g fill="rgb(0%, 0%, 0%)" fill-opacity="1">
<use xlink:href="#glyph-0-1" x="0.5" y="9.466"/>
</g>
<g clip-path="url(#clip-0)">
<g fill="rgb(0%, 0%, 0%)" fill-opacity="1">
<use xlink:href="#glyph-1-1" x="10.463" y="9.466"/>
</g>
</g>
<g fill="rgb(0%, 0%, 0%)" fill-opacity="1">
<use xlink:href="#glyph-0-1" x="13.714" y="9.466"/>
</g>
<g clip-path="url(#clip-1)">
<g fill="rgb(0%, 0%, 0%)" fill-opacity="1">
<use xlink:href="#glyph-1-1" x="23.677" y="9.466"/>
</g>
</g>
<g fill="rgb(0%, 0%, 0%)" fill-opacity="1">
<use xlink:href="#glyph-2-1" x="26.929" y="9.466"/>
</g>
<g clip-path="url(#clip-2)">
<g fill="rgb(0%, 0%, 0%)" fill-opacity="1">
<use xlink:href="#glyph-3-1" x="37.584" y="9.466"/>
</g>
</g>
<g clip-path="url(#clip-3)">
<g fill="rgb(0%, 0%, 0%)" fill-opacity="1">
<use xlink:href="#glyph-1-2" x="40.905" y="9.466"/>
<use xlink:href="#glyph-1-3" x="48.219191" y="9.466"/>
</g>
</g>
<g clip-path="url(#clip-4)">
<g fill="rgb(0%, 0%, 0%)" fill-opacity="1">
<use xlink:href="#glyph-3-1" x="53.463" y="9.466"/>
</g>
</g>
<g clip-path="url(#clip-5)">
<g fill="rgb(0%, 0%, 0%)" fill-opacity="1">
<use xlink:href="#glyph-1-4" x="56.784" y="9.466"/>
<use xlink:href="#glyph-1-3" x="66.539443" y="9.466"/>
</g>
</g>
<g fill="rgb(0%, 0%, 0%)" fill-opacity="1">
<use xlink:href="#glyph-1-5" x="73.114803" y="9.466"/>
</g>
<g fill="rgb(0%, 0%, 0%)" fill-opacity="1">
<use xlink:href="#glyph-0-1" x="85.537" y="9.466"/>
</g>
<g clip-path="url(#clip-6)">
<g fill="rgb(0%, 0%, 0%)" fill-opacity="1">
<use xlink:href="#glyph-1-1" x="95.499" y="9.466"/>
</g>
</g>
<g fill="rgb(0%, 0%, 0%)" fill-opacity="1">
<use xlink:href="#glyph-2-1" x="98.751" y="9.466"/>
</g>
<g clip-path="url(#clip-7)">
<g fill="rgb(0%, 0%, 0%)" fill-opacity="1">
<use xlink:href="#glyph-3-1" x="109.406" y="9.466"/>
</g>
</g>
<g clip-path="url(#clip-8)">
<g fill="rgb(0%, 0%, 0%)" fill-opacity="1">
<use xlink:href="#glyph-1-4" x="112.727" y="9.466"/>
<use xlink:href="#glyph-1-3" x="122.482443" y="9.466"/>
</g>
</g>
</svg>
