<?xml version="1.0" encoding="UTF-8"?>
<svg xmlns="http://www.w3.org/2000/svg" xmlns:xlink="http://www.w3.org/1999/xlink" viewBox="0 0 58.58 15.346">
<defs>
<g>
<g id="glyph-0-0">
</g>
<g id="glyph-0-1">
<path d="M 3.125 -3.6875 C 3.171875 -3.6875 3.4375 -3.6875 3.453125 -3.671875 L 3.859375 -3.671875 C 6.28125 -3.671875 7.15625 -4.8125 7.15625 -5.9375 C 7.15625 -7.640625 5.625 -8.1875 4.09375 -8.1875 L 0.59375 -8.1875 C 0.375 -8.1875 0.1875 -8.1875 0.1875 -7.96875 C 0.1875 -7.765625 0.421875 -7.765625 0.515625 -7.765625 C 1.140625 -7.765625 1.1875 -7.671875 1.1875 -7.09375 L 1.1875 -1.09375 C 1.1875 -0.515625 1.140625 -0.421875 0.53125 -0.421875 C 0.40625 -0.421875 0.1875 -0.421875 0.1875 -0.21875 C 0.1875 0 0.375 0 0.59375 0 L 3.796875 0 C 4.015625 0 4.203125 0 4.203125 -0.21875 C 4.203125 -0.421875 4 -0.421875 3.859375 -0.421875 C 3.171875 -0.421875 3.125 -0.515625 3.125 -1.09375 Z M 5.109375 -4.21875 C 5.484375 -4.71875 5.515625 -5.46875 5.515625 -5.953125 C 5.515625 -6.59375 5.46875 -7.21875 5.15625 -7.65625 C 5.8125 -7.5 6.734375 -7.140625 6.734375 -5.9375 C 6.734375 -5.109375 6.203125 -4.5 5.109375 -4.21875 Z M 3.125 -7.125 C 3.125 -7.359375 3.125 -7.765625 3.84375 -7.765625 C 4.703125 -7.765625 5.109375 -7.453125 5.109375 -5.953125 C 5.109375 -4.25 4.46875 -4.09375 3.734375 -4.09375 L 3.125 -4.09375 Z M 1.5 -0.421875 C 1.609375 -0.640625 1.609375 -0.921875 1.609375 -1.078125 L 1.609375 -7.109375 C 1.609375 -7.265625 1.609375 -7.546875 1.5 -7.765625 L 2.875 -7.765625 C 2.71875 -7.578125 2.71875 -7.34375 2.71875 -7.15625 L 2.71875 -1.078125 C 2.71875 -0.953125 2.71875 -0.640625 2.8125 -0.421875 Z M 1.5 -0.421875 "/>
</g>
<g id="glyph-1-0">
</g>
<g id="glyph-1-1">
<path d="M 2.421875 13.859375 L 4.703125 13.859375 L 4.703125 13.375 L 2.890625 13.375 L 2.890625 0 L 4.703125 0 L 4.703125 -0.484375 L 2.421875 -0.484375 Z M 2.421875 13.859375 "/>
</g>
<g id="glyph-1-2">
<path d="M 2.5625 13.859375 L 2.5625 -0.484375 L 0.265625 -0.484375 L 0.265625 0 L 2.078125 0 L 2.078125 13.375 L 0.265625 13.375 L 0.265625 13.859375 Z M 2.5625 13.859375 "/>
</g>
<g id="glyph-2-0">
</g>
<g id="glyph-2-1">
<path d="M 4.65625 -1.578125 C 6.46875 -1.734375 7.796875 -2.84375 7.796875 -4.078125 C 7.796875 -5.359375 6.4375 -6.4375 4.65625 -6.59375 L 4.65625 -7.25 C 4.65625 -7.671875 4.671875 -7.8125 5.71875 -7.8125 L 6.078125 -7.8125 L 6.078125 -8.15625 C 5.75 -8.140625 4.59375 -8.140625 4.203125 -8.140625 C 3.796875 -8.140625 2.640625 -8.140625 2.3125 -8.15625 L 2.3125 -7.8125 L 2.671875 -7.8125 C 3.71875 -7.8125 3.734375 -7.671875 3.734375 -7.25 L 3.734375 -6.578125 C 1.890625 -6.40625 0.640625 -5.265625 0.640625 -4.09375 C 0.640625 -2.859375 1.921875 -1.75 3.734375 -1.59375 L 3.734375 -0.921875 C 3.734375 -0.484375 3.71875 -0.34375 2.671875 -0.34375 L 2.3125 -0.34375 L 2.3125 0 C 2.640625 -0.03125 3.796875 -0.03125 4.203125 -0.03125 C 4.59375 -0.03125 5.75 -0.03125 6.078125 0 L 6.078125 -0.34375 L 5.71875 -0.34375 C 4.671875 -0.34375 4.65625 -0.484375 4.65625 -0.921875 Z M 3.734375 -1.84375 C 2.4375 -2.015625 1.734375 -2.765625 1.734375 -4.078125 C 1.734375 -5.390625 2.421875 -6.15625 3.734375 -6.328125 Z M 4.65625 -6.328125 C 6.046875 -6.15625 6.703125 -5.359375 6.703125 -4.09375 C 6.703125 -2.84375 6.09375 -2.015625 4.65625 -1.828125 Z M 4.65625 -6.328125 "/>
</g>
<g id="glyph-3-0">
</g>
<g id="glyph-3-1">
<path d="M 5.5625 -1.8125 C 5.703125 -1.8125 5.875 -1.8125 5.875 -1.984375 C 5.875 -2.171875 5.703125 -2.171875 5.5625 -2.171875 L 1 -2.171875 C 0.875 -2.171875 0.703125 -2.171875 0.703125 -1.984375 C 0.703125 -1.8125 0.875 -1.8125 1 -1.8125 Z M 5.5625 -1.8125 "/>
</g>
<g id="glyph-4-0">
</g>
<g id="glyph-4-1">
<path d="M 2.375 -4.96875 C 2.375 -5.140625 2.25 -5.28125 2.0625 -5.28125 C 1.859375 -5.28125 1.625 -5.078125 1.625 -4.84375 C 1.625 -4.671875 1.75 -4.546875 1.9375 -4.546875 C 2.140625 -4.546875 2.375 -4.734375 2.375 -4.96875 Z M 1.21875 -2.046875 L 0.78125 -0.953125 C 0.734375 -0.828125 0.703125 -0.734375 0.703125 -0.59375 C 0.703125 -0.203125 1 0.078125 1.421875 0.078125 C 2.203125 0.078125 2.53125 -1.03125 2.53125 -1.140625 C 2.53125 -1.21875 2.46875 -1.25 2.40625 -1.25 C 2.3125 -1.25 2.296875 -1.1875 2.265625 -1.109375 C 2.09375 -0.46875 1.765625 -0.140625 1.4375 -0.140625 C 1.34375 -0.140625 1.25 -0.1875 1.25 -0.390625 C 1.25 -0.59375 1.3125 -0.734375 1.40625 -0.984375 C 1.484375 -1.1875 1.5625 -1.40625 1.65625 -1.625 L 1.90625 -2.265625 C 1.96875 -2.453125 2.078125 -2.703125 2.078125 -2.84375 C 2.078125 -3.234375 1.75 -3.515625 1.34375 -3.515625 C 0.578125 -3.515625 0.234375 -2.40625 0.234375 -2.296875 C 0.234375 -2.21875 0.296875 -2.1875 0.359375 -2.1875 C 0.46875 -2.1875 0.46875 -2.234375 0.5 -2.3125 C 0.71875 -3.078125 1.078125 -3.296875 1.328125 -3.296875 C 1.4375 -3.296875 1.515625 -3.25 1.515625 -3.03125 C 1.515625 -2.953125 1.5 -2.84375 1.421875 -2.59375 Z M 1.21875 -2.046875 "/>
</g>
<g id="glyph-5-0">
</g>
<g id="glyph-5-1">
<path d="M 7.296875 -4.546875 C 7.296875 -6.359375 5.46875 -7.140625 3.984375 -7.140625 C 2.421875 -7.140625 0.65625 -6.3125 0.65625 -4.546875 L 0.65625 -0.171875 C 0.65625 0.046875 0.65625 0.265625 0.890625 0.265625 C 1.140625 0.265625 1.140625 0.046875 1.140625 -0.171875 L 1.140625 -4.5 C 1.140625 -6.28125 3.078125 -6.671875 3.984375 -6.671875 C 4.515625 -6.671875 5.265625 -6.5625 5.90625 -6.15625 C 6.828125 -5.5625 6.828125 -4.8125 6.828125 -4.484375 L 6.828125 -0.171875 C 6.828125 0.046875 6.828125 0.265625 7.0625 0.265625 C 7.296875 0.265625 7.296875 0.046875 7.296875 -0.171875 Z M 7.296875 -4.546875 "/>
</g>
<g id="glyph-6-0">
</g>
<g id="glyph-6-1">
<path d="M 4.375 -7.34375 C 4.484375 -7.796875 4.53125 -7.8125 5 -7.8125 L 6.546875 -7.8125 C 7.90625 -7.8125 7.90625 -6.671875 7.90625 -6.5625 C 7.90625 -5.59375 6.9375 -4.359375 5.359375 -4.359375 L 3.640625 -4.359375 Z M 6.390625 -4.265625 C 7.703125 -4.5 8.875 -5.421875 8.875 -6.515625 C 8.875 -7.453125 8.0625 -8.15625 6.703125 -8.15625 L 2.875 -8.15625 C 2.640625 -8.15625 2.53125 -8.15625 2.53125 -7.9375 C 2.53125 -7.8125 2.640625 -7.8125 2.828125 -7.8125 C 3.546875 -7.8125 3.546875 -7.71875 3.546875 -7.59375 C 3.546875 -7.5625 3.546875 -7.5 3.5 -7.3125 L 1.890625 -0.890625 C 1.78125 -0.46875 1.75 -0.34375 0.921875 -0.34375 C 0.6875 -0.34375 0.578125 -0.34375 0.578125 -0.125 C 0.578125 0 0.640625 0 0.890625 0 L 4.984375 0 C 6.8125 0 8.21875 -1.390625 8.21875 -2.59375 C 8.21875 -3.578125 7.359375 -4.171875 6.390625 -4.265625 Z M 4.703125 -0.34375 L 3.078125 -0.34375 C 2.921875 -0.34375 2.890625 -0.34375 2.828125 -0.359375 C 2.6875 -0.375 2.671875 -0.390625 2.671875 -0.484375 C 2.671875 -0.578125 2.703125 -0.640625 2.71875 -0.75 L 3.5625 -4.125 L 5.8125 -4.125 C 7.21875 -4.125 7.21875 -2.8125 7.21875 -2.71875 C 7.21875 -1.5625 6.1875 -0.34375 4.703125 -0.34375 Z M 4.703125 -0.34375 "/>
</g>
</g>
</defs>
<g fill="rgb(0%, 0%, 0%)" fill-opacity="1">
<use xlink:href="#glyph-0-1" x="0.5" y="10.662"/>
</g>
<g fill="rgb(0%, 0%, 0%)" fill-opacity="1">
<use xlink:href="#glyph-1-1" x="9.798" y="0.978"/>
</g>
<g fill="rgb(0%, 0%, 0%)" fill-opacity="1">
<use xlink:href="#glyph-2-1" x="14.78" y="10.662"/>
</g>
<g fill="rgb(0%, 0%, 0%)" fill-opacity="1">
<use xlink:href="#glyph-3-1" x="23.234" y="5.714"/>
</g>
<g fill="rgb(0%, 0%, 0%)" fill-opacity="1">
<use xlink:href="#glyph-4-1" x="23.234" y="13.725"/>
</g>
<g fill="rgb(0%, 0%, 0%)" fill-opacity="1">
<use xlink:href="#glyph-5-1" x="32.975" y="10.662"/>
</g>
<g fill="rgb(0%, 0%, 0%)" fill-opacity="1">
<use xlink:href="#glyph-6-1" x="43.602" y="10.662"/>
</g>
<g fill="rgb(0%, 0%, 0%)" fill-opacity="1">
<use xlink:href="#glyph-1-2" x="53.098" y="0.978"/>
</g>
</svg>
