<?xml version="1.0" encoding="UTF-8"?>
<svg xmlns="http://www.w3.org/2000/svg" xmlns:xlink="http://www.w3.org/1999/xlink" viewBox="0 0 166.681 28.065">
<defs>
<g>
<g id="glyph-0-0">
</g>
<g id="glyph-0-1">
<path d="M 3.09375 -4.015625 C 3.390625 -4.015625 3.96875 -4.015625 4.390625 -3.765625 C 4.953125 -3.390625 5.015625 -2.75 5.015625 -2.671875 C 5.015625 -2.515625 5.015625 -2.359375 5.21875 -2.359375 C 5.421875 -2.359375 5.421875 -2.515625 5.421875 -2.734375 L 5.421875 -5.96875 C 5.421875 -6.171875 5.421875 -6.359375 5.21875 -6.359375 C 5.015625 -6.359375 5.015625 -6.1875 5.015625 -6.078125 C 4.9375 -4.546875 3.71875 -4.453125 3.09375 -4.453125 L 3.09375 -6.96875 C 3.09375 -7.765625 3.328125 -7.765625 3.609375 -7.765625 L 4.1875 -7.765625 C 5.796875 -7.765625 6.59375 -6.9375 6.671875 -6.125 C 6.6875 -6.03125 6.6875 -5.84375 6.890625 -5.84375 C 7.09375 -5.84375 7.09375 -6.03125 7.09375 -6.234375 L 7.09375 -7.796875 C 7.09375 -8.15625 7.0625 -8.1875 6.6875 -8.1875 L 0.578125 -8.1875 C 0.359375 -8.1875 0.171875 -8.1875 0.171875 -7.96875 C 0.171875 -7.765625 0.390625 -7.765625 0.484375 -7.765625 C 1.171875 -7.765625 1.21875 -7.671875 1.21875 -7.09375 L 1.21875 -1.09375 C 1.21875 -0.53125 1.1875 -0.421875 0.546875 -0.421875 C 0.375 -0.421875 0.171875 -0.421875 0.171875 -0.21875 C 0.171875 0 0.359375 0 0.578125 0 L 6.90625 0 C 7.140625 0 7.25 0 7.296875 -0.171875 C 7.296875 -0.171875 7.640625 -2.171875 7.640625 -2.234375 C 7.640625 -2.359375 7.53125 -2.453125 7.4375 -2.453125 C 7.265625 -2.453125 7.21875 -2.296875 7.21875 -2.28125 C 7.140625 -1.96875 7.03125 -1.46875 6.15625 -0.953125 C 5.53125 -0.578125 4.921875 -0.421875 4.265625 -0.421875 L 3.609375 -0.421875 C 3.328125 -0.421875 3.09375 -0.421875 3.09375 -1.21875 Z M 6.671875 -7.765625 L 6.671875 -7.203125 C 6.46875 -7.421875 6.234375 -7.609375 5.984375 -7.765625 Z M 4.34375 -4.265625 C 4.53125 -4.34375 4.796875 -4.53125 5.015625 -4.78125 L 5.015625 -3.78125 C 4.71875 -4.09375 4.34375 -4.25 4.34375 -4.25 Z M 1.640625 -7.109375 C 1.640625 -7.25 1.640625 -7.546875 1.546875 -7.765625 L 2.8125 -7.765625 C 2.671875 -7.5 2.671875 -7.09375 2.671875 -7 L 2.671875 -1.1875 C 2.671875 -0.765625 2.765625 -0.53125 2.8125 -0.421875 L 1.546875 -0.421875 C 1.640625 -0.640625 1.640625 -0.9375 1.640625 -1.078125 Z M 6.078125 -0.421875 L 6.078125 -0.4375 C 6.46875 -0.625 6.796875 -0.875 7.03125 -1.09375 C 7.015625 -1.046875 6.9375 -0.515625 6.921875 -0.421875 Z M 6.078125 -0.421875 "/>
</g>
<g id="glyph-0-2">
<path d="M 3.125 -3.6875 C 3.171875 -3.6875 3.4375 -3.6875 3.453125 -3.671875 L 3.859375 -3.671875 C 6.28125 -3.671875 7.15625 -4.8125 7.15625 -5.9375 C 7.15625 -7.640625 5.625 -8.1875 4.09375 -8.1875 L 0.59375 -8.1875 C 0.375 -8.1875 0.1875 -8.1875 0.1875 -7.96875 C 0.1875 -7.765625 0.421875 -7.765625 0.515625 -7.765625 C 1.140625 -7.765625 1.1875 -7.671875 1.1875 -7.09375 L 1.1875 -1.09375 C 1.1875 -0.515625 1.140625 -0.421875 0.53125 -0.421875 C 0.40625 -0.421875 0.1875 -0.421875 0.1875 -0.21875 C 0.1875 0 0.375 0 0.59375 0 L 3.796875 0 C 4.015625 0 4.203125 0 4.203125 -0.21875 C 4.203125 -0.421875 4 -0.421875 3.859375 -0.421875 C 3.171875 -0.421875 3.125 -0.515625 3.125 -1.09375 Z M 5.109375 -4.21875 C 5.484375 -4.71875 5.515625 -5.46875 5.515625 -5.953125 C 5.515625 -6.59375 5.46875 -7.21875 5.15625 -7.65625 C 5.8125 -7.5 6.734375 -7.140625 6.734375 -5.9375 C 6.734375 -5.109375 6.203125 -4.5 5.109375 -4.21875 Z M 3.125 -7.125 C 3.125 -7.359375 3.125 -7.765625 3.84375 -7.765625 C 4.703125 -7.765625 5.109375 -7.453125 5.109375 -5.953125 C 5.109375 -4.25 4.46875 -4.09375 3.734375 -4.09375 L 3.125 -4.09375 Z M 1.5 -0.421875 C 1.609375 -0.640625 1.609375 -0.921875 1.609375 -1.078125 L 1.609375 -7.109375 C 1.609375 -7.265625 1.609375 -7.546875 1.5 -7.765625 L 2.875 -7.765625 C 2.71875 -7.578125 2.71875 -7.34375 2.71875 -7.15625 L 2.71875 -1.078125 C 2.71875 -0.953125 2.71875 -0.640625 2.8125 -0.421875 Z M 1.5 -0.421875 "/>
</g>
<g id="glyph-1-0">
</g>
<g id="glyph-1-1">
<path d="M 2.984375 2.984375 L 2.984375 2.546875 L 1.828125 2.546875 L 1.828125 -8.515625 L 2.984375 -8.515625 L 2.984375 -8.96875 L 1.390625 -8.96875 L 1.390625 2.984375 Z M 2.984375 2.984375 "/>
</g>
<g id="glyph-1-2">
<path d="M 3.890625 2.90625 C 3.890625 2.875 3.890625 2.84375 3.6875 2.640625 C 2.484375 1.4375 1.8125 -0.53125 1.8125 -2.96875 C 1.8125 -5.296875 2.375 -7.296875 3.765625 -8.703125 C 3.890625 -8.8125 3.890625 -8.828125 3.890625 -8.875 C 3.890625 -8.9375 3.828125 -8.96875 3.78125 -8.96875 C 3.625 -8.96875 2.640625 -8.109375 2.0625 -6.9375 C 1.453125 -5.71875 1.171875 -4.453125 1.171875 -2.96875 C 1.171875 -1.90625 1.34375 -0.484375 1.953125 0.78125 C 2.671875 2.21875 3.640625 3 3.78125 3 C 3.828125 3 3.890625 2.96875 3.890625 2.90625 Z M 3.890625 2.90625 "/>
</g>
<g id="glyph-1-3">
<path d="M 3.375 -2.96875 C 3.375 -3.890625 3.25 -5.359375 2.578125 -6.75 C 1.875 -8.1875 0.890625 -8.96875 0.765625 -8.96875 C 0.71875 -8.96875 0.65625 -8.9375 0.65625 -8.875 C 0.65625 -8.828125 0.65625 -8.8125 0.859375 -8.609375 C 2.0625 -7.40625 2.71875 -5.421875 2.71875 -2.984375 C 2.71875 -0.671875 2.15625 1.328125 0.78125 2.734375 C 0.65625 2.84375 0.65625 2.875 0.65625 2.90625 C 0.65625 2.96875 0.71875 3 0.765625 3 C 0.921875 3 1.90625 2.140625 2.484375 0.96875 C 3.09375 -0.25 3.375 -1.546875 3.375 -2.96875 Z M 3.375 -2.96875 "/>
</g>
<g id="glyph-1-4">
<path d="M 1.859375 -8.96875 L 0.25 -8.96875 L 0.25 -8.515625 L 1.40625 -8.515625 L 1.40625 2.546875 L 0.25 2.546875 L 0.25 2.984375 L 1.859375 2.984375 Z M 1.859375 -8.96875 "/>
</g>
<g id="glyph-1-5">
<path d="M 8.0625 -3.875 C 8.234375 -3.875 8.453125 -3.875 8.453125 -4.09375 C 8.453125 -4.3125 8.25 -4.3125 8.0625 -4.3125 L 1.03125 -4.3125 C 0.859375 -4.3125 0.640625 -4.3125 0.640625 -4.09375 C 0.640625 -3.875 0.84375 -3.875 1.03125 -3.875 Z M 8.0625 -1.65625 C 8.234375 -1.65625 8.453125 -1.65625 8.453125 -1.859375 C 8.453125 -2.09375 8.25 -2.09375 8.0625 -2.09375 L 1.03125 -2.09375 C 0.859375 -2.09375 0.640625 -2.09375 0.640625 -1.875 C 0.640625 -1.65625 0.84375 -1.65625 1.03125 -1.65625 Z M 8.0625 -1.65625 "/>
</g>
<g id="glyph-2-0">
</g>
<g id="glyph-2-1">
<path d="M 8.921875 -8.3125 C 8.921875 -8.421875 8.828125 -8.421875 8.8125 -8.421875 C 8.78125 -8.421875 8.734375 -8.421875 8.640625 -8.296875 L 7.8125 -7.296875 C 7.75 -7.40625 7.515625 -7.8125 7.046875 -8.09375 C 6.53125 -8.421875 6.03125 -8.421875 5.84375 -8.421875 C 3.28125 -8.421875 0.59375 -5.8125 0.59375 -2.984375 C 0.59375 -1.015625 1.953125 0.25 3.75 0.25 C 4.609375 0.25 5.703125 -0.03125 6.296875 -0.78125 C 6.4375 -0.328125 6.6875 -0.015625 6.78125 -0.015625 C 6.84375 -0.015625 6.84375 -0.046875 6.859375 -0.046875 C 6.875 -0.078125 6.96875 -0.484375 7.03125 -0.703125 L 7.21875 -1.46875 C 7.3125 -1.859375 7.359375 -2.03125 7.453125 -2.390625 C 7.5625 -2.84375 7.59375 -2.875 8.25 -2.890625 C 8.296875 -2.890625 8.4375 -2.890625 8.4375 -3.125 C 8.4375 -3.234375 8.3125 -3.234375 8.28125 -3.234375 C 8.078125 -3.234375 7.859375 -3.21875 7.640625 -3.21875 L 7 -3.21875 C 6.484375 -3.21875 5.96875 -3.234375 5.46875 -3.234375 C 5.359375 -3.234375 5.21875 -3.234375 5.21875 -3.03125 C 5.21875 -2.90625 5.3125 -2.90625 5.3125 -2.890625 L 5.625 -2.890625 C 6.5625 -2.890625 6.5625 -2.796875 6.5625 -2.625 C 6.5625 -2.609375 6.328125 -1.40625 6.109375 -1.046875 C 5.65625 -0.375 4.703125 -0.09375 4 -0.09375 C 3.078125 -0.09375 1.59375 -0.578125 1.59375 -2.640625 C 1.59375 -3.4375 1.875 -5.265625 3.03125 -6.625 C 3.796875 -7.484375 4.90625 -8.0625 5.953125 -8.0625 C 7.359375 -8.0625 7.859375 -6.859375 7.859375 -5.765625 C 7.859375 -5.5625 7.8125 -5.3125 7.8125 -5.140625 C 7.8125 -5.03125 7.9375 -5.03125 7.96875 -5.03125 C 8.109375 -5.03125 8.109375 -5.046875 8.15625 -5.265625 Z M 8.921875 -8.3125 "/>
</g>
<g id="glyph-2-2">
<path d="M 5.671875 -4.859375 L 4.546875 -7.46875 C 4.703125 -7.75 5.0625 -7.8125 5.21875 -7.8125 C 5.28125 -7.8125 5.421875 -7.828125 5.421875 -8.03125 C 5.421875 -8.15625 5.3125 -8.15625 5.234375 -8.15625 C 5.03125 -8.15625 4.796875 -8.140625 4.59375 -8.140625 L 3.890625 -8.140625 C 3.171875 -8.140625 2.640625 -8.15625 2.625 -8.15625 C 2.53125 -8.15625 2.421875 -8.15625 2.421875 -7.9375 C 2.421875 -7.8125 2.515625 -7.8125 2.671875 -7.8125 C 3.375 -7.8125 3.421875 -7.703125 3.53125 -7.40625 L 4.953125 -4.09375 L 2.359375 -1.3125 C 1.9375 -0.84375 1.421875 -0.390625 0.53125 -0.34375 C 0.390625 -0.328125 0.296875 -0.328125 0.296875 -0.125 C 0.296875 -0.078125 0.3125 0 0.4375 0 C 0.609375 0 0.78125 -0.03125 0.953125 -0.03125 L 1.515625 -0.03125 C 1.90625 -0.03125 2.3125 0 2.6875 0 C 2.765625 0 2.921875 0 2.921875 -0.21875 C 2.921875 -0.328125 2.828125 -0.34375 2.765625 -0.34375 C 2.515625 -0.375 2.359375 -0.5 2.359375 -0.6875 C 2.359375 -0.890625 2.515625 -1.046875 2.859375 -1.40625 L 3.921875 -2.5625 C 4.1875 -2.828125 4.8125 -3.53125 5.078125 -3.796875 L 6.328125 -0.84375 C 6.34375 -0.828125 6.390625 -0.703125 6.390625 -0.6875 C 6.390625 -0.578125 6.125 -0.375 5.75 -0.34375 C 5.671875 -0.34375 5.546875 -0.328125 5.546875 -0.125 C 5.546875 0 5.671875 0 5.71875 0 C 5.921875 0 6.171875 -0.03125 6.375 -0.03125 L 7.6875 -0.03125 C 7.90625 -0.03125 8.125 0 8.328125 0 C 8.421875 0 8.546875 0 8.546875 -0.234375 C 8.546875 -0.34375 8.421875 -0.34375 8.3125 -0.34375 C 7.609375 -0.359375 7.578125 -0.421875 7.375 -0.859375 L 5.796875 -4.5625 L 7.3125 -6.1875 C 7.4375 -6.3125 7.703125 -6.609375 7.8125 -6.734375 C 8.328125 -7.265625 8.8125 -7.75 9.78125 -7.8125 C 9.890625 -7.828125 10.015625 -7.828125 10.015625 -8.03125 C 10.015625 -8.15625 9.90625 -8.15625 9.859375 -8.15625 C 9.6875 -8.15625 9.515625 -8.140625 9.34375 -8.140625 L 8.796875 -8.140625 C 8.421875 -8.140625 8 -8.15625 7.625 -8.15625 C 7.546875 -8.15625 7.40625 -8.15625 7.40625 -7.953125 C 7.40625 -7.828125 7.484375 -7.8125 7.546875 -7.8125 C 7.75 -7.796875 7.953125 -7.703125 7.953125 -7.46875 L 7.9375 -7.453125 C 7.921875 -7.359375 7.90625 -7.25 7.765625 -7.09375 Z M 5.671875 -4.859375 "/>
</g>
<g id="glyph-2-3">
<path d="M 7.09375 -4.5 C 7.09375 -4.84375 7 -5.28125 6.59375 -5.28125 C 6.34375 -5.28125 6.078125 -4.984375 6.078125 -4.75 C 6.078125 -4.640625 6.125 -4.5625 6.21875 -4.453125 C 6.390625 -4.25 6.625 -3.9375 6.625 -3.375 C 6.625 -2.9375 6.359375 -2.265625 6.171875 -1.890625 C 5.828125 -1.234375 5.28125 -0.671875 4.65625 -0.671875 C 3.90625 -0.671875 3.625 -1.140625 3.484375 -1.8125 C 3.625 -2.125 3.890625 -2.90625 3.890625 -3.21875 C 3.890625 -3.34375 3.84375 -3.453125 3.6875 -3.453125 C 3.609375 -3.453125 3.515625 -3.40625 3.453125 -3.3125 C 3.28125 -3.046875 3.125 -2.109375 3.140625 -1.859375 C 2.921875 -1.40625 2.265625 -0.671875 1.5 -0.671875 C 0.703125 -0.671875 0.484375 -1.375 0.484375 -2.0625 C 0.484375 -3.296875 1.265625 -4.390625 1.484375 -4.6875 C 1.609375 -4.859375 1.6875 -4.984375 1.6875 -5.015625 C 1.6875 -5.09375 1.640625 -5.21875 1.53125 -5.21875 C 1.34375 -5.21875 1.28125 -5.0625 1.1875 -4.921875 C 0.578125 -3.984375 0.140625 -2.65625 0.140625 -1.5 C 0.140625 -0.765625 0.421875 0.125 1.3125 0.125 C 2.3125 0.125 2.921875 -0.734375 3.171875 -1.1875 C 3.28125 -0.515625 3.640625 0.125 4.5 0.125 C 5.421875 0.125 5.984375 -0.6875 6.421875 -1.65625 C 6.734375 -2.34375 7.09375 -3.84375 7.09375 -4.5 Z M 7.09375 -4.5 "/>
</g>
<g id="glyph-2-4">
<path d="M 6.015625 -8 C 6.03125 -8.046875 6.046875 -8.109375 6.046875 -8.171875 C 6.046875 -8.296875 5.921875 -8.296875 5.90625 -8.296875 C 5.890625 -8.296875 5.3125 -8.25 5.25 -8.234375 C 5.046875 -8.21875 4.859375 -8.203125 4.65625 -8.1875 C 4.34375 -8.15625 4.265625 -8.15625 4.265625 -7.9375 C 4.265625 -7.8125 4.359375 -7.8125 4.53125 -7.8125 C 5.109375 -7.8125 5.125 -7.703125 5.125 -7.59375 C 5.125 -7.515625 5.109375 -7.421875 5.09375 -7.390625 L 4.359375 -4.484375 C 4.234375 -4.796875 3.90625 -5.265625 3.28125 -5.265625 C 1.9375 -5.265625 0.484375 -3.53125 0.484375 -1.75 C 0.484375 -0.578125 1.171875 0.125 1.984375 0.125 C 2.640625 0.125 3.203125 -0.390625 3.53125 -0.78125 C 3.65625 -0.078125 4.21875 0.125 4.578125 0.125 C 4.9375 0.125 5.21875 -0.09375 5.4375 -0.53125 C 5.625 -0.9375 5.796875 -1.65625 5.796875 -1.703125 C 5.796875 -1.765625 5.75 -1.8125 5.671875 -1.8125 C 5.5625 -1.8125 5.5625 -1.75 5.515625 -1.578125 C 5.328125 -0.875 5.109375 -0.125 4.609375 -0.125 C 4.265625 -0.125 4.25 -0.4375 4.25 -0.671875 C 4.25 -0.71875 4.25 -0.96875 4.328125 -1.296875 Z M 3.59375 -1.421875 C 3.53125 -1.21875 3.53125 -1.1875 3.375 -0.96875 C 3.109375 -0.640625 2.578125 -0.125 2.015625 -0.125 C 1.53125 -0.125 1.25 -0.5625 1.25 -1.265625 C 1.25 -1.921875 1.625 -3.265625 1.859375 -3.765625 C 2.265625 -4.609375 2.828125 -5.03125 3.28125 -5.03125 C 4.078125 -5.03125 4.234375 -4.046875 4.234375 -3.953125 C 4.234375 -3.9375 4.203125 -3.796875 4.1875 -3.765625 Z M 3.59375 -1.421875 "/>
</g>
<g id="glyph-3-0">
</g>
<g id="glyph-3-1">
<path d="M 1.25 26.015625 C 1.625 26 1.828125 25.734375 1.828125 25.4375 C 1.828125 25.046875 1.53125 24.84375 1.25 24.84375 C 0.96875 24.84375 0.671875 25.03125 0.671875 25.453125 C 0.671875 26.0625 1.265625 26.5625 2 26.5625 C 3.8125 26.5625 4.5 23.765625 5.34375 20.296875 C 6.265625 16.515625 7.046875 12.703125 7.6875 8.875 C 8.125 6.328125 8.578125 3.9375 8.984375 2.390625 C 9.125 1.8125 9.53125 0.265625 10 0.265625 C 10.359375 0.265625 10.65625 0.484375 10.703125 0.53125 C 10.3125 0.5625 10.109375 0.828125 10.109375 1.125 C 10.109375 1.515625 10.40625 1.703125 10.6875 1.703125 C 10.96875 1.703125 11.265625 1.53125 11.265625 1.109375 C 11.265625 0.46875 10.625 0 9.96875 0 C 9.0625 0 8.390625 1.296875 7.734375 3.734375 C 7.703125 3.875 6.078125 9.875 4.75 17.6875 C 4.453125 19.515625 4.09375 21.515625 3.703125 23.171875 C 3.484375 24.046875 2.9375 26.296875 1.96875 26.296875 C 1.546875 26.296875 1.25 26.015625 1.25 26.015625 Z M 1.25 26.015625 "/>
</g>
<g id="glyph-4-0">
</g>
<g id="glyph-4-1">
<path d="M 5.734375 -1.3125 L 5.484375 -1.3125 C 5.46875 -1.234375 5.375 -0.828125 5.328125 -0.6875 C 5.28125 -0.609375 5.265625 -0.546875 4.796875 -0.546875 L 4.140625 -0.546875 C 4.28125 -1.015625 4.515625 -1.359375 4.875 -1.859375 C 5.234375 -2.359375 5.640625 -2.9375 5.640625 -3.625 C 5.640625 -4.703125 4.515625 -5.609375 3.046875 -5.609375 C 1.578125 -5.609375 0.46875 -4.703125 0.46875 -3.625 C 0.46875 -2.921875 0.859375 -2.375 1.296875 -1.765625 C 1.578125 -1.359375 1.828125 -1 1.953125 -0.546875 L 1.3125 -0.546875 C 0.84375 -0.546875 0.828125 -0.609375 0.78125 -0.6875 C 0.71875 -0.828125 0.640625 -1.234375 0.625 -1.3125 L 0.375 -1.3125 L 0.65625 0 L 2.015625 0 C 2.1875 0 2.234375 0 2.234375 -0.171875 C 2.234375 -0.75 1.953125 -1.4375 1.75 -1.921875 C 1.53125 -2.46875 1.296875 -3.046875 1.296875 -3.625 C 1.296875 -4.8125 2.203125 -5.390625 3.046875 -5.390625 C 3.90625 -5.390625 4.8125 -4.796875 4.8125 -3.625 C 4.8125 -3.046875 4.578125 -2.5 4.375 -2.015625 C 4.140625 -1.421875 3.859375 -0.75 3.859375 -0.1875 C 3.859375 0 3.90625 0 4.09375 0 L 5.453125 0 Z M 5.734375 -1.3125 "/>
</g>
<g id="glyph-5-0">
</g>
<g id="glyph-5-1">
<path d="M 5.3125 -2.984375 C 5.3125 -4.265625 4.25 -5.3125 2.984375 -5.3125 C 1.703125 -5.3125 0.65625 -4.25 0.65625 -2.984375 C 0.65625 -1.71875 1.703125 -0.671875 2.984375 -0.671875 C 4.25 -0.671875 5.3125 -1.703125 5.3125 -2.984375 Z M 2.984375 -1.140625 C 1.953125 -1.140625 1.140625 -1.984375 1.140625 -2.984375 C 1.140625 -4 1.953125 -4.828125 2.984375 -4.828125 C 3.984375 -4.828125 4.828125 -4.015625 4.828125 -2.984375 C 4.828125 -1.953125 3.984375 -1.140625 2.984375 -1.140625 Z M 2.984375 -1.140625 "/>
</g>
</g>
</defs>
<g fill="rgb(0%, 0%, 0%)" fill-opacity="1">
<use xlink:href="#glyph-0-1" x="0.5" y="16.772"/>
</g>
<g fill="rgb(0%, 0%, 0%)" fill-opacity="1">
<use xlink:href="#glyph-1-1" x="10.463" y="16.772"/>
</g>
<g fill="rgb(0%, 0%, 0%)" fill-opacity="1">
<use xlink:href="#glyph-2-1" x="13.714" y="16.772"/>
</g>
<g fill="rgb(0%, 0%, 0%)" fill-opacity="1">
<use xlink:href="#glyph-1-2" x="22.948" y="16.772"/>
</g>
<g fill="rgb(0%, 0%, 0%)" fill-opacity="1">
<use xlink:href="#glyph-2-2" x="27.5" y="16.772"/>
</g>
<g fill="rgb(0%, 0%, 0%)" fill-opacity="1">
<use xlink:href="#glyph-1-3" x="38.155" y="16.772"/>
<use xlink:href="#glyph-1-4" x="42.70754" y="16.772"/>
</g>
<g fill="rgb(0%, 0%, 0%)" fill-opacity="1">
<use xlink:href="#glyph-1-5" x="49.2829" y="16.772"/>
</g>
<g fill="rgb(0%, 0%, 0%)" fill-opacity="1">
<use xlink:href="#glyph-3-1" x="61.706" y="0.5"/>
</g>
<g fill="rgb(0%, 0%, 0%)" fill-opacity="1">
<use xlink:href="#glyph-4-1" x="68.347" y="27.565"/>
</g>
<g fill="rgb(0%, 0%, 0%)" fill-opacity="1">
<use xlink:href="#glyph-1-2" x="74.962" y="16.772"/>
</g>
<g fill="rgb(0%, 0%, 0%)" fill-opacity="1">
<use xlink:href="#glyph-2-1" x="79.514" y="16.772"/>
</g>
<g fill="rgb(0%, 0%, 0%)" fill-opacity="1">
<use xlink:href="#glyph-5-1" x="91.404" y="16.772"/>
</g>
<g fill="rgb(0%, 0%, 0%)" fill-opacity="1">
<use xlink:href="#glyph-2-2" x="100.038" y="16.772"/>
</g>
<g fill="rgb(0%, 0%, 0%)" fill-opacity="1">
<use xlink:href="#glyph-1-3" x="110.694" y="16.772"/>
<use xlink:href="#glyph-1-2" x="115.24654" y="16.772"/>
</g>
<g fill="rgb(0%, 0%, 0%)" fill-opacity="1">
<use xlink:href="#glyph-2-3" x="119.798" y="16.772"/>
</g>
<g fill="rgb(0%, 0%, 0%)" fill-opacity="1">
<use xlink:href="#glyph-1-3" x="127.516" y="16.772"/>
</g>
<g fill="rgb(0%, 0%, 0%)" fill-opacity="1">
<use xlink:href="#glyph-2-4" x="135.97" y="16.772"/>
</g>
<g fill="rgb(0%, 0%, 0%)" fill-opacity="1">
<use xlink:href="#glyph-0-2" x="142.052" y="16.772"/>
</g>
<g fill="rgb(0%, 0%, 0%)" fill-opacity="1">
<use xlink:href="#glyph-1-2" x="149.358" y="16.772"/>
</g>
<g fill="rgb(0%, 0%, 0%)" fill-opacity="1">
<use xlink:href="#glyph-2-3" x="153.911" y="16.772"/>
</g>
<g fill="rgb(0%, 0%, 0%)" fill-opacity="1">
<use xlink:href="#glyph-1-3" x="161.629" y="16.772"/>
</g>
</svg>
