<?xml version="1.0" encoding="UTF-8"?>
<svg xmlns="http://www.w3.org/2000/svg" xmlns:xlink="http://www.w3.org/1999/xlink" viewBox="0 0 26.003 12.512">
<defs>
<g>
<g id="glyph-0-0">
</g>
<g id="glyph-0-1">
<path d="M 2.15625 -1.109375 C 2.796875 -2.109375 3 -2.875 3.15625 -3.515625 C 3.578125 -5.15625 4.03125 -6.59375 4.765625 -7.421875 C 4.90625 -7.578125 5.015625 -7.6875 5.390625 -7.6875 C 6.21875 -7.6875 6.234375 -6.859375 6.234375 -6.6875 C 6.234375 -6.484375 6.1875 -6.3125 6.1875 -6.25 C 6.1875 -6.171875 6.25 -6.171875 6.265625 -6.171875 C 6.453125 -6.171875 6.78125 -6.296875 7.078125 -6.515625 C 7.296875 -6.6875 7.40625 -6.796875 7.40625 -7.296875 C 7.40625 -7.9375 7.0625 -8.421875 6.390625 -8.421875 C 6.015625 -8.421875 4.953125 -8.328125 3.796875 -7.140625 C 2.828125 -6.171875 2.265625 -4.015625 2.046875 -3.125 C 1.828125 -2.296875 1.734375 -1.921875 1.375 -1.203125 C 1.296875 -1.0625 0.984375 -0.53125 0.8125 -0.375 C 0.484375 -0.078125 0.375 0.125 0.375 0.1875 C 0.375 0.21875 0.390625 0.265625 0.484375 0.265625 C 0.53125 0.265625 0.78125 0.21875 1.09375 0.015625 C 1.296875 -0.109375 1.3125 -0.125 1.59375 -0.421875 C 2.1875 -0.40625 2.609375 -0.296875 3.359375 -0.078125 C 3.96875 0.078125 4.578125 0.265625 5.1875 0.265625 C 6.15625 0.265625 7.140625 -0.46875 7.515625 -0.984375 C 7.75 -1.3125 7.828125 -1.609375 7.828125 -1.65625 C 7.828125 -1.734375 7.75 -1.734375 7.75 -1.734375 C 7.546875 -1.734375 7.265625 -1.609375 7.0625 -1.453125 C 6.734375 -1.25 6.71875 -1.1875 6.640625 -0.984375 C 6.59375 -0.78125 6.515625 -0.6875 6.46875 -0.625 C 6.375 -0.484375 6.359375 -0.484375 6.1875 -0.484375 C 5.609375 -0.484375 5.015625 -0.65625 4.21875 -0.875 C 3.890625 -0.96875 3.234375 -1.15625 2.625 -1.15625 C 2.46875 -1.15625 2.3125 -1.140625 2.15625 -1.109375 Z M 2.15625 -1.109375 "/>
</g>
<g id="glyph-1-0">
</g>
<g id="glyph-1-1">
<path d="M 4.15625 -3.046875 C 4.546875 -3.4375 5.671875 -4.59375 5.859375 -4.75 C 6.203125 -5 6.40625 -5.140625 6.96875 -5.171875 C 7.015625 -5.1875 7.078125 -5.234375 7.078125 -5.328125 C 7.078125 -5.40625 7.015625 -5.4375 6.96875 -5.4375 C 6.890625 -5.4375 6.84375 -5.421875 6.21875 -5.421875 C 5.625 -5.421875 5.40625 -5.4375 5.375 -5.4375 C 5.34375 -5.4375 5.21875 -5.4375 5.21875 -5.296875 C 5.21875 -5.28125 5.21875 -5.1875 5.328125 -5.171875 C 5.390625 -5.171875 5.609375 -5.15625 5.609375 -4.96875 C 5.609375 -4.921875 5.5625 -4.828125 5.5 -4.765625 L 5.484375 -4.71875 C 5.453125 -4.703125 5.453125 -4.6875 5.375 -4.609375 L 4.046875 -3.265625 L 3.234375 -4.953125 C 3.34375 -5.140625 3.578125 -5.171875 3.6875 -5.171875 C 3.71875 -5.171875 3.828125 -5.1875 3.828125 -5.328125 C 3.828125 -5.390625 3.78125 -5.4375 3.703125 -5.4375 C 3.625 -5.4375 3.328125 -5.421875 3.25 -5.421875 C 3.203125 -5.421875 2.90625 -5.421875 2.734375 -5.421875 C 1.984375 -5.421875 1.890625 -5.4375 1.828125 -5.4375 C 1.796875 -5.4375 1.671875 -5.4375 1.671875 -5.296875 C 1.671875 -5.171875 1.765625 -5.171875 1.890625 -5.171875 C 2.296875 -5.171875 2.359375 -5.09375 2.4375 -4.953125 L 3.5 -2.71875 L 1.859375 -1.046875 C 1.390625 -0.578125 1.015625 -0.296875 0.453125 -0.265625 C 0.34375 -0.25 0.25 -0.25 0.25 -0.109375 C 0.25 -0.0625 0.296875 0 0.375 0 C 0.4375 0 0.515625 -0.03125 1.125 -0.03125 C 1.703125 -0.03125 1.9375 0 1.96875 0 C 2.015625 0 2.140625 0 2.140625 -0.15625 C 2.140625 -0.171875 2.125 -0.25 2.015625 -0.265625 C 1.859375 -0.265625 1.75 -0.328125 1.75 -0.46875 C 1.75 -0.59375 1.84375 -0.703125 1.953125 -0.828125 C 2.09375 -0.96875 2.515625 -1.390625 2.796875 -1.671875 C 2.984375 -1.84375 3.421875 -2.3125 3.609375 -2.484375 L 4.53125 -0.578125 C 4.5625 -0.5 4.5625 -0.5 4.5625 -0.484375 C 4.5625 -0.421875 4.40625 -0.28125 4.140625 -0.265625 C 4.078125 -0.265625 3.96875 -0.25 3.96875 -0.109375 C 3.96875 -0.109375 3.984375 0 4.109375 0 C 4.1875 0 4.484375 -0.015625 4.5625 -0.03125 L 5.078125 -0.03125 C 5.8125 -0.03125 5.921875 0 6 0 C 6.03125 0 6.140625 0 6.140625 -0.15625 C 6.140625 -0.265625 6.046875 -0.265625 5.921875 -0.265625 C 5.484375 -0.265625 5.4375 -0.359375 5.390625 -0.484375 Z M 4.15625 -3.046875 "/>
</g>
<g id="glyph-1-2">
<path d="M 1.484375 -0.125 C 1.484375 0.390625 1.375 0.859375 0.890625 1.34375 C 0.859375 1.375 0.84375 1.390625 0.84375 1.421875 C 0.84375 1.484375 0.90625 1.53125 0.953125 1.53125 C 1.046875 1.53125 1.71875 0.90625 1.71875 -0.03125 C 1.71875 -0.53125 1.515625 -0.890625 1.171875 -0.890625 C 0.890625 -0.890625 0.734375 -0.65625 0.734375 -0.453125 C 0.734375 -0.21875 0.890625 0 1.171875 0 C 1.375 0 1.484375 -0.109375 1.484375 -0.125 Z M 1.484375 -0.125 "/>
</g>
<g id="glyph-1-3">
<path d="M 5.0625 -4.484375 C 5.109375 -4.546875 5.1875 -4.609375 5.25 -4.671875 C 5.546875 -4.953125 5.8125 -5.140625 6.25 -5.171875 C 6.328125 -5.1875 6.421875 -5.203125 6.421875 -5.328125 C 6.421875 -5.390625 6.359375 -5.4375 6.3125 -5.4375 C 6.21875 -5.4375 6.234375 -5.421875 5.65625 -5.421875 C 5.125 -5.421875 4.9375 -5.4375 4.890625 -5.4375 C 4.859375 -5.4375 4.734375 -5.4375 4.734375 -5.296875 C 4.734375 -5.21875 4.796875 -5.1875 4.875 -5.171875 C 5.109375 -5.15625 5.109375 -5.078125 5.109375 -5.03125 C 5.109375 -4.875 4.875 -4.625 4.875 -4.609375 L 2.921875 -2.515625 L 1.921875 -4.875 C 1.90625 -4.90625 1.875 -4.984375 1.875 -5.015625 C 1.875 -5.171875 2.25 -5.171875 2.3125 -5.171875 C 2.40625 -5.171875 2.515625 -5.171875 2.515625 -5.328125 C 2.515625 -5.375 2.484375 -5.4375 2.375 -5.4375 C 2.265625 -5.4375 2.015625 -5.421875 1.890625 -5.421875 L 1.390625 -5.421875 C 0.65625 -5.421875 0.546875 -5.4375 0.484375 -5.4375 C 0.34375 -5.4375 0.328125 -5.359375 0.328125 -5.296875 C 0.328125 -5.171875 0.4375 -5.171875 0.546875 -5.171875 C 0.96875 -5.171875 1.015625 -5.09375 1.078125 -4.9375 L 2.25 -2.1875 L 1.890625 -0.71875 C 1.78125 -0.296875 1.765625 -0.265625 1.15625 -0.265625 C 1.03125 -0.265625 0.9375 -0.265625 0.9375 -0.109375 C 0.9375 -0.078125 0.953125 0 1.0625 0 C 1.21875 0 1.390625 -0.015625 1.546875 -0.03125 L 2.5625 -0.03125 C 2.6875 -0.015625 2.953125 0 3.0625 0 C 3.109375 0 3.234375 0 3.234375 -0.15625 C 3.234375 -0.265625 3.125 -0.265625 2.984375 -0.265625 C 2.984375 -0.265625 2.8125 -0.265625 2.6875 -0.28125 C 2.515625 -0.296875 2.5 -0.3125 2.5 -0.390625 C 2.5 -0.46875 2.59375 -0.859375 2.65625 -1.078125 C 2.75 -1.46875 2.828125 -1.734375 2.90625 -2.0625 C 2.921875 -2.171875 2.9375 -2.1875 3 -2.265625 Z M 5.0625 -4.484375 "/>
</g>
</g>
</defs>
<g fill="rgb(0%, 0%, 0%)" fill-opacity="1">
<use xlink:href="#glyph-0-1" x="0.5" y="8.669"/>
</g>
<g fill="rgb(0%, 0%, 0%)" fill-opacity="1">
<use xlink:href="#glyph-1-1" x="8.746" y="10.462"/>
</g>
<g fill="rgb(0%, 0%, 0%)" fill-opacity="1">
<use xlink:href="#glyph-1-2" x="15.862502" y="10.462"/>
<use xlink:href="#glyph-1-3" x="18.214479" y="10.462"/>
</g>
</svg>
