<?xml version="1.0" encoding="UTF-8"?>
<svg xmlns="http://www.w3.org/2000/svg" xmlns:xlink="http://www.w3.org/1999/xlink" viewBox="0 0 90.647 13.309">
<defs>
<g>
<g id="glyph-0-0">
</g>
<g id="glyph-0-1">
<path d="M 2.15625 -1.109375 C 2.796875 -2.109375 3 -2.875 3.15625 -3.515625 C 3.578125 -5.15625 4.03125 -6.59375 4.765625 -7.421875 C 4.90625 -7.578125 5.015625 -7.6875 5.390625 -7.6875 C 6.21875 -7.6875 6.234375 -6.859375 6.234375 -6.6875 C 6.234375 -6.484375 6.1875 -6.3125 6.1875 -6.25 C 6.1875 -6.171875 6.25 -6.171875 6.265625 -6.171875 C 6.453125 -6.171875 6.78125 -6.296875 7.078125 -6.515625 C 7.296875 -6.6875 7.40625 -6.796875 7.40625 -7.296875 C 7.40625 -7.9375 7.0625 -8.421875 6.390625 -8.421875 C 6.015625 -8.421875 4.953125 -8.328125 3.796875 -7.140625 C 2.828125 -6.171875 2.265625 -4.015625 2.046875 -3.125 C 1.828125 -2.296875 1.734375 -1.921875 1.375 -1.203125 C 1.296875 -1.0625 0.984375 -0.53125 0.8125 -0.375 C 0.484375 -0.078125 0.375 0.125 0.375 0.1875 C 0.375 0.21875 0.390625 0.265625 0.484375 0.265625 C 0.53125 0.265625 0.78125 0.21875 1.09375 0.015625 C 1.296875 -0.109375 1.3125 -0.125 1.59375 -0.421875 C 2.1875 -0.40625 2.609375 -0.296875 3.359375 -0.078125 C 3.96875 0.078125 4.578125 0.265625 5.1875 0.265625 C 6.15625 0.265625 7.140625 -0.46875 7.515625 -0.984375 C 7.75 -1.3125 7.828125 -1.609375 7.828125 -1.65625 C 7.828125 -1.734375 7.75 -1.734375 7.75 -1.734375 C 7.546875 -1.734375 7.265625 -1.609375 7.0625 -1.453125 C 6.734375 -1.25 6.71875 -1.1875 6.640625 -0.984375 C 6.59375 -0.78125 6.515625 -0.6875 6.46875 -0.625 C 6.375 -0.484375 6.359375 -0.484375 6.1875 -0.484375 C 5.609375 -0.484375 5.015625 -0.65625 4.21875 -0.875 C 3.890625 -0.96875 3.234375 -1.15625 2.625 -1.15625 C 2.46875 -1.15625 2.3125 -1.140625 2.15625 -1.109375 Z M 2.15625 -1.109375 "/>
</g>
<g id="glyph-1-0">
</g>
<g id="glyph-1-1">
<path d="M 4.15625 -3.046875 C 4.546875 -3.4375 5.671875 -4.59375 5.859375 -4.75 C 6.203125 -5 6.40625 -5.140625 6.96875 -5.171875 C 7.015625 -5.1875 7.078125 -5.234375 7.078125 -5.328125 C 7.078125 -5.40625 7.015625 -5.4375 6.96875 -5.4375 C 6.890625 -5.4375 6.84375 -5.421875 6.21875 -5.421875 C 5.625 -5.421875 5.40625 -5.4375 5.375 -5.4375 C 5.34375 -5.4375 5.21875 -5.4375 5.21875 -5.296875 C 5.21875 -5.28125 5.21875 -5.1875 5.328125 -5.171875 C 5.390625 -5.171875 5.609375 -5.15625 5.609375 -4.96875 C 5.609375 -4.921875 5.5625 -4.828125 5.5 -4.765625 L 5.484375 -4.71875 C 5.453125 -4.703125 5.453125 -4.6875 5.375 -4.609375 L 4.046875 -3.265625 L 3.234375 -4.953125 C 3.34375 -5.140625 3.578125 -5.171875 3.6875 -5.171875 C 3.71875 -5.171875 3.828125 -5.1875 3.828125 -5.328125 C 3.828125 -5.390625 3.78125 -5.4375 3.703125 -5.4375 C 3.625 -5.4375 3.328125 -5.421875 3.25 -5.421875 C 3.203125 -5.421875 2.90625 -5.421875 2.734375 -5.421875 C 1.984375 -5.421875 1.890625 -5.4375 1.828125 -5.4375 C 1.796875 -5.4375 1.671875 -5.4375 1.671875 -5.296875 C 1.671875 -5.171875 1.765625 -5.171875 1.890625 -5.171875 C 2.296875 -5.171875 2.359375 -5.09375 2.4375 -4.953125 L 3.5 -2.71875 L 1.859375 -1.046875 C 1.390625 -0.578125 1.015625 -0.296875 0.453125 -0.265625 C 0.34375 -0.25 0.25 -0.25 0.25 -0.109375 C 0.25 -0.0625 0.296875 0 0.375 0 C 0.4375 0 0.515625 -0.03125 1.125 -0.03125 C 1.703125 -0.03125 1.9375 0 1.96875 0 C 2.015625 0 2.140625 0 2.140625 -0.15625 C 2.140625 -0.171875 2.125 -0.25 2.015625 -0.265625 C 1.859375 -0.265625 1.75 -0.328125 1.75 -0.46875 C 1.75 -0.59375 1.84375 -0.703125 1.953125 -0.828125 C 2.09375 -0.96875 2.515625 -1.390625 2.796875 -1.671875 C 2.984375 -1.84375 3.421875 -2.3125 3.609375 -2.484375 L 4.53125 -0.578125 C 4.5625 -0.5 4.5625 -0.5 4.5625 -0.484375 C 4.5625 -0.421875 4.40625 -0.28125 4.140625 -0.265625 C 4.078125 -0.265625 3.96875 -0.25 3.96875 -0.109375 C 3.96875 -0.109375 3.984375 0 4.109375 0 C 4.1875 0 4.484375 -0.015625 4.5625 -0.03125 L 5.078125 -0.03125 C 5.8125 -0.03125 5.921875 0 6 0 C 6.03125 0 6.140625 0 6.140625 -0.15625 C 6.140625 -0.265625 6.046875 -0.265625 5.921875 -0.265625 C 5.484375 -0.265625 5.4375 -0.359375 5.390625 -0.484375 Z M 4.15625 -3.046875 "/>
</g>
<g id="glyph-1-2">
<path d="M 1.484375 -0.125 C 1.484375 0.390625 1.375 0.859375 0.890625 1.34375 C 0.859375 1.375 0.84375 1.390625 0.84375 1.421875 C 0.84375 1.484375 0.90625 1.53125 0.953125 1.53125 C 1.046875 1.53125 1.71875 0.90625 1.71875 -0.03125 C 1.71875 -0.53125 1.515625 -0.890625 1.171875 -0.890625 C 0.890625 -0.890625 0.734375 -0.65625 0.734375 -0.453125 C 0.734375 -0.21875 0.890625 0 1.171875 0 C 1.375 0 1.484375 -0.109375 1.484375 -0.125 Z M 1.484375 -0.125 "/>
</g>
<g id="glyph-1-3">
<path d="M 5.0625 -4.484375 C 5.109375 -4.546875 5.1875 -4.609375 5.25 -4.671875 C 5.546875 -4.953125 5.8125 -5.140625 6.25 -5.171875 C 6.328125 -5.1875 6.421875 -5.203125 6.421875 -5.328125 C 6.421875 -5.390625 6.359375 -5.4375 6.3125 -5.4375 C 6.21875 -5.4375 6.234375 -5.421875 5.65625 -5.421875 C 5.125 -5.421875 4.9375 -5.4375 4.890625 -5.4375 C 4.859375 -5.4375 4.734375 -5.4375 4.734375 -5.296875 C 4.734375 -5.21875 4.796875 -5.1875 4.875 -5.171875 C 5.109375 -5.15625 5.109375 -5.078125 5.109375 -5.03125 C 5.109375 -4.875 4.875 -4.625 4.875 -4.609375 L 2.921875 -2.515625 L 1.921875 -4.875 C 1.90625 -4.90625 1.875 -4.984375 1.875 -5.015625 C 1.875 -5.171875 2.25 -5.171875 2.3125 -5.171875 C 2.40625 -5.171875 2.515625 -5.171875 2.515625 -5.328125 C 2.515625 -5.375 2.484375 -5.4375 2.375 -5.4375 C 2.265625 -5.4375 2.015625 -5.421875 1.890625 -5.421875 L 1.390625 -5.421875 C 0.65625 -5.421875 0.546875 -5.4375 0.484375 -5.4375 C 0.34375 -5.4375 0.328125 -5.359375 0.328125 -5.296875 C 0.328125 -5.171875 0.4375 -5.171875 0.546875 -5.171875 C 0.96875 -5.171875 1.015625 -5.09375 1.078125 -4.9375 L 2.25 -2.1875 L 1.890625 -0.71875 C 1.78125 -0.296875 1.765625 -0.265625 1.15625 -0.265625 C 1.03125 -0.265625 0.9375 -0.265625 0.9375 -0.109375 C 0.9375 -0.078125 0.953125 0 1.0625 0 C 1.21875 0 1.390625 -0.015625 1.546875 -0.03125 L 2.5625 -0.03125 C 2.6875 -0.015625 2.953125 0 3.0625 0 C 3.109375 0 3.234375 0 3.234375 -0.15625 C 3.234375 -0.265625 3.125 -0.265625 2.984375 -0.265625 C 2.984375 -0.265625 2.8125 -0.265625 2.6875 -0.28125 C 2.515625 -0.296875 2.5 -0.3125 2.5 -0.390625 C 2.5 -0.46875 2.59375 -0.859375 2.65625 -1.078125 C 2.75 -1.46875 2.828125 -1.734375 2.90625 -2.0625 C 2.921875 -2.171875 2.9375 -2.1875 3 -2.265625 Z M 5.0625 -4.484375 "/>
</g>
<g id="glyph-1-4">
<path d="M 2.375 -4.96875 C 2.375 -5.140625 2.25 -5.28125 2.0625 -5.28125 C 1.859375 -5.28125 1.625 -5.078125 1.625 -4.84375 C 1.625 -4.671875 1.75 -4.546875 1.9375 -4.546875 C 2.140625 -4.546875 2.375 -4.734375 2.375 -4.96875 Z M 1.21875 -2.046875 L 0.78125 -0.953125 C 0.734375 -0.828125 0.703125 -0.734375 0.703125 -0.59375 C 0.703125 -0.203125 1 0.078125 1.421875 0.078125 C 2.203125 0.078125 2.53125 -1.03125 2.53125 -1.140625 C 2.53125 -1.21875 2.46875 -1.25 2.40625 -1.25 C 2.3125 -1.25 2.296875 -1.1875 2.265625 -1.109375 C 2.09375 -0.46875 1.765625 -0.140625 1.4375 -0.140625 C 1.34375 -0.140625 1.25 -0.1875 1.25 -0.390625 C 1.25 -0.59375 1.3125 -0.734375 1.40625 -0.984375 C 1.484375 -1.1875 1.5625 -1.40625 1.65625 -1.625 L 1.90625 -2.265625 C 1.96875 -2.453125 2.078125 -2.703125 2.078125 -2.84375 C 2.078125 -3.234375 1.75 -3.515625 1.34375 -3.515625 C 0.578125 -3.515625 0.234375 -2.40625 0.234375 -2.296875 C 0.234375 -2.21875 0.296875 -2.1875 0.359375 -2.1875 C 0.46875 -2.1875 0.46875 -2.234375 0.5 -2.3125 C 0.71875 -3.078125 1.078125 -3.296875 1.328125 -3.296875 C 1.4375 -3.296875 1.515625 -3.25 1.515625 -3.03125 C 1.515625 -2.953125 1.5 -2.84375 1.421875 -2.59375 Z M 1.21875 -2.046875 "/>
</g>
<g id="glyph-2-0">
</g>
<g id="glyph-2-1">
<path d="M 3.890625 2.90625 C 3.890625 2.875 3.890625 2.84375 3.6875 2.640625 C 2.484375 1.4375 1.8125 -0.53125 1.8125 -2.96875 C 1.8125 -5.296875 2.375 -7.296875 3.765625 -8.703125 C 3.890625 -8.8125 3.890625 -8.828125 3.890625 -8.875 C 3.890625 -8.9375 3.828125 -8.96875 3.78125 -8.96875 C 3.625 -8.96875 2.640625 -8.109375 2.0625 -6.9375 C 1.453125 -5.71875 1.171875 -4.453125 1.171875 -2.96875 C 1.171875 -1.90625 1.34375 -0.484375 1.953125 0.78125 C 2.671875 2.21875 3.640625 3 3.78125 3 C 3.828125 3 3.890625 2.96875 3.890625 2.90625 Z M 3.890625 2.90625 "/>
</g>
<g id="glyph-2-2">
<path d="M 3.375 -2.96875 C 3.375 -3.890625 3.25 -5.359375 2.578125 -6.75 C 1.875 -8.1875 0.890625 -8.96875 0.765625 -8.96875 C 0.71875 -8.96875 0.65625 -8.9375 0.65625 -8.875 C 0.65625 -8.828125 0.65625 -8.8125 0.859375 -8.609375 C 2.0625 -7.40625 2.71875 -5.421875 2.71875 -2.984375 C 2.71875 -0.671875 2.15625 1.328125 0.78125 2.734375 C 0.65625 2.84375 0.65625 2.875 0.65625 2.90625 C 0.65625 2.96875 0.71875 3 0.765625 3 C 0.921875 3 1.90625 2.140625 2.484375 0.96875 C 3.09375 -0.25 3.375 -1.546875 3.375 -2.96875 Z M 3.375 -2.96875 "/>
</g>
<g id="glyph-2-3">
<path d="M 8.0625 -3.875 C 8.234375 -3.875 8.453125 -3.875 8.453125 -4.09375 C 8.453125 -4.3125 8.25 -4.3125 8.0625 -4.3125 L 1.03125 -4.3125 C 0.859375 -4.3125 0.640625 -4.3125 0.640625 -4.09375 C 0.640625 -3.875 0.84375 -3.875 1.03125 -3.875 Z M 8.0625 -1.65625 C 8.234375 -1.65625 8.453125 -1.65625 8.453125 -1.859375 C 8.453125 -2.09375 8.25 -2.09375 8.0625 -2.09375 L 1.03125 -2.09375 C 0.859375 -2.09375 0.640625 -2.09375 0.640625 -1.875 C 0.640625 -1.65625 0.84375 -1.65625 1.03125 -1.65625 Z M 8.0625 -1.65625 "/>
</g>
<g id="glyph-2-4">
<path d="M 2.984375 2.984375 L 2.984375 2.546875 L 1.828125 2.546875 L 1.828125 -8.515625 L 2.984375 -8.515625 L 2.984375 -8.96875 L 1.390625 -8.96875 L 1.390625 2.984375 Z M 2.984375 2.984375 "/>
</g>
<g id="glyph-2-5">
<path d="M 7.90625 -1.859375 L 7.65625 -1.859375 C 7.59375 -1.546875 7.53125 -1.25 7.4375 -0.984375 C 7.375 -0.796875 7.34375 -0.703125 6.640625 -0.703125 L 5.703125 -0.703125 C 5.84375 -1.375 6.1875 -1.953125 6.6875 -2.6875 C 7.25 -3.5625 7.796875 -4.4375 7.796875 -5.421875 C 7.796875 -7.078125 6.21875 -8.421875 4.21875 -8.421875 C 2.21875 -8.421875 0.640625 -7.0625 0.640625 -5.421875 C 0.640625 -4.453125 1.1875 -3.578125 1.75 -2.71875 C 2.25 -1.9375 2.609375 -1.375 2.734375 -0.703125 L 1.796875 -0.703125 C 1.09375 -0.703125 1.0625 -0.796875 1 -0.984375 C 0.90625 -1.234375 0.84375 -1.578125 0.78125 -1.859375 L 0.53125 -1.859375 L 0.90625 0 L 2.765625 0 C 3.03125 0 3.046875 0 3.046875 -0.21875 C 3.046875 -1.0625 2.671875 -2.109375 2.421875 -2.71875 C 2.078125 -3.65625 1.75 -4.53125 1.75 -5.4375 C 1.75 -7.28125 3.03125 -8.171875 4.21875 -8.171875 C 5.40625 -8.171875 6.6875 -7.28125 6.6875 -5.4375 C 6.6875 -4.53125 6.34375 -3.640625 6.015625 -2.75 C 5.8125 -2.171875 5.390625 -1.078125 5.390625 -0.234375 C 5.390625 0 5.421875 0 5.6875 0 L 7.53125 0 Z M 7.90625 -1.859375 "/>
</g>
<g id="glyph-2-6">
<path d="M 1.859375 -8.96875 L 0.25 -8.96875 L 0.25 -8.515625 L 1.40625 -8.515625 L 1.40625 2.546875 L 0.25 2.546875 L 0.25 2.984375 L 1.859375 2.984375 Z M 1.859375 -8.96875 "/>
</g>
<g id="glyph-3-0">
</g>
<g id="glyph-3-1">
<path d="M 2.03125 -1.328125 C 1.609375 -0.625 1.203125 -0.375 0.640625 -0.34375 C 0.5 -0.328125 0.40625 -0.328125 0.40625 -0.125 C 0.40625 -0.046875 0.46875 0 0.546875 0 C 0.765625 0 1.296875 -0.03125 1.515625 -0.03125 C 1.859375 -0.03125 2.25 0 2.578125 0 C 2.65625 0 2.796875 0 2.796875 -0.234375 C 2.796875 -0.328125 2.703125 -0.34375 2.625 -0.34375 C 2.359375 -0.375 2.125 -0.46875 2.125 -0.75 C 2.125 -0.921875 2.203125 -1.046875 2.359375 -1.3125 L 3.265625 -2.828125 L 6.3125 -2.828125 C 6.328125 -2.71875 6.328125 -2.625 6.328125 -2.515625 C 6.375 -2.203125 6.515625 -0.953125 6.515625 -0.734375 C 6.515625 -0.375 5.90625 -0.34375 5.71875 -0.34375 C 5.578125 -0.34375 5.453125 -0.34375 5.453125 -0.125 C 5.453125 0 5.5625 0 5.625 0 C 5.828125 0 6.078125 -0.03125 6.28125 -0.03125 L 6.953125 -0.03125 C 7.6875 -0.03125 8.21875 0 8.21875 0 C 8.3125 0 8.4375 0 8.4375 -0.234375 C 8.4375 -0.34375 8.328125 -0.34375 8.15625 -0.34375 C 7.5 -0.34375 7.484375 -0.453125 7.453125 -0.8125 L 6.71875 -8.265625 C 6.6875 -8.515625 6.640625 -8.53125 6.515625 -8.53125 C 6.390625 -8.53125 6.328125 -8.515625 6.21875 -8.328125 Z M 3.46875 -3.171875 L 5.875 -7.1875 L 6.28125 -3.171875 Z M 3.46875 -3.171875 "/>
</g>
<g id="glyph-4-0">
</g>
<g id="glyph-4-1">
<path d="M 3.125 -3.6875 C 3.171875 -3.6875 3.4375 -3.6875 3.453125 -3.671875 L 3.859375 -3.671875 C 6.28125 -3.671875 7.15625 -4.8125 7.15625 -5.9375 C 7.15625 -7.640625 5.625 -8.1875 4.09375 -8.1875 L 0.59375 -8.1875 C 0.375 -8.1875 0.1875 -8.1875 0.1875 -7.96875 C 0.1875 -7.765625 0.421875 -7.765625 0.515625 -7.765625 C 1.140625 -7.765625 1.1875 -7.671875 1.1875 -7.09375 L 1.1875 -1.09375 C 1.1875 -0.515625 1.140625 -0.421875 0.53125 -0.421875 C 0.40625 -0.421875 0.1875 -0.421875 0.1875 -0.21875 C 0.1875 0 0.375 0 0.59375 0 L 3.796875 0 C 4.015625 0 4.203125 0 4.203125 -0.21875 C 4.203125 -0.421875 4 -0.421875 3.859375 -0.421875 C 3.171875 -0.421875 3.125 -0.515625 3.125 -1.09375 Z M 5.109375 -4.21875 C 5.484375 -4.71875 5.515625 -5.46875 5.515625 -5.953125 C 5.515625 -6.59375 5.46875 -7.21875 5.15625 -7.65625 C 5.8125 -7.5 6.734375 -7.140625 6.734375 -5.9375 C 6.734375 -5.109375 6.203125 -4.5 5.109375 -4.21875 Z M 3.125 -7.125 C 3.125 -7.359375 3.125 -7.765625 3.84375 -7.765625 C 4.703125 -7.765625 5.109375 -7.453125 5.109375 -5.953125 C 5.109375 -4.25 4.46875 -4.09375 3.734375 -4.09375 L 3.125 -4.09375 Z M 1.5 -0.421875 C 1.609375 -0.640625 1.609375 -0.921875 1.609375 -1.078125 L 1.609375 -7.109375 C 1.609375 -7.265625 1.609375 -7.546875 1.5 -7.765625 L 2.875 -7.765625 C 2.71875 -7.578125 2.71875 -7.34375 2.71875 -7.15625 L 2.71875 -1.078125 C 2.71875 -0.953125 2.71875 -0.640625 2.8125 -0.421875 Z M 1.5 -0.421875 "/>
</g>
</g>
</defs>
<g fill="rgb(0%, 0%, 0%)" fill-opacity="1">
<use xlink:href="#glyph-0-1" x="0.5" y="9.466"/>
</g>
<g fill="rgb(0%, 0%, 0%)" fill-opacity="1">
<use xlink:href="#glyph-1-1" x="8.746" y="11.259"/>
</g>
<g fill="rgb(0%, 0%, 0%)" fill-opacity="1">
<use xlink:href="#glyph-1-2" x="15.862502" y="11.259"/>
<use xlink:href="#glyph-1-3" x="18.214479" y="11.259"/>
</g>
<g fill="rgb(0%, 0%, 0%)" fill-opacity="1">
<use xlink:href="#glyph-2-1" x="25.503" y="9.466"/>
</g>
<g fill="rgb(0%, 0%, 0%)" fill-opacity="1">
<use xlink:href="#glyph-3-1" x="30.055" y="9.466"/>
</g>
<g fill="rgb(0%, 0%, 0%)" fill-opacity="1">
<use xlink:href="#glyph-1-4" x="38.83" y="11.259"/>
</g>
<g fill="rgb(0%, 0%, 0%)" fill-opacity="1">
<use xlink:href="#glyph-2-2" x="42.212" y="9.466"/>
</g>
<g fill="rgb(0%, 0%, 0%)" fill-opacity="1">
<use xlink:href="#glyph-2-3" x="50.088086" y="9.466"/>
</g>
<g fill="rgb(0%, 0%, 0%)" fill-opacity="1">
<use xlink:href="#glyph-4-1" x="62.51" y="9.466"/>
</g>
<g fill="rgb(0%, 0%, 0%)" fill-opacity="1">
<use xlink:href="#glyph-2-4" x="71.809" y="9.466"/>
<use xlink:href="#glyph-2-5" x="75.060814" y="9.466"/>
</g>
<g fill="rgb(0%, 0%, 0%)" fill-opacity="1">
<use xlink:href="#glyph-1-4" x="83.515" y="11.259"/>
</g>
<g fill="rgb(0%, 0%, 0%)" fill-opacity="1">
<use xlink:href="#glyph-2-6" x="86.896" y="9.466"/>
</g>
</svg>
