<?xml version="1.0" encoding="UTF-8"?>
<svg xmlns="http://www.w3.org/2000/svg" xmlns:xlink="http://www.w3.org/1999/xlink" viewBox="0 0 86.086 12.955">
<defs>
<g>
<g id="glyph-0-0">
</g>
<g id="glyph-0-1">
<path d="M 4.984375 -7.296875 C 5.0625 -7.578125 5.078125 -7.6875 5.265625 -7.734375 C 5.359375 -7.75 5.75 -7.75 6 -7.75 C 7.203125 -7.75 7.75 -7.703125 7.75 -6.78125 C 7.75 -6.59375 7.703125 -6.140625 7.640625 -5.703125 L 7.625 -5.5625 C 7.625 -5.515625 7.671875 -5.4375 7.75 -5.4375 C 7.859375 -5.4375 7.859375 -5.5 7.90625 -5.6875 L 8.25 -7.8125 C 8.265625 -7.90625 8.265625 -7.9375 8.265625 -7.96875 C 8.265625 -8.109375 8.203125 -8.109375 7.953125 -8.109375 L 1.421875 -8.109375 C 1.140625 -8.109375 1.140625 -8.09375 1.0625 -7.875 L 0.328125 -5.71875 C 0.328125 -5.703125 0.28125 -5.5625 0.28125 -5.5625 C 0.28125 -5.5 0.328125 -5.4375 0.40625 -5.4375 C 0.5 -5.4375 0.53125 -5.484375 0.578125 -5.640625 C 1.078125 -7.09375 1.328125 -7.75 2.921875 -7.75 L 3.71875 -7.75 C 4 -7.75 4.125 -7.75 4.125 -7.625 C 4.125 -7.59375 4.125 -7.5625 4.0625 -7.34375 L 2.46875 -0.9375 C 2.34375 -0.46875 2.3125 -0.34375 1.046875 -0.34375 C 0.75 -0.34375 0.671875 -0.34375 0.671875 -0.125 C 0.671875 0 0.796875 0 0.859375 0 C 1.15625 0 1.46875 -0.03125 1.765625 -0.03125 L 3.640625 -0.03125 C 3.9375 -0.03125 4.25 0 4.546875 0 C 4.6875 0 4.8125 0 4.8125 -0.234375 C 4.8125 -0.34375 4.71875 -0.34375 4.40625 -0.34375 C 3.328125 -0.34375 3.328125 -0.453125 3.328125 -0.640625 C 3.328125 -0.640625 3.328125 -0.734375 3.375 -0.921875 Z M 4.984375 -7.296875 "/>
</g>
<g id="glyph-0-2">
<path d="M 2.03125 -1.328125 C 1.609375 -0.625 1.203125 -0.375 0.640625 -0.34375 C 0.5 -0.328125 0.40625 -0.328125 0.40625 -0.125 C 0.40625 -0.046875 0.46875 0 0.546875 0 C 0.765625 0 1.296875 -0.03125 1.515625 -0.03125 C 1.859375 -0.03125 2.25 0 2.578125 0 C 2.65625 0 2.796875 0 2.796875 -0.234375 C 2.796875 -0.328125 2.703125 -0.34375 2.625 -0.34375 C 2.359375 -0.375 2.125 -0.46875 2.125 -0.75 C 2.125 -0.921875 2.203125 -1.046875 2.359375 -1.3125 L 3.265625 -2.828125 L 6.3125 -2.828125 C 6.328125 -2.71875 6.328125 -2.625 6.328125 -2.515625 C 6.375 -2.203125 6.515625 -0.953125 6.515625 -0.734375 C 6.515625 -0.375 5.90625 -0.34375 5.71875 -0.34375 C 5.578125 -0.34375 5.453125 -0.34375 5.453125 -0.125 C 5.453125 0 5.5625 0 5.625 0 C 5.828125 0 6.078125 -0.03125 6.28125 -0.03125 L 6.953125 -0.03125 C 7.6875 -0.03125 8.21875 0 8.21875 0 C 8.3125 0 8.4375 0 8.4375 -0.234375 C 8.4375 -0.34375 8.328125 -0.34375 8.15625 -0.34375 C 7.5 -0.34375 7.484375 -0.453125 7.453125 -0.8125 L 6.71875 -8.265625 C 6.6875 -8.515625 6.640625 -8.53125 6.515625 -8.53125 C 6.390625 -8.53125 6.328125 -8.515625 6.21875 -8.328125 Z M 3.46875 -3.171875 L 5.875 -7.1875 L 6.28125 -3.171875 Z M 3.46875 -3.171875 "/>
</g>
<g id="glyph-1-0">
</g>
<g id="glyph-1-1">
<path d="M 2.203125 -4.578125 C 2.203125 -4.90625 1.921875 -5.15625 1.625 -5.15625 C 1.28125 -5.15625 1.046875 -4.875 1.046875 -4.578125 C 1.046875 -4.21875 1.34375 -4 1.609375 -4 C 1.9375 -4 2.203125 -4.25 2.203125 -4.578125 Z M 2.203125 -0.578125 C 2.203125 -0.90625 1.921875 -1.15625 1.625 -1.15625 C 1.28125 -1.15625 1.046875 -0.890625 1.046875 -0.578125 C 1.046875 -0.234375 1.34375 0 1.609375 0 C 1.9375 0 2.203125 -0.25 2.203125 -0.578125 Z M 2.203125 -0.578125 "/>
</g>
<g id="glyph-1-2">
<path d="M 3.890625 2.90625 C 3.890625 2.875 3.890625 2.84375 3.6875 2.640625 C 2.484375 1.4375 1.8125 -0.53125 1.8125 -2.96875 C 1.8125 -5.296875 2.375 -7.296875 3.765625 -8.703125 C 3.890625 -8.8125 3.890625 -8.828125 3.890625 -8.875 C 3.890625 -8.9375 3.828125 -8.96875 3.78125 -8.96875 C 3.625 -8.96875 2.640625 -8.109375 2.0625 -6.9375 C 1.453125 -5.71875 1.171875 -4.453125 1.171875 -2.96875 C 1.171875 -1.90625 1.34375 -0.484375 1.953125 0.78125 C 2.671875 2.21875 3.640625 3 3.78125 3 C 3.828125 3 3.890625 2.96875 3.890625 2.90625 Z M 3.890625 2.90625 "/>
</g>
<g id="glyph-1-3">
<path d="M 3.375 -2.96875 C 3.375 -3.890625 3.25 -5.359375 2.578125 -6.75 C 1.875 -8.1875 0.890625 -8.96875 0.765625 -8.96875 C 0.71875 -8.96875 0.65625 -8.9375 0.65625 -8.875 C 0.65625 -8.828125 0.65625 -8.8125 0.859375 -8.609375 C 2.0625 -7.40625 2.71875 -5.421875 2.71875 -2.984375 C 2.71875 -0.671875 2.15625 1.328125 0.78125 2.734375 C 0.65625 2.84375 0.65625 2.875 0.65625 2.90625 C 0.65625 2.96875 0.71875 3 0.765625 3 C 0.921875 3 1.90625 2.140625 2.484375 0.96875 C 3.09375 -0.25 3.375 -1.546875 3.375 -2.96875 Z M 3.375 -2.96875 "/>
</g>
<g id="glyph-2-0">
</g>
<g id="glyph-2-1">
<path d="M 1.140625 -2.75 C 1.203125 -2.75 1.46875 -2.75 1.46875 -2.984375 C 1.46875 -3.234375 1.203125 -3.234375 1.140625 -3.234375 L 1.140625 -4.796875 C 1.140625 -4.984375 1.140625 -5.21875 0.890625 -5.21875 C 0.65625 -5.21875 0.65625 -4.984375 0.65625 -4.796875 L 0.65625 -1.1875 C 0.65625 -0.984375 0.65625 -0.765625 0.890625 -0.765625 C 1.140625 -0.765625 1.140625 -0.984375 1.140625 -1.1875 Z M 1.140625 -2.75 "/>
</g>
<g id="glyph-2-2">
<path d="M 9.96875 -2.75 C 9.3125 -2.25 8.984375 -1.75 8.890625 -1.609375 C 8.359375 -0.78125 8.265625 -0.03125 8.265625 -0.015625 C 8.265625 0.125 8.40625 0.125 8.5 0.125 C 8.703125 0.125 8.71875 0.109375 8.765625 -0.109375 C 9.03125 -1.28125 9.734375 -2.28125 11.09375 -2.828125 C 11.234375 -2.875 11.265625 -2.90625 11.265625 -2.984375 C 11.265625 -3.078125 11.203125 -3.109375 11.171875 -3.125 C 10.65625 -3.328125 9.203125 -3.921875 8.75 -5.921875 C 8.71875 -6.078125 8.703125 -6.109375 8.5 -6.109375 C 8.40625 -6.109375 8.265625 -6.109375 8.265625 -5.96875 C 8.265625 -5.9375 8.359375 -5.1875 8.875 -4.390625 C 9.109375 -4.03125 9.453125 -3.609375 9.96875 -3.234375 L 1.09375 -3.234375 C 0.875 -3.234375 0.65625 -3.234375 0.65625 -2.984375 C 0.65625 -2.75 0.875 -2.75 1.09375 -2.75 Z M 9.96875 -2.75 "/>
</g>
<g id="glyph-3-0">
</g>
<g id="glyph-3-1">
<path d="M 4.953125 -7.75 C 6.53125 -7.671875 7.109375 -6.65625 7.15625 -6.09375 C 7.171875 -5.921875 7.1875 -5.734375 7.375 -5.734375 C 7.59375 -5.734375 7.59375 -5.9375 7.59375 -6.171875 L 7.59375 -7.75 C 7.59375 -8.171875 7.546875 -8.1875 7.1875 -8.1875 L 0.78125 -8.1875 C 0.421875 -8.1875 0.390625 -8.15625 0.390625 -7.8125 L 0.390625 -6.125 C 0.390625 -5.921875 0.390625 -5.734375 0.59375 -5.734375 C 0.796875 -5.734375 0.8125 -5.953125 0.8125 -5.96875 C 0.859375 -6.96875 1.75 -7.6875 3.015625 -7.75 L 3.015625 -1.109375 C 3.015625 -0.515625 2.96875 -0.421875 2.21875 -0.421875 C 2.0625 -0.421875 1.859375 -0.421875 1.859375 -0.21875 C 1.859375 0 2.046875 0 2.265625 0 L 5.71875 0 C 5.9375 0 6.125 0 6.125 -0.21875 C 6.125 -0.421875 5.921875 -0.421875 5.78125 -0.421875 C 5.015625 -0.421875 4.953125 -0.5 4.953125 -1.109375 Z M 0.8125 -7.765625 L 1.53125 -7.765625 C 1.234375 -7.59375 0.984375 -7.34375 0.8125 -7.140625 Z M 7.171875 -7.765625 L 7.171875 -7.140625 C 7.046875 -7.296875 6.765625 -7.5625 6.4375 -7.765625 Z M 3.328125 -0.421875 C 3.4375 -0.640625 3.4375 -0.9375 3.4375 -1.09375 L 3.4375 -7.765625 L 4.546875 -7.765625 L 4.546875 -1.09375 C 4.546875 -0.9375 4.546875 -0.640625 4.65625 -0.421875 Z M 3.328125 -0.421875 "/>
</g>
<g id="glyph-3-2">
<path d="M 3.203125 -3.75 L 3.640625 -3.75 L 5.421875 -0.984375 C 5.546875 -0.78125 5.828125 -0.328125 5.96875 -0.140625 C 6.046875 0 6.078125 0 6.359375 0 L 8.015625 0 C 8.21875 0 8.40625 0 8.40625 -0.21875 C 8.40625 -0.3125 8.328125 -0.390625 8.21875 -0.421875 C 7.78125 -0.515625 7.203125 -1.296875 6.90625 -1.6875 C 6.828125 -1.8125 6.234375 -2.59375 5.421875 -3.890625 C 6.484375 -4.078125 7.515625 -4.53125 7.515625 -5.953125 C 7.515625 -7.609375 5.765625 -8.1875 4.34375 -8.1875 L 0.59375 -8.1875 C 0.375 -8.1875 0.1875 -8.1875 0.1875 -7.96875 C 0.1875 -7.765625 0.421875 -7.765625 0.515625 -7.765625 C 1.1875 -7.765625 1.25 -7.6875 1.25 -7.09375 L 1.25 -1.09375 C 1.25 -0.5 1.1875 -0.421875 0.515625 -0.421875 C 0.421875 -0.421875 0.1875 -0.421875 0.1875 -0.21875 C 0.1875 0 0.375 0 0.59375 0 L 3.875 0 C 4.09375 0 4.265625 0 4.265625 -0.21875 C 4.265625 -0.421875 4.0625 -0.421875 3.9375 -0.421875 C 3.25 -0.421875 3.203125 -0.515625 3.203125 -1.09375 Z M 5.515625 -4.34375 C 5.84375 -4.78125 5.875 -5.421875 5.875 -5.9375 C 5.875 -6.515625 5.8125 -7.140625 5.421875 -7.640625 C 5.921875 -7.53125 7.09375 -7.15625 7.09375 -5.953125 C 7.09375 -5.171875 6.734375 -4.5625 5.515625 -4.34375 Z M 3.203125 -7.125 C 3.203125 -7.375 3.203125 -7.765625 3.9375 -7.765625 C 4.953125 -7.765625 5.46875 -7.34375 5.46875 -5.9375 C 5.46875 -4.40625 5.09375 -4.171875 3.203125 -4.171875 Z M 1.578125 -0.421875 C 1.671875 -0.640625 1.671875 -0.96875 1.671875 -1.078125 L 1.671875 -7.109375 C 1.671875 -7.234375 1.671875 -7.546875 1.578125 -7.765625 L 2.9375 -7.765625 C 2.78125 -7.578125 2.78125 -7.34375 2.78125 -7.15625 L 2.78125 -1.078125 C 2.78125 -0.953125 2.78125 -0.640625 2.875 -0.421875 Z M 4.125 -3.75 C 4.203125 -3.765625 4.25 -3.78125 4.34375 -3.78125 C 4.53125 -3.78125 4.796875 -3.796875 4.96875 -3.828125 C 5.15625 -3.53125 6.4375 -1.40625 7.4375 -0.421875 L 6.28125 -0.421875 Z M 4.125 -3.75 "/>
</g>
<g id="glyph-4-0">
</g>
<g id="glyph-4-1">
<path d="M 1.59375 -1.3125 C 1.625 -1.421875 1.703125 -1.734375 1.71875 -1.84375 C 1.75 -1.921875 1.796875 -2.125 1.8125 -2.203125 C 1.828125 -2.234375 2.09375 -2.75 2.4375 -3.015625 C 2.703125 -3.234375 2.96875 -3.296875 3.203125 -3.296875 C 3.484375 -3.296875 3.65625 -3.109375 3.65625 -2.75 C 3.65625 -2.5625 3.609375 -2.375 3.515625 -2.015625 C 3.453125 -1.8125 3.328125 -1.28125 3.28125 -1.0625 L 3.15625 -0.578125 C 3.109375 -0.453125 3.0625 -0.203125 3.0625 -0.171875 C 3.0625 0.015625 3.21875 0.078125 3.3125 0.078125 C 3.453125 0.078125 3.578125 -0.015625 3.640625 -0.109375 C 3.65625 -0.15625 3.71875 -0.4375 3.765625 -0.59375 L 3.9375 -1.3125 C 3.96875 -1.421875 4.046875 -1.734375 4.078125 -1.84375 C 4.1875 -2.28125 4.1875 -2.28125 4.359375 -2.546875 C 4.625 -2.9375 5 -3.296875 5.53125 -3.296875 C 5.828125 -3.296875 6 -3.125 6 -2.75 C 6 -2.3125 5.65625 -1.390625 5.5 -1.015625 C 5.421875 -0.8125 5.40625 -0.75 5.40625 -0.59375 C 5.40625 -0.140625 5.78125 0.078125 6.125 0.078125 C 6.90625 0.078125 7.234375 -1.03125 7.234375 -1.140625 C 7.234375 -1.21875 7.15625 -1.25 7.109375 -1.25 C 7.015625 -1.25 7 -1.1875 6.96875 -1.109375 C 6.78125 -0.453125 6.453125 -0.140625 6.140625 -0.140625 C 6.015625 -0.140625 5.953125 -0.21875 5.953125 -0.40625 C 5.953125 -0.59375 6.015625 -0.765625 6.09375 -0.96875 C 6.21875 -1.265625 6.5625 -2.1875 6.5625 -2.625 C 6.5625 -3.234375 6.15625 -3.515625 5.578125 -3.515625 C 5.03125 -3.515625 4.578125 -3.234375 4.21875 -2.734375 C 4.15625 -3.375 3.640625 -3.515625 3.234375 -3.515625 C 2.859375 -3.515625 2.375 -3.390625 1.9375 -2.8125 C 1.875 -3.296875 1.5 -3.515625 1.125 -3.515625 C 0.84375 -3.515625 0.640625 -3.34375 0.515625 -3.078125 C 0.3125 -2.703125 0.234375 -2.3125 0.234375 -2.296875 C 0.234375 -2.21875 0.296875 -2.1875 0.359375 -2.1875 C 0.46875 -2.1875 0.46875 -2.21875 0.53125 -2.4375 C 0.625 -2.828125 0.765625 -3.296875 1.09375 -3.296875 C 1.3125 -3.296875 1.359375 -3.09375 1.359375 -2.921875 C 1.359375 -2.765625 1.3125 -2.625 1.25 -2.359375 C 1.234375 -2.296875 1.109375 -1.828125 1.078125 -1.71875 L 0.78125 -0.515625 C 0.75 -0.390625 0.703125 -0.203125 0.703125 -0.171875 C 0.703125 0.015625 0.859375 0.078125 0.96875 0.078125 C 1.109375 0.078125 1.234375 -0.015625 1.28125 -0.109375 C 1.3125 -0.15625 1.375 -0.4375 1.40625 -0.59375 Z M 1.59375 -1.3125 "/>
</g>
<g id="glyph-4-2">
<path d="M 1.59375 -1.3125 C 1.625 -1.421875 1.703125 -1.734375 1.71875 -1.84375 C 1.828125 -2.28125 1.828125 -2.28125 2.015625 -2.546875 C 2.28125 -2.9375 2.65625 -3.296875 3.1875 -3.296875 C 3.46875 -3.296875 3.640625 -3.125 3.640625 -2.75 C 3.640625 -2.3125 3.3125 -1.40625 3.15625 -1.015625 C 3.046875 -0.75 3.046875 -0.703125 3.046875 -0.59375 C 3.046875 -0.140625 3.421875 0.078125 3.765625 0.078125 C 4.546875 0.078125 4.875 -1.03125 4.875 -1.140625 C 4.875 -1.21875 4.8125 -1.25 4.75 -1.25 C 4.65625 -1.25 4.640625 -1.1875 4.625 -1.109375 C 4.4375 -0.453125 4.09375 -0.140625 3.796875 -0.140625 C 3.671875 -0.140625 3.609375 -0.21875 3.609375 -0.40625 C 3.609375 -0.59375 3.671875 -0.765625 3.75 -0.96875 C 3.859375 -1.265625 4.21875 -2.1875 4.21875 -2.625 C 4.21875 -3.234375 3.796875 -3.515625 3.234375 -3.515625 C 2.578125 -3.515625 2.171875 -3.125 1.9375 -2.828125 C 1.875 -3.265625 1.53125 -3.515625 1.125 -3.515625 C 0.84375 -3.515625 0.640625 -3.328125 0.515625 -3.078125 C 0.3125 -2.703125 0.234375 -2.3125 0.234375 -2.296875 C 0.234375 -2.21875 0.296875 -2.1875 0.359375 -2.1875 C 0.46875 -2.1875 0.46875 -2.21875 0.53125 -2.4375 C 0.625 -2.828125 0.765625 -3.296875 1.09375 -3.296875 C 1.3125 -3.296875 1.359375 -3.09375 1.359375 -2.921875 C 1.359375 -2.765625 1.3125 -2.625 1.25 -2.359375 C 1.234375 -2.296875 1.109375 -1.828125 1.078125 -1.71875 L 0.78125 -0.515625 C 0.75 -0.390625 0.703125 -0.203125 0.703125 -0.171875 C 0.703125 0.015625 0.859375 0.078125 0.96875 0.078125 C 1.109375 0.078125 1.234375 -0.015625 1.28125 -0.109375 C 1.3125 -0.15625 1.375 -0.4375 1.40625 -0.59375 Z M 1.59375 -1.3125 "/>
</g>
</g>
<clipPath id="clip-0">
<path clip-rule="nonzero" d="M 63 0 L 67 0 L 67 12.953125 L 63 12.953125 Z M 63 0 "/>
</clipPath>
<clipPath id="clip-1">
<path clip-rule="nonzero" d="M 81 0 L 85 0 L 85 12.953125 L 81 12.953125 Z M 81 0 "/>
</clipPath>
</defs>
<g fill="rgb(0%, 0%, 0%)" fill-opacity="1">
<use xlink:href="#glyph-0-1" x="0.5" y="9.466"/>
</g>
<g fill="rgb(0%, 0%, 0%)" fill-opacity="1">
<use xlink:href="#glyph-1-1" x="12.308" y="9.466"/>
</g>
<g fill="rgb(0%, 0%, 0%)" fill-opacity="1">
<use xlink:href="#glyph-0-2" x="18.88" y="9.466"/>
</g>
<g fill="rgb(0%, 0%, 0%)" fill-opacity="1">
<use xlink:href="#glyph-2-1" x="30.976" y="9.466"/>
<use xlink:href="#glyph-2-2" x="30.976" y="9.466"/>
</g>
<g fill="rgb(0%, 0%, 0%)" fill-opacity="1">
<use xlink:href="#glyph-3-1" x="46.252" y="9.466"/>
</g>
<g fill="rgb(0%, 0%, 0%)" fill-opacity="1">
<use xlink:href="#glyph-4-1" x="54.222" y="11.259"/>
</g>
<g clip-path="url(#clip-0)">
<g fill="rgb(0%, 0%, 0%)" fill-opacity="1">
<use xlink:href="#glyph-1-2" x="62.211" y="9.466"/>
</g>
</g>
<g fill="rgb(0%, 0%, 0%)" fill-opacity="1">
<use xlink:href="#glyph-3-2" x="66.763" y="9.466"/>
</g>
<g fill="rgb(0%, 0%, 0%)" fill-opacity="1">
<use xlink:href="#glyph-4-2" x="75.398" y="5.128"/>
</g>
<g clip-path="url(#clip-1)">
<g fill="rgb(0%, 0%, 0%)" fill-opacity="1">
<use xlink:href="#glyph-1-3" x="81.034" y="9.466"/>
</g>
</g>
</svg>
