<?xml version="1.0" encoding="UTF-8"?>
<svg xmlns="http://www.w3.org/2000/svg" xmlns:xlink="http://www.w3.org/1999/xlink" viewBox="0 0 27.884 12.955">
<defs>
<g>
<g id="glyph-0-0">
</g>
<g id="glyph-0-1">
<path d="M 5.421875 -4 C 5.359375 -4.65625 4.9375 -5.46875 3.859375 -5.46875 C 2.171875 -5.46875 0.453125 -3.75 0.453125 -1.859375 C 0.453125 -1.125 0.953125 0.25 2.578125 0.25 C 5.40625 0.25 6.609375 -3.859375 6.609375 -5.5 C 6.609375 -7.21875 5.640625 -8.546875 4.109375 -8.546875 C 2.375 -8.546875 1.859375 -7.03125 1.859375 -6.703125 C 1.859375 -6.59375 1.9375 -6.328125 2.265625 -6.328125 C 2.6875 -6.328125 2.875 -6.71875 2.875 -6.921875 C 2.875 -7.296875 2.5 -7.296875 2.34375 -7.296875 C 2.828125 -8.171875 3.734375 -8.265625 4.0625 -8.265625 C 5.109375 -8.265625 5.78125 -7.421875 5.78125 -6.078125 C 5.78125 -5.3125 5.5625 -4.4375 5.4375 -4 Z M 2.625 -0.078125 C 1.5 -0.078125 1.296875 -0.953125 1.296875 -1.453125 C 1.296875 -1.984375 1.640625 -3.21875 1.8125 -3.65625 C 1.96875 -4.015625 2.65625 -5.21875 3.890625 -5.21875 C 4.984375 -5.21875 5.234375 -4.28125 5.234375 -3.640625 C 5.234375 -2.75 4.453125 -0.078125 2.625 -0.078125 Z M 2.625 -0.078125 "/>
</g>
<g id="glyph-0-2">
<path d="M 4.515625 -1.453125 C 4.5 -2.046875 4.46875 -2.96875 4.015625 -4.046875 C 3.78125 -4.640625 3.375 -5.265625 2.5 -5.265625 C 1.03125 -5.265625 0.234375 -3.390625 0.234375 -3.078125 C 0.234375 -2.96875 0.3125 -2.96875 0.34375 -2.96875 C 0.453125 -2.96875 0.453125 -3 0.515625 -3.15625 C 0.765625 -3.890625 1.53125 -4.484375 2.359375 -4.484375 C 4.015625 -4.484375 4.25 -2.625 4.25 -1.453125 C 4.25 -0.6875 4.171875 -0.4375 4.09375 -0.203125 C 3.875 0.53125 3.484375 2.015625 3.484375 2.359375 C 3.484375 2.453125 3.515625 2.5625 3.609375 2.5625 C 3.796875 2.5625 3.890625 2.15625 4.03125 1.6875 C 4.3125 0.640625 4.390625 0.109375 4.453125 -0.375 C 4.484375 -0.65625 5.15625 -2.625 6.109375 -4.5 C 6.1875 -4.703125 6.359375 -5.015625 6.359375 -5.0625 C 6.359375 -5.0625 6.34375 -5.15625 6.234375 -5.15625 C 6.21875 -5.15625 6.15625 -5.15625 6.125 -5.109375 C 6.109375 -5.078125 5.6875 -4.265625 5.328125 -3.453125 C 5.15625 -3.046875 4.90625 -2.515625 4.515625 -1.453125 Z M 4.515625 -1.453125 "/>
</g>
<g id="glyph-0-3">
<path d="M 2.40625 -4.8125 L 3.5 -4.8125 C 3.734375 -4.8125 3.84375 -4.8125 3.84375 -5.015625 C 3.84375 -5.15625 3.78125 -5.15625 3.53125 -5.15625 L 2.484375 -5.15625 L 2.921875 -6.890625 C 2.96875 -7.0625 2.96875 -7.09375 2.96875 -7.171875 C 2.96875 -7.359375 2.828125 -7.46875 2.671875 -7.46875 C 2.5625 -7.46875 2.296875 -7.4375 2.203125 -7.046875 L 1.734375 -5.15625 L 0.609375 -5.15625 C 0.375 -5.15625 0.265625 -5.15625 0.265625 -4.921875 C 0.265625 -4.8125 0.34375 -4.8125 0.578125 -4.8125 L 1.640625 -4.8125 L 0.84375 -1.65625 C 0.75 -1.234375 0.71875 -1.109375 0.71875 -0.953125 C 0.71875 -0.390625 1.109375 0.125 1.78125 0.125 C 2.984375 0.125 3.640625 -1.625 3.640625 -1.703125 C 3.640625 -1.78125 3.578125 -1.8125 3.515625 -1.8125 C 3.484375 -1.8125 3.4375 -1.8125 3.421875 -1.765625 C 3.40625 -1.75 3.390625 -1.75 3.3125 -1.546875 C 3.0625 -0.953125 2.515625 -0.125 1.8125 -0.125 C 1.453125 -0.125 1.4375 -0.421875 1.4375 -0.6875 C 1.4375 -0.6875 1.4375 -0.921875 1.46875 -1.0625 Z M 2.40625 -4.8125 "/>
</g>
<g id="glyph-1-0">
</g>
<g id="glyph-1-1">
<path d="M 3.890625 2.90625 C 3.890625 2.875 3.890625 2.84375 3.6875 2.640625 C 2.484375 1.4375 1.8125 -0.53125 1.8125 -2.96875 C 1.8125 -5.296875 2.375 -7.296875 3.765625 -8.703125 C 3.890625 -8.8125 3.890625 -8.828125 3.890625 -8.875 C 3.890625 -8.9375 3.828125 -8.96875 3.78125 -8.96875 C 3.625 -8.96875 2.640625 -8.109375 2.0625 -6.9375 C 1.453125 -5.71875 1.171875 -4.453125 1.171875 -2.96875 C 1.171875 -1.90625 1.34375 -0.484375 1.953125 0.78125 C 2.671875 2.21875 3.640625 3 3.78125 3 C 3.828125 3 3.890625 2.96875 3.890625 2.90625 Z M 3.890625 2.90625 "/>
</g>
<g id="glyph-1-2">
<path d="M 3.375 -2.96875 C 3.375 -3.890625 3.25 -5.359375 2.578125 -6.75 C 1.875 -8.1875 0.890625 -8.96875 0.765625 -8.96875 C 0.71875 -8.96875 0.65625 -8.9375 0.65625 -8.875 C 0.65625 -8.828125 0.65625 -8.8125 0.859375 -8.609375 C 2.0625 -7.40625 2.71875 -5.421875 2.71875 -2.984375 C 2.71875 -0.671875 2.15625 1.328125 0.78125 2.734375 C 0.65625 2.84375 0.65625 2.875 0.65625 2.90625 C 0.65625 2.96875 0.71875 3 0.765625 3 C 0.921875 3 1.90625 2.140625 2.484375 0.96875 C 3.09375 -0.25 3.375 -1.546875 3.375 -2.96875 Z M 3.375 -2.96875 "/>
</g>
</g>
<clipPath id="clip-0">
<path clip-rule="nonzero" d="M 7 4 L 14 4 L 14 12.953125 L 7 12.953125 Z M 7 4 "/>
</clipPath>
<clipPath id="clip-1">
<path clip-rule="nonzero" d="M 15 0 L 18 0 L 18 12.953125 L 15 12.953125 Z M 15 0 "/>
</clipPath>
<clipPath id="clip-2">
<path clip-rule="nonzero" d="M 23 0 L 27 0 L 27 12.953125 L 23 12.953125 Z M 23 0 "/>
</clipPath>
</defs>
<g fill="rgb(0%, 0%, 0%)" fill-opacity="1">
<use xlink:href="#glyph-0-1" x="0.5" y="9.466"/>
</g>
<g clip-path="url(#clip-0)">
<g fill="rgb(0%, 0%, 0%)" fill-opacity="1">
<use xlink:href="#glyph-0-2" x="7.325224" y="9.466"/>
</g>
</g>
<g clip-path="url(#clip-1)">
<g fill="rgb(0%, 0%, 0%)" fill-opacity="1">
<use xlink:href="#glyph-1-1" x="14.052" y="9.466"/>
</g>
</g>
<g fill="rgb(0%, 0%, 0%)" fill-opacity="1">
<use xlink:href="#glyph-0-3" x="18.604" y="9.466"/>
</g>
<g clip-path="url(#clip-2)">
<g fill="rgb(0%, 0%, 0%)" fill-opacity="1">
<use xlink:href="#glyph-1-2" x="22.832" y="9.466"/>
</g>
</g>
</svg>
