<?xml version="1.0" encoding="UTF-8"?>
<svg xmlns="http://www.w3.org/2000/svg" xmlns:xlink="http://www.w3.org/1999/xlink" viewBox="0 0 215.325 17.638">
<defs>
<g>
<g id="glyph-0-0">
</g>
<g id="glyph-0-1">
<path d="M 3.921875 -8.515625 C 3.984375 -8.640625 3.984375 -8.671875 3.984375 -8.71875 C 3.984375 -8.859375 3.875 -8.96875 3.734375 -8.96875 C 3.640625 -8.96875 3.546875 -8.90625 3.46875 -8.6875 L 1.375 -3.203125 C 1.34375 -3.125 1.3125 -3.0625 1.3125 -2.984375 C 1.3125 -2.953125 1.3125 -2.921875 1.375 -2.78125 L 3.46875 2.703125 C 3.515625 2.828125 3.578125 2.984375 3.734375 2.984375 C 3.875 2.984375 3.984375 2.875 3.984375 2.75 C 3.984375 2.71875 3.984375 2.6875 3.921875 2.5625 L 1.8125 -2.984375 Z M 3.921875 -8.515625 "/>
</g>
<g id="glyph-0-2">
<path d="M 7.109375 -1.96875 C 7.171875 -1.21875 7.3125 -0.671875 7.375 -0.4375 C 7.5 0.09375 7.5625 0.359375 8.078125 0.359375 C 8.625 0.359375 9.53125 -0.171875 9.53125 -0.421875 C 9.53125 -0.484375 9.484375 -0.5 9.4375 -0.5 C 9.28125 -0.5 9.03125 -0.375 8.984375 -0.34375 C 8.90625 -0.296875 8.875 -0.296875 8.859375 -0.296875 C 8.515625 -0.296875 8.453125 -0.625 8.3125 -1.34375 C 8.21875 -1.734375 8.109375 -2.21875 8.015625 -3.84375 C 7.9375 -5.0625 7.890625 -6.28125 7.890625 -7.5 C 7.890625 -7.796875 7.90625 -8.109375 7.90625 -8.390625 C 7.90625 -8.578125 7.90625 -8.625 7.765625 -8.625 C 7.609375 -8.625 7.109375 -8.421875 6.890625 -8.109375 L 6.8125 -7.96875 C 5.875 -5.953125 4.984375 -4.5 4.359375 -3.53125 C 3.65625 -2.453125 2.421875 -0.5 1.765625 -0.5 C 1.328125 -0.5 0.953125 -0.78125 0.84375 -1.21875 C 0.84375 -1.25 0.8125 -1.3125 0.765625 -1.3125 C 0.578125 -1.3125 0.328125 -0.734375 0.328125 -0.40625 C 0.328125 0.078125 0.84375 0.59375 1.40625 0.59375 C 2.21875 0.59375 3.59375 -1.546875 3.859375 -1.96875 Z M 6.875 -7.15625 L 6.875 -6.46875 C 6.875 -5.765625 6.890625 -5.078125 6.9375 -4.390625 C 6.9375 -4.140625 7 -3.25 7.046875 -2.625 L 4.859375 -2.625 C 4.671875 -2.625 4.5 -2.625 4.1875 -2.4375 C 5.015625 -3.734375 5.71875 -4.96875 5.78125 -5.109375 C 6.390625 -6.171875 6.703125 -6.859375 6.859375 -7.15625 Z M 6.875 -7.15625 "/>
</g>
<g id="glyph-0-3">
<path d="M 1.90625 -8.53125 C 1.90625 -8.75 1.90625 -8.96875 1.65625 -8.96875 C 1.421875 -8.96875 1.421875 -8.75 1.421875 -8.53125 L 1.421875 2.5625 C 1.421875 2.765625 1.421875 2.984375 1.65625 2.984375 C 1.90625 2.984375 1.90625 2.765625 1.90625 2.5625 Z M 1.90625 -8.53125 "/>
</g>
<g id="glyph-0-4">
<path d="M 3.265625 -2.78125 C 3.328125 -2.921875 3.328125 -2.953125 3.328125 -2.984375 C 3.328125 -3.03125 3.328125 -3.046875 3.265625 -3.1875 L 1.171875 -8.6875 C 1.09375 -8.890625 1.03125 -8.96875 0.890625 -8.96875 C 0.765625 -8.96875 0.65625 -8.859375 0.65625 -8.71875 C 0.65625 -8.6875 0.65625 -8.671875 0.71875 -8.53125 L 2.828125 -2.984375 L 0.71875 2.53125 C 0.65625 2.671875 0.65625 2.6875 0.65625 2.75 C 0.65625 2.875 0.765625 2.984375 0.890625 2.984375 C 1.046875 2.984375 1.09375 2.875 1.140625 2.75 Z M 3.265625 -2.78125 "/>
</g>
<g id="glyph-0-5">
<path d="M 2.296875 -2.984375 C 2.296875 -3.328125 2.015625 -3.625 1.65625 -3.625 C 1.3125 -3.625 1.03125 -3.328125 1.03125 -2.984375 C 1.03125 -2.640625 1.3125 -2.359375 1.65625 -2.359375 C 2.015625 -2.359375 2.296875 -2.640625 2.296875 -2.984375 Z M 2.296875 -2.984375 "/>
</g>
<g id="glyph-1-0">
</g>
<g id="glyph-1-1">
<path d="M 3.9375 -2.28125 C 4.0625 -2.328125 4.09375 -2.34375 4.09375 -2.421875 C 4.09375 -2.46875 4.046875 -2.53125 3.984375 -2.53125 C 3.96875 -2.53125 3.75 -2.484375 3.640625 -2.46875 L 2.421875 -2.21875 L 2.234375 -3.6875 C 2.21875 -3.8125 2.203125 -3.890625 2.109375 -3.890625 C 2.015625 -3.890625 2.015625 -3.828125 1.984375 -3.6875 L 1.8125 -2.21875 L 0.34375 -2.515625 L 0.234375 -2.53125 C 0.171875 -2.53125 0.125 -2.46875 0.125 -2.421875 C 0.125 -2.34375 0.1875 -2.3125 0.265625 -2.28125 L 1.640625 -1.65625 L 1 -0.53125 C 0.953125 -0.4375 0.84375 -0.234375 0.84375 -0.21875 C 0.84375 -0.171875 0.875 -0.109375 0.953125 -0.109375 C 0.96875 -0.109375 1 -0.109375 1.046875 -0.140625 C 1.109375 -0.203125 1.265625 -0.375 1.328125 -0.453125 L 2.109375 -1.296875 L 2.984375 -0.359375 C 3.015625 -0.3125 3.109375 -0.21875 3.140625 -0.1875 C 3.234375 -0.109375 3.234375 -0.109375 3.265625 -0.109375 C 3.34375 -0.109375 3.375 -0.171875 3.375 -0.21875 C 3.375 -0.265625 2.6875 -1.484375 2.59375 -1.65625 Z M 3.9375 -2.28125 "/>
</g>
<g id="glyph-1-2">
<path d="M 3.609375 -4.828125 C 3.671875 -5.109375 3.6875 -5.125 4.015625 -5.125 L 4.609375 -5.125 C 5.4375 -5.125 5.53125 -4.859375 5.53125 -4.46875 C 5.53125 -4.265625 5.484375 -3.921875 5.484375 -3.875 C 5.46875 -3.796875 5.453125 -3.71875 5.453125 -3.703125 C 5.453125 -3.609375 5.53125 -3.578125 5.578125 -3.578125 C 5.671875 -3.578125 5.703125 -3.625 5.71875 -3.78125 L 5.9375 -5.28125 C 5.9375 -5.390625 5.84375 -5.390625 5.703125 -5.390625 L 1 -5.390625 C 0.8125 -5.390625 0.78125 -5.390625 0.734375 -5.21875 L 0.25 -3.84375 C 0.234375 -3.796875 0.203125 -3.734375 0.203125 -3.6875 C 0.203125 -3.625 0.265625 -3.578125 0.328125 -3.578125 C 0.421875 -3.578125 0.4375 -3.625 0.484375 -3.75 C 0.9375 -5.03125 1.15625 -5.125 2.375 -5.125 L 2.6875 -5.125 C 2.921875 -5.125 2.9375 -5.109375 2.9375 -5.046875 C 2.9375 -5.03125 2.90625 -4.875 2.890625 -4.84375 L 1.84375 -0.65625 C 1.765625 -0.34375 1.75 -0.265625 0.921875 -0.265625 C 0.65625 -0.265625 0.578125 -0.265625 0.578125 -0.109375 C 0.578125 -0.109375 0.578125 0 0.71875 0 C 0.9375 0 1.484375 -0.03125 1.703125 -0.03125 L 2.375 -0.03125 C 2.59375 -0.03125 3.15625 0 3.375 0 C 3.4375 0 3.5625 0 3.5625 -0.15625 C 3.5625 -0.265625 3.46875 -0.265625 3.265625 -0.265625 C 3.0625 -0.265625 3 -0.265625 2.796875 -0.28125 C 2.546875 -0.296875 2.515625 -0.328125 2.515625 -0.4375 C 2.515625 -0.46875 2.515625 -0.5 2.546875 -0.578125 Z M 3.609375 -4.828125 "/>
</g>
<g id="glyph-2-0">
</g>
<g id="glyph-2-1">
<path d="M 3.890625 2.90625 C 3.890625 2.875 3.890625 2.84375 3.6875 2.640625 C 2.484375 1.4375 1.8125 -0.53125 1.8125 -2.96875 C 1.8125 -5.296875 2.375 -7.296875 3.765625 -8.703125 C 3.890625 -8.8125 3.890625 -8.828125 3.890625 -8.875 C 3.890625 -8.9375 3.828125 -8.96875 3.78125 -8.96875 C 3.625 -8.96875 2.640625 -8.109375 2.0625 -6.9375 C 1.453125 -5.71875 1.171875 -4.453125 1.171875 -2.96875 C 1.171875 -1.90625 1.34375 -0.484375 1.953125 0.78125 C 2.671875 2.21875 3.640625 3 3.78125 3 C 3.828125 3 3.890625 2.96875 3.890625 2.90625 Z M 3.890625 2.90625 "/>
</g>
<g id="glyph-2-2">
<path d="M 3.375 -2.96875 C 3.375 -3.890625 3.25 -5.359375 2.578125 -6.75 C 1.875 -8.1875 0.890625 -8.96875 0.765625 -8.96875 C 0.71875 -8.96875 0.65625 -8.9375 0.65625 -8.875 C 0.65625 -8.828125 0.65625 -8.8125 0.859375 -8.609375 C 2.0625 -7.40625 2.71875 -5.421875 2.71875 -2.984375 C 2.71875 -0.671875 2.15625 1.328125 0.78125 2.734375 C 0.65625 2.84375 0.65625 2.875 0.65625 2.90625 C 0.65625 2.96875 0.71875 3 0.765625 3 C 0.921875 3 1.90625 2.140625 2.484375 0.96875 C 3.09375 -0.25 3.375 -1.546875 3.375 -2.96875 Z M 3.375 -2.96875 "/>
</g>
<g id="glyph-2-3">
<path d="M 8.0625 -3.875 C 8.234375 -3.875 8.453125 -3.875 8.453125 -4.09375 C 8.453125 -4.3125 8.25 -4.3125 8.0625 -4.3125 L 1.03125 -4.3125 C 0.859375 -4.3125 0.640625 -4.3125 0.640625 -4.09375 C 0.640625 -3.875 0.84375 -3.875 1.03125 -3.875 Z M 8.0625 -1.65625 C 8.234375 -1.65625 8.453125 -1.65625 8.453125 -1.859375 C 8.453125 -2.09375 8.25 -2.09375 8.0625 -2.09375 L 1.03125 -2.09375 C 0.859375 -2.09375 0.640625 -2.09375 0.640625 -1.875 C 0.640625 -1.65625 0.84375 -1.65625 1.03125 -1.65625 Z M 8.0625 -1.65625 "/>
</g>
<g id="glyph-3-0">
</g>
<g id="glyph-3-1">
<path d="M 3.140625 1.34375 C 2.828125 1.796875 2.359375 2.203125 1.765625 2.203125 C 1.625 2.203125 1.046875 2.171875 0.875 1.625 C 0.90625 1.640625 0.96875 1.640625 0.984375 1.640625 C 1.34375 1.640625 1.59375 1.328125 1.59375 1.046875 C 1.59375 0.78125 1.359375 0.6875 1.1875 0.6875 C 0.984375 0.6875 0.578125 0.828125 0.578125 1.40625 C 0.578125 2.015625 1.09375 2.4375 1.765625 2.4375 C 2.96875 2.4375 4.171875 1.34375 4.5 0.015625 L 5.671875 -4.65625 C 5.6875 -4.703125 5.71875 -4.78125 5.71875 -4.859375 C 5.71875 -5.03125 5.5625 -5.15625 5.390625 -5.15625 C 5.28125 -5.15625 5.03125 -5.109375 4.9375 -4.75 L 4.046875 -1.234375 C 4 -1.015625 4 -0.984375 3.890625 -0.859375 C 3.65625 -0.53125 3.265625 -0.125 2.6875 -0.125 C 2.015625 -0.125 1.953125 -0.78125 1.953125 -1.09375 C 1.953125 -1.78125 2.28125 -2.703125 2.609375 -3.5625 C 2.734375 -3.90625 2.8125 -4.078125 2.8125 -4.3125 C 2.8125 -4.8125 2.453125 -5.265625 1.859375 -5.265625 C 0.765625 -5.265625 0.328125 -3.53125 0.328125 -3.4375 C 0.328125 -3.390625 0.375 -3.328125 0.453125 -3.328125 C 0.5625 -3.328125 0.578125 -3.375 0.625 -3.546875 C 0.90625 -4.546875 1.359375 -5.03125 1.828125 -5.03125 C 1.9375 -5.03125 2.140625 -5.03125 2.140625 -4.640625 C 2.140625 -4.328125 2.015625 -3.984375 1.828125 -3.53125 C 1.25 -1.953125 1.25 -1.5625 1.25 -1.28125 C 1.25 -0.140625 2.0625 0.125 2.65625 0.125 C 3 0.125 3.4375 0.015625 3.84375 -0.4375 L 3.859375 -0.421875 C 3.6875 0.28125 3.5625 0.75 3.140625 1.34375 Z M 3.140625 1.34375 "/>
</g>
<g id="glyph-3-2">
<path d="M 5.671875 -4.875 C 5.28125 -4.8125 5.140625 -4.515625 5.140625 -4.296875 C 5.140625 -4 5.359375 -3.90625 5.53125 -3.90625 C 5.890625 -3.90625 6.140625 -4.21875 6.140625 -4.546875 C 6.140625 -5.046875 5.5625 -5.265625 5.0625 -5.265625 C 4.34375 -5.265625 3.9375 -4.546875 3.828125 -4.328125 C 3.546875 -5.21875 2.8125 -5.265625 2.59375 -5.265625 C 1.375 -5.265625 0.734375 -3.703125 0.734375 -3.4375 C 0.734375 -3.390625 0.78125 -3.328125 0.859375 -3.328125 C 0.953125 -3.328125 0.984375 -3.40625 1 -3.453125 C 1.40625 -4.78125 2.21875 -5.03125 2.5625 -5.03125 C 3.09375 -5.03125 3.203125 -4.53125 3.203125 -4.25 C 3.203125 -3.984375 3.125 -3.703125 2.984375 -3.125 L 2.578125 -1.5 C 2.40625 -0.78125 2.0625 -0.125 1.421875 -0.125 C 1.359375 -0.125 1.0625 -0.125 0.8125 -0.28125 C 1.25 -0.359375 1.34375 -0.71875 1.34375 -0.859375 C 1.34375 -1.09375 1.15625 -1.25 0.9375 -1.25 C 0.640625 -1.25 0.328125 -0.984375 0.328125 -0.609375 C 0.328125 -0.109375 0.890625 0.125 1.40625 0.125 C 1.984375 0.125 2.390625 -0.328125 2.640625 -0.828125 C 2.828125 -0.125 3.4375 0.125 3.875 0.125 C 5.09375 0.125 5.734375 -1.453125 5.734375 -1.703125 C 5.734375 -1.765625 5.6875 -1.8125 5.625 -1.8125 C 5.515625 -1.8125 5.5 -1.75 5.46875 -1.65625 C 5.140625 -0.609375 4.453125 -0.125 3.90625 -0.125 C 3.484375 -0.125 3.265625 -0.4375 3.265625 -0.921875 C 3.265625 -1.1875 3.3125 -1.375 3.5 -2.15625 L 3.921875 -3.796875 C 4.09375 -4.5 4.5 -5.03125 5.0625 -5.03125 C 5.078125 -5.03125 5.421875 -5.03125 5.671875 -4.875 Z M 5.671875 -4.875 "/>
</g>
<g id="glyph-3-3">
<path d="M 2.03125 -1.328125 C 1.609375 -0.625 1.203125 -0.375 0.640625 -0.34375 C 0.5 -0.328125 0.40625 -0.328125 0.40625 -0.125 C 0.40625 -0.046875 0.46875 0 0.546875 0 C 0.765625 0 1.296875 -0.03125 1.515625 -0.03125 C 1.859375 -0.03125 2.25 0 2.578125 0 C 2.65625 0 2.796875 0 2.796875 -0.234375 C 2.796875 -0.328125 2.703125 -0.34375 2.625 -0.34375 C 2.359375 -0.375 2.125 -0.46875 2.125 -0.75 C 2.125 -0.921875 2.203125 -1.046875 2.359375 -1.3125 L 3.265625 -2.828125 L 6.3125 -2.828125 C 6.328125 -2.71875 6.328125 -2.625 6.328125 -2.515625 C 6.375 -2.203125 6.515625 -0.953125 6.515625 -0.734375 C 6.515625 -0.375 5.90625 -0.34375 5.71875 -0.34375 C 5.578125 -0.34375 5.453125 -0.34375 5.453125 -0.125 C 5.453125 0 5.5625 0 5.625 0 C 5.828125 0 6.078125 -0.03125 6.28125 -0.03125 L 6.953125 -0.03125 C 7.6875 -0.03125 8.21875 0 8.21875 0 C 8.3125 0 8.4375 0 8.4375 -0.234375 C 8.4375 -0.34375 8.328125 -0.34375 8.15625 -0.34375 C 7.5 -0.34375 7.484375 -0.453125 7.453125 -0.8125 L 6.71875 -8.265625 C 6.6875 -8.515625 6.640625 -8.53125 6.515625 -8.53125 C 6.390625 -8.53125 6.328125 -8.515625 6.21875 -8.328125 Z M 3.46875 -3.171875 L 5.875 -7.1875 L 6.28125 -3.171875 Z M 3.46875 -3.171875 "/>
</g>
<g id="glyph-4-0">
</g>
<g id="glyph-4-1">
<path d="M 4.9375 13.734375 C 4.9375 13.6875 4.90625 13.65625 4.890625 13.625 C 4.34375 13.046875 3.53125 12.078125 3.03125 10.125 C 2.75 9.03125 2.640625 7.8125 2.640625 6.6875 C 2.640625 3.546875 3.390625 1.34375 4.828125 -0.203125 C 4.9375 -0.3125 4.9375 -0.328125 4.9375 -0.359375 C 4.9375 -0.484375 4.84375 -0.484375 4.796875 -0.484375 C 4.609375 -0.484375 3.96875 0.234375 3.8125 0.421875 C 2.59375 1.859375 1.8125 4.015625 1.8125 6.6875 C 1.8125 8.375 2.109375 10.78125 3.6875 12.796875 C 3.796875 12.9375 4.578125 13.859375 4.796875 13.859375 C 4.84375 13.859375 4.9375 13.859375 4.9375 13.734375 Z M 4.9375 13.734375 "/>
</g>
<g id="glyph-4-2">
<path d="M 3.640625 6.6875 C 3.640625 5 3.34375 2.59375 1.78125 0.578125 C 1.65625 0.4375 0.890625 -0.484375 0.671875 -0.484375 C 0.609375 -0.484375 0.53125 -0.453125 0.53125 -0.359375 C 0.53125 -0.3125 0.546875 -0.28125 0.59375 -0.234375 C 1.171875 0.375 1.953125 1.34375 2.4375 3.25 C 2.71875 4.34375 2.828125 5.5625 2.828125 6.6875 C 2.828125 7.890625 2.71875 9.109375 2.40625 10.28125 C 1.953125 11.953125 1.25 12.90625 0.640625 13.578125 C 0.53125 13.6875 0.53125 13.703125 0.53125 13.734375 C 0.53125 13.828125 0.609375 13.859375 0.671875 13.859375 C 0.84375 13.859375 1.5 13.125 1.65625 12.953125 C 2.875 11.515625 3.640625 9.359375 3.640625 6.6875 Z M 3.640625 6.6875 "/>
</g>
</g>
<clipPath id="clip-0">
<path clip-rule="nonzero" d="M 72 2 L 76 2 L 76 17.636719 L 72 17.636719 Z M 72 2 "/>
</clipPath>
<clipPath id="clip-1">
<path clip-rule="nonzero" d="M 104 2 L 108 2 L 108 17.636719 L 104 17.636719 Z M 104 2 "/>
</clipPath>
<clipPath id="clip-2">
<path clip-rule="nonzero" d="M 170 2 L 174 2 L 174 17.636719 L 170 17.636719 Z M 170 2 "/>
</clipPath>
<clipPath id="clip-3">
<path clip-rule="nonzero" d="M 187 2 L 192 2 L 192 17.636719 L 187 17.636719 Z M 187 2 "/>
</clipPath>
</defs>
<g fill="rgb(0%, 0%, 0%)" fill-opacity="1">
<use xlink:href="#glyph-0-1" x="0.5" y="12.954"/>
<use xlink:href="#glyph-0-2" x="5.149377" y="12.954"/>
</g>
<g fill="rgb(0%, 0%, 0%)" fill-opacity="1">
<use xlink:href="#glyph-1-1" x="14.695" y="8.017"/>
</g>
<g fill="rgb(0%, 0%, 0%)" fill-opacity="1">
<use xlink:href="#glyph-2-1" x="19.427" y="12.954"/>
</g>
<g fill="rgb(0%, 0%, 0%)" fill-opacity="1">
<use xlink:href="#glyph-3-1" x="23.98" y="12.954"/>
</g>
<g fill="rgb(0%, 0%, 0%)" fill-opacity="1">
<use xlink:href="#glyph-2-2" x="30.116" y="12.954"/>
</g>
<g fill="rgb(0%, 0%, 0%)" fill-opacity="1">
<use xlink:href="#glyph-0-3" x="36.661" y="12.954"/>
</g>
<g fill="rgb(0%, 0%, 0%)" fill-opacity="1">
<use xlink:href="#glyph-3-2" x="43.17" y="12.954"/>
</g>
<g fill="rgb(0%, 0%, 0%)" fill-opacity="1">
<use xlink:href="#glyph-0-4" x="49.822" y="12.954"/>
</g>
<g fill="rgb(0%, 0%, 0%)" fill-opacity="1">
<use xlink:href="#glyph-2-3" x="57.792" y="12.954"/>
</g>
<g clip-path="url(#clip-0)">
<g fill="rgb(0%, 0%, 0%)" fill-opacity="1">
<use xlink:href="#glyph-4-1" x="70.218" y="3.27"/>
</g>
</g>
<path fill="none" stroke-width="0.478" stroke-linecap="butt" stroke-linejoin="miter" stroke="rgb(0%, 0%, 0%)" stroke-opacity="1" stroke-miterlimit="10" d="M -0.0016875 0.001625 L 13.506125 0.001625 " transform="matrix(1, 0, 0, -1, 75.697, 3.111)"/>
<g fill="rgb(0%, 0%, 0%)" fill-opacity="1">
<use xlink:href="#glyph-3-3" x="75.697" y="12.954"/>
</g>
<g fill="rgb(0%, 0%, 0%)" fill-opacity="1">
<use xlink:href="#glyph-1-1" x="84.473" y="9.5"/>
</g>
<g fill="rgb(0%, 0%, 0%)" fill-opacity="1">
<use xlink:href="#glyph-0-5" x="91.862" y="12.954"/>
</g>
<path fill="none" stroke-width="0.478" stroke-linecap="butt" stroke-linejoin="miter" stroke="rgb(0%, 0%, 0%)" stroke-opacity="1" stroke-miterlimit="10" d="M 0.00084375 0.0001875 L 6.137563 0.0001875 " transform="matrix(1, 0, 0, -1, 97.839, 6.133)"/>
<g fill="rgb(0%, 0%, 0%)" fill-opacity="1">
<use xlink:href="#glyph-3-1" x="97.839" y="12.954"/>
</g>
<g clip-path="url(#clip-1)">
<g fill="rgb(0%, 0%, 0%)" fill-opacity="1">
<use xlink:href="#glyph-4-2" x="103.976" y="3.27"/>
</g>
</g>
<g fill="rgb(0%, 0%, 0%)" fill-opacity="1">
<use xlink:href="#glyph-1-2" x="109.455" y="5.947"/>
</g>
<g fill="rgb(0%, 0%, 0%)" fill-opacity="1">
<use xlink:href="#glyph-0-5" x="118.716" y="12.954"/>
</g>
<g fill="rgb(0%, 0%, 0%)" fill-opacity="1">
<use xlink:href="#glyph-3-2" x="124.694" y="12.954"/>
</g>
<g fill="rgb(0%, 0%, 0%)" fill-opacity="1">
<use xlink:href="#glyph-2-3" x="134.667" y="12.954"/>
</g>
<path fill="none" stroke-width="0.478" stroke-linecap="butt" stroke-linejoin="miter" stroke="rgb(0%, 0%, 0%)" stroke-opacity="1" stroke-miterlimit="10" d="M 0.00175 0.00109375 L 12.740031 0.00109375 " transform="matrix(1, 0, 0, -1, 147.092, 2.38)"/>
<g fill="rgb(0%, 0%, 0%)" fill-opacity="1">
<use xlink:href="#glyph-3-1" x="147.092" y="12.954"/>
</g>
<g fill="rgb(0%, 0%, 0%)" fill-opacity="1">
<use xlink:href="#glyph-1-2" x="153.229" y="9.5"/>
</g>
<g fill="rgb(0%, 0%, 0%)" fill-opacity="1">
<use xlink:href="#glyph-0-5" x="162.49" y="12.954"/>
</g>
<g clip-path="url(#clip-2)">
<g fill="rgb(0%, 0%, 0%)" fill-opacity="1">
<use xlink:href="#glyph-4-1" x="168.468" y="3.27"/>
</g>
</g>
<path fill="none" stroke-width="0.478" stroke-linecap="butt" stroke-linejoin="miter" stroke="rgb(0%, 0%, 0%)" stroke-opacity="1" stroke-miterlimit="10" d="M -0.0016875 0.001625 L 13.506125 0.001625 " transform="matrix(1, 0, 0, -1, 173.947, 3.111)"/>
<g fill="rgb(0%, 0%, 0%)" fill-opacity="1">
<use xlink:href="#glyph-3-3" x="173.947" y="12.954"/>
</g>
<g fill="rgb(0%, 0%, 0%)" fill-opacity="1">
<use xlink:href="#glyph-1-1" x="182.722" y="9.5"/>
</g>
<g clip-path="url(#clip-3)">
<g fill="rgb(0%, 0%, 0%)" fill-opacity="1">
<use xlink:href="#glyph-4-2" x="187.455" y="3.27"/>
</g>
</g>
<g fill="rgb(0%, 0%, 0%)" fill-opacity="1">
<use xlink:href="#glyph-1-2" x="192.934" y="5.947"/>
</g>
<g fill="rgb(0%, 0%, 0%)" fill-opacity="1">
<use xlink:href="#glyph-0-5" x="202.195" y="12.954"/>
</g>
<g fill="rgb(0%, 0%, 0%)" fill-opacity="1">
<use xlink:href="#glyph-3-2" x="208.173" y="12.954"/>
</g>
</svg>
