<?xml version="1.0" encoding="UTF-8"?>
<svg xmlns="http://www.w3.org/2000/svg" xmlns:xlink="http://www.w3.org/1999/xlink" viewBox="0 0 15.278 9.169">
<defs>
<g>
<g id="glyph-0-0">
</g>
<g id="glyph-0-1">
<path d="M 7.109375 -1.96875 C 7.171875 -1.21875 7.3125 -0.671875 7.375 -0.4375 C 7.5 0.09375 7.5625 0.359375 8.078125 0.359375 C 8.625 0.359375 9.53125 -0.171875 9.53125 -0.421875 C 9.53125 -0.484375 9.484375 -0.5 9.4375 -0.5 C 9.28125 -0.5 9.03125 -0.375 8.984375 -0.34375 C 8.90625 -0.296875 8.875 -0.296875 8.859375 -0.296875 C 8.515625 -0.296875 8.453125 -0.625 8.3125 -1.34375 C 8.21875 -1.734375 8.109375 -2.21875 8.015625 -3.84375 C 7.9375 -5.0625 7.890625 -6.28125 7.890625 -7.5 C 7.890625 -7.796875 7.90625 -8.109375 7.90625 -8.390625 C 7.90625 -8.578125 7.90625 -8.625 7.765625 -8.625 C 7.609375 -8.625 7.109375 -8.421875 6.890625 -8.109375 L 6.8125 -7.96875 C 5.875 -5.953125 4.984375 -4.5 4.359375 -3.53125 C 3.65625 -2.453125 2.421875 -0.5 1.765625 -0.5 C 1.328125 -0.5 0.953125 -0.78125 0.84375 -1.21875 C 0.84375 -1.25 0.8125 -1.3125 0.765625 -1.3125 C 0.578125 -1.3125 0.328125 -0.734375 0.328125 -0.40625 C 0.328125 0.078125 0.84375 0.59375 1.40625 0.59375 C 2.21875 0.59375 3.59375 -1.546875 3.859375 -1.96875 Z M 6.875 -7.15625 L 6.875 -6.46875 C 6.875 -5.765625 6.890625 -5.078125 6.9375 -4.390625 C 6.9375 -4.140625 7 -3.25 7.046875 -2.625 L 4.859375 -2.625 C 4.671875 -2.625 4.5 -2.625 4.1875 -2.4375 C 5.015625 -3.734375 5.71875 -4.96875 5.78125 -5.109375 C 6.390625 -6.171875 6.703125 -6.859375 6.859375 -7.15625 Z M 6.875 -7.15625 "/>
</g>
<g id="glyph-1-0">
</g>
<g id="glyph-1-1">
<path d="M 3.9375 -2.28125 C 4.0625 -2.328125 4.09375 -2.34375 4.09375 -2.421875 C 4.09375 -2.46875 4.046875 -2.53125 3.984375 -2.53125 C 3.96875 -2.53125 3.75 -2.484375 3.640625 -2.46875 L 2.421875 -2.21875 L 2.234375 -3.6875 C 2.21875 -3.8125 2.203125 -3.890625 2.109375 -3.890625 C 2.015625 -3.890625 2.015625 -3.828125 1.984375 -3.6875 L 1.8125 -2.21875 L 0.34375 -2.515625 L 0.234375 -2.53125 C 0.171875 -2.53125 0.125 -2.46875 0.125 -2.421875 C 0.125 -2.34375 0.1875 -2.3125 0.265625 -2.28125 L 1.640625 -1.65625 L 1 -0.53125 C 0.953125 -0.4375 0.84375 -0.234375 0.84375 -0.21875 C 0.84375 -0.171875 0.875 -0.109375 0.953125 -0.109375 C 0.96875 -0.109375 1 -0.109375 1.046875 -0.140625 C 1.109375 -0.203125 1.265625 -0.375 1.328125 -0.453125 L 2.109375 -1.296875 L 2.984375 -0.359375 C 3.015625 -0.3125 3.109375 -0.21875 3.140625 -0.1875 C 3.234375 -0.109375 3.234375 -0.109375 3.265625 -0.109375 C 3.34375 -0.109375 3.375 -0.171875 3.375 -0.21875 C 3.375 -0.265625 2.6875 -1.484375 2.59375 -1.65625 Z M 3.9375 -2.28125 "/>
</g>
</g>
<clipPath id="clip-0">
<path clip-rule="nonzero" d="M 0 0 L 11 0 L 11 9.167969 L 0 9.167969 Z M 0 0 "/>
</clipPath>
</defs>
<g clip-path="url(#clip-0)">
<g fill="rgb(0%, 0%, 0%)" fill-opacity="1">
<use xlink:href="#glyph-0-1" x="0.5" y="8.669"/>
</g>
</g>
<g fill="rgb(0%, 0%, 0%)" fill-opacity="1">
<use xlink:href="#glyph-1-1" x="10.046" y="4.331"/>
</g>
</svg>
