<?xml version="1.0" encoding="UTF-8"?>
<svg xmlns="http://www.w3.org/2000/svg" xmlns:xlink="http://www.w3.org/1999/xlink" viewBox="0 0 71.258 9.236">
<defs>
<g>
<g id="glyph-0-0">
</g>
<g id="glyph-0-1">
<path d="M 7.109375 -1.96875 C 7.171875 -1.21875 7.3125 -0.671875 7.375 -0.4375 C 7.5 0.09375 7.5625 0.359375 8.078125 0.359375 C 8.625 0.359375 9.53125 -0.171875 9.53125 -0.421875 C 9.53125 -0.484375 9.484375 -0.5 9.4375 -0.5 C 9.28125 -0.5 9.03125 -0.375 8.984375 -0.34375 C 8.90625 -0.296875 8.875 -0.296875 8.859375 -0.296875 C 8.515625 -0.296875 8.453125 -0.625 8.3125 -1.34375 C 8.21875 -1.734375 8.109375 -2.21875 8.015625 -3.84375 C 7.9375 -5.0625 7.890625 -6.28125 7.890625 -7.5 C 7.890625 -7.796875 7.90625 -8.109375 7.90625 -8.390625 C 7.90625 -8.578125 7.90625 -8.625 7.765625 -8.625 C 7.609375 -8.625 7.109375 -8.421875 6.890625 -8.109375 L 6.8125 -7.96875 C 5.875 -5.953125 4.984375 -4.5 4.359375 -3.53125 C 3.65625 -2.453125 2.421875 -0.5 1.765625 -0.5 C 1.328125 -0.5 0.953125 -0.78125 0.84375 -1.21875 C 0.84375 -1.25 0.8125 -1.3125 0.765625 -1.3125 C 0.578125 -1.3125 0.328125 -0.734375 0.328125 -0.40625 C 0.328125 0.078125 0.84375 0.59375 1.40625 0.59375 C 2.21875 0.59375 3.59375 -1.546875 3.859375 -1.96875 Z M 6.875 -7.15625 L 6.875 -6.46875 C 6.875 -5.765625 6.890625 -5.078125 6.9375 -4.390625 C 6.9375 -4.140625 7 -3.25 7.046875 -2.625 L 4.859375 -2.625 C 4.671875 -2.625 4.5 -2.625 4.1875 -2.4375 C 5.015625 -3.734375 5.71875 -4.96875 5.78125 -5.109375 C 6.390625 -6.171875 6.703125 -6.859375 6.859375 -7.15625 Z M 6.875 -7.15625 "/>
</g>
<g id="glyph-0-2">
<path d="M 1.140625 -2.75 C 1.203125 -2.75 1.46875 -2.75 1.46875 -2.984375 C 1.46875 -3.234375 1.203125 -3.234375 1.140625 -3.234375 L 1.140625 -4.796875 C 1.140625 -4.984375 1.140625 -5.21875 0.890625 -5.21875 C 0.65625 -5.21875 0.65625 -4.984375 0.65625 -4.796875 L 0.65625 -1.1875 C 0.65625 -0.984375 0.65625 -0.765625 0.890625 -0.765625 C 1.140625 -0.765625 1.140625 -0.984375 1.140625 -1.1875 Z M 1.140625 -2.75 "/>
</g>
<g id="glyph-0-3">
<path d="M 9.96875 -2.75 C 9.3125 -2.25 8.984375 -1.75 8.890625 -1.609375 C 8.359375 -0.78125 8.265625 -0.03125 8.265625 -0.015625 C 8.265625 0.125 8.40625 0.125 8.5 0.125 C 8.703125 0.125 8.71875 0.109375 8.765625 -0.109375 C 9.03125 -1.28125 9.734375 -2.28125 11.09375 -2.828125 C 11.234375 -2.875 11.265625 -2.90625 11.265625 -2.984375 C 11.265625 -3.078125 11.203125 -3.109375 11.171875 -3.125 C 10.65625 -3.328125 9.203125 -3.921875 8.75 -5.921875 C 8.71875 -6.078125 8.703125 -6.109375 8.5 -6.109375 C 8.40625 -6.109375 8.265625 -6.109375 8.265625 -5.96875 C 8.265625 -5.9375 8.359375 -5.1875 8.875 -4.390625 C 9.109375 -4.03125 9.453125 -3.609375 9.96875 -3.234375 L 1.09375 -3.234375 C 0.875 -3.234375 0.65625 -3.234375 0.65625 -2.984375 C 0.65625 -2.75 0.875 -2.75 1.09375 -2.75 Z M 9.96875 -2.75 "/>
</g>
<g id="glyph-1-0">
</g>
<g id="glyph-1-1">
<path d="M 2.203125 -4.578125 C 2.203125 -4.90625 1.921875 -5.15625 1.625 -5.15625 C 1.28125 -5.15625 1.046875 -4.875 1.046875 -4.578125 C 1.046875 -4.21875 1.34375 -4 1.609375 -4 C 1.9375 -4 2.203125 -4.25 2.203125 -4.578125 Z M 2.203125 -0.578125 C 2.203125 -0.90625 1.921875 -1.15625 1.625 -1.15625 C 1.28125 -1.15625 1.046875 -0.890625 1.046875 -0.578125 C 1.046875 -0.234375 1.34375 0 1.609375 0 C 1.9375 0 2.203125 -0.25 2.203125 -0.578125 Z M 2.203125 -0.578125 "/>
</g>
<g id="glyph-2-0">
</g>
<g id="glyph-2-1">
<path d="M 4.9375 -4.96875 L 5.71875 -5.71875 C 7.015625 -7 7.734375 -7.703125 8.46875 -7.765625 C 8.578125 -7.78125 8.734375 -7.796875 8.734375 -7.96875 C 8.734375 -8.1875 8.5625 -8.1875 8.34375 -8.1875 L 5.828125 -8.1875 C 5.609375 -8.1875 5.421875 -8.1875 5.421875 -7.96875 C 5.421875 -7.796875 5.59375 -7.78125 5.671875 -7.765625 C 6 -7.71875 6.125 -7.4375 6.125 -7.171875 C 6.125 -6.84375 5.9375 -6.640625 5.828125 -6.53125 L 4.53125 -5.296875 C 4.25 -5.03125 3.578125 -4.34375 3.28125 -4.09375 L 3.28125 -7.09375 C 3.28125 -7.6875 3.328125 -7.765625 4.03125 -7.765625 C 4.140625 -7.765625 4.34375 -7.765625 4.34375 -7.96875 C 4.34375 -8.1875 4.15625 -8.1875 3.9375 -8.1875 L 0.6875 -8.1875 C 0.484375 -8.1875 0.28125 -8.1875 0.28125 -7.96875 C 0.28125 -7.765625 0.515625 -7.765625 0.609375 -7.765625 C 1.296875 -7.765625 1.34375 -7.671875 1.34375 -7.09375 L 1.34375 -1.09375 C 1.34375 -0.53125 1.296875 -0.421875 0.671875 -0.421875 C 0.484375 -0.421875 0.28125 -0.421875 0.28125 -0.21875 C 0.28125 0 0.484375 0 0.6875 0 L 3.9375 0 C 4.15625 0 4.34375 0 4.34375 -0.21875 C 4.34375 -0.421875 4.140625 -0.421875 4 -0.421875 C 3.328125 -0.421875 3.28125 -0.53125 3.28125 -1.09375 L 3.28125 -3.40625 L 3.625 -3.71875 L 5.734375 -1.1875 L 6.046875 -0.828125 C 6.1875 -0.65625 6.1875 -0.640625 6.234375 -0.484375 C 6.171875 -0.46875 6.140625 -0.4375 6.09375 -0.4375 C 5.8125 -0.375 5.734375 -0.375 5.734375 -0.21875 C 5.734375 0 5.921875 0 6.125 0 L 8.796875 0 C 9.015625 0 9.1875 0 9.1875 -0.21875 C 9.1875 -0.375 9.046875 -0.40625 8.96875 -0.421875 C 8.78125 -0.4375 8.734375 -0.484375 8.640625 -0.578125 C 8.53125 -0.6875 8.453125 -0.765625 8.390625 -0.84375 Z M 7.375 -7.765625 C 7 -7.5 6.984375 -7.5 6.546875 -7.109375 C 6.546875 -7.296875 6.546875 -7.515625 6.390625 -7.765625 Z M 1.65625 -0.421875 C 1.75 -0.640625 1.75 -0.9375 1.75 -1.078125 L 1.75 -7.109375 C 1.75 -7.25 1.75 -7.546875 1.65625 -7.765625 L 2.96875 -7.765625 C 2.875 -7.546875 2.875 -7.25 2.875 -7.109375 L 2.875 -1.078125 C 2.875 -0.9375 2.875 -0.640625 2.96875 -0.421875 Z M 4.640625 -4.703125 L 8.203125 -0.421875 L 6.65625 -0.421875 C 6.640625 -0.625 6.640625 -0.734375 6.328125 -1.125 C 6.078125 -1.453125 5.390625 -2.265625 5.109375 -2.578125 C 4.875 -2.875 4.046875 -3.875 3.9375 -4 Z M 4.640625 -4.703125 "/>
</g>
<g id="glyph-3-0">
</g>
<g id="glyph-3-1">
<path d="M 1.59375 -1.3125 C 1.625 -1.421875 1.703125 -1.734375 1.71875 -1.84375 C 1.828125 -2.28125 1.828125 -2.28125 2.015625 -2.546875 C 2.28125 -2.9375 2.65625 -3.296875 3.1875 -3.296875 C 3.46875 -3.296875 3.640625 -3.125 3.640625 -2.75 C 3.640625 -2.3125 3.3125 -1.40625 3.15625 -1.015625 C 3.046875 -0.75 3.046875 -0.703125 3.046875 -0.59375 C 3.046875 -0.140625 3.421875 0.078125 3.765625 0.078125 C 4.546875 0.078125 4.875 -1.03125 4.875 -1.140625 C 4.875 -1.21875 4.8125 -1.25 4.75 -1.25 C 4.65625 -1.25 4.640625 -1.1875 4.625 -1.109375 C 4.4375 -0.453125 4.09375 -0.140625 3.796875 -0.140625 C 3.671875 -0.140625 3.609375 -0.21875 3.609375 -0.40625 C 3.609375 -0.59375 3.671875 -0.765625 3.75 -0.96875 C 3.859375 -1.265625 4.21875 -2.1875 4.21875 -2.625 C 4.21875 -3.234375 3.796875 -3.515625 3.234375 -3.515625 C 2.578125 -3.515625 2.171875 -3.125 1.9375 -2.828125 C 1.875 -3.265625 1.53125 -3.515625 1.125 -3.515625 C 0.84375 -3.515625 0.640625 -3.328125 0.515625 -3.078125 C 0.3125 -2.703125 0.234375 -2.3125 0.234375 -2.296875 C 0.234375 -2.21875 0.296875 -2.1875 0.359375 -2.1875 C 0.46875 -2.1875 0.46875 -2.21875 0.53125 -2.4375 C 0.625 -2.828125 0.765625 -3.296875 1.09375 -3.296875 C 1.3125 -3.296875 1.359375 -3.09375 1.359375 -2.921875 C 1.359375 -2.765625 1.3125 -2.625 1.25 -2.359375 C 1.234375 -2.296875 1.109375 -1.828125 1.078125 -1.71875 L 0.78125 -0.515625 C 0.75 -0.390625 0.703125 -0.203125 0.703125 -0.171875 C 0.703125 0.015625 0.859375 0.078125 0.96875 0.078125 C 1.109375 0.078125 1.234375 -0.015625 1.28125 -0.109375 C 1.3125 -0.15625 1.375 -0.4375 1.40625 -0.59375 Z M 1.59375 -1.3125 "/>
</g>
<g id="glyph-3-2">
<path d="M 1.59375 -1.3125 C 1.625 -1.421875 1.703125 -1.734375 1.71875 -1.84375 C 1.75 -1.921875 1.796875 -2.125 1.8125 -2.203125 C 1.828125 -2.234375 2.09375 -2.75 2.4375 -3.015625 C 2.703125 -3.234375 2.96875 -3.296875 3.203125 -3.296875 C 3.484375 -3.296875 3.65625 -3.109375 3.65625 -2.75 C 3.65625 -2.5625 3.609375 -2.375 3.515625 -2.015625 C 3.453125 -1.8125 3.328125 -1.28125 3.28125 -1.0625 L 3.15625 -0.578125 C 3.109375 -0.453125 3.0625 -0.203125 3.0625 -0.171875 C 3.0625 0.015625 3.21875 0.078125 3.3125 0.078125 C 3.453125 0.078125 3.578125 -0.015625 3.640625 -0.109375 C 3.65625 -0.15625 3.71875 -0.4375 3.765625 -0.59375 L 3.9375 -1.3125 C 3.96875 -1.421875 4.046875 -1.734375 4.078125 -1.84375 C 4.1875 -2.28125 4.1875 -2.28125 4.359375 -2.546875 C 4.625 -2.9375 5 -3.296875 5.53125 -3.296875 C 5.828125 -3.296875 6 -3.125 6 -2.75 C 6 -2.3125 5.65625 -1.390625 5.5 -1.015625 C 5.421875 -0.8125 5.40625 -0.75 5.40625 -0.59375 C 5.40625 -0.140625 5.78125 0.078125 6.125 0.078125 C 6.90625 0.078125 7.234375 -1.03125 7.234375 -1.140625 C 7.234375 -1.21875 7.15625 -1.25 7.109375 -1.25 C 7.015625 -1.25 7 -1.1875 6.96875 -1.109375 C 6.78125 -0.453125 6.453125 -0.140625 6.140625 -0.140625 C 6.015625 -0.140625 5.953125 -0.21875 5.953125 -0.40625 C 5.953125 -0.59375 6.015625 -0.765625 6.09375 -0.96875 C 6.21875 -1.265625 6.5625 -2.1875 6.5625 -2.625 C 6.5625 -3.234375 6.15625 -3.515625 5.578125 -3.515625 C 5.03125 -3.515625 4.578125 -3.234375 4.21875 -2.734375 C 4.15625 -3.375 3.640625 -3.515625 3.234375 -3.515625 C 2.859375 -3.515625 2.375 -3.390625 1.9375 -2.8125 C 1.875 -3.296875 1.5 -3.515625 1.125 -3.515625 C 0.84375 -3.515625 0.640625 -3.34375 0.515625 -3.078125 C 0.3125 -2.703125 0.234375 -2.3125 0.234375 -2.296875 C 0.234375 -2.21875 0.296875 -2.1875 0.359375 -2.1875 C 0.46875 -2.1875 0.46875 -2.21875 0.53125 -2.4375 C 0.625 -2.828125 0.765625 -3.296875 1.09375 -3.296875 C 1.3125 -3.296875 1.359375 -3.09375 1.359375 -2.921875 C 1.359375 -2.765625 1.3125 -2.625 1.25 -2.359375 C 1.234375 -2.296875 1.109375 -1.828125 1.078125 -1.71875 L 0.78125 -0.515625 C 0.75 -0.390625 0.703125 -0.203125 0.703125 -0.171875 C 0.703125 0.015625 0.859375 0.078125 0.96875 0.078125 C 1.109375 0.078125 1.234375 -0.015625 1.28125 -0.109375 C 1.3125 -0.15625 1.375 -0.4375 1.40625 -0.59375 Z M 1.59375 -1.3125 "/>
</g>
</g>
<clipPath id="clip-0">
<path clip-rule="nonzero" d="M 0 0 L 11 0 L 11 9.234375 L 0 9.234375 Z M 0 0 "/>
</clipPath>
</defs>
<g clip-path="url(#clip-0)">
<g fill="rgb(0%, 0%, 0%)" fill-opacity="1">
<use xlink:href="#glyph-0-1" x="0.5" y="8.736"/>
</g>
</g>
<g fill="rgb(0%, 0%, 0%)" fill-opacity="1">
<use xlink:href="#glyph-1-1" x="13.367" y="8.736"/>
</g>
<g fill="rgb(0%, 0%, 0%)" fill-opacity="1">
<use xlink:href="#glyph-2-1" x="19.939" y="8.736"/>
</g>
<g fill="rgb(0%, 0%, 0%)" fill-opacity="1">
<use xlink:href="#glyph-3-1" x="29.238" y="4.398"/>
</g>
<g fill="rgb(0%, 0%, 0%)" fill-opacity="1">
<use xlink:href="#glyph-0-2" x="38.195" y="8.736"/>
<use xlink:href="#glyph-0-3" x="38.195" y="8.736"/>
</g>
<g fill="rgb(0%, 0%, 0%)" fill-opacity="1">
<use xlink:href="#glyph-2-1" x="53.471" y="8.736"/>
</g>
<g fill="rgb(0%, 0%, 0%)" fill-opacity="1">
<use xlink:href="#glyph-3-2" x="62.769" y="4.398"/>
</g>
</svg>
