<?xml version="1.0" encoding="UTF-8"?>
<svg xmlns="http://www.w3.org/2000/svg" xmlns:xlink="http://www.w3.org/1999/xlink" viewBox="0 0 15.271 9.236">
<defs>
<g>
<g id="glyph-0-0">
</g>
<g id="glyph-0-1">
<path d="M 7.859375 -8.015625 C 7.859375 -8.21875 7.859375 -8.421875 7.65625 -8.421875 C 7.640625 -8.421875 7.453125 -8.421875 7.4375 -8.203125 C 7.40625 -7.859375 7.125 -7.859375 7.046875 -7.859375 C 6.625 -7.859375 6.203125 -8.046875 5.96875 -8.15625 C 5.359375 -8.421875 4.84375 -8.421875 4.65625 -8.421875 C 2.65625 -8.421875 0.4375 -7.15625 0.4375 -4.09375 C 0.4375 -1.046875 2.609375 0.234375 4.671875 0.234375 C 5.3125 0.234375 6.15625 0.09375 7.03125 -0.4375 C 7.578125 -0.78125 8.1875 -1.375 8.1875 -1.546875 C 8.1875 -1.703125 8.015625 -1.78125 7.9375 -1.78125 C 7.859375 -1.78125 7.8125 -1.75 7.6875 -1.609375 C 7 -0.828125 5.921875 -0.34375 4.859375 -0.34375 C 3.015625 -0.34375 2.546875 -2.21875 2.546875 -4.078125 C 2.546875 -6.4375 3.40625 -8 4.6875 -8 C 5.578125 -8 7.015625 -7.125 7.421875 -5.859375 C 7.453125 -5.75 7.5 -5.625 7.65625 -5.625 C 7.859375 -5.625 7.859375 -5.828125 7.859375 -6.03125 Z M 7.4375 -6.796875 C 7.296875 -7 7.140625 -7.140625 6.84375 -7.453125 C 6.890625 -7.453125 7 -7.453125 7.046875 -7.453125 C 7.1875 -7.453125 7.34375 -7.46875 7.4375 -7.53125 Z M 3.1875 -7.71875 C 2.921875 -7.453125 2.125 -6.421875 2.125 -4.078125 C 2.125 -2.890625 2.3125 -1.25 3.375 -0.375 C 1.421875 -1.015625 0.859375 -2.625 0.859375 -4.09375 C 0.859375 -6.28125 2.0625 -7.34375 3.1875 -7.734375 Z M 3.1875 -7.71875 "/>
</g>
<g id="glyph-1-0">
</g>
<g id="glyph-1-1">
<path d="M 1.59375 -1.3125 C 1.625 -1.421875 1.703125 -1.734375 1.71875 -1.84375 C 1.828125 -2.28125 1.828125 -2.28125 2.015625 -2.546875 C 2.28125 -2.9375 2.65625 -3.296875 3.1875 -3.296875 C 3.46875 -3.296875 3.640625 -3.125 3.640625 -2.75 C 3.640625 -2.3125 3.3125 -1.40625 3.15625 -1.015625 C 3.046875 -0.75 3.046875 -0.703125 3.046875 -0.59375 C 3.046875 -0.140625 3.421875 0.078125 3.765625 0.078125 C 4.546875 0.078125 4.875 -1.03125 4.875 -1.140625 C 4.875 -1.21875 4.8125 -1.25 4.75 -1.25 C 4.65625 -1.25 4.640625 -1.1875 4.625 -1.109375 C 4.4375 -0.453125 4.09375 -0.140625 3.796875 -0.140625 C 3.671875 -0.140625 3.609375 -0.21875 3.609375 -0.40625 C 3.609375 -0.59375 3.671875 -0.765625 3.75 -0.96875 C 3.859375 -1.265625 4.21875 -2.1875 4.21875 -2.625 C 4.21875 -3.234375 3.796875 -3.515625 3.234375 -3.515625 C 2.578125 -3.515625 2.171875 -3.125 1.9375 -2.828125 C 1.875 -3.265625 1.53125 -3.515625 1.125 -3.515625 C 0.84375 -3.515625 0.640625 -3.328125 0.515625 -3.078125 C 0.3125 -2.703125 0.234375 -2.3125 0.234375 -2.296875 C 0.234375 -2.21875 0.296875 -2.1875 0.359375 -2.1875 C 0.46875 -2.1875 0.46875 -2.21875 0.53125 -2.4375 C 0.625 -2.828125 0.765625 -3.296875 1.09375 -3.296875 C 1.3125 -3.296875 1.359375 -3.09375 1.359375 -2.921875 C 1.359375 -2.765625 1.3125 -2.625 1.25 -2.359375 C 1.234375 -2.296875 1.109375 -1.828125 1.078125 -1.71875 L 0.78125 -0.515625 C 0.75 -0.390625 0.703125 -0.203125 0.703125 -0.171875 C 0.703125 0.015625 0.859375 0.078125 0.96875 0.078125 C 1.109375 0.078125 1.234375 -0.015625 1.28125 -0.109375 C 1.3125 -0.15625 1.375 -0.4375 1.40625 -0.59375 Z M 1.59375 -1.3125 "/>
</g>
</g>
</defs>
<g fill="rgb(0%, 0%, 0%)" fill-opacity="1">
<use xlink:href="#glyph-0-1" x="0.5" y="8.736"/>
</g>
<g fill="rgb(0%, 0%, 0%)" fill-opacity="1">
<use xlink:href="#glyph-1-1" x="9.134" y="4.398"/>
</g>
</svg>
