<?xml version="1.0" encoding="UTF-8"?>
<svg xmlns="http://www.w3.org/2000/svg" xmlns:xlink="http://www.w3.org/1999/xlink" viewBox="0 0 50.553 11.627">
<defs>
<g>
<g id="glyph-0-0">
</g>
<g id="glyph-0-1">
<path d="M 6.015625 -8 C 6.03125 -8.046875 6.046875 -8.109375 6.046875 -8.171875 C 6.046875 -8.296875 5.921875 -8.296875 5.90625 -8.296875 C 5.890625 -8.296875 5.3125 -8.25 5.25 -8.234375 C 5.046875 -8.21875 4.859375 -8.203125 4.65625 -8.1875 C 4.34375 -8.15625 4.265625 -8.15625 4.265625 -7.9375 C 4.265625 -7.8125 4.359375 -7.8125 4.53125 -7.8125 C 5.109375 -7.8125 5.125 -7.703125 5.125 -7.59375 C 5.125 -7.515625 5.109375 -7.421875 5.09375 -7.390625 L 4.359375 -4.484375 C 4.234375 -4.796875 3.90625 -5.265625 3.28125 -5.265625 C 1.9375 -5.265625 0.484375 -3.53125 0.484375 -1.75 C 0.484375 -0.578125 1.171875 0.125 1.984375 0.125 C 2.640625 0.125 3.203125 -0.390625 3.53125 -0.78125 C 3.65625 -0.078125 4.21875 0.125 4.578125 0.125 C 4.9375 0.125 5.21875 -0.09375 5.4375 -0.53125 C 5.625 -0.9375 5.796875 -1.65625 5.796875 -1.703125 C 5.796875 -1.765625 5.75 -1.8125 5.671875 -1.8125 C 5.5625 -1.8125 5.5625 -1.75 5.515625 -1.578125 C 5.328125 -0.875 5.109375 -0.125 4.609375 -0.125 C 4.265625 -0.125 4.25 -0.4375 4.25 -0.671875 C 4.25 -0.71875 4.25 -0.96875 4.328125 -1.296875 Z M 3.59375 -1.421875 C 3.53125 -1.21875 3.53125 -1.1875 3.375 -0.96875 C 3.109375 -0.640625 2.578125 -0.125 2.015625 -0.125 C 1.53125 -0.125 1.25 -0.5625 1.25 -1.265625 C 1.25 -1.921875 1.625 -3.265625 1.859375 -3.765625 C 2.265625 -4.609375 2.828125 -5.03125 3.28125 -5.03125 C 4.078125 -5.03125 4.234375 -4.046875 4.234375 -3.953125 C 4.234375 -3.9375 4.203125 -3.796875 4.1875 -3.765625 Z M 3.59375 -1.421875 "/>
</g>
<g id="glyph-0-2">
<path d="M 3.125 0.0625 L 1.859375 -0.4375 C 1.546875 -0.5625 0.84375 -0.84375 0.84375 -1.5625 C 0.84375 -2.59375 2.09375 -3.640625 2.34375 -3.640625 C 2.359375 -3.640625 2.46875 -3.609375 2.515625 -3.59375 C 2.828125 -3.5 3.140625 -3.5 3.359375 -3.5 C 3.734375 -3.5 4.4375 -3.5 4.4375 -3.84375 C 4.4375 -4.109375 4 -4.140625 3.484375 -4.140625 C 3.25 -4.140625 2.921875 -4.140625 2.5 -4 C 2.21875 -4.25 2.09375 -4.625 2.09375 -4.984375 C 2.09375 -5.640625 2.515625 -6.578125 3.46875 -7.015625 C 3.6875 -6.765625 3.96875 -6.765625 4.21875 -6.765625 C 4.515625 -6.765625 5.25 -6.765625 5.25 -7.109375 C 5.25 -7.40625 4.671875 -7.40625 4.296875 -7.40625 C 4.046875 -7.40625 3.875 -7.40625 3.53125 -7.34375 C 3.484375 -7.5 3.46875 -7.515625 3.46875 -7.78125 C 3.46875 -8 3.515625 -8.15625 3.515625 -8.203125 C 3.515625 -8.265625 3.453125 -8.3125 3.390625 -8.3125 C 3.203125 -8.3125 3.203125 -7.875 3.203125 -7.78125 C 3.203125 -7.609375 3.21875 -7.453125 3.28125 -7.296875 C 1.859375 -6.875 1.21875 -5.859375 1.21875 -5.078125 C 1.21875 -4.359375 1.703125 -3.96875 2.015625 -3.796875 C 0.78125 -3.125 0.265625 -1.90625 0.265625 -1.25 C 0.265625 -0.21875 1.203125 0.15625 1.640625 0.328125 L 2.71875 0.765625 C 3.015625 0.875 3.5 1.078125 3.578125 1.125 C 3.703125 1.203125 3.796875 1.34375 3.796875 1.546875 C 3.796875 1.796875 3.609375 2.203125 3.1875 2.203125 C 3.015625 2.203125 2.625 2.15625 2.1875 1.828125 C 2.109375 1.75 2.09375 1.75 2.046875 1.75 C 1.984375 1.75 1.921875 1.796875 1.921875 1.859375 C 1.921875 2 2.546875 2.4375 3.1875 2.4375 C 3.953125 2.4375 4.421875 1.703125 4.421875 1.1875 C 4.421875 0.8125 4.21875 0.515625 3.84375 0.34375 Z M 3.734375 -7.109375 C 3.9375 -7.171875 4.140625 -7.171875 4.296875 -7.171875 C 4.703125 -7.171875 4.734375 -7.15625 4.96875 -7.09375 C 4.828125 -7.046875 4.734375 -7 4.234375 -7 C 4 -7 3.859375 -7 3.734375 -7.109375 Z M 2.78125 -3.84375 C 3.078125 -3.90625 3.328125 -3.90625 3.484375 -3.90625 C 3.875 -3.90625 3.890625 -3.890625 4.15625 -3.84375 C 4.03125 -3.78125 3.921875 -3.734375 3.40625 -3.734375 C 3.125 -3.734375 3 -3.734375 2.78125 -3.84375 Z M 2.78125 -3.84375 "/>
</g>
<g id="glyph-0-3">
<path d="M 5.671875 -4.875 C 5.28125 -4.8125 5.140625 -4.515625 5.140625 -4.296875 C 5.140625 -4 5.359375 -3.90625 5.53125 -3.90625 C 5.890625 -3.90625 6.140625 -4.21875 6.140625 -4.546875 C 6.140625 -5.046875 5.5625 -5.265625 5.0625 -5.265625 C 4.34375 -5.265625 3.9375 -4.546875 3.828125 -4.328125 C 3.546875 -5.21875 2.8125 -5.265625 2.59375 -5.265625 C 1.375 -5.265625 0.734375 -3.703125 0.734375 -3.4375 C 0.734375 -3.390625 0.78125 -3.328125 0.859375 -3.328125 C 0.953125 -3.328125 0.984375 -3.40625 1 -3.453125 C 1.40625 -4.78125 2.21875 -5.03125 2.5625 -5.03125 C 3.09375 -5.03125 3.203125 -4.53125 3.203125 -4.25 C 3.203125 -3.984375 3.125 -3.703125 2.984375 -3.125 L 2.578125 -1.5 C 2.40625 -0.78125 2.0625 -0.125 1.421875 -0.125 C 1.359375 -0.125 1.0625 -0.125 0.8125 -0.28125 C 1.25 -0.359375 1.34375 -0.71875 1.34375 -0.859375 C 1.34375 -1.09375 1.15625 -1.25 0.9375 -1.25 C 0.640625 -1.25 0.328125 -0.984375 0.328125 -0.609375 C 0.328125 -0.109375 0.890625 0.125 1.40625 0.125 C 1.984375 0.125 2.390625 -0.328125 2.640625 -0.828125 C 2.828125 -0.125 3.4375 0.125 3.875 0.125 C 5.09375 0.125 5.734375 -1.453125 5.734375 -1.703125 C 5.734375 -1.765625 5.6875 -1.8125 5.625 -1.8125 C 5.515625 -1.8125 5.5 -1.75 5.46875 -1.65625 C 5.140625 -0.609375 4.453125 -0.125 3.90625 -0.125 C 3.484375 -0.125 3.265625 -0.4375 3.265625 -0.921875 C 3.265625 -1.1875 3.3125 -1.375 3.5 -2.15625 L 3.921875 -3.796875 C 4.09375 -4.5 4.5 -5.03125 5.0625 -5.03125 C 5.078125 -5.03125 5.421875 -5.03125 5.671875 -4.875 Z M 5.671875 -4.875 "/>
</g>
<g id="glyph-1-0">
</g>
<g id="glyph-1-1">
<path d="M 8.0625 -3.875 C 8.234375 -3.875 8.453125 -3.875 8.453125 -4.09375 C 8.453125 -4.3125 8.25 -4.3125 8.0625 -4.3125 L 1.03125 -4.3125 C 0.859375 -4.3125 0.640625 -4.3125 0.640625 -4.09375 C 0.640625 -3.875 0.84375 -3.875 1.03125 -3.875 Z M 8.0625 -1.65625 C 8.234375 -1.65625 8.453125 -1.65625 8.453125 -1.859375 C 8.453125 -2.09375 8.25 -2.09375 8.0625 -2.09375 L 1.03125 -2.09375 C 0.859375 -2.09375 0.640625 -2.09375 0.640625 -1.875 C 0.640625 -1.65625 0.84375 -1.65625 1.03125 -1.65625 Z M 8.0625 -1.65625 "/>
</g>
<g id="glyph-2-0">
</g>
<g id="glyph-2-1">
<path d="M 7.875 -2.75 C 8.078125 -2.75 8.296875 -2.75 8.296875 -2.984375 C 8.296875 -3.234375 8.078125 -3.234375 7.875 -3.234375 L 1.40625 -3.234375 C 1.203125 -3.234375 0.984375 -3.234375 0.984375 -2.984375 C 0.984375 -2.75 1.203125 -2.75 1.40625 -2.75 Z M 7.875 -2.75 "/>
</g>
</g>
<clipPath id="clip-0">
<path clip-rule="nonzero" d="M 0 0 L 12 0 L 12 11.628906 L 0 11.628906 Z M 0 0 "/>
</clipPath>
</defs>
<g clip-path="url(#clip-0)">
<g fill="rgb(0%, 0%, 0%)" fill-opacity="1">
<use xlink:href="#glyph-0-1" x="0.5" y="8.802"/>
<use xlink:href="#glyph-0-2" x="6.582806" y="8.802"/>
</g>
</g>
<g fill="rgb(0%, 0%, 0%)" fill-opacity="1">
<use xlink:href="#glyph-1-1" x="15.594" y="8.802"/>
</g>
<g fill="rgb(0%, 0%, 0%)" fill-opacity="1">
<use xlink:href="#glyph-2-1" x="28.019" y="8.802"/>
</g>
<g fill="rgb(0%, 0%, 0%)" fill-opacity="1">
<use xlink:href="#glyph-0-1" x="37.318" y="8.802"/>
<use xlink:href="#glyph-0-3" x="43.400806" y="8.802"/>
</g>
</svg>
