<?xml version="1.0" encoding="UTF-8"?>
<svg xmlns="http://www.w3.org/2000/svg" xmlns:xlink="http://www.w3.org/1999/xlink" viewBox="0 0 13.354 11.627">
<defs>
<g>
<g id="glyph-0-0">
</g>
<g id="glyph-0-1">
<path d="M 3.578125 -5.71875 C 3.578125 -5.953125 3.578125 -6.03125 3.46875 -6.03125 C 3.453125 -6.03125 3.4375 -6.03125 3.265625 -5.96875 L 1.21875 -5.21875 L 1.21875 -8.359375 C 1.21875 -8.5625 1.21875 -8.671875 1.09375 -8.671875 C 0.953125 -8.671875 0.953125 -8.546875 0.953125 -8.34375 L 0.953125 0.578125 C 0.953125 0.796875 0.953125 0.890625 1.078125 0.890625 C 1.09375 0.890625 1.109375 0.890625 1.28125 0.8125 L 3.328125 0.0625 L 3.328125 2.265625 C 3.328125 2.5 3.328125 2.578125 3.4375 2.578125 C 3.578125 2.578125 3.578125 2.46875 3.578125 2.265625 Z M 1.21875 -0.0625 L 1.21875 -4.3125 L 3.328125 -5.09375 L 3.328125 -0.84375 Z M 1.21875 -0.0625 "/>
</g>
</g>
<clipPath id="clip-0">
<path clip-rule="nonzero" d="M 5 0 L 8 0 L 8 11.628906 L 5 11.628906 Z M 5 0 "/>
</clipPath>
</defs>
<g clip-path="url(#clip-0)">
<g fill="rgb(0%, 0%, 0%)" fill-opacity="1">
<use xlink:href="#glyph-0-1" x="4.401" y="8.802"/>
</g>
</g>
</svg>
