<?xml version="1.0" encoding="UTF-8"?>
<svg xmlns="http://www.w3.org/2000/svg" xmlns:xlink="http://www.w3.org/1999/xlink" viewBox="0 0 6.515 11.162">
<defs>
<g>
<g id="glyph-0-0">
</g>
<g id="glyph-0-1">
<path d="M 4.1875 -3.796875 C 4.234375 -3.984375 4.234375 -4.140625 4.234375 -4.203125 C 4.234375 -4.890625 3.71875 -5.265625 3.171875 -5.265625 C 1.96875 -5.265625 1.328125 -3.53125 1.328125 -3.4375 C 1.328125 -3.375 1.375 -3.328125 1.453125 -3.328125 C 1.546875 -3.328125 1.546875 -3.375 1.609375 -3.5 C 2.09375 -4.65625 2.6875 -5.03125 3.140625 -5.03125 C 3.390625 -5.03125 3.53125 -4.90625 3.53125 -4.484375 C 3.53125 -4.203125 3.484375 -4.078125 3.4375 -3.859375 L 2.3125 0.640625 C 2.078125 1.53125 1.515625 2.203125 0.859375 2.203125 C 0.8125 2.203125 0.5625 2.203125 0.328125 2.078125 C 0.625 2.015625 0.84375 1.796875 0.84375 1.5 C 0.84375 1.3125 0.703125 1.125 0.4375 1.125 C 0.125 1.125 -0.15625 1.390625 -0.15625 1.75 C -0.15625 2.234375 0.375 2.4375 0.859375 2.4375 C 1.6875 2.4375 2.765625 1.828125 3.078125 0.640625 Z M 4.671875 -7.453125 C 4.671875 -7.75 4.421875 -7.859375 4.28125 -7.859375 C 3.953125 -7.859375 3.6875 -7.546875 3.6875 -7.28125 C 3.6875 -7.09375 3.828125 -6.890625 4.09375 -6.890625 C 4.359375 -6.890625 4.671875 -7.140625 4.671875 -7.453125 Z M 4.671875 -7.453125 "/>
</g>
</g>
</defs>
<g fill="rgb(0%, 0%, 0%)" fill-opacity="1">
<use xlink:href="#glyph-0-1" x="0.5" y="8.337"/>
</g>
</svg>
