<?xml version="1.0" encoding="UTF-8"?>
<svg xmlns="http://www.w3.org/2000/svg" xmlns:xlink="http://www.w3.org/1999/xlink" width="2701.702" height="14.14" viewBox="0 0 2701.702 14.14">
<defs>
<g>
<g id="glyph-0-0">
</g>
<g id="glyph-0-1">
<path d="M 1.703125 -0.640625 C 2.109375 -0.03125 2.765625 0.234375 3.453125 0.234375 C 5.078125 0.234375 6.28125 -1.375 6.28125 -2.84375 C 6.28125 -3.484375 6.03125 -4.171875 5.359375 -4.46875 C 4.609375 -4.796875 3.421875 -4.734375 3.171875 -5.609375 C 3.125 -5.703125 3.109375 -5.8125 3.109375 -5.921875 L 3.109375 -6 C 3.109375 -7.046875 4.015625 -8.109375 5.109375 -8.109375 C 6.046875 -8.109375 6.5 -7.3125 6.5 -6.4375 C 6.5 -6.125 6.421875 -5.859375 6.421875 -5.5625 C 6.4375 -5.484375 6.515625 -5.453125 6.59375 -5.453125 C 6.703125 -5.453125 6.75 -5.53125 6.78125 -5.625 L 7.40625 -8.140625 C 7.421875 -8.203125 7.4375 -8.25 7.453125 -8.3125 C 7.453125 -8.375 7.40625 -8.421875 7.34375 -8.421875 C 7.171875 -8.421875 6.9375 -8.015625 6.796875 -7.828125 C 6.734375 -7.75 6.6875 -7.65625 6.59375 -7.578125 C 6.390625 -8.1875 5.671875 -8.421875 5.09375 -8.421875 C 3.640625 -8.421875 2.359375 -7 2.359375 -5.609375 C 2.359375 -5.015625 2.625 -4.421875 3.15625 -4.125 C 4.03125 -3.640625 5.5625 -3.921875 5.5625 -2.390625 C 5.5625 -1.25 4.546875 -0.109375 3.515625 -0.109375 C 2.578125 -0.109375 1.765625 -0.6875 1.765625 -1.75 C 1.765625 -1.96875 1.796875 -2.21875 1.84375 -2.421875 C 1.859375 -2.46875 1.875 -2.53125 1.875 -2.59375 L 1.875 -2.625 C 1.859375 -2.703125 1.796875 -2.734375 1.71875 -2.734375 C 1.5625 -2.734375 1.546875 -2.625 1.515625 -2.515625 L 0.984375 -0.375 C 0.9375 -0.234375 0.859375 -0.015625 0.859375 0.125 C 0.859375 0.171875 0.90625 0.234375 0.953125 0.234375 C 1.15625 0.234375 1.65625 -0.5625 1.703125 -0.640625 Z M 1.703125 -0.640625 "/>
</g>
<g id="glyph-0-2">
<path d="M 4.109375 -5.265625 C 2.53125 -5.078125 1.3125 -3.375 1.3125 -1.828125 C 1.3125 -0.90625 1.8125 0.109375 2.984375 0.109375 L 3.109375 0.109375 C 4.671875 -0.03125 5.9375 -1.75 5.9375 -3.3125 C 5.9375 -4.21875 5.5 -5.265625 4.25 -5.265625 Z M 5.15625 -3.71875 C 5.0625 -2.703125 4.8125 -1.390625 4.015625 -0.640625 C 3.75 -0.375 3.375 -0.125 3 -0.125 C 2.3125 -0.125 2.078125 -0.828125 2.078125 -1.390625 L 2.078125 -1.5 C 2.109375 -1.859375 2.1875 -2.21875 2.265625 -2.5625 C 2.46875 -3.3125 2.71875 -4.078125 3.3125 -4.609375 C 3.5625 -4.8125 3.90625 -5.03125 4.265625 -5.03125 L 4.296875 -5.03125 C 4.90625 -5.03125 5.140625 -4.390625 5.15625 -3.921875 Z M 5.15625 -3.71875 "/>
</g>
<g id="glyph-0-3">
<path d="M 2.359375 -5.265625 C 1.578125 -5.15625 1.21875 -4.234375 1.046875 -3.640625 C 1.015625 -3.578125 0.984375 -3.515625 0.984375 -3.453125 C 0.984375 -3.375 1.078125 -3.328125 1.15625 -3.328125 C 1.5 -3.328125 1.5 -5.03125 2.46875 -5.03125 C 2.640625 -5.03125 2.71875 -4.875 2.71875 -4.6875 C 2.71875 -4.375 2.609375 -4.078125 2.5 -3.796875 C 2.234375 -3.0625 1.953125 -2.3125 1.703125 -1.578125 C 1.609375 -1.34375 1.5 -1.09375 1.5 -0.84375 C 1.5 -0.296875 1.8125 0.109375 2.46875 0.109375 C 3.28125 0.109375 3.859375 -1.265625 3.859375 -1.71875 C 3.859375 -1.796875 3.796875 -1.828125 3.703125 -1.828125 C 3.484375 -1.828125 3.453125 -1.46875 3.40625 -1.296875 C 3.265625 -0.84375 2.953125 -0.125 2.40625 -0.125 C 2.21875 -0.125 2.125 -0.296875 2.125 -0.46875 C 2.125 -0.75 2.234375 -1.0625 2.34375 -1.34375 C 2.5625 -1.921875 2.765625 -2.515625 2.984375 -3.109375 C 3.125 -3.484375 3.34375 -3.90625 3.34375 -4.328125 C 3.34375 -4.796875 3.09375 -5.265625 2.453125 -5.265625 Z M 3.375 -7.8125 C 3.125 -7.765625 2.90625 -7.53125 2.90625 -7.28125 C 2.90625 -7.078125 3.078125 -6.9375 3.28125 -6.9375 C 3.578125 -6.9375 3.8125 -7.203125 3.8125 -7.453125 C 3.8125 -7.65625 3.640625 -7.8125 3.4375 -7.8125 C 3.421875 -7.8125 3.390625 -7.8125 3.375 -7.8125 Z M 3.375 -7.8125 "/>
</g>
<g id="glyph-0-4">
<path d="M 2.328125 -4.8125 C 2.28125 -4.6875 2.265625 -4.546875 2.234375 -4.421875 L 1.5625 -1.75 C 1.5 -1.46875 1.40625 -1.1875 1.40625 -0.90625 C 1.40625 -0.484375 1.671875 0.109375 2.390625 0.109375 C 3.28125 0.109375 3.84375 -0.875 4.09375 -1.515625 C 4.125 -1.578125 4.15625 -1.65625 4.15625 -1.71875 C 4.15625 -1.78125 4.109375 -1.8125 4.046875 -1.8125 C 3.765625 -1.8125 3.75 -1.546875 3.671875 -1.34375 C 3.4375 -0.84375 3.03125 -0.125 2.421875 -0.125 C 2.1875 -0.125 2.078125 -0.296875 2.078125 -0.578125 L 2.078125 -0.703125 C 2.09375 -0.921875 2.140625 -1.125 2.1875 -1.34375 L 3.03125 -4.65625 C 3.0625 -4.765625 3.078125 -4.8125 3.171875 -4.8125 L 4 -4.8125 C 4.046875 -4.8125 4.109375 -4.796875 4.171875 -4.796875 C 4.296875 -4.796875 4.375 -4.859375 4.375 -5 C 4.375 -5.140625 4.296875 -5.15625 4.140625 -5.15625 C 4.0625 -5.15625 3.984375 -5.15625 3.890625 -5.15625 L 3.140625 -5.15625 C 3.265625 -5.578125 3.359375 -6.03125 3.46875 -6.453125 L 3.578125 -6.890625 C 3.609375 -7 3.640625 -7.078125 3.640625 -7.171875 C 3.640625 -7.390625 3.5 -7.484375 3.34375 -7.484375 C 2.9375 -7.484375 2.90625 -7.09375 2.828125 -6.796875 L 2.46875 -5.359375 C 2.4375 -5.25 2.4375 -5.140625 2.28125 -5.140625 C 2.21875 -5.140625 2.15625 -5.15625 2.125 -5.15625 L 1.515625 -5.15625 C 1.453125 -5.15625 1.40625 -5.15625 1.34375 -5.15625 C 1.203125 -5.15625 1.09375 -5.09375 1.09375 -4.953125 C 1.09375 -4.828125 1.171875 -4.8125 1.28125 -4.8125 Z M 2.328125 -4.8125 "/>
</g>
<g id="glyph-0-5">
<path d="M 1.953125 -1.15625 C 1.65625 -1.125 1.34375 -0.84375 1.34375 -0.5 C 1.34375 -0.25 1.5 -0.015625 1.796875 -0.015625 C 2.15625 -0.015625 2.515625 -0.328125 2.515625 -0.703125 C 2.515625 -0.984375 2.3125 -1.171875 2.046875 -1.171875 C 2.015625 -1.171875 1.984375 -1.15625 1.953125 -1.15625 Z M 1.953125 -1.15625 "/>
</g>
<g id="glyph-0-6">
<path d="M 4.4375 -0.609375 C 4.5 -0.171875 4.921875 0.109375 5.34375 0.109375 C 6.265625 0.109375 6.5625 -1.5625 6.5625 -1.703125 C 6.5625 -1.796875 6.484375 -1.8125 6.4375 -1.8125 C 6.1875 -1.8125 6.171875 -1.578125 6.125 -1.375 C 6.015625 -0.9375 5.8125 -0.125 5.359375 -0.125 C 5.15625 -0.125 5.046875 -0.359375 5.046875 -0.609375 C 5.046875 -0.890625 5.125 -1.203125 5.21875 -1.5 L 5.796875 -3.84375 C 5.875 -4.15625 6.03125 -4.5625 6.03125 -4.859375 C 6.03125 -5.015625 5.90625 -5.15625 5.734375 -5.15625 C 5.421875 -5.15625 5.3125 -4.875 5.265625 -4.609375 L 4.578125 -1.90625 C 4.484375 -1.5625 4.46875 -1.21875 4.28125 -0.890625 C 4.046875 -0.515625 3.640625 -0.125 3.171875 -0.125 L 3.078125 -0.125 C 2.640625 -0.21875 2.515625 -0.609375 2.515625 -1.015625 C 2.515625 -1.859375 2.859375 -2.71875 3.140625 -3.515625 C 3.25 -3.78125 3.359375 -4.078125 3.359375 -4.34375 C 3.359375 -4.90625 2.96875 -5.265625 2.5 -5.265625 C 1.625 -5.265625 1.234375 -4.265625 1.046875 -3.640625 C 1.015625 -3.578125 0.984375 -3.515625 0.984375 -3.453125 C 0.984375 -3.375 1.078125 -3.328125 1.15625 -3.328125 C 1.53125 -3.328125 1.46875 -5.03125 2.453125 -5.03125 C 2.671875 -5.03125 2.734375 -4.828125 2.734375 -4.640625 C 2.734375 -4.4375 2.65625 -4.203125 2.59375 -4.015625 C 2.296875 -3.125 1.828125 -2.171875 1.828125 -1.25 L 1.828125 -1.125 C 1.90625 -0.34375 2.359375 0.109375 3.109375 0.109375 C 3.484375 0.109375 3.84375 -0.03125 4.125 -0.28125 C 4.234375 -0.390625 4.328125 -0.515625 4.4375 -0.609375 Z M 4.4375 -0.609375 "/>
</g>
<g id="glyph-0-7">
<path d="M 2.3125 -0.609375 C 2.515625 -0.15625 2.859375 0.109375 3.28125 0.109375 C 3.828125 0.109375 4.328125 -0.234375 4.6875 -0.53125 C 5.46875 -1.28125 5.96875 -2.375 5.96875 -3.46875 C 5.96875 -4.25 5.578125 -5.265625 4.59375 -5.265625 C 4 -5.265625 3.515625 -4.84375 3.140625 -4.40625 C 3.125 -4.890625 2.6875 -5.265625 2.21875 -5.265625 C 1.34375 -5.265625 1.109375 -3.984375 1.03125 -3.59375 C 1.015625 -3.546875 0.984375 -3.5 0.984375 -3.453125 C 0.984375 -3.34375 1.078125 -3.34375 1.140625 -3.34375 C 1.25 -3.34375 1.296875 -3.359375 1.34375 -3.46875 C 1.515625 -4.03125 1.65625 -5.03125 2.1875 -5.03125 C 2.421875 -5.03125 2.5 -4.765625 2.5 -4.546875 C 2.5 -4.078125 2.3125 -3.59375 2.21875 -3.140625 L 1.140625 1.140625 C 1.09375 1.328125 1.0625 1.53125 0.984375 1.703125 C 0.90625 1.90625 0.71875 1.953125 0.515625 1.953125 L 0.375 1.953125 C 0.28125 1.953125 0.171875 2 0.171875 2.15625 L 0.171875 2.21875 C 0.171875 2.28125 0.25 2.3125 0.328125 2.3125 C 0.375 2.3125 0.4375 2.296875 0.46875 2.296875 L 0.609375 2.296875 C 0.78125 2.28125 0.9375 2.28125 1.09375 2.28125 C 1.53125 2.28125 1.96875 2.3125 2.40625 2.3125 C 2.515625 2.3125 2.578125 2.21875 2.578125 2.109375 C 2.578125 1.953125 2.40625 1.9375 2.21875 1.9375 L 2.09375 1.9375 C 1.90625 1.9375 1.734375 1.921875 1.734375 1.78125 L 1.734375 1.75 C 1.734375 1.65625 1.75 1.5625 1.78125 1.484375 L 1.90625 1 C 2.03125 0.46875 2.15625 -0.078125 2.3125 -0.609375 Z M 5.203125 -3.78125 C 5.15625 -3.34375 5.0625 -2.921875 4.953125 -2.5 C 4.71875 -1.59375 4.234375 -0.171875 3.3125 -0.125 L 3.28125 -0.125 C 2.71875 -0.125 2.46875 -0.890625 2.46875 -1.28125 C 2.484375 -1.40625 2.53125 -1.515625 2.5625 -1.640625 L 2.984375 -3.328125 C 3.03125 -3.484375 3.046875 -3.6875 3.125 -3.84375 C 3.296875 -4.234375 3.921875 -5.03125 4.546875 -5.03125 L 4.59375 -5.03125 C 5.0625 -5 5.21875 -4.40625 5.21875 -4 C 5.21875 -3.9375 5.21875 -3.84375 5.203125 -3.78125 Z M 5.203125 -3.78125 "/>
</g>
<g id="glyph-0-8">
<path d="M 1.25 -0.859375 L 1.296875 -0.859375 C 1.5625 -0.859375 1.8125 -1.109375 1.8125 -1.40625 C 1.8125 -1.609375 1.65625 -1.75 1.453125 -1.75 C 1.0625 -1.75 0.890625 -1.375 0.890625 -1.046875 C 0.890625 -0.203125 1.734375 0.109375 2.390625 0.109375 C 3.5625 0.109375 4.609375 -0.6875 4.609375 -1.90625 C 4.609375 -2.46875 4.1875 -2.921875 3.6875 -3.078125 C 3.203125 -3.25 2.421875 -3.203125 2.421875 -3.90625 C 2.421875 -4.578125 3.046875 -5.03125 3.625 -5.03125 C 4.015625 -5.03125 4.484375 -4.84375 4.546875 -4.40625 C 4.3125 -4.375 4.109375 -4.203125 4.109375 -3.953125 C 4.109375 -3.796875 4.234375 -3.640625 4.4375 -3.640625 C 4.75 -3.640625 4.90625 -3.96875 4.90625 -4.25 C 4.90625 -4.953125 4.25 -5.265625 3.640625 -5.265625 C 2.703125 -5.265625 1.8125 -4.546875 1.8125 -3.53125 C 1.8125 -1.953125 4 -2.8125 4 -1.5 C 4 -0.65625 3.171875 -0.125 2.421875 -0.125 C 1.9375 -0.125 1.34375 -0.328125 1.25 -0.859375 Z M 1.25 -0.859375 "/>
</g>
<g id="glyph-0-9">
<path d="M 3.171875 -4.296875 L 3.125 -4.5 C 3.015625 -4.96875 2.671875 -5.265625 2.21875 -5.265625 C 1.40625 -5.265625 1.15625 -4.140625 1.03125 -3.640625 C 1.015625 -3.578125 0.984375 -3.515625 0.984375 -3.453125 C 0.984375 -3.375 1.046875 -3.34375 1.125 -3.34375 C 1.375 -3.34375 1.375 -3.578125 1.40625 -3.765625 C 1.546875 -4.25 1.75 -5.03125 2.203125 -5.03125 C 2.4375 -5.03125 2.5 -4.75 2.5 -4.546875 C 2.5 -4.25 2.421875 -3.9375 2.34375 -3.640625 L 1.515625 -0.359375 C 1.5 -0.296875 1.5 -0.234375 1.5 -0.171875 C 1.5 -0.015625 1.609375 0.109375 1.78125 0.109375 C 2.125 0.109375 2.203125 -0.171875 2.265625 -0.453125 L 2.921875 -3.078125 C 3.125 -3.890625 3.828125 -5.03125 4.8125 -5.03125 L 4.859375 -5.03125 C 5.28125 -5.03125 5.375 -4.59375 5.375 -4.265625 C 5.375 -3.4375 5.015625 -2.515625 4.734375 -1.71875 C 4.625 -1.421875 4.5 -1.109375 4.5 -0.796875 C 4.5 -0.359375 4.8125 0.109375 5.359375 0.109375 C 6.21875 0.109375 6.640625 -0.921875 6.8125 -1.515625 C 6.828125 -1.5625 6.84375 -1.625 6.84375 -1.6875 L 6.84375 -1.71875 C 6.84375 -1.796875 6.78125 -1.8125 6.6875 -1.8125 C 6.359375 -1.8125 6.375 -0.640625 5.71875 -0.234375 C 5.625 -0.171875 5.5 -0.125 5.375 -0.125 C 5.15625 -0.125 5.109375 -0.328125 5.109375 -0.484375 C 5.109375 -0.59375 5.140625 -0.71875 5.15625 -0.8125 L 5.203125 -0.953125 C 5.484375 -1.90625 6.078125 -3.03125 6.078125 -4.078125 C 6.078125 -4.84375 5.546875 -5.265625 4.859375 -5.265625 C 4.203125 -5.265625 3.484375 -4.859375 3.171875 -4.296875 Z M 3.171875 -4.296875 "/>
</g>
<g id="glyph-0-10">
<path d="M 3.9375 -0.5625 C 3.828125 -0.03125 3.6875 0.484375 3.546875 1.015625 L 3.4375 1.453125 C 3.328125 1.921875 3.0625 1.953125 2.703125 1.953125 L 2.4375 1.953125 C 2.359375 1.984375 2.3125 2.078125 2.3125 2.15625 L 2.3125 2.21875 C 2.3125 2.265625 2.359375 2.296875 2.421875 2.3125 C 2.578125 2.3125 2.734375 2.3125 2.890625 2.28125 L 4.203125 2.28125 C 4.390625 2.28125 4.578125 2.3125 4.75 2.3125 C 4.90625 2.3125 4.96875 2.21875 4.96875 2.109375 C 4.96875 1.984375 4.875 1.953125 4.78125 1.953125 L 4.625 1.953125 C 4.40625 1.953125 4.109375 1.953125 4.109375 1.765625 L 4.109375 1.75 C 4.125 1.546875 4.203125 1.34375 4.25 1.140625 L 5.71875 -4.75 C 5.765625 -4.875 5.8125 -5.015625 5.8125 -5.15625 C 5.8125 -5.21875 5.765625 -5.265625 5.71875 -5.265625 C 5.53125 -5.265625 5.109375 -4.796875 4.96875 -4.484375 C 4.75 -4.90625 4.46875 -5.265625 3.953125 -5.265625 C 2.25 -5.265625 1.296875 -2.875 1.296875 -1.6875 C 1.296875 -0.875 1.640625 -0.015625 2.59375 0.109375 C 3.171875 0.109375 3.578125 -0.203125 3.9375 -0.5625 Z M 4.765625 -3.875 C 4.75 -3.734375 4.703125 -3.609375 4.671875 -3.484375 L 4.25 -1.8125 C 4.140625 -1.34375 4 -1.078125 3.703125 -0.734375 L 3.53125 -0.546875 C 3.328125 -0.34375 3 -0.125 2.703125 -0.125 C 2.15625 -0.125 2.03125 -0.796875 2.03125 -1.21875 C 2.0625 -1.6875 2.15625 -2.125 2.265625 -2.578125 C 2.46875 -3.3125 2.671875 -4.015625 3.171875 -4.59375 C 3.375 -4.8125 3.65625 -5.03125 3.953125 -5.03125 L 3.984375 -5.03125 C 4.515625 -5.015625 4.765625 -4.296875 4.765625 -3.921875 Z M 4.765625 -3.875 "/>
</g>
<g id="glyph-0-11">
<path d="M 2.3125 -2.78125 L 2.421875 -2.78125 C 3.265625 -2.78125 4.296875 -2.796875 4.921875 -3.296875 C 5.21875 -3.53125 5.421875 -3.921875 5.421875 -4.296875 C 5.421875 -4.8125 4.96875 -5.265625 4.234375 -5.265625 C 3.515625 -5.265625 2.828125 -4.90625 2.34375 -4.40625 C 1.703125 -3.78125 1.359375 -2.875 1.359375 -1.984375 C 1.359375 -1.0625 1.765625 0.109375 3 0.109375 C 3.90625 0.109375 4.828125 -0.375 5.359375 -1.0625 C 5.40625 -1.125 5.46875 -1.1875 5.46875 -1.265625 C 5.46875 -1.34375 5.375 -1.453125 5.296875 -1.453125 C 5.1875 -1.453125 4.984375 -1.109375 4.859375 -0.984375 C 4.390625 -0.515625 3.71875 -0.125 3.015625 -0.125 C 2.3125 -0.125 2.109375 -0.890625 2.109375 -1.453125 C 2.109375 -1.90625 2.265625 -2.34375 2.3125 -2.78125 Z M 2.390625 -3.03125 C 2.5625 -3.9375 3.296875 -5.03125 4.25 -5.03125 C 4.734375 -5.03125 5.015625 -4.671875 5.015625 -4.296875 C 5.015625 -3.03125 3.171875 -3.03125 2.390625 -3.03125 Z M 2.390625 -3.03125 "/>
</g>
<g id="glyph-0-12">
<path d="M 4.09375 -0.734375 C 4.203125 -0.265625 4.5 0.109375 5.03125 0.109375 C 5.671875 0.109375 5.921875 -0.53125 6.078125 -1.046875 L 6.234375 -1.546875 C 6.234375 -1.59375 6.25 -1.65625 6.25 -1.703125 C 6.25 -1.796875 6.1875 -1.828125 6.09375 -1.828125 C 5.625 -1.828125 5.859375 -0.125 5.046875 -0.125 C 4.828125 -0.125 4.75 -0.390625 4.75 -0.609375 L 4.75 -0.6875 C 4.78125 -0.953125 4.84375 -1.21875 4.90625 -1.5 L 5.625 -4.328125 C 5.65625 -4.453125 5.6875 -4.59375 5.703125 -4.71875 L 5.703125 -4.765625 C 5.703125 -4.953125 5.5625 -5.046875 5.40625 -5.046875 C 5.109375 -5.046875 4.96875 -4.78125 4.953125 -4.546875 C 4.703125 -4.953125 4.46875 -5.265625 3.953125 -5.265625 C 3.5625 -5.265625 3.140625 -5.078125 2.828125 -4.859375 L 2.578125 -4.640625 C 1.78125 -3.96875 1.296875 -2.6875 1.296875 -1.703125 C 1.296875 -0.953125 1.65625 0.109375 2.65625 0.109375 C 3.25 0.109375 3.71875 -0.296875 4.09375 -0.734375 Z M 4.75 -3.84375 C 4.734375 -3.6875 4.6875 -3.515625 4.640625 -3.359375 L 4.234375 -1.703125 C 4.203125 -1.59375 4.1875 -1.453125 4.125 -1.328125 C 3.84375 -0.65625 3.078125 -0.125 2.71875 -0.125 L 2.6875 -0.125 C 2.203125 -0.125 2.03125 -0.765625 2.03125 -1.1875 C 2.03125 -1.6875 2.171875 -2.15625 2.296875 -2.640625 C 2.46875 -3.359375 2.6875 -4.125 3.234375 -4.65625 C 3.4375 -4.859375 3.6875 -5.03125 3.96875 -5.03125 L 4 -5.03125 C 4.515625 -5.015625 4.765625 -4.296875 4.765625 -3.921875 C 4.765625 -3.890625 4.75 -3.859375 4.75 -3.84375 Z M 4.75 -3.84375 "/>
</g>
<g id="glyph-0-13">
<path d="M 3.40625 -8.3125 C 2.921875 -8.265625 1.953125 -8.234375 1.90625 -8.09375 C 1.890625 -8.0625 1.875 -8.03125 1.859375 -8.015625 L 1.859375 -7.953125 C 1.859375 -7.84375 1.953125 -7.828125 2.0625 -7.828125 L 2.140625 -7.828125 C 2.359375 -7.828125 2.71875 -7.828125 2.71875 -7.609375 C 2.71875 -7.359375 2.59375 -7.03125 2.515625 -6.765625 L 2.203125 -5.484375 C 1.859375 -4.09375 1.5 -2.703125 1.15625 -1.3125 C 1.125 -1.1875 1.109375 -1.0625 1.109375 -0.9375 C 1.109375 -0.40625 1.421875 0.109375 2.09375 0.109375 L 2.171875 0.109375 C 3.015625 0 3.21875 -1.5 3.234375 -1.546875 C 3.25 -1.59375 3.265625 -1.640625 3.265625 -1.6875 L 3.265625 -1.71875 C 3.265625 -1.796875 3.1875 -1.828125 3.109375 -1.828125 C 2.890625 -1.828125 2.875 -1.5 2.828125 -1.34375 C 2.71875 -0.890625 2.515625 -0.125 2.0625 -0.125 C 1.859375 -0.125 1.765625 -0.390625 1.765625 -0.609375 C 1.765625 -1.09375 1.96875 -1.65625 2.09375 -2.15625 L 3.53125 -7.859375 C 3.546875 -7.953125 3.578125 -8.0625 3.59375 -8.171875 C 3.59375 -8.234375 3.546875 -8.296875 3.484375 -8.3125 Z M 3.40625 -8.3125 "/>
</g>
<g id="glyph-0-14">
<path d="M 1.5 -0.859375 C 1.546875 -0.859375 1.59375 -0.84375 1.625 -0.84375 C 1.953125 -0.84375 2.296875 -1.09375 2.296875 -1.484375 C 2.296875 -1.703125 2.109375 -1.90625 1.84375 -1.90625 C 1.359375 -1.90625 1.171875 -1.4375 1.171875 -1.046875 C 1.171875 -0.203125 1.8125 0.234375 2.515625 0.234375 C 3.515625 0.234375 4.40625 -0.484375 4.796875 -1.375 C 4.859375 -1.5625 4.90625 -1.765625 4.953125 -1.96875 L 6.3125 -7.34375 C 6.390625 -7.8125 6.640625 -7.828125 6.96875 -7.828125 L 7.046875 -7.828125 C 7.171875 -7.828125 7.265625 -7.90625 7.265625 -8.046875 C 7.265625 -8.15625 7.171875 -8.171875 7.09375 -8.171875 C 6.921875 -8.15625 6.75 -8.15625 6.59375 -8.15625 L 5.1875 -8.15625 C 4.953125 -8.15625 4.703125 -8.171875 4.46875 -8.171875 C 4.359375 -8.171875 4.234375 -8.15625 4.234375 -7.953125 C 4.234375 -7.84375 4.34375 -7.828125 4.453125 -7.828125 L 4.8125 -7.828125 C 5.109375 -7.828125 5.46875 -7.8125 5.46875 -7.609375 L 5.46875 -7.546875 C 5.46875 -7.484375 5.46875 -7.40625 5.4375 -7.34375 L 4.125 -2.078125 C 3.9375 -1.328125 3.65625 -0.546875 2.953125 -0.125 C 2.8125 -0.046875 2.640625 0 2.46875 0 C 1.984375 0 1.640625 -0.328125 1.5 -0.859375 Z M 1.5 -0.859375 "/>
</g>
<g id="glyph-0-15">
<path d="M 5.140625 -4.46875 C 4.859375 -4.46875 4.578125 -4.25 4.578125 -3.9375 C 4.578125 -3.734375 4.734375 -3.578125 4.9375 -3.578125 C 5.296875 -3.578125 5.515625 -3.9375 5.515625 -4.25 C 5.515625 -4.90625 4.875 -5.265625 4.25 -5.265625 C 2.625 -5.265625 1.3125 -3.375 1.3125 -1.8125 C 1.3125 -0.796875 1.90625 0.109375 3.03125 0.109375 C 3.9375 0.109375 4.78125 -0.375 5.328125 -1.03125 C 5.375 -1.09375 5.46875 -1.1875 5.46875 -1.28125 L 5.46875 -1.296875 C 5.453125 -1.375 5.359375 -1.453125 5.296875 -1.453125 C 5.1875 -1.453125 4.953125 -1.09375 4.8125 -0.9375 C 4.34375 -0.5 3.6875 -0.125 3.03125 -0.125 L 2.96875 -0.125 C 2.328125 -0.171875 2.078125 -0.8125 2.078125 -1.34375 C 2.078125 -1.890625 2.21875 -2.453125 2.375 -2.96875 C 2.640625 -3.84375 3.234375 -5.03125 4.296875 -5.03125 C 4.65625 -5.03125 5.015625 -4.859375 5.140625 -4.46875 Z M 5.140625 -4.46875 "/>
</g>
<g id="glyph-0-16">
<path d="M 2.703125 -4.59375 C 2.9375 -5.4375 3.125 -6.296875 3.34375 -7.15625 L 3.53125 -7.890625 C 3.546875 -7.96875 3.578125 -8.078125 3.578125 -8.15625 L 3.578125 -8.21875 C 3.578125 -8.28125 3.515625 -8.3125 3.4375 -8.3125 C 2.765625 -8.3125 1.859375 -8.234375 1.859375 -7.96875 L 1.859375 -7.953125 C 1.859375 -7.84375 1.953125 -7.828125 2.0625 -7.828125 L 2.140625 -7.828125 C 2.359375 -7.828125 2.71875 -7.828125 2.71875 -7.609375 C 2.71875 -7.421875 2.625 -7.203125 2.578125 -7 L 1.734375 -3.609375 C 1.5625 -2.953125 1.359375 -2.296875 1.359375 -1.609375 C 1.359375 -0.859375 1.734375 0.109375 2.671875 0.109375 C 4.203125 0.109375 5.359375 -1.921875 5.359375 -3.4375 C 5.359375 -4.25 4.984375 -5.265625 4 -5.265625 C 3.484375 -5.265625 3.0625 -4.953125 2.703125 -4.59375 Z M 4.609375 -3.78125 C 4.5625 -3.34375 4.453125 -2.921875 4.359375 -2.515625 C 4.140625 -1.65625 3.6875 -0.125 2.671875 -0.125 C 2.09375 -0.15625 1.984375 -0.90625 1.984375 -1.296875 C 2.015625 -1.828125 2.140625 -2.359375 2.265625 -2.875 L 2.421875 -3.5 C 2.46875 -3.609375 2.46875 -3.734375 2.515625 -3.84375 C 2.78125 -4.390625 3.421875 -5.03125 3.984375 -5.03125 C 4.46875 -5.015625 4.609375 -4.40625 4.609375 -4 C 4.609375 -3.9375 4.609375 -3.84375 4.609375 -3.78125 Z M 4.609375 -3.78125 "/>
</g>
<g id="glyph-0-17">
<path d="M 5.90625 -8.96875 C 5.765625 -8.921875 5.53125 -8.703125 5.375 -8.578125 C 3.6875 -7.140625 2.65625 -5.125 2.109375 -3.015625 C 1.921875 -2.234375 1.78125 -1.421875 1.78125 -0.625 L 1.78125 -0.515625 C 1.78125 0.6875 2.03125 1.859375 2.828125 2.84375 C 2.875 2.90625 2.953125 2.984375 3.03125 2.984375 C 3.078125 2.984375 3.125 2.9375 3.125 2.890625 C 3.125 2.859375 3.109375 2.8125 3.078125 2.765625 C 2.515625 1.859375 2.328125 0.890625 2.328125 -0.125 C 2.328125 -1.09375 2.515625 -2.046875 2.75 -2.96875 C 3.28125 -5.125 4.203125 -7.140625 5.890625 -8.671875 C 5.96875 -8.71875 6.078125 -8.78125 6.078125 -8.875 C 6.078125 -8.9375 6.015625 -8.984375 5.953125 -8.984375 C 5.9375 -8.984375 5.921875 -8.96875 5.90625 -8.96875 Z M 5.90625 -8.96875 "/>
</g>
<g id="glyph-0-18">
<path d="M 5.234375 -4.859375 C 5 -4.8125 4.828125 -4.578125 4.828125 -4.34375 C 4.828125 -4.140625 4.96875 -4 5.21875 -4 C 5.53125 -4.015625 5.75 -4.296875 5.75 -4.578125 C 5.75 -5.203125 4.890625 -5.265625 4.609375 -5.265625 C 3.984375 -5.265625 3.640625 -4.96875 3.140625 -4.40625 C 3.015625 -4.90625 2.71875 -5.265625 2.203125 -5.265625 C 1.34375 -5.265625 1.15625 -4.078125 1.03125 -3.625 C 1.015625 -3.578125 0.984375 -3.53125 0.984375 -3.46875 C 0.984375 -3.359375 1.0625 -3.34375 1.140625 -3.34375 C 1.25 -3.34375 1.296875 -3.359375 1.34375 -3.46875 C 1.484375 -4 1.65625 -5.03125 2.171875 -5.03125 C 2.21875 -5.03125 2.28125 -5.015625 2.328125 -4.984375 L 2.40625 -4.90625 C 2.46875 -4.8125 2.484375 -4.6875 2.484375 -4.5625 C 2.484375 -4.3125 2.421875 -4.0625 2.359375 -3.8125 L 1.546875 -0.5 C 1.515625 -0.390625 1.46875 -0.28125 1.46875 -0.171875 C 1.46875 -0.015625 1.609375 0.109375 1.765625 0.109375 C 2.109375 0.109375 2.203125 -0.1875 2.265625 -0.484375 L 2.953125 -3.234375 C 3.125 -3.984375 3.6875 -4.9375 4.46875 -5.03125 L 4.5625 -5.03125 C 4.8125 -5.03125 5.046875 -4.984375 5.234375 -4.859375 Z M 5.234375 -4.859375 "/>
</g>
<g id="glyph-0-19">
<path d="M 4.109375 -5.265625 C 2.53125 -5.078125 1.3125 -3.375 1.3125 -1.828125 C 1.3125 -0.90625 1.8125 0.109375 2.984375 0.109375 L 3.109375 0.109375 C 4.671875 -0.03125 5.9375 -1.75 5.9375 -3.3125 C 5.9375 -4.21875 5.5 -5.265625 4.25 -5.265625 Z M 5.15625 -3.71875 C 5.0625 -2.703125 4.8125 -1.390625 4.015625 -0.640625 C 3.75 -0.375 3.375 -0.125 3 -0.125 C 2.3125 -0.125 2.078125 -0.828125 2.078125 -1.390625 L 2.078125 -1.5 C 2.109375 -1.859375 2.1875 -2.21875 2.265625 -2.5625 C 2.46875 -3.3125 2.71875 -4.078125 3.3125 -4.609375 C 3.5625 -4.8125 3.90625 -5.03125 4.265625 -5.03125 L 4.296875 -5.03125 C 4.90625 -5.03125 5.140625 -4.390625 5.15625 -3.921875 Z M 4.828125 -7.640625 C 4.84375 -7.640625 2.953125 -6.109375 2.953125 -5.828125 C 2.953125 -5.734375 3.03125 -5.671875 3.109375 -5.65625 C 3.171875 -5.65625 3.21875 -5.6875 3.25 -5.71875 L 3.46875 -5.90625 C 3.84375 -6.234375 4.28125 -6.578125 4.640625 -6.9375 C 4.65625 -6.953125 4.703125 -7 4.75 -7 C 4.953125 -7 5.484375 -5.671875 5.71875 -5.671875 L 5.828125 -5.703125 C 5.875 -5.71875 5.921875 -5.78125 5.921875 -5.84375 C 5.921875 -5.921875 5.84375 -6.03125 5.8125 -6.09375 L 5.15625 -7.25 C 5.078125 -7.390625 4.96875 -7.640625 4.859375 -7.640625 Z M 4.828125 -7.640625 "/>
</g>
<g id="glyph-0-20">
<path d="M 4.953125 -4.546875 L 4.9375 -4.546875 C 4.8125 -4.984375 4.40625 -5.265625 3.953125 -5.265625 C 3.078125 -5.265625 2.40625 -4.515625 2.0625 -4.046875 C 1.578125 -3.375 1.296875 -2.515625 1.296875 -1.703125 C 1.296875 -0.9375 1.65625 0.109375 2.65625 0.109375 C 3.25 0.109375 3.71875 -0.296875 4.09375 -0.734375 C 4.203125 -0.265625 4.5 0.109375 5.03125 0.109375 C 5.890625 0.109375 6.09375 -1.078125 6.234375 -1.5625 C 6.234375 -1.609375 6.25 -1.65625 6.25 -1.703125 C 6.25 -1.796875 6.1875 -1.8125 6.125 -1.8125 C 5.875 -1.8125 5.890625 -1.59375 5.828125 -1.40625 C 5.71875 -0.9375 5.5 -0.125 5.0625 -0.125 C 4.828125 -0.125 4.75 -0.375 4.75 -0.59375 C 4.75 -1.171875 5 -1.84375 5.140625 -2.421875 L 6.53125 -7.984375 C 6.53125 -8.046875 6.578125 -8.109375 6.578125 -8.1875 C 6.5625 -8.28125 6.484375 -8.3125 6.390625 -8.3125 C 5.984375 -8.3125 5.59375 -8.21875 5.1875 -8.203125 C 5.03125 -8.1875 4.84375 -8.203125 4.84375 -7.953125 C 4.84375 -7.6875 5.65625 -7.96875 5.6875 -7.609375 C 5.6875 -7.5 5.65625 -7.375 5.625 -7.265625 L 5.125 -5.3125 C 5.0625 -5.0625 4.984375 -4.796875 4.953125 -4.546875 Z M 4.765625 -3.875 C 4.75 -3.734375 4.703125 -3.609375 4.671875 -3.484375 L 4.25 -1.8125 C 4.140625 -1.34375 4 -1.078125 3.703125 -0.734375 L 3.53125 -0.546875 C 3.328125 -0.34375 3 -0.125 2.703125 -0.125 C 2.15625 -0.125 2.03125 -0.796875 2.03125 -1.21875 C 2.0625 -1.6875 2.15625 -2.125 2.265625 -2.578125 C 2.46875 -3.3125 2.671875 -4.03125 3.171875 -4.609375 C 3.375 -4.8125 3.65625 -5.03125 3.953125 -5.03125 L 3.984375 -5.03125 C 4.515625 -5.015625 4.765625 -4.296875 4.765625 -3.921875 Z M 4.765625 -3.875 "/>
</g>
<g id="glyph-0-21">
<path d="M 3.96875 -0.671875 C 3.71875 0.375 3.53125 2.1875 2.0625 2.1875 C 1.765625 2.1875 1.4375 2.171875 1.171875 2.0625 C 1.375 1.953125 1.515625 1.796875 1.546875 1.5625 C 1.546875 1.328125 1.359375 1.1875 1.171875 1.1875 C 0.859375 1.1875 0.609375 1.46875 0.609375 1.78125 C 0.609375 2.40625 1.546875 2.421875 1.9375 2.421875 L 2.046875 2.421875 C 2.921875 2.421875 3.84375 1.9375 4.21875 1.125 C 4.296875 0.9375 4.34375 0.734375 4.40625 0.53125 L 5.625 -4.375 C 5.65625 -4.484375 5.703125 -4.609375 5.703125 -4.734375 C 5.703125 -4.953125 5.5625 -5.046875 5.40625 -5.046875 C 5.125 -5.046875 4.984375 -4.8125 4.953125 -4.5625 C 4.734375 -4.96875 4.4375 -5.265625 3.953125 -5.265625 C 3.484375 -5.265625 3 -5 2.671875 -4.734375 C 1.828125 -4.046875 1.3125 -2.859375 1.3125 -1.796875 C 1.3125 -1.09375 1.609375 -0.015625 2.6875 -0.015625 C 3.1875 -0.015625 3.625 -0.328125 3.96875 -0.671875 Z M 4.765625 -3.890625 C 4.75 -3.734375 4.703125 -3.578125 4.65625 -3.4375 L 4.25 -1.828125 C 4.1875 -1.421875 4.015625 -1.171875 3.765625 -0.875 L 3.59375 -0.703125 C 3.375 -0.484375 3.0625 -0.25 2.734375 -0.25 C 2.21875 -0.25 2.0625 -0.84375 2.0625 -1.296875 C 2.0625 -1.765625 2.203125 -2.234375 2.296875 -2.671875 C 2.46875 -3.390625 2.6875 -4.109375 3.234375 -4.65625 C 3.421875 -4.84375 3.6875 -5.03125 3.96875 -5.03125 L 4 -5.03125 C 4.5 -5.015625 4.78125 -4.3125 4.78125 -3.953125 C 4.78125 -3.9375 4.765625 -3.90625 4.765625 -3.890625 Z M 4.765625 -3.890625 "/>
</g>
<g id="glyph-0-22">
<path d="M 3.171875 -8.96875 C 3.140625 -8.9375 3.125 -8.921875 3.125 -8.875 C 3.125 -8.734375 3.359375 -8.453125 3.453125 -8.265625 C 3.828125 -7.53125 3.9375 -6.671875 3.9375 -5.859375 C 3.9375 -4.90625 3.75 -3.953125 3.53125 -3.046875 C 3 -0.953125 2.09375 1.140625 0.453125 2.59375 C 0.359375 2.671875 0.171875 2.78125 0.171875 2.890625 C 0.171875 2.953125 0.234375 2.984375 0.3125 2.984375 C 0.453125 2.96875 0.6875 2.734375 0.84375 2.609375 C 3.21875 0.65625 4.46875 -2.6875 4.46875 -5.5625 L 4.46875 -5.875 C 4.421875 -6.921875 4.109375 -8.09375 3.40625 -8.859375 C 3.375 -8.90625 3.296875 -8.984375 3.234375 -8.984375 C 3.21875 -8.984375 3.1875 -8.96875 3.171875 -8.96875 Z M 3.171875 -8.96875 "/>
</g>
<g id="glyph-0-23">
<path d="M 2.953125 -5.140625 C 2.625 -5.09375 2.328125 -4.8125 2.328125 -4.453125 C 2.328125 -4.21875 2.53125 -4 2.796875 -4 C 3.140625 -4 3.53125 -4.296875 3.53125 -4.671875 C 3.53125 -4.953125 3.296875 -5.15625 3.046875 -5.15625 C 3.015625 -5.15625 2.984375 -5.140625 2.953125 -5.140625 Z M 1.953125 -1.15625 C 1.65625 -1.125 1.34375 -0.84375 1.34375 -0.5 C 1.34375 -0.25 1.5 -0.015625 1.796875 -0.015625 C 2.15625 -0.015625 2.515625 -0.328125 2.515625 -0.703125 C 2.515625 -0.984375 2.3125 -1.171875 2.046875 -1.171875 C 2.015625 -1.171875 1.984375 -1.15625 1.953125 -1.15625 Z M 1.953125 -1.15625 "/>
</g>
<g id="glyph-0-24">
<path d="M 2.3125 -2.78125 L 2.421875 -2.78125 C 3.265625 -2.78125 4.296875 -2.796875 4.921875 -3.296875 C 5.21875 -3.53125 5.421875 -3.921875 5.421875 -4.296875 C 5.421875 -4.8125 4.96875 -5.265625 4.234375 -5.265625 C 3.515625 -5.265625 2.828125 -4.90625 2.34375 -4.40625 C 1.703125 -3.78125 1.359375 -2.875 1.359375 -1.984375 C 1.359375 -1.0625 1.765625 0.109375 3 0.109375 C 3.90625 0.109375 4.828125 -0.375 5.359375 -1.0625 C 5.40625 -1.125 5.46875 -1.1875 5.46875 -1.265625 C 5.46875 -1.34375 5.375 -1.453125 5.296875 -1.453125 C 5.1875 -1.453125 4.984375 -1.109375 4.859375 -0.984375 C 4.390625 -0.515625 3.71875 -0.125 3.015625 -0.125 C 2.3125 -0.125 2.109375 -0.890625 2.109375 -1.453125 C 2.109375 -1.90625 2.265625 -2.34375 2.3125 -2.78125 Z M 2.390625 -3.03125 C 2.5625 -3.9375 3.296875 -5.03125 4.25 -5.03125 C 4.734375 -5.03125 5.015625 -4.671875 5.015625 -4.296875 C 5.015625 -3.03125 3.171875 -3.03125 2.390625 -3.03125 Z M 5.765625 -7.75 C 5.5625 -7.734375 5.359375 -7.5 5.1875 -7.359375 C 4.796875 -7.046875 4.40625 -6.71875 4.015625 -6.390625 C 3.9375 -6.328125 3.78125 -6.234375 3.78125 -6.125 C 3.78125 -6.046875 3.84375 -5.953125 3.9375 -5.9375 C 4 -5.9375 4.0625 -5.984375 4.125 -6.03125 L 4.484375 -6.234375 C 4.828125 -6.453125 5.171875 -6.65625 5.515625 -6.875 L 5.828125 -7.046875 C 6 -7.140625 6.125 -7.25 6.125 -7.453125 C 6.125 -7.609375 6.03125 -7.765625 5.828125 -7.765625 C 5.796875 -7.765625 5.765625 -7.75 5.765625 -7.75 Z M 5.765625 -7.75 "/>
</g>
<g id="glyph-0-25">
<path d="M 6.078125 -4.1875 C 6.015625 -4.9375 5.5 -5.265625 4.890625 -5.265625 C 4.21875 -5.265625 3.484375 -4.875 3.171875 -4.296875 L 3.125 -4.5 C 3.015625 -4.96875 2.671875 -5.265625 2.21875 -5.265625 C 1.40625 -5.265625 1.15625 -4.140625 1.03125 -3.640625 C 1.015625 -3.578125 0.984375 -3.515625 0.984375 -3.453125 C 0.984375 -3.375 1.0625 -3.328125 1.15625 -3.328125 C 1.59375 -3.328125 1.453125 -5.03125 2.1875 -5.03125 C 2.234375 -5.03125 2.296875 -5.015625 2.34375 -4.984375 L 2.421875 -4.90625 C 2.484375 -4.8125 2.5 -4.6875 2.5 -4.5625 C 2.5 -4.3125 2.4375 -4.0625 2.375 -3.8125 C 2.15625 -2.890625 1.921875 -1.984375 1.703125 -1.0625 L 1.546875 -0.484375 C 1.53125 -0.390625 1.484375 -0.28125 1.484375 -0.171875 C 1.484375 0 1.640625 0.109375 1.8125 0.109375 L 1.828125 0.109375 C 2.15625 0.078125 2.203125 -0.21875 2.28125 -0.484375 L 2.921875 -3.09375 C 3.140625 -3.96875 3.890625 -5.03125 4.8125 -5.03125 C 5.28125 -5.03125 5.390625 -4.625 5.390625 -4.265625 C 5.390625 -3.78125 5.234375 -3.3125 5.109375 -2.828125 L 4.546875 -0.5 C 4.5 -0.390625 4.46875 -0.28125 4.46875 -0.171875 C 4.46875 0 4.625 0.109375 4.796875 0.109375 L 4.84375 0.109375 C 5.1875 0.0625 5.21875 -0.296875 5.296875 -0.59375 L 5.921875 -3.15625 C 6.125 -4 6.890625 -5.015625 7.8125 -5.03125 L 7.875 -5.03125 C 8.296875 -4.921875 8.359375 -4.59375 8.359375 -4.21875 L 8.359375 -4.125 C 8.359375 -3.84375 8.265625 -3.53125 8.21875 -3.28125 C 8.09375 -2.828125 7.953125 -2.375 7.796875 -1.953125 C 7.671875 -1.578125 7.484375 -1.1875 7.484375 -0.78125 L 7.484375 -0.71875 C 7.53125 -0.234375 7.859375 0.109375 8.34375 0.109375 C 9.15625 0.109375 9.734375 -0.96875 9.84375 -1.671875 L 9.84375 -1.703125 C 9.84375 -1.796875 9.765625 -1.8125 9.6875 -1.8125 C 9.328125 -1.8125 9.3125 -0.125 8.40625 -0.125 C 8.1875 -0.125 8.109375 -0.28125 8.109375 -0.4375 L 8.109375 -0.484375 C 8.109375 -0.734375 8.171875 -0.96875 8.265625 -1.1875 C 8.5 -1.875 8.75 -2.546875 8.921875 -3.25 C 9 -3.515625 9.0625 -3.796875 9.0625 -4.0625 C 9.0625 -4.8125 8.5625 -5.265625 7.828125 -5.265625 C 7.25 -5.265625 6.734375 -4.984375 6.359375 -4.5625 C 6.265625 -4.453125 6.140625 -4.328125 6.078125 -4.1875 Z M 6.078125 -4.1875 "/>
</g>
<g id="glyph-0-26">
<path d="M 3.703125 -4.09375 L 7 -4.09375 C 6.796875 -3.3125 6.609375 -2.515625 6.421875 -1.734375 L 6.234375 -1.046875 C 6.078125 -0.375 5.890625 -0.359375 5.359375 -0.359375 L 5.1875 -0.359375 C 5.046875 -0.359375 4.96875 -0.296875 4.96875 -0.125 C 4.96875 -0.0625 5.03125 -0.03125 5.09375 -0.015625 C 5.15625 -0.015625 5.21875 -0.03125 5.296875 -0.03125 L 5.59375 -0.03125 C 5.6875 -0.03125 5.78125 -0.03125 5.875 -0.03125 L 7.140625 -0.03125 C 7.34375 -0.03125 7.5625 -0.015625 7.765625 -0.015625 C 7.875 -0.015625 7.96875 -0.0625 7.96875 -0.234375 C 7.96875 -0.515625 7.046875 -0.234375 7.046875 -0.546875 L 7.046875 -0.59375 C 7.0625 -0.84375 7.140625 -1.09375 7.203125 -1.328125 L 8.578125 -6.828125 C 8.65625 -7.15625 8.71875 -7.65625 8.984375 -7.75 C 9.140625 -7.828125 9.375 -7.828125 9.546875 -7.828125 C 9.59375 -7.828125 9.65625 -7.8125 9.71875 -7.8125 C 9.84375 -7.8125 9.9375 -7.890625 9.9375 -8.03125 C 9.9375 -8.125 9.875 -8.171875 9.796875 -8.171875 C 9.59375 -8.171875 9.390625 -8.15625 9.1875 -8.15625 L 7.75 -8.15625 C 7.5625 -8.15625 7.375 -8.171875 7.1875 -8.171875 L 7.109375 -8.171875 C 6.984375 -8.171875 6.921875 -8.078125 6.921875 -7.953125 C 6.9375 -7.84375 7.03125 -7.828125 7.109375 -7.828125 L 7.296875 -7.828125 C 7.5625 -7.828125 7.859375 -7.8125 7.859375 -7.609375 C 7.859375 -7.40625 7.78125 -7.203125 7.734375 -7 L 7.140625 -4.671875 C 7.125 -4.5625 7.125 -4.421875 6.96875 -4.421875 C 6.921875 -4.421875 6.875 -4.4375 6.84375 -4.4375 L 3.796875 -4.4375 C 3.953125 -5.125 4.140625 -5.828125 4.3125 -6.515625 L 4.484375 -7.1875 C 4.515625 -7.3125 4.546875 -7.453125 4.609375 -7.578125 C 4.734375 -7.8125 5.046875 -7.828125 5.296875 -7.828125 L 5.5 -7.828125 C 5.671875 -7.828125 5.671875 -7.859375 5.75 -8.03125 C 5.75 -8.125 5.671875 -8.171875 5.578125 -8.171875 C 5.53125 -8.171875 5.5 -8.15625 5.453125 -8.15625 L 5.15625 -8.15625 C 4.953125 -8.15625 4.75 -8.15625 4.546875 -8.15625 C 4.015625 -8.15625 3.484375 -8.171875 2.9375 -8.171875 C 2.828125 -8.171875 2.734375 -8.109375 2.734375 -7.96875 C 2.734375 -7.890625 2.78125 -7.828125 2.890625 -7.828125 L 3.1875 -7.828125 C 3.4375 -7.828125 3.6875 -7.8125 3.6875 -7.609375 L 3.6875 -7.546875 C 3.640625 -7.296875 3.5625 -7.0625 3.5 -6.84375 L 2.015625 -0.828125 C 1.90625 -0.453125 1.71875 -0.359375 1.125 -0.359375 L 1 -0.359375 C 0.890625 -0.359375 0.78125 -0.328125 0.78125 -0.140625 C 0.78125 -0.078125 0.828125 -0.03125 0.890625 -0.015625 L 0.9375 -0.015625 C 0.984375 -0.015625 1.046875 -0.03125 1.09375 -0.03125 L 1.390625 -0.03125 C 1.625 -0.03125 1.859375 -0.046875 2.09375 -0.046875 C 2.59375 -0.046875 3.078125 -0.015625 3.578125 -0.015625 C 3.71875 -0.015625 3.796875 -0.09375 3.796875 -0.234375 C 3.796875 -0.53125 2.84375 -0.203125 2.84375 -0.578125 C 2.859375 -0.6875 2.890625 -0.8125 2.921875 -0.9375 L 3.640625 -3.75 C 3.65625 -3.859375 3.6875 -3.984375 3.703125 -4.09375 Z M 3.703125 -4.09375 "/>
</g>
<g id="glyph-0-27">
<path d="M 2.59375 -5.15625 L 1.65625 -5.15625 C 1.578125 -5.125 1.53125 -5.015625 1.53125 -4.9375 C 1.53125 -4.828125 1.609375 -4.8125 1.703125 -4.8125 L 2.515625 -4.8125 C 2.15625 -2.921875 1.84375 -1.03125 1.390625 0.84375 C 1.265625 1.34375 1.140625 2.1875 0.609375 2.1875 C 0.390625 2.1875 0.25 2.09375 0.125 1.953125 C 0.375 1.90625 0.609375 1.734375 0.609375 1.4375 C 0.609375 1.25 0.53125 1.140625 0.3125 1.078125 C -0.078125 1.078125 -0.3125 1.34375 -0.3125 1.6875 C -0.3125 2.15625 0.15625 2.421875 0.59375 2.421875 C 1.53125 2.421875 1.953125 1.171875 2.203125 0.328125 C 2.671875 -1.3125 2.890625 -3.015625 3.21875 -4.65625 C 3.234375 -4.75 3.25 -4.8125 3.375 -4.8125 L 5.609375 -4.8125 C 5.515625 -4.546875 5.46875 -4.28125 5.40625 -4.015625 L 4.8125 -1.640625 C 4.75 -1.4375 4.703125 -1.234375 4.6875 -1.015625 L 4.6875 -0.984375 C 4.6875 -0.46875 4.984375 0.109375 5.625 0.109375 C 6.484375 0.109375 6.84375 -1.3125 6.84375 -1.703125 C 6.84375 -1.78125 6.796875 -1.828125 6.703125 -1.828125 C 6.484375 -1.828125 6.46875 -1.546875 6.4375 -1.375 C 6.296875 -0.90625 6.078125 -0.125 5.65625 -0.125 C 5.421875 -0.125 5.359375 -0.375 5.359375 -0.578125 L 5.359375 -0.71875 C 5.375 -0.9375 5.421875 -1.171875 5.46875 -1.40625 C 5.6875 -2.25 5.90625 -3.078125 6.109375 -3.9375 L 6.328125 -4.796875 C 6.328125 -4.859375 6.390625 -4.953125 6.390625 -5.03125 C 6.390625 -5.140625 6.296875 -5.15625 6.21875 -5.15625 L 3.328125 -5.15625 C 3.34375 -5.375 3.40625 -5.609375 3.4375 -5.828125 C 3.640625 -6.84375 3.671875 -8.1875 5.34375 -8.1875 C 5.71875 -8.1875 6.28125 -8.15625 6.5625 -7.828125 C 6.3125 -7.765625 6.078125 -7.609375 6.078125 -7.296875 C 6.078125 -7.109375 6.1875 -6.9375 6.4375 -6.9375 C 6.78125 -6.9375 7 -7.25 7 -7.5625 C 7 -8.3125 6.015625 -8.421875 5.453125 -8.421875 C 4.828125 -8.421875 4.25 -8.375 3.6875 -7.96875 C 3.0625 -7.515625 2.90625 -6.703125 2.75 -6 C 2.703125 -5.71875 2.625 -5.4375 2.59375 -5.15625 Z M 2.59375 -5.15625 "/>
</g>
<g id="glyph-0-28">
<path d="M 5.3125 -5.265625 C 5.0625 -5.265625 4.8125 -5.03125 4.8125 -4.765625 C 4.8125 -4.5625 4.953125 -4.46875 5.046875 -4.3125 C 5.171875 -4.09375 5.25 -3.828125 5.25 -3.578125 C 5.25 -3.234375 5.15625 -2.890625 5.0625 -2.5625 C 4.78125 -1.578125 4.328125 -0.125 3.265625 -0.125 C 2.703125 -0.125 2.515625 -0.6875 2.515625 -1.125 C 2.515625 -1.453125 2.609375 -1.75 2.671875 -2.0625 C 2.796875 -2.578125 2.984375 -3.078125 3.171875 -3.5625 C 3.25 -3.8125 3.359375 -4.0625 3.359375 -4.34375 C 3.359375 -4.8125 3.0625 -5.265625 2.515625 -5.265625 L 2.484375 -5.265625 C 1.609375 -5.265625 1.171875 -4.1875 1.015625 -3.5625 C 1 -3.53125 0.984375 -3.484375 0.984375 -3.453125 C 0.984375 -3.375 1.0625 -3.34375 1.15625 -3.34375 C 1.390625 -3.34375 1.375 -3.640625 1.4375 -3.8125 C 1.578125 -4.28125 1.90625 -5.03125 2.4375 -5.03125 C 2.671875 -5.03125 2.71875 -4.859375 2.71875 -4.703125 L 2.71875 -4.609375 C 2.65625 -3.90625 2.265625 -3.171875 2.078125 -2.546875 L 1.96875 -2.1875 C 1.90625 -1.90625 1.84375 -1.578125 1.84375 -1.265625 C 1.84375 -0.65625 2.109375 0.109375 3.28125 0.109375 L 3.375 0.109375 C 4.421875 0.03125 4.984375 -1.25 5.265625 -2.140625 C 5.4375 -2.640625 5.5625 -3.171875 5.671875 -3.6875 C 5.734375 -3.9375 5.78125 -4.203125 5.78125 -4.484375 C 5.78125 -4.765625 5.71875 -5.265625 5.34375 -5.265625 Z M 5.3125 -5.265625 "/>
</g>
<g id="glyph-0-29">
<path d="M 2.28125 -0.1875 C 2.0625 0.75 1.609375 1.421875 0.9375 2.046875 C 0.890625 2.0625 0.84375 2.125 0.84375 2.1875 C 0.84375 2.265625 0.921875 2.296875 0.9375 2.296875 C 1.09375 2.296875 1.4375 1.90625 1.59375 1.71875 C 2.109375 1.109375 2.5625 0.296875 2.5625 -0.53125 C 2.5625 -0.796875 2.46875 -1.171875 2.09375 -1.171875 C 1.703125 -1.171875 1.34375 -0.890625 1.34375 -0.484375 C 1.34375 -0.25 1.5 -0.015625 1.78125 -0.015625 C 1.953125 -0.015625 2.140625 -0.0625 2.28125 -0.1875 Z M 2.28125 -0.1875 "/>
</g>
<g id="glyph-0-30">
<path d="M 4.09375 -7.34375 C 3.9375 -6.421875 3.359375 -5.6875 2.703125 -5.078125 C 2.65625 -5.046875 2.625 -5 2.625 -4.953125 C 2.625 -4.890625 2.671875 -4.84375 2.71875 -4.84375 C 2.890625 -4.84375 3.25 -5.25 3.4375 -5.46875 C 3.9375 -6.0625 4.359375 -6.890625 4.359375 -7.640625 C 4.359375 -7.96875 4.203125 -8.3125 3.828125 -8.3125 C 3.4375 -8.3125 3.125 -7.984375 3.125 -7.59375 L 3.125 -7.546875 C 3.1875 -7.265625 3.328125 -7.140625 3.59375 -7.140625 C 3.796875 -7.140625 3.9375 -7.21875 4.09375 -7.34375 Z M 4.09375 -7.34375 "/>
</g>
<g id="glyph-0-31">
<path d="M 1.1875 -2.875 C 1.09375 -2.828125 1.03125 -2.5625 1.015625 -2.421875 C 1.015625 -2.3125 1.078125 -2.265625 1.1875 -2.265625 L 3.6875 -2.265625 C 3.90625 -2.265625 3.9375 -2.5625 3.953125 -2.75 L 3.953125 -2.765625 C 3.953125 -2.875 3.859375 -2.890625 3.78125 -2.890625 L 1.296875 -2.890625 C 1.25 -2.890625 1.21875 -2.890625 1.1875 -2.875 Z M 1.1875 -2.875 "/>
</g>
<g id="glyph-0-32">
<path d="M 4.09375 -0.734375 C 4.203125 -0.265625 4.5 0.109375 5.03125 0.109375 C 5.671875 0.109375 5.921875 -0.53125 6.078125 -1.046875 L 6.234375 -1.546875 C 6.234375 -1.59375 6.25 -1.65625 6.25 -1.703125 C 6.25 -1.796875 6.1875 -1.828125 6.09375 -1.828125 C 5.625 -1.828125 5.859375 -0.125 5.046875 -0.125 C 4.828125 -0.125 4.75 -0.390625 4.75 -0.609375 L 4.75 -0.6875 C 4.78125 -0.953125 4.84375 -1.21875 4.90625 -1.5 L 5.625 -4.328125 C 5.65625 -4.453125 5.6875 -4.59375 5.703125 -4.71875 L 5.703125 -4.765625 C 5.703125 -4.953125 5.5625 -5.046875 5.40625 -5.046875 C 5.109375 -5.046875 4.96875 -4.78125 4.953125 -4.546875 C 4.703125 -4.953125 4.46875 -5.265625 3.953125 -5.265625 C 3.5625 -5.265625 3.140625 -5.078125 2.828125 -4.859375 L 2.578125 -4.640625 C 1.78125 -3.96875 1.296875 -2.6875 1.296875 -1.703125 C 1.296875 -0.953125 1.65625 0.109375 2.65625 0.109375 C 3.25 0.109375 3.71875 -0.296875 4.09375 -0.734375 Z M 4.75 -3.84375 C 4.734375 -3.6875 4.6875 -3.515625 4.640625 -3.359375 L 4.234375 -1.703125 C 4.203125 -1.59375 4.1875 -1.453125 4.125 -1.328125 C 3.84375 -0.65625 3.078125 -0.125 2.71875 -0.125 L 2.6875 -0.125 C 2.203125 -0.125 2.03125 -0.765625 2.03125 -1.1875 C 2.03125 -1.6875 2.171875 -2.15625 2.296875 -2.640625 C 2.46875 -3.359375 2.6875 -4.125 3.234375 -4.65625 C 3.4375 -4.859375 3.6875 -5.03125 3.96875 -5.03125 L 4 -5.03125 C 4.515625 -5.015625 4.765625 -4.296875 4.765625 -3.921875 C 4.765625 -3.890625 4.75 -3.859375 4.75 -3.84375 Z M 3.59375 -7.75 C 3.40625 -7.734375 3.234375 -7.546875 3.234375 -7.34375 C 3.234375 -7.125 3.484375 -7 3.640625 -6.84375 L 4.296875 -6.28125 C 4.421875 -6.171875 4.640625 -5.9375 4.75 -5.9375 C 4.859375 -5.9375 4.9375 -6.0625 4.9375 -6.125 C 4.9375 -6.234375 4.84375 -6.328125 4.796875 -6.40625 C 4.453125 -6.890625 3.953125 -7.765625 3.671875 -7.765625 C 3.640625 -7.765625 3.625 -7.75 3.59375 -7.75 Z M 3.59375 -7.75 "/>
</g>
<g id="glyph-0-33">
<path d="M 1.09375 -0.28125 L 1.09375 -0.296875 C 1.34375 -0.375 1.515625 -0.5625 1.515625 -0.828125 C 1.515625 -1 1.390625 -1.171875 1.140625 -1.171875 C 0.8125 -1.15625 0.59375 -0.890625 0.59375 -0.578125 C 0.59375 -0.03125 1.25 0.109375 1.625 0.109375 L 1.75 0.109375 C 2.171875 0.046875 2.59375 -0.328125 2.75 -0.71875 L 2.765625 -0.71875 C 2.921875 -0.234375 3.328125 0.109375 3.875 0.109375 C 4.75 0.109375 5.34375 -0.78125 5.609375 -1.5 C 5.625 -1.546875 5.671875 -1.640625 5.671875 -1.703125 C 5.671875 -1.796875 5.59375 -1.8125 5.53125 -1.8125 C 5.265625 -1.8125 5.265625 -1.53125 5.203125 -1.34375 C 4.96875 -0.796875 4.5 -0.125 3.90625 -0.125 C 3.5 -0.125 3.328125 -0.5625 3.328125 -0.921875 C 3.328125 -1.203125 3.421875 -1.5 3.484375 -1.78125 C 3.609375 -2.28125 3.734375 -2.78125 3.859375 -3.28125 C 4.015625 -3.9375 4.25 -5.03125 5.03125 -5.03125 C 5.234375 -5.03125 5.390625 -4.953125 5.5625 -4.875 L 5.5625 -4.859375 C 5.3125 -4.796875 5.125 -4.609375 5.125 -4.296875 C 5.15625 -4.09375 5.3125 -4 5.515625 -4 L 5.546875 -4 C 5.859375 -4.015625 6.046875 -4.296875 6.046875 -4.578125 C 6.046875 -5.0625 5.484375 -5.265625 5.0625 -5.265625 C 4.5 -5.265625 4.28125 -4.953125 3.875 -4.453125 C 3.734375 -4.96875 3.25 -5.265625 2.765625 -5.265625 C 1.875 -5.265625 1.25 -4.34375 1.046875 -3.640625 C 1.015625 -3.578125 0.984375 -3.515625 0.984375 -3.453125 C 0.984375 -3.375 1.0625 -3.34375 1.125 -3.34375 C 1.359375 -3.34375 1.390625 -3.625 1.46875 -3.84375 C 1.6875 -4.375 2.125 -5.03125 2.75 -5.03125 C 3.125 -5.03125 3.3125 -4.640625 3.3125 -4.296875 C 3.3125 -3.984375 3.234375 -3.65625 3.140625 -3.34375 L 2.765625 -1.8125 C 2.625 -1.203125 2.40625 -0.125 1.609375 -0.125 C 1.421875 -0.125 1.25 -0.21875 1.09375 -0.28125 Z M 1.09375 -0.28125 "/>
</g>
<g id="glyph-0-34">
<path d="M 6.390625 -8.421875 C 3.796875 -8.1875 1.75 -5.359375 1.75 -2.828125 C 1.75 -1.453125 2.453125 0.234375 4.453125 0.234375 L 4.578125 0.234375 C 7.15625 0.03125 9.234375 -2.765625 9.234375 -5.328125 C 9.234375 -6.59375 8.703125 -8.015625 7.140625 -8.359375 C 6.953125 -8.40625 6.765625 -8.4375 6.5625 -8.4375 C 6.5 -8.4375 6.453125 -8.421875 6.390625 -8.421875 Z M 8.296875 -5.5625 C 8.140625 -3.796875 7.484375 -1.859375 6.09375 -0.703125 C 5.671875 -0.359375 5.15625 -0.09375 4.609375 -0.03125 L 4.5 -0.03125 C 3.125 -0.03125 2.71875 -1.453125 2.71875 -2.46875 C 2.71875 -4.203125 3.46875 -6.53125 5.0625 -7.65625 C 5.5 -7.9375 5.984375 -8.15625 6.515625 -8.15625 L 6.59375 -8.15625 C 7.921875 -8.0625 8.3125 -6.796875 8.3125 -5.78125 C 8.3125 -5.703125 8.3125 -5.625 8.296875 -5.5625 Z M 8.296875 -5.5625 "/>
</g>
<g id="glyph-0-35">
<path d="M 6.140625 -2.8125 C 6.15625 -2.15625 6.21875 -1.5 6.28125 -0.875 C 6.28125 -0.84375 6.28125 -0.78125 6.28125 -0.75 C 6.28125 -0.4375 5.859375 -0.375 5.640625 -0.359375 L 5.515625 -0.359375 C 5.421875 -0.359375 5.296875 -0.328125 5.296875 -0.171875 L 5.296875 -0.125 C 5.3125 -0.03125 5.375 -0.015625 5.46875 -0.015625 C 5.515625 -0.015625 5.59375 -0.03125 5.640625 -0.03125 L 5.765625 -0.03125 C 5.859375 -0.03125 5.953125 -0.03125 6.046875 -0.03125 L 7.40625 -0.03125 C 7.546875 -0.03125 7.71875 -0.015625 7.875 -0.015625 C 8 -0.015625 8.09375 -0.078125 8.09375 -0.234375 C 8.09375 -0.3125 8.015625 -0.359375 7.90625 -0.359375 L 7.71875 -0.359375 C 7.15625 -0.359375 7.203125 -0.640625 7.171875 -0.9375 C 7.0625 -2.84375 6.890625 -4.75 6.78125 -6.640625 C 6.734375 -7.125 6.71875 -7.609375 6.671875 -8.078125 L 6.671875 -8.1875 C 6.671875 -8.359375 6.65625 -8.546875 6.46875 -8.546875 C 6.28125 -8.546875 6.203125 -8.375 6.125 -8.234375 L 2.3125 -1.5625 C 2.015625 -1.046875 1.734375 -0.5 1.015625 -0.375 C 0.859375 -0.34375 0.671875 -0.375 0.671875 -0.15625 C 0.671875 -0.078125 0.734375 -0.015625 0.796875 -0.015625 C 1.03125 -0.015625 1.25 -0.046875 1.484375 -0.046875 C 1.90625 -0.046875 2.3125 -0.015625 2.71875 -0.015625 C 2.84375 -0.015625 2.921875 -0.09375 2.921875 -0.21875 C 2.921875 -0.46875 2.3125 -0.28125 2.3125 -0.75 L 2.3125 -0.8125 C 2.34375 -1.03125 2.46875 -1.21875 2.578125 -1.40625 L 3.28125 -2.65625 C 3.328125 -2.75 3.375 -2.828125 3.5 -2.828125 C 3.546875 -2.828125 3.609375 -2.8125 3.640625 -2.8125 Z M 3.578125 -3.15625 L 5.828125 -7.140625 L 6.125 -3.15625 Z M 3.578125 -3.15625 "/>
</g>
<g id="glyph-1-0">
</g>
<g id="glyph-1-1">
<path d="M 3.59375 -0.53125 C 3.390625 -0.53125 3.21875 -0.53125 3.21875 -0.578125 C 3.21875 -0.609375 3.421875 -1.734375 3.484375 -2 C 3.875 -3.53125 4.78125 -4.625 5.828125 -4.625 C 6.59375 -4.625 6.953125 -4.046875 6.953125 -3.375 C 6.953125 -2.015625 5.421875 -0.53125 3.59375 -0.53125 Z M 3.078125 0.09375 C 3.15625 0.109375 3.28125 0.125 3.484375 0.125 C 5.453125 0.125 7.25 -1.765625 7.25 -3.65625 C 7.25 -4.390625 6.9375 -5.265625 5.921875 -5.265625 C 4.203125 -5.265625 3.484375 -2.84375 2.8125 -0.59375 C 1.4375 -0.859375 0.859375 -1.59375 0.859375 -2.390625 C 0.859375 -2.71875 1.109375 -4 1.8125 -4.859375 C 1.9375 -5.015625 1.9375 -5.03125 1.9375 -5.0625 C 1.9375 -5.15625 1.84375 -5.15625 1.8125 -5.15625 C 1.5 -5.15625 0.578125 -3.40625 0.578125 -2.265625 C 0.578125 -0.9375 1.640625 -0.203125 2.609375 0.015625 L 1.984375 2.03125 C 1.921875 2.21875 1.921875 2.234375 1.921875 2.28125 C 1.921875 2.5625 2.21875 2.578125 2.234375 2.578125 C 2.359375 2.578125 2.5625 2.53125 2.671875 2.296875 C 2.703125 2.1875 3.03125 0.328125 3.078125 0.09375 Z M 3.078125 0.09375 "/>
</g>
<g id="glyph-1-2">
<path d="M 2.328125 0.046875 C 2.328125 -0.640625 2.109375 -1.15625 1.609375 -1.15625 C 1.234375 -1.15625 1.046875 -0.84375 1.046875 -0.578125 C 1.046875 -0.328125 1.21875 0 1.625 0 C 1.78125 0 1.90625 -0.046875 2.015625 -0.15625 C 2.046875 -0.171875 2.0625 -0.171875 2.0625 -0.171875 C 2.09375 -0.171875 2.09375 -0.015625 2.09375 0.046875 C 2.09375 0.4375 2.015625 1.21875 1.328125 2 C 1.1875 2.140625 1.1875 2.15625 1.1875 2.1875 C 1.1875 2.25 1.25 2.3125 1.3125 2.3125 C 1.40625 2.3125 2.328125 1.421875 2.328125 0.046875 Z M 2.328125 0.046875 "/>
</g>
<g id="glyph-1-3">
<path d="M 3.59375 -1.421875 C 3.53125 -1.21875 3.53125 -1.1875 3.375 -0.96875 C 3.109375 -0.640625 2.578125 -0.125 2.015625 -0.125 C 1.53125 -0.125 1.25 -0.5625 1.25 -1.265625 C 1.25 -1.921875 1.625 -3.265625 1.859375 -3.765625 C 2.265625 -4.609375 2.828125 -5.03125 3.28125 -5.03125 C 4.078125 -5.03125 4.234375 -4.046875 4.234375 -3.953125 C 4.234375 -3.9375 4.203125 -3.796875 4.1875 -3.765625 Z M 4.359375 -4.484375 C 4.234375 -4.796875 3.90625 -5.265625 3.28125 -5.265625 C 1.9375 -5.265625 0.484375 -3.53125 0.484375 -1.75 C 0.484375 -0.578125 1.171875 0.125 1.984375 0.125 C 2.640625 0.125 3.203125 -0.390625 3.53125 -0.78125 C 3.65625 -0.078125 4.21875 0.125 4.578125 0.125 C 4.9375 0.125 5.21875 -0.09375 5.4375 -0.53125 C 5.625 -0.9375 5.796875 -1.65625 5.796875 -1.703125 C 5.796875 -1.765625 5.75 -1.8125 5.671875 -1.8125 C 5.5625 -1.8125 5.5625 -1.75 5.515625 -1.578125 C 5.328125 -0.875 5.109375 -0.125 4.609375 -0.125 C 4.265625 -0.125 4.25 -0.4375 4.25 -0.671875 C 4.25 -0.9375 4.28125 -1.078125 4.390625 -1.546875 C 4.46875 -1.84375 4.53125 -2.109375 4.625 -2.453125 C 5.0625 -4.25 5.171875 -4.671875 5.171875 -4.75 C 5.171875 -4.90625 5.046875 -5.046875 4.859375 -5.046875 C 4.484375 -5.046875 4.390625 -4.625 4.359375 -4.484375 Z M 4.359375 -4.484375 "/>
</g>
<g id="glyph-1-4">
<path d="M 5.421875 -4 C 5.359375 -4.65625 4.9375 -5.46875 3.859375 -5.46875 C 2.171875 -5.46875 0.453125 -3.75 0.453125 -1.859375 C 0.453125 -1.125 0.953125 0.25 2.578125 0.25 C 5.40625 0.25 6.609375 -3.859375 6.609375 -5.5 C 6.609375 -7.21875 5.640625 -8.546875 4.109375 -8.546875 C 2.375 -8.546875 1.859375 -7.03125 1.859375 -6.703125 C 1.859375 -6.59375 1.9375 -6.328125 2.265625 -6.328125 C 2.6875 -6.328125 2.875 -6.71875 2.875 -6.921875 C 2.875 -7.296875 2.5 -7.296875 2.34375 -7.296875 C 2.828125 -8.171875 3.734375 -8.265625 4.0625 -8.265625 C 5.109375 -8.265625 5.78125 -7.421875 5.78125 -6.078125 C 5.78125 -5.3125 5.5625 -4.4375 5.4375 -4 Z M 2.625 -0.078125 C 1.5 -0.078125 1.296875 -0.953125 1.296875 -1.453125 C 1.296875 -1.984375 1.640625 -3.21875 1.8125 -3.65625 C 1.96875 -4.015625 2.65625 -5.21875 3.890625 -5.21875 C 4.984375 -5.21875 5.234375 -4.28125 5.234375 -3.640625 C 5.234375 -2.75 4.453125 -0.078125 2.625 -0.078125 Z M 2.625 -0.078125 "/>
</g>
<g id="glyph-1-5">
<path d="M 3.109375 -5.21875 C 1.578125 -4.84375 0.484375 -3.25 0.484375 -1.859375 C 0.484375 -0.578125 1.34375 0.140625 2.296875 0.140625 C 3.703125 0.140625 4.65625 -1.796875 4.65625 -3.375 C 4.65625 -4.453125 4.15625 -5.109375 3.859375 -5.515625 C 3.421875 -6.078125 2.703125 -7 2.703125 -7.5625 C 2.703125 -7.765625 2.859375 -8.125 3.375 -8.125 C 3.75 -8.125 3.984375 -8 4.34375 -7.796875 C 4.453125 -7.71875 4.71875 -7.5625 4.875 -7.5625 C 5.125 -7.5625 5.3125 -7.8125 5.3125 -8.015625 C 5.3125 -8.234375 5.125 -8.265625 4.703125 -8.359375 C 4.140625 -8.484375 3.984375 -8.484375 3.78125 -8.484375 C 3.578125 -8.484375 2.40625 -8.484375 2.40625 -7.265625 C 2.40625 -6.6875 2.703125 -6 3.109375 -5.21875 Z M 3.234375 -4.984375 C 3.6875 -4.046875 3.875 -3.6875 3.875 -2.90625 C 3.875 -1.96875 3.375 -0.09375 2.3125 -0.09375 C 1.84375 -0.09375 1.171875 -0.40625 1.171875 -1.515625 C 1.171875 -2.296875 1.609375 -4.546875 3.234375 -4.984375 Z M 3.234375 -4.984375 "/>
</g>
<g id="glyph-1-6">
<path d="M 7.875 -2.71875 C 8.109375 -2.828125 8.109375 -2.90625 8.109375 -2.984375 C 8.109375 -3.0625 8.09375 -3.140625 7.875 -3.234375 L 1.40625 -6.21875 C 1.25 -6.28125 1.234375 -6.296875 1.203125 -6.296875 C 1.0625 -6.296875 0.984375 -6.1875 0.984375 -6.078125 C 0.984375 -5.9375 1.078125 -5.890625 1.234375 -5.828125 L 7.375 -2.984375 L 1.21875 -0.140625 C 0.984375 -0.03125 0.984375 0.046875 0.984375 0.125 C 0.984375 0.21875 1.0625 0.328125 1.203125 0.328125 C 1.234375 0.328125 1.25 0.328125 1.40625 0.25 Z M 7.875 -2.71875 "/>
</g>
<g id="glyph-2-0">
</g>
<g id="glyph-2-1">
<path d="M 6.546875 -2.75 C 6.75 -2.75 6.96875 -2.75 6.96875 -2.984375 C 6.96875 -3.234375 6.75 -3.234375 6.546875 -3.234375 L 1.484375 -3.234375 C 1.625 -4.828125 3 -5.96875 4.6875 -5.96875 L 6.546875 -5.96875 C 6.75 -5.96875 6.96875 -5.96875 6.96875 -6.21875 C 6.96875 -6.453125 6.75 -6.453125 6.546875 -6.453125 L 4.65625 -6.453125 C 2.625 -6.453125 0.984375 -4.90625 0.984375 -2.984375 C 0.984375 -1.078125 2.625 0.484375 4.65625 0.484375 L 6.546875 0.484375 C 6.75 0.484375 6.96875 0.484375 6.96875 0.234375 C 6.96875 0 6.75 0 6.546875 0 L 4.6875 0 C 3 0 1.625 -1.140625 1.484375 -2.75 Z M 6.546875 -2.75 "/>
</g>
<g id="glyph-2-2">
<path d="M 2.296875 -2.984375 C 2.296875 -3.328125 2.015625 -3.625 1.65625 -3.625 C 1.3125 -3.625 1.03125 -3.328125 1.03125 -2.984375 C 1.03125 -2.640625 1.3125 -2.359375 1.65625 -2.359375 C 2.015625 -2.359375 2.296875 -2.640625 2.296875 -2.984375 Z M 2.296875 -2.984375 "/>
</g>
<g id="glyph-2-3">
<path d="M 8.0625 -7.09375 C 8.203125 -7.15625 8.296875 -7.21875 8.296875 -7.359375 C 8.296875 -7.5 8.203125 -7.609375 8.0625 -7.609375 C 8 -7.609375 7.890625 -7.546875 7.84375 -7.53125 L 1.234375 -4.40625 C 1.03125 -4.3125 0.984375 -4.234375 0.984375 -4.140625 C 0.984375 -4.03125 1.0625 -3.9375 1.234375 -3.875 L 7.84375 -0.765625 C 8 -0.6875 8.015625 -0.6875 8.0625 -0.6875 C 8.1875 -0.6875 8.296875 -0.78125 8.296875 -0.921875 C 8.296875 -1.03125 8.25 -1.09375 8.046875 -1.1875 L 1.796875 -4.140625 Z M 7.875 1.640625 C 8.078125 1.640625 8.296875 1.640625 8.296875 1.40625 C 8.296875 1.15625 8.046875 1.15625 7.859375 1.15625 L 1.421875 1.15625 C 1.25 1.15625 0.984375 1.15625 0.984375 1.40625 C 0.984375 1.640625 1.203125 1.640625 1.40625 1.640625 Z M 7.875 1.640625 "/>
</g>
<g id="glyph-2-4">
<path d="M 7.53125 -8.09375 C 7.625 -8.265625 7.625 -8.28125 7.625 -8.3125 C 7.625 -8.40625 7.546875 -8.5625 7.390625 -8.5625 C 7.25 -8.5625 7.203125 -8.484375 7.125 -8.3125 L 1.75 2.109375 C 1.65625 2.28125 1.65625 2.3125 1.65625 2.34375 C 1.65625 2.4375 1.75 2.578125 1.90625 2.578125 C 2.046875 2.578125 2.078125 2.515625 2.15625 2.34375 Z M 7.53125 -8.09375 "/>
</g>
<g id="glyph-2-5">
<path d="M 8.0625 -3.875 C 8.21875 -3.9375 8.296875 -4.03125 8.296875 -4.140625 C 8.296875 -4.25 8.25 -4.328125 8.0625 -4.40625 L 1.46875 -7.515625 C 1.296875 -7.609375 1.25 -7.609375 1.234375 -7.609375 C 1.09375 -7.609375 0.984375 -7.5 0.984375 -7.359375 C 0.984375 -7.21875 1.09375 -7.15625 1.21875 -7.09375 L 7.5 -4.140625 L 1.25 -1.1875 C 1 -1.09375 0.984375 -0.984375 0.984375 -0.921875 C 0.984375 -0.78125 1.09375 -0.6875 1.234375 -0.6875 C 1.265625 -0.6875 1.296875 -0.6875 1.453125 -0.765625 Z M 7.875 1.640625 C 8.078125 1.640625 8.296875 1.640625 8.296875 1.40625 C 8.296875 1.15625 8.046875 1.15625 7.859375 1.15625 L 1.421875 1.15625 C 1.25 1.15625 0.984375 1.15625 0.984375 1.40625 C 0.984375 1.640625 1.203125 1.640625 1.40625 1.640625 Z M 7.875 1.640625 "/>
</g>
<g id="glyph-2-6">
<path d="M 2.0625 -8.5625 C 2.0625 -8.75 2.0625 -8.96875 1.8125 -8.96875 C 1.578125 -8.96875 1.578125 -8.703125 1.578125 -8.515625 L 1.578125 2.546875 C 1.578125 2.734375 1.578125 2.984375 1.8125 2.984375 C 2.0625 2.984375 2.0625 2.765625 2.0625 2.578125 Z M 4.390625 -8.515625 C 4.390625 -8.71875 4.390625 -8.96875 4.140625 -8.96875 C 3.90625 -8.96875 3.90625 -8.75 3.90625 -8.5625 L 3.90625 2.578125 C 3.90625 2.765625 3.90625 2.984375 4.140625 2.984375 C 4.390625 2.984375 4.390625 2.71875 4.390625 2.546875 Z M 4.390625 -8.515625 "/>
</g>
<g id="glyph-3-0">
</g>
<g id="glyph-3-1">
<path d="M 7.796875 -8.140625 C 7.796875 -8.359375 7.796875 -8.421875 7.671875 -8.421875 C 7.609375 -8.421875 7.59375 -8.390625 7.515625 -8.265625 L 6.9375 -7.328125 C 6.390625 -8 5.578125 -8.421875 4.71875 -8.421875 C 2.53125 -8.421875 0.640625 -6.53125 0.640625 -4.09375 C 0.640625 -1.609375 2.5625 0.25 4.71875 0.25 C 6.6875 0.25 7.796875 -1.453125 7.796875 -2.765625 C 7.796875 -2.90625 7.796875 -2.96875 7.65625 -2.96875 C 7.546875 -2.96875 7.53125 -2.921875 7.53125 -2.828125 C 7.421875 -0.9375 6.03125 -0.09375 4.875 -0.09375 C 4.046875 -0.09375 1.75 -0.59375 1.75 -4.09375 C 1.75 -7.546875 4 -8.0625 4.859375 -8.0625 C 6.125 -8.0625 7.21875 -7 7.453125 -5.21875 C 7.484375 -5.0625 7.484375 -5.03125 7.625 -5.03125 C 7.796875 -5.03125 7.796875 -5.0625 7.796875 -5.3125 Z M 7.796875 -8.140625 "/>
</g>
<g id="glyph-3-2">
<path d="M 5.484375 -2.5625 C 5.484375 -4.09375 4.3125 -5.328125 2.921875 -5.328125 C 1.5 -5.328125 0.359375 -4.0625 0.359375 -2.5625 C 0.359375 -1.03125 1.546875 0.125 2.921875 0.125 C 4.328125 0.125 5.484375 -1.046875 5.484375 -2.5625 Z M 2.921875 -0.140625 C 2.484375 -0.140625 1.953125 -0.328125 1.609375 -0.921875 C 1.28125 -1.453125 1.265625 -2.15625 1.265625 -2.671875 C 1.265625 -3.125 1.265625 -3.84375 1.640625 -4.390625 C 1.96875 -4.90625 2.5 -5.09375 2.921875 -5.09375 C 3.375 -5.09375 3.890625 -4.875 4.203125 -4.40625 C 4.578125 -3.859375 4.578125 -3.109375 4.578125 -2.671875 C 4.578125 -2.25 4.578125 -1.5 4.265625 -0.9375 C 3.9375 -0.375 3.375 -0.140625 2.921875 -0.140625 Z M 2.921875 -0.140625 "/>
</g>
<g id="glyph-3-3">
<path d="M 5.3125 -2.90625 C 5.3125 -4.015625 5.3125 -4.34375 5.046875 -4.734375 C 4.703125 -5.203125 4.140625 -5.265625 3.734375 -5.265625 C 2.5625 -5.265625 2.109375 -4.28125 2.015625 -4.046875 L 2.015625 -5.265625 L 0.375 -5.140625 L 0.375 -4.796875 C 1.1875 -4.796875 1.296875 -4.703125 1.296875 -4.125 L 1.296875 -0.890625 C 1.296875 -0.34375 1.15625 -0.34375 0.375 -0.34375 L 0.375 0 C 0.6875 -0.03125 1.34375 -0.03125 1.671875 -0.03125 C 2.015625 -0.03125 2.671875 -0.03125 2.96875 0 L 2.96875 -0.34375 C 2.21875 -0.34375 2.0625 -0.34375 2.0625 -0.890625 L 2.0625 -3.109375 C 2.0625 -4.359375 2.890625 -5.03125 3.640625 -5.03125 C 4.375 -5.03125 4.546875 -4.421875 4.546875 -3.6875 L 4.546875 -0.890625 C 4.546875 -0.34375 4.40625 -0.34375 3.640625 -0.34375 L 3.640625 0 C 3.9375 -0.03125 4.59375 -0.03125 4.921875 -0.03125 C 5.265625 -0.03125 5.921875 -0.03125 6.234375 0 L 6.234375 -0.34375 C 5.625 -0.34375 5.328125 -0.34375 5.3125 -0.703125 Z M 5.3125 -2.90625 "/>
</g>
<g id="glyph-3-4">
<path d="M 2.015625 -4.8125 L 3.6875 -4.8125 L 3.6875 -5.15625 L 2.015625 -5.15625 L 2.015625 -7.34375 L 1.75 -7.34375 C 1.734375 -6.234375 1.296875 -5.078125 0.21875 -5.046875 L 0.21875 -4.8125 L 1.234375 -4.8125 L 1.234375 -1.484375 C 1.234375 -0.15625 2.109375 0.125 2.75 0.125 C 3.5 0.125 3.890625 -0.625 3.890625 -1.484375 L 3.890625 -2.15625 L 3.640625 -2.15625 L 3.640625 -1.5 C 3.640625 -0.640625 3.28125 -0.140625 2.828125 -0.140625 C 2.015625 -0.140625 2.015625 -1.25 2.015625 -1.453125 Z M 2.015625 -4.8125 "/>
</g>
<g id="glyph-3-5">
<path d="M 3.890625 2.90625 C 3.890625 2.875 3.890625 2.84375 3.6875 2.640625 C 2.484375 1.4375 1.8125 -0.53125 1.8125 -2.96875 C 1.8125 -5.296875 2.375 -7.296875 3.765625 -8.703125 C 3.890625 -8.8125 3.890625 -8.828125 3.890625 -8.875 C 3.890625 -8.9375 3.828125 -8.96875 3.78125 -8.96875 C 3.625 -8.96875 2.640625 -8.109375 2.0625 -6.9375 C 1.453125 -5.71875 1.171875 -4.453125 1.171875 -2.96875 C 1.171875 -1.90625 1.34375 -0.484375 1.953125 0.78125 C 2.671875 2.21875 3.640625 3 3.78125 3 C 3.828125 3 3.890625 2.96875 3.890625 2.90625 Z M 3.890625 2.90625 "/>
</g>
<g id="glyph-3-6">
<path d="M 3.375 -2.96875 C 3.375 -3.890625 3.25 -5.359375 2.578125 -6.75 C 1.875 -8.1875 0.890625 -8.96875 0.765625 -8.96875 C 0.71875 -8.96875 0.65625 -8.9375 0.65625 -8.875 C 0.65625 -8.828125 0.65625 -8.8125 0.859375 -8.609375 C 2.0625 -7.40625 2.71875 -5.421875 2.71875 -2.984375 C 2.71875 -0.671875 2.15625 1.328125 0.78125 2.734375 C 0.65625 2.84375 0.65625 2.875 0.65625 2.90625 C 0.65625 2.96875 0.71875 3 0.765625 3 C 0.921875 3 1.90625 2.140625 2.484375 0.96875 C 3.09375 -0.25 3.375 -1.546875 3.375 -2.96875 Z M 3.375 -2.96875 "/>
</g>
<g id="glyph-3-7">
<path d="M 8.0625 -3.875 C 8.234375 -3.875 8.453125 -3.875 8.453125 -4.09375 C 8.453125 -4.3125 8.25 -4.3125 8.0625 -4.3125 L 1.03125 -4.3125 C 0.859375 -4.3125 0.640625 -4.3125 0.640625 -4.09375 C 0.640625 -3.875 0.84375 -3.875 1.03125 -3.875 Z M 8.0625 -1.65625 C 8.234375 -1.65625 8.453125 -1.65625 8.453125 -1.859375 C 8.453125 -2.09375 8.25 -2.09375 8.0625 -2.09375 L 1.03125 -2.09375 C 0.859375 -2.09375 0.640625 -2.09375 0.640625 -1.875 C 0.640625 -1.65625 0.84375 -1.65625 1.03125 -1.65625 Z M 8.0625 -1.65625 "/>
</g>
<g id="glyph-3-8">
<path d="M 5.359375 -3.828125 C 5.359375 -4.8125 5.296875 -5.78125 4.859375 -6.6875 C 4.375 -7.6875 3.515625 -7.953125 2.921875 -7.953125 C 2.234375 -7.953125 1.390625 -7.609375 0.9375 -6.609375 C 0.609375 -5.859375 0.484375 -5.109375 0.484375 -3.828125 C 0.484375 -2.671875 0.578125 -1.796875 1 -0.9375 C 1.46875 -0.03125 2.296875 0.25 2.921875 0.25 C 3.953125 0.25 4.546875 -0.375 4.90625 -1.0625 C 5.328125 -1.953125 5.359375 -3.125 5.359375 -3.828125 Z M 2.921875 0.015625 C 2.53125 0.015625 1.75 -0.203125 1.53125 -1.5 C 1.40625 -2.21875 1.40625 -3.125 1.40625 -3.96875 C 1.40625 -4.953125 1.40625 -5.828125 1.59375 -6.53125 C 1.796875 -7.34375 2.40625 -7.703125 2.921875 -7.703125 C 3.375 -7.703125 4.0625 -7.4375 4.296875 -6.40625 C 4.453125 -5.71875 4.453125 -4.78125 4.453125 -3.96875 C 4.453125 -3.171875 4.453125 -2.265625 4.3125 -1.53125 C 4.09375 -0.21875 3.328125 0.015625 2.921875 0.015625 Z M 2.921875 0.015625 "/>
</g>
<g id="glyph-3-9">
<path d="M 5.15625 -8.3125 C 5.0625 -8.484375 5.046875 -8.53125 4.875 -8.53125 C 4.703125 -8.53125 4.671875 -8.484375 4.59375 -8.3125 L 0.59375 -0.234375 C 0.578125 -0.203125 0.546875 -0.125 0.546875 -0.078125 C 0.546875 -0.015625 0.5625 0 0.796875 0 L 8.9375 0 C 9.1875 0 9.1875 -0.015625 9.1875 -0.078125 C 9.1875 -0.125 9.171875 -0.203125 9.140625 -0.234375 Z M 4.5 -7.4375 L 7.765625 -0.828125 L 1.25 -0.828125 Z M 4.5 -7.4375 "/>
</g>
<g id="glyph-3-10">
<path d="M 4.765625 -2.765625 L 8.0625 -2.765625 C 8.234375 -2.765625 8.453125 -2.765625 8.453125 -2.96875 C 8.453125 -3.203125 8.25 -3.203125 8.0625 -3.203125 L 4.765625 -3.203125 L 4.765625 -6.5 C 4.765625 -6.671875 4.765625 -6.890625 4.546875 -6.890625 C 4.328125 -6.890625 4.328125 -6.6875 4.328125 -6.5 L 4.328125 -3.203125 L 1.03125 -3.203125 C 0.859375 -3.203125 0.640625 -3.203125 0.640625 -2.984375 C 0.640625 -2.765625 0.84375 -2.765625 1.03125 -2.765625 L 4.328125 -2.765625 L 4.328125 0.53125 C 4.328125 0.703125 4.328125 0.921875 4.546875 0.921875 C 4.765625 0.921875 4.765625 0.71875 4.765625 0.53125 Z M 4.765625 -2.765625 "/>
</g>
<g id="glyph-4-0">
</g>
<g id="glyph-4-1">
<path d="M 2.25 -1.625 C 2.375 -1.75 2.703125 -2.015625 2.84375 -2.125 C 3.328125 -2.578125 3.796875 -3.015625 3.796875 -3.734375 C 3.796875 -4.6875 3 -5.296875 2.015625 -5.296875 C 1.046875 -5.296875 0.421875 -4.578125 0.421875 -3.859375 C 0.421875 -3.46875 0.734375 -3.421875 0.84375 -3.421875 C 1.015625 -3.421875 1.265625 -3.53125 1.265625 -3.84375 C 1.265625 -4.25 0.859375 -4.25 0.765625 -4.25 C 1 -4.84375 1.53125 -5.03125 1.921875 -5.03125 C 2.65625 -5.03125 3.046875 -4.40625 3.046875 -3.734375 C 3.046875 -2.90625 2.46875 -2.296875 1.515625 -1.34375 L 0.515625 -0.296875 C 0.421875 -0.21875 0.421875 -0.203125 0.421875 0 L 3.5625 0 L 3.796875 -1.421875 L 3.546875 -1.421875 C 3.53125 -1.265625 3.46875 -0.875 3.375 -0.71875 C 3.328125 -0.65625 2.71875 -0.65625 2.59375 -0.65625 L 1.171875 -0.65625 Z M 2.25 -1.625 "/>
</g>
<g id="glyph-5-0">
</g>
<g id="glyph-5-1">
<path d="M 3.203125 -3.75 L 3.640625 -3.75 L 5.421875 -0.984375 C 5.546875 -0.78125 5.828125 -0.328125 5.96875 -0.140625 C 6.046875 0 6.078125 0 6.359375 0 L 8.015625 0 C 8.21875 0 8.40625 0 8.40625 -0.21875 C 8.40625 -0.3125 8.328125 -0.390625 8.21875 -0.421875 C 7.78125 -0.515625 7.203125 -1.296875 6.90625 -1.6875 C 6.828125 -1.8125 6.234375 -2.59375 5.421875 -3.890625 C 6.484375 -4.078125 7.515625 -4.53125 7.515625 -5.953125 C 7.515625 -7.609375 5.765625 -8.1875 4.34375 -8.1875 L 0.59375 -8.1875 C 0.375 -8.1875 0.1875 -8.1875 0.1875 -7.96875 C 0.1875 -7.765625 0.421875 -7.765625 0.515625 -7.765625 C 1.1875 -7.765625 1.25 -7.6875 1.25 -7.09375 L 1.25 -1.09375 C 1.25 -0.5 1.1875 -0.421875 0.515625 -0.421875 C 0.421875 -0.421875 0.1875 -0.421875 0.1875 -0.21875 C 0.1875 0 0.375 0 0.59375 0 L 3.875 0 C 4.09375 0 4.265625 0 4.265625 -0.21875 C 4.265625 -0.421875 4.0625 -0.421875 3.9375 -0.421875 C 3.25 -0.421875 3.203125 -0.515625 3.203125 -1.09375 Z M 5.515625 -4.34375 C 5.84375 -4.78125 5.875 -5.421875 5.875 -5.9375 C 5.875 -6.515625 5.8125 -7.140625 5.421875 -7.640625 C 5.921875 -7.53125 7.09375 -7.15625 7.09375 -5.953125 C 7.09375 -5.171875 6.734375 -4.5625 5.515625 -4.34375 Z M 3.203125 -7.125 C 3.203125 -7.375 3.203125 -7.765625 3.9375 -7.765625 C 4.953125 -7.765625 5.46875 -7.34375 5.46875 -5.9375 C 5.46875 -4.40625 5.09375 -4.171875 3.203125 -4.171875 Z M 1.578125 -0.421875 C 1.671875 -0.640625 1.671875 -0.96875 1.671875 -1.078125 L 1.671875 -7.109375 C 1.671875 -7.234375 1.671875 -7.546875 1.578125 -7.765625 L 2.9375 -7.765625 C 2.78125 -7.578125 2.78125 -7.34375 2.78125 -7.15625 L 2.78125 -1.078125 C 2.78125 -0.953125 2.78125 -0.640625 2.875 -0.421875 Z M 4.125 -3.75 C 4.203125 -3.765625 4.25 -3.78125 4.34375 -3.78125 C 4.53125 -3.78125 4.796875 -3.796875 4.96875 -3.828125 C 5.15625 -3.53125 6.4375 -1.40625 7.4375 -0.421875 L 6.28125 -0.421875 Z M 4.125 -3.75 "/>
</g>
<g id="glyph-6-0">
</g>
<g id="glyph-6-1">
<path d="M 1.59375 -1.3125 C 1.625 -1.421875 1.703125 -1.734375 1.71875 -1.84375 C 1.828125 -2.28125 1.828125 -2.28125 2.015625 -2.546875 C 2.28125 -2.9375 2.65625 -3.296875 3.1875 -3.296875 C 3.46875 -3.296875 3.640625 -3.125 3.640625 -2.75 C 3.640625 -2.3125 3.3125 -1.40625 3.15625 -1.015625 C 3.046875 -0.75 3.046875 -0.703125 3.046875 -0.59375 C 3.046875 -0.140625 3.421875 0.078125 3.765625 0.078125 C 4.546875 0.078125 4.875 -1.03125 4.875 -1.140625 C 4.875 -1.21875 4.8125 -1.25 4.75 -1.25 C 4.65625 -1.25 4.640625 -1.1875 4.625 -1.109375 C 4.4375 -0.453125 4.09375 -0.140625 3.796875 -0.140625 C 3.671875 -0.140625 3.609375 -0.21875 3.609375 -0.40625 C 3.609375 -0.59375 3.671875 -0.765625 3.75 -0.96875 C 3.859375 -1.265625 4.21875 -2.1875 4.21875 -2.625 C 4.21875 -3.234375 3.796875 -3.515625 3.234375 -3.515625 C 2.578125 -3.515625 2.171875 -3.125 1.9375 -2.828125 C 1.875 -3.265625 1.53125 -3.515625 1.125 -3.515625 C 0.84375 -3.515625 0.640625 -3.328125 0.515625 -3.078125 C 0.3125 -2.703125 0.234375 -2.3125 0.234375 -2.296875 C 0.234375 -2.21875 0.296875 -2.1875 0.359375 -2.1875 C 0.46875 -2.1875 0.46875 -2.21875 0.53125 -2.4375 C 0.625 -2.828125 0.765625 -3.296875 1.09375 -3.296875 C 1.3125 -3.296875 1.359375 -3.09375 1.359375 -2.921875 C 1.359375 -2.765625 1.3125 -2.625 1.25 -2.359375 C 1.234375 -2.296875 1.109375 -1.828125 1.078125 -1.71875 L 0.78125 -0.515625 C 0.75 -0.390625 0.703125 -0.203125 0.703125 -0.171875 C 0.703125 0.015625 0.859375 0.078125 0.96875 0.078125 C 1.109375 0.078125 1.234375 -0.015625 1.28125 -0.109375 C 1.3125 -0.15625 1.375 -0.4375 1.40625 -0.59375 Z M 1.59375 -1.3125 "/>
</g>
<g id="glyph-6-2">
<path d="M 3.9375 -2.28125 C 4.0625 -2.328125 4.09375 -2.34375 4.09375 -2.421875 C 4.09375 -2.46875 4.046875 -2.53125 3.984375 -2.53125 C 3.96875 -2.53125 3.75 -2.484375 3.640625 -2.46875 L 2.421875 -2.21875 L 2.234375 -3.6875 C 2.21875 -3.8125 2.203125 -3.890625 2.109375 -3.890625 C 2.015625 -3.890625 2.015625 -3.828125 1.984375 -3.6875 L 1.8125 -2.21875 L 0.34375 -2.515625 L 0.234375 -2.53125 C 0.171875 -2.53125 0.125 -2.46875 0.125 -2.421875 C 0.125 -2.34375 0.1875 -2.3125 0.265625 -2.28125 L 1.640625 -1.65625 L 1 -0.53125 C 0.953125 -0.4375 0.84375 -0.234375 0.84375 -0.21875 C 0.84375 -0.171875 0.875 -0.109375 0.953125 -0.109375 C 0.96875 -0.109375 1 -0.109375 1.046875 -0.140625 C 1.109375 -0.203125 1.265625 -0.375 1.328125 -0.453125 L 2.109375 -1.296875 L 2.984375 -0.359375 C 3.015625 -0.3125 3.109375 -0.21875 3.140625 -0.1875 C 3.234375 -0.109375 3.234375 -0.109375 3.265625 -0.109375 C 3.34375 -0.109375 3.375 -0.171875 3.375 -0.21875 C 3.375 -0.265625 2.6875 -1.484375 2.59375 -1.65625 Z M 3.9375 -2.28125 "/>
</g>
</g>
</defs>
<g fill="rgb(0%, 0%, 0%)" fill-opacity="1">
<use xlink:href="#glyph-0-1" x="0.5" y="10.651"/>
<use xlink:href="#glyph-0-2" x="7.074164" y="10.651"/>
<use xlink:href="#glyph-0-3" x="13.050569" y="10.651"/>
<use xlink:href="#glyph-0-4" x="16.635933" y="10.651"/>
</g>
<g fill="rgb(0%, 0%, 0%)" fill-opacity="1">
<use xlink:href="#glyph-1-1" x="24.703" y="10.651"/>
</g>
<g fill="rgb(0%, 0%, 0%)" fill-opacity="1">
<use xlink:href="#glyph-2-1" x="35.692" y="10.651"/>
</g>
<g fill="rgb(0%, 0%, 0%)" fill-opacity="1">
<use xlink:href="#glyph-3-1" x="46.983" y="10.651"/>
<use xlink:href="#glyph-3-2" x="55.437717" y="10.651"/>
<use xlink:href="#glyph-3-3" x="61.290983" y="10.651"/>
</g>
<g fill="rgb(0%, 0%, 0%)" fill-opacity="1">
<use xlink:href="#glyph-3-4" x="67.471822" y="10.651"/>
</g>
<g fill="rgb(0%, 0%, 0%)" fill-opacity="1">
<use xlink:href="#glyph-4-1" x="72.021" y="5.637"/>
</g>
<g fill="rgb(0%, 0%, 0%)" fill-opacity="1">
<use xlink:href="#glyph-3-5" x="76.754" y="10.651"/>
</g>
<g fill="rgb(0%, 0%, 0%)" fill-opacity="1">
<use xlink:href="#glyph-5-1" x="81.306" y="10.651"/>
</g>
<g fill="rgb(0%, 0%, 0%)" fill-opacity="1">
<use xlink:href="#glyph-6-1" x="89.94" y="6.313"/>
</g>
<g fill="rgb(0%, 0%, 0%)" fill-opacity="1">
<use xlink:href="#glyph-1-2" x="95.577" y="10.651"/>
</g>
<g fill="rgb(0%, 0%, 0%)" fill-opacity="1">
<use xlink:href="#glyph-5-1" x="100.821" y="10.651"/>
</g>
<g fill="rgb(0%, 0%, 0%)" fill-opacity="1">
<use xlink:href="#glyph-3-6" x="109.455" y="10.651"/>
</g>
<g fill="rgb(0%, 0%, 0%)" fill-opacity="1">
<use xlink:href="#glyph-0-5" x="114.007" y="10.651"/>
</g>
<g fill="rgb(0%, 0%, 0%)" fill-opacity="1">
<use xlink:href="#glyph-0-1" x="121.776684" y="10.651"/>
<use xlink:href="#glyph-0-6" x="128.350849" y="10.651"/>
<use xlink:href="#glyph-0-7" x="134.626133" y="10.651"/>
<use xlink:href="#glyph-0-7" x="140.602538" y="10.651"/>
</g>
<g fill="rgb(0%, 0%, 0%)" fill-opacity="1">
<use xlink:href="#glyph-0-2" x="145.981182" y="10.651"/>
<use xlink:href="#glyph-0-8" x="151.957587" y="10.651"/>
<use xlink:href="#glyph-0-2" x="156.738471" y="10.651"/>
<use xlink:href="#glyph-0-9" x="162.714876" y="10.651"/>
<use xlink:href="#glyph-0-8" x="169.28904" y="10.651"/>
</g>
<g fill="rgb(0%, 0%, 0%)" fill-opacity="1">
<use xlink:href="#glyph-0-10" x="178.254245" y="10.651"/>
<use xlink:href="#glyph-0-6" x="183.632889" y="10.651"/>
<use xlink:href="#glyph-0-11" x="189.908174" y="10.651"/>
</g>
<g fill="rgb(0%, 0%, 0%)" fill-opacity="1">
<use xlink:href="#glyph-0-10" x="199.471138" y="10.651"/>
<use xlink:href="#glyph-0-6" x="204.849783" y="10.651"/>
<use xlink:href="#glyph-0-11" x="211.125067" y="10.651"/>
</g>
<g fill="rgb(0%, 0%, 0%)" fill-opacity="1">
<use xlink:href="#glyph-1-3" x="220.681" y="10.651"/>
</g>
<g fill="rgb(0%, 0%, 0%)" fill-opacity="1">
<use xlink:href="#glyph-2-1" x="230.147" y="10.651"/>
</g>
<g fill="rgb(0%, 0%, 0%)" fill-opacity="1">
<use xlink:href="#glyph-5-1" x="241.438" y="10.651"/>
</g>
<g fill="rgb(0%, 0%, 0%)" fill-opacity="1">
<use xlink:href="#glyph-6-1" x="250.072" y="6.313"/>
</g>
<g fill="rgb(0%, 0%, 0%)" fill-opacity="1">
<use xlink:href="#glyph-0-12" x="259.892" y="10.651"/>
<use xlink:href="#glyph-0-9" x="265.868404" y="10.651"/>
<use xlink:href="#glyph-0-9" x="272.442569" y="10.651"/>
<use xlink:href="#glyph-0-6" x="279.016733" y="10.651"/>
<use xlink:href="#glyph-0-13" x="285.292018" y="10.651"/>
<use xlink:href="#glyph-0-11" x="288.279622" y="10.651"/>
</g>
<g fill="rgb(0%, 0%, 0%)" fill-opacity="1">
<use xlink:href="#glyph-0-13" x="297.842587" y="10.651"/>
<use xlink:href="#glyph-0-12" x="300.830191" y="10.651"/>
</g>
<g fill="rgb(0%, 0%, 0%)" fill-opacity="1">
<use xlink:href="#glyph-0-14" x="310.990916" y="10.651"/>
<use xlink:href="#glyph-0-12" x="317.12752" y="10.651"/>
<use xlink:href="#glyph-0-15" x="323.103924" y="10.651"/>
</g>
<g fill="rgb(0%, 0%, 0%)" fill-opacity="1">
<use xlink:href="#glyph-0-2" x="327.884809" y="10.651"/>
<use xlink:href="#glyph-0-16" x="333.861213" y="10.651"/>
<use xlink:href="#glyph-0-3" x="339.239858" y="10.651"/>
<use xlink:href="#glyph-0-11" x="342.825222" y="10.651"/>
<use xlink:href="#glyph-0-9" x="348.203867" y="10.651"/>
<use xlink:href="#glyph-0-9" x="354.778031" y="10.651"/>
<use xlink:href="#glyph-0-11" x="361.352196" y="10.651"/>
</g>
<g fill="rgb(0%, 0%, 0%)" fill-opacity="1">
<use xlink:href="#glyph-0-17" x="370.91516" y="10.651"/>
<use xlink:href="#glyph-0-2" x="375.696045" y="10.651"/>
<use xlink:href="#glyph-0-9" x="381.672449" y="10.651"/>
</g>
<g fill="rgb(0%, 0%, 0%)" fill-opacity="1">
<use xlink:href="#glyph-0-7" x="392.418979" y="10.651"/>
</g>
<g fill="rgb(0%, 0%, 0%)" fill-opacity="1">
<use xlink:href="#glyph-0-12" x="397.797623" y="10.651"/>
<use xlink:href="#glyph-0-18" x="403.774028" y="10.651"/>
<use xlink:href="#glyph-0-13" x="408.704352" y="10.651"/>
<use xlink:href="#glyph-0-11" x="411.691956" y="10.651"/>
<use xlink:href="#glyph-0-18" x="417.070601" y="10.651"/>
</g>
<g fill="rgb(0%, 0%, 0%)" fill-opacity="1">
<use xlink:href="#glyph-0-12" x="421.403165" y="10.651"/>
</g>
<g fill="rgb(0%, 0%, 0%)" fill-opacity="1">
<use xlink:href="#glyph-0-3" x="431.56389" y="10.651"/>
<use xlink:href="#glyph-0-15" x="435.149254" y="10.651"/>
<use xlink:href="#glyph-0-3" x="440.527899" y="10.651"/>
</g>
<g fill="rgb(0%, 0%, 0%)" fill-opacity="1">
<use xlink:href="#glyph-0-7" x="448.297583" y="10.651"/>
<use xlink:href="#glyph-0-13" x="454.273988" y="10.651"/>
<use xlink:href="#glyph-0-6" x="457.261592" y="10.651"/>
<use xlink:href="#glyph-0-4" x="463.536877" y="10.651"/>
<use xlink:href="#glyph-0-19" x="467.421121" y="10.651"/>
<use xlink:href="#glyph-0-4" x="473.397526" y="10.651"/>
</g>
<g fill="rgb(0%, 0%, 0%)" fill-opacity="1">
<use xlink:href="#glyph-0-20" x="481.46609" y="10.651"/>
<use xlink:href="#glyph-0-11" x="487.442495" y="10.651"/>
</g>
<g fill="rgb(0%, 0%, 0%)" fill-opacity="1">
<use xlink:href="#glyph-0-21" x="497.005459" y="10.651"/>
<use xlink:href="#glyph-0-18" x="502.384104" y="10.651"/>
</g>
<g fill="rgb(0%, 0%, 0%)" fill-opacity="1">
<use xlink:href="#glyph-0-12" x="506.716668" y="10.651"/>
<use xlink:href="#glyph-0-20" x="512.693073" y="10.651"/>
<use xlink:href="#glyph-0-3" x="518.669477" y="10.651"/>
<use xlink:href="#glyph-0-11" x="522.254842" y="10.651"/>
<use xlink:href="#glyph-0-9" x="527.633486" y="10.651"/>
<use xlink:href="#glyph-0-4" x="534.207651" y="10.651"/>
<use xlink:href="#glyph-0-22" x="538.091895" y="10.651"/>
</g>
<g fill="rgb(0%, 0%, 0%)" fill-opacity="1">
<use xlink:href="#glyph-0-23" x="547.0571" y="10.651"/>
</g>
<g fill="rgb(0%, 0%, 0%)" fill-opacity="1">
<use xlink:href="#glyph-1-4" x="554.825" y="10.651"/>
</g>
<g fill="rgb(0%, 0%, 0%)" fill-opacity="1">
<use xlink:href="#glyph-1-1" x="561.650224" y="10.651"/>
</g>
<g fill="rgb(0%, 0%, 0%)" fill-opacity="1">
<use xlink:href="#glyph-3-5" x="569.323" y="10.651"/>
</g>
<g fill="rgb(0%, 0%, 0%)" fill-opacity="1">
<use xlink:href="#glyph-1-3" x="573.875" y="10.651"/>
</g>
<g fill="rgb(0%, 0%, 0%)" fill-opacity="1">
<use xlink:href="#glyph-3-6" x="580.02" y="10.651"/>
</g>
<g fill="rgb(0%, 0%, 0%)" fill-opacity="1">
<use xlink:href="#glyph-3-7" x="587.896086" y="10.651"/>
</g>
<g fill="rgb(0%, 0%, 0%)" fill-opacity="1">
<use xlink:href="#glyph-3-8" x="600.324712" y="10.651"/>
</g>
<g fill="rgb(0%, 0%, 0%)" fill-opacity="1">
<use xlink:href="#glyph-0-1" x="606.172" y="10.651"/>
<use xlink:href="#glyph-0-6" x="612.746164" y="10.651"/>
<use xlink:href="#glyph-0-7" x="619.021449" y="10.651"/>
<use xlink:href="#glyph-0-7" x="624.997853" y="10.651"/>
</g>
<g fill="rgb(0%, 0%, 0%)" fill-opacity="1">
<use xlink:href="#glyph-0-2" x="630.376498" y="10.651"/>
<use xlink:href="#glyph-0-8" x="636.352902" y="10.651"/>
<use xlink:href="#glyph-0-2" x="641.133787" y="10.651"/>
<use xlink:href="#glyph-0-9" x="647.110191" y="10.651"/>
<use xlink:href="#glyph-0-8" x="653.684356" y="10.651"/>
</g>
<g fill="rgb(0%, 0%, 0%)" fill-opacity="1">
<use xlink:href="#glyph-0-24" x="662.64956" y="10.651"/>
</g>
<g fill="rgb(0%, 0%, 0%)" fill-opacity="1">
<use xlink:href="#glyph-0-21" x="667.430445" y="10.651"/>
<use xlink:href="#glyph-0-12" x="672.809089" y="10.651"/>
<use xlink:href="#glyph-0-13" x="678.785494" y="10.651"/>
<use xlink:href="#glyph-0-11" x="681.773098" y="10.651"/>
<use xlink:href="#glyph-0-25" x="687.151743" y="10.651"/>
<use xlink:href="#glyph-0-11" x="696.713512" y="10.651"/>
<use xlink:href="#glyph-0-9" x="702.092156" y="10.651"/>
<use xlink:href="#glyph-0-4" x="708.666321" y="10.651"/>
</g>
<g fill="rgb(0%, 0%, 0%)" fill-opacity="1">
<use xlink:href="#glyph-0-10" x="716.734885" y="10.651"/>
<use xlink:href="#glyph-0-6" x="722.11353" y="10.651"/>
<use xlink:href="#glyph-0-11" x="728.388814" y="10.651"/>
</g>
<g fill="rgb(0%, 0%, 0%)" fill-opacity="1">
<use xlink:href="#glyph-0-13" x="737.939823" y="10.651"/>
</g>
<g fill="rgb(0%, 0%, 0%)" fill-opacity="1">
<use xlink:href="#glyph-0-12" x="740.939383" y="10.651"/>
</g>
<g fill="rgb(0%, 0%, 0%)" fill-opacity="1">
<use xlink:href="#glyph-0-26" x="751.088152" y="10.651"/>
<use xlink:href="#glyph-0-11" x="759.775996" y="10.651"/>
<use xlink:href="#glyph-0-8" x="765.154641" y="10.651"/>
<use xlink:href="#glyph-0-8" x="769.935525" y="10.651"/>
<use xlink:href="#glyph-0-3" x="774.71641" y="10.651"/>
<use xlink:href="#glyph-0-11" x="778.301774" y="10.651"/>
<use xlink:href="#glyph-0-9" x="783.680419" y="10.651"/>
<use xlink:href="#glyph-0-9" x="790.254583" y="10.651"/>
<use xlink:href="#glyph-0-11" x="796.828748" y="10.651"/>
</g>
<g fill="rgb(0%, 0%, 0%)" fill-opacity="1">
<use xlink:href="#glyph-0-11" x="806.391712" y="10.651"/>
<use xlink:href="#glyph-0-9" x="811.770356" y="10.651"/>
</g>
<g fill="rgb(0%, 0%, 0%)" fill-opacity="1">
<use xlink:href="#glyph-1-3" x="822.53" y="10.651"/>
</g>
<g fill="rgb(0%, 0%, 0%)" fill-opacity="1">
<use xlink:href="#glyph-0-8" x="832.858" y="10.651"/>
<use xlink:href="#glyph-0-2" x="837.638884" y="10.651"/>
<use xlink:href="#glyph-0-3" x="843.615289" y="10.651"/>
<use xlink:href="#glyph-0-4" x="847.200653" y="10.651"/>
</g>
<g fill="rgb(0%, 0%, 0%)" fill-opacity="1">
<use xlink:href="#glyph-0-20" x="855.269218" y="10.651"/>
<use xlink:href="#glyph-0-24" x="861.245622" y="10.651"/>
<use xlink:href="#glyph-0-27" x="866.624267" y="10.651"/>
<use xlink:href="#glyph-0-9" x="873.198431" y="10.651"/>
<use xlink:href="#glyph-0-3" x="879.772596" y="10.651"/>
<use xlink:href="#glyph-0-11" x="883.35796" y="10.651"/>
</g>
<g fill="rgb(0%, 0%, 0%)" fill-opacity="1">
<use xlink:href="#glyph-0-9" x="892.920925" y="10.651"/>
<use xlink:href="#glyph-0-24" x="899.495089" y="10.651"/>
</g>
<g fill="rgb(0%, 0%, 0%)" fill-opacity="1">
<use xlink:href="#glyph-0-21" x="904.275974" y="10.651"/>
<use xlink:href="#glyph-0-12" x="909.654618" y="10.651"/>
<use xlink:href="#glyph-0-4" x="915.631023" y="10.651"/>
<use xlink:href="#glyph-0-3" x="919.515267" y="10.651"/>
<use xlink:href="#glyph-0-28" x="923.100632" y="10.651"/>
<use xlink:href="#glyph-0-11" x="928.479276" y="10.651"/>
<use xlink:href="#glyph-0-29" x="933.857921" y="10.651"/>
</g>
<g fill="rgb(0%, 0%, 0%)" fill-opacity="1">
<use xlink:href="#glyph-0-15" x="941.627605" y="10.651"/>
<use xlink:href="#glyph-0-30" x="947.00625" y="10.651"/>
<use xlink:href="#glyph-0-11" x="950.591614" y="10.651"/>
<use xlink:href="#glyph-0-8" x="955.970259" y="10.651"/>
<use xlink:href="#glyph-0-4" x="960.751143" y="10.651"/>
<use xlink:href="#glyph-0-31" x="964.635388" y="10.651"/>
<use xlink:href="#glyph-0-32" x="968.818512" y="10.651"/>
<use xlink:href="#glyph-0-31" x="974.794916" y="10.651"/>
<use xlink:href="#glyph-0-20" x="978.978041" y="10.651"/>
<use xlink:href="#glyph-0-3" x="984.954445" y="10.651"/>
<use xlink:href="#glyph-0-18" x="988.53981" y="10.651"/>
</g>
<g fill="rgb(0%, 0%, 0%)" fill-opacity="1">
<use xlink:href="#glyph-0-11" x="992.872374" y="10.651"/>
</g>
<g fill="rgb(0%, 0%, 0%)" fill-opacity="1">
<use xlink:href="#glyph-0-10" x="1002.435339" y="10.651"/>
<use xlink:href="#glyph-0-6" x="1007.813983" y="10.651"/>
<use xlink:href="#glyph-0-11" x="1014.089268" y="10.651"/>
</g>
<g fill="rgb(0%, 0%, 0%)" fill-opacity="1">
<use xlink:href="#glyph-0-23" x="1023.640277" y="10.651"/>
</g>
<g fill="rgb(0%, 0%, 0%)" fill-opacity="1">
<use xlink:href="#glyph-3-9" x="1031.415" y="10.651"/>
</g>
<g fill="rgb(0%, 0%, 0%)" fill-opacity="1">
<use xlink:href="#glyph-6-2" x="1041.17" y="6.313"/>
</g>
<g fill="rgb(0%, 0%, 0%)" fill-opacity="1">
<use xlink:href="#glyph-2-2" x="1048.559" y="10.651"/>
</g>
<g fill="rgb(0%, 0%, 0%)" fill-opacity="1">
<use xlink:href="#glyph-1-4" x="1054.536" y="10.651"/>
</g>
<g fill="rgb(0%, 0%, 0%)" fill-opacity="1">
<use xlink:href="#glyph-4-1" x="1061.366" y="6.313"/>
</g>
<g fill="rgb(0%, 0%, 0%)" fill-opacity="1">
<use xlink:href="#glyph-1-1" x="1066.098" y="10.651"/>
</g>
<g fill="rgb(0%, 0%, 0%)" fill-opacity="1">
<use xlink:href="#glyph-3-5" x="1073.767" y="10.651"/>
</g>
<g fill="rgb(0%, 0%, 0%)" fill-opacity="1">
<use xlink:href="#glyph-1-3" x="1078.319" y="10.651"/>
</g>
<g fill="rgb(0%, 0%, 0%)" fill-opacity="1">
<use xlink:href="#glyph-3-6" x="1084.464" y="10.651"/>
</g>
<g fill="rgb(0%, 0%, 0%)" fill-opacity="1">
<use xlink:href="#glyph-2-2" x="1091.673" y="10.651"/>
</g>
<g fill="rgb(0%, 0%, 0%)" fill-opacity="1">
<use xlink:href="#glyph-3-9" x="1097.65" y="10.651"/>
</g>
<g fill="rgb(0%, 0%, 0%)" fill-opacity="1">
<use xlink:href="#glyph-2-3" x="1110.726" y="10.651"/>
</g>
<g fill="rgb(0%, 0%, 0%)" fill-opacity="1">
<use xlink:href="#glyph-3-8" x="1123.346" y="10.651"/>
</g>
<g fill="rgb(0%, 0%, 0%)" fill-opacity="1">
<use xlink:href="#glyph-0-7" x="1129.199" y="10.651"/>
</g>
<g fill="rgb(0%, 0%, 0%)" fill-opacity="1">
<use xlink:href="#glyph-0-2" x="1134.577644" y="10.651"/>
<use xlink:href="#glyph-0-6" x="1140.554049" y="10.651"/>
<use xlink:href="#glyph-0-18" x="1146.829333" y="10.651"/>
</g>
<g fill="rgb(0%, 0%, 0%)" fill-opacity="1">
<use xlink:href="#glyph-0-4" x="1155.943978" y="10.651"/>
<use xlink:href="#glyph-0-2" x="1159.828222" y="10.651"/>
<use xlink:href="#glyph-0-6" x="1165.804627" y="10.651"/>
<use xlink:href="#glyph-0-4" x="1172.079911" y="10.651"/>
</g>
<g fill="rgb(0%, 0%, 0%)" fill-opacity="1">
<use xlink:href="#glyph-3-9" x="1180.145" y="10.651"/>
</g>
<g fill="rgb(0%, 0%, 0%)" fill-opacity="1">
<use xlink:href="#glyph-2-1" x="1193.221" y="10.651"/>
</g>
<g fill="rgb(0%, 0%, 0%)" fill-opacity="1">
<use xlink:href="#glyph-5-1" x="1204.512" y="10.651"/>
</g>
<g fill="rgb(0%, 0%, 0%)" fill-opacity="1">
<use xlink:href="#glyph-6-1" x="1213.146" y="6.313"/>
</g>
<g fill="rgb(0%, 0%, 0%)" fill-opacity="1">
<use xlink:href="#glyph-0-10" x="1222.966" y="10.651"/>
<use xlink:href="#glyph-0-6" x="1228.344644" y="10.651"/>
<use xlink:href="#glyph-0-3" x="1234.619929" y="10.651"/>
</g>
<g fill="rgb(0%, 0%, 0%)" fill-opacity="1">
<use xlink:href="#glyph-0-28" x="1242.389613" y="10.651"/>
<use xlink:href="#glyph-0-24" x="1247.768258" y="10.651"/>
<use xlink:href="#glyph-0-18" x="1253.146902" y="10.651"/>
<use xlink:href="#glyph-0-3" x="1258.077227" y="10.651"/>
<use xlink:href="#glyph-0-27" x="1261.662591" y="10.651"/>
<use xlink:href="#glyph-0-11" x="1268.236756" y="10.651"/>
</g>
<g fill="rgb(0%, 0%, 0%)" fill-opacity="1">
<use xlink:href="#glyph-3-9" x="1277.797" y="10.651"/>
</g>
<g fill="rgb(0%, 0%, 0%)" fill-opacity="1">
<use xlink:href="#glyph-2-4" x="1290.873" y="10.651"/>
</g>
<g fill="rgb(0%, 0%, 0%)" fill-opacity="1">
<use xlink:href="#glyph-3-7" x="1290.873" y="10.651"/>
</g>
<g fill="rgb(0%, 0%, 0%)" fill-opacity="1">
<use xlink:href="#glyph-3-8" x="1303.301626" y="10.651"/>
</g>
<g fill="rgb(0%, 0%, 0%)" fill-opacity="1">
<use xlink:href="#glyph-0-5" x="1309.151" y="10.651"/>
</g>
<g fill="rgb(0%, 0%, 0%)" fill-opacity="1">
<use xlink:href="#glyph-0-1" x="1316.920684" y="10.651"/>
<use xlink:href="#glyph-0-3" x="1323.494849" y="10.651"/>
</g>
<g fill="rgb(0%, 0%, 0%)" fill-opacity="1">
<use xlink:href="#glyph-0-15" x="1331.264533" y="10.651"/>
</g>
<g fill="rgb(0%, 0%, 0%)" fill-opacity="1">
<use xlink:href="#glyph-0-11" x="1336.045418" y="10.651"/>
<use xlink:href="#glyph-0-8" x="1341.424062" y="10.651"/>
</g>
<g fill="rgb(0%, 0%, 0%)" fill-opacity="1">
<use xlink:href="#glyph-0-15" x="1350.389267" y="10.651"/>
</g>
<g fill="rgb(0%, 0%, 0%)" fill-opacity="1">
<use xlink:href="#glyph-0-2" x="1355.170151" y="10.651"/>
<use xlink:href="#glyph-0-9" x="1361.146556" y="10.651"/>
<use xlink:href="#glyph-0-20" x="1367.72072" y="10.651"/>
<use xlink:href="#glyph-0-3" x="1373.697125" y="10.651"/>
<use xlink:href="#glyph-0-4" x="1377.282489" y="10.651"/>
<use xlink:href="#glyph-0-3" x="1381.166734" y="10.651"/>
<use xlink:href="#glyph-0-2" x="1384.752098" y="10.651"/>
<use xlink:href="#glyph-0-9" x="1390.728503" y="10.651"/>
<use xlink:href="#glyph-0-8" x="1397.302667" y="10.651"/>
</g>
<g fill="rgb(0%, 0%, 0%)" fill-opacity="1">
<use xlink:href="#glyph-0-8" x="1406.267872" y="10.651"/>
<use xlink:href="#glyph-0-2" x="1411.048756" y="10.651"/>
<use xlink:href="#glyph-0-9" x="1417.025161" y="10.651"/>
<use xlink:href="#glyph-0-4" x="1423.599325" y="10.651"/>
</g>
<g fill="rgb(0%, 0%, 0%)" fill-opacity="1">
<use xlink:href="#glyph-0-18" x="1431.655934" y="10.651"/>
</g>
<g fill="rgb(0%, 0%, 0%)" fill-opacity="1">
<use xlink:href="#glyph-0-11" x="1435.988499" y="10.651"/>
<use xlink:href="#glyph-0-25" x="1441.367143" y="10.651"/>
<use xlink:href="#glyph-0-7" x="1450.928912" y="10.651"/>
<use xlink:href="#glyph-0-13" x="1456.905317" y="10.651"/>
<use xlink:href="#glyph-0-3" x="1459.892921" y="10.651"/>
</g>
<g fill="rgb(0%, 0%, 0%)" fill-opacity="1">
<use xlink:href="#glyph-0-11" x="1463.490241" y="10.651"/>
<use xlink:href="#glyph-0-8" x="1468.868885" y="10.651"/>
<use xlink:href="#glyph-0-29" x="1473.64977" y="10.651"/>
</g>
<g fill="rgb(0%, 0%, 0%)" fill-opacity="1">
<use xlink:href="#glyph-1-1" x="1481.413" y="10.651"/>
</g>
<g fill="rgb(0%, 0%, 0%)" fill-opacity="1">
<use xlink:href="#glyph-0-12" x="1493.264" y="10.651"/>
<use xlink:href="#glyph-0-4" x="1499.240404" y="10.651"/>
<use xlink:href="#glyph-0-4" x="1503.124649" y="10.651"/>
<use xlink:href="#glyph-0-11" x="1507.008893" y="10.651"/>
<use xlink:href="#glyph-0-3" x="1512.387538" y="10.651"/>
<use xlink:href="#glyph-0-9" x="1515.972902" y="10.651"/>
<use xlink:href="#glyph-0-4" x="1522.547067" y="10.651"/>
</g>
<g fill="rgb(0%, 0%, 0%)" fill-opacity="1">
<use xlink:href="#glyph-0-6" x="1530.615631" y="10.651"/>
<use xlink:href="#glyph-0-9" x="1536.890916" y="10.651"/>
</g>
<g fill="rgb(0%, 0%, 0%)" fill-opacity="1">
<use xlink:href="#glyph-0-25" x="1547.6494" y="10.651"/>
<use xlink:href="#glyph-0-12" x="1557.211169" y="10.651"/>
<use xlink:href="#glyph-0-33" x="1563.187574" y="10.651"/>
<use xlink:href="#glyph-0-3" x="1568.566218" y="10.651"/>
<use xlink:href="#glyph-0-25" x="1572.151583" y="10.651"/>
<use xlink:href="#glyph-0-6" x="1581.713352" y="10.651"/>
<use xlink:href="#glyph-0-25" x="1587.988636" y="10.651"/>
</g>
<g fill="rgb(0%, 0%, 0%)" fill-opacity="1">
<use xlink:href="#glyph-0-13" x="1601.734725" y="10.651"/>
<use xlink:href="#glyph-0-2" x="1604.72233" y="10.651"/>
</g>
<g fill="rgb(0%, 0%, 0%)" fill-opacity="1">
<use xlink:href="#glyph-0-15" x="1610.100974" y="10.651"/>
</g>
<g fill="rgb(0%, 0%, 0%)" fill-opacity="1">
<use xlink:href="#glyph-0-12" x="1614.881859" y="10.651"/>
<use xlink:href="#glyph-0-13" x="1620.858263" y="10.651"/>
</g>
<g fill="rgb(0%, 0%, 0%)" fill-opacity="1">
<use xlink:href="#glyph-0-11" x="1628.030188" y="10.651"/>
<use xlink:href="#glyph-0-9" x="1633.408832" y="10.651"/>
</g>
<g fill="rgb(0%, 0%, 0%)" fill-opacity="1">
<use xlink:href="#glyph-1-3" x="1644.162" y="10.651"/>
</g>
<g fill="rgb(0%, 0%, 0%)" fill-opacity="1">
<use xlink:href="#glyph-0-5" x="1650.307" y="10.651"/>
</g>
<g fill="rgb(0%, 0%, 0%)" fill-opacity="1">
<use xlink:href="#glyph-0-34" x="1658.076684" y="10.651"/>
<use xlink:href="#glyph-0-9" x="1667.040693" y="10.651"/>
</g>
<g fill="rgb(0%, 0%, 0%)" fill-opacity="1">
<use xlink:href="#glyph-0-7" x="1677.799178" y="10.651"/>
</g>
<g fill="rgb(0%, 0%, 0%)" fill-opacity="1">
<use xlink:href="#glyph-0-11" x="1683.177822" y="10.651"/>
<use xlink:href="#glyph-0-6" x="1688.556467" y="10.651"/>
<use xlink:href="#glyph-0-4" x="1694.831751" y="10.651"/>
</g>
<g fill="rgb(0%, 0%, 0%)" fill-opacity="1">
<use xlink:href="#glyph-0-20" x="1702.900316" y="10.651"/>
<use xlink:href="#glyph-0-2" x="1708.87672" y="10.651"/>
<use xlink:href="#glyph-0-9" x="1714.853125" y="10.651"/>
<use xlink:href="#glyph-0-15" x="1721.427289" y="10.651"/>
</g>
<g fill="rgb(0%, 0%, 0%)" fill-opacity="1">
<use xlink:href="#glyph-0-4" x="1730.990254" y="10.651"/>
<use xlink:href="#glyph-0-18" x="1734.874498" y="10.651"/>
</g>
<g fill="rgb(0%, 0%, 0%)" fill-opacity="1">
<use xlink:href="#glyph-0-2" x="1739.207063" y="10.651"/>
<use xlink:href="#glyph-0-6" x="1745.183467" y="10.651"/>
</g>
<g fill="rgb(0%, 0%, 0%)" fill-opacity="1">
<use xlink:href="#glyph-0-28" x="1751.446796" y="10.651"/>
<use xlink:href="#glyph-0-11" x="1756.825441" y="10.651"/>
<use xlink:href="#glyph-0-18" x="1762.204085" y="10.651"/>
</g>
<g fill="rgb(0%, 0%, 0%)" fill-opacity="1">
<use xlink:href="#glyph-1-5" x="1771.323" y="10.651"/>
</g>
<g fill="rgb(0%, 0%, 0%)" fill-opacity="1">
<use xlink:href="#glyph-1-6" x="1783.131151" y="10.651"/>
</g>
<g fill="rgb(0%, 0%, 0%)" fill-opacity="1">
<use xlink:href="#glyph-3-8" x="1798.412" y="10.651"/>
</g>
<g fill="rgb(0%, 0%, 0%)" fill-opacity="1">
<use xlink:href="#glyph-0-4" x="1808.449" y="10.651"/>
<use xlink:href="#glyph-0-11" x="1812.333244" y="10.651"/>
<use xlink:href="#glyph-0-13" x="1817.711889" y="10.651"/>
</g>
<g fill="rgb(0%, 0%, 0%)" fill-opacity="1">
<use xlink:href="#glyph-0-10" x="1824.883813" y="10.651"/>
<use xlink:href="#glyph-0-6" x="1830.262458" y="10.651"/>
<use xlink:href="#glyph-0-11" x="1836.537742" y="10.651"/>
</g>
<g fill="rgb(0%, 0%, 0%)" fill-opacity="1">
<use xlink:href="#glyph-0-23" x="1846.100707" y="10.651"/>
</g>
<g fill="rgb(0%, 0%, 0%)" fill-opacity="1">
<use xlink:href="#glyph-1-1" x="1853.867" y="10.651"/>
</g>
<g fill="rgb(0%, 0%, 0%)" fill-opacity="1">
<use xlink:href="#glyph-3-5" x="1861.535" y="10.651"/>
</g>
<g fill="rgb(0%, 0%, 0%)" fill-opacity="1">
<use xlink:href="#glyph-1-3" x="1866.088" y="10.651"/>
</g>
<g fill="rgb(0%, 0%, 0%)" fill-opacity="1">
<use xlink:href="#glyph-3-6" x="1872.233" y="10.651"/>
</g>
<g fill="rgb(0%, 0%, 0%)" fill-opacity="1">
<use xlink:href="#glyph-2-5" x="1880.106" y="10.651"/>
</g>
<g fill="rgb(0%, 0%, 0%)" fill-opacity="1">
<use xlink:href="#glyph-1-1" x="1892.725" y="10.651"/>
</g>
<g fill="rgb(0%, 0%, 0%)" fill-opacity="1">
<use xlink:href="#glyph-3-5" x="1900.394" y="10.651"/>
</g>
<g fill="rgb(0%, 0%, 0%)" fill-opacity="1">
<use xlink:href="#glyph-1-3" x="1904.946" y="10.651"/>
</g>
<g fill="rgb(0%, 0%, 0%)" fill-opacity="1">
<use xlink:href="#glyph-3-10" x="1913.747" y="10.651"/>
</g>
<g fill="rgb(0%, 0%, 0%)" fill-opacity="1">
<use xlink:href="#glyph-3-9" x="1925.506135" y="10.651"/>
<use xlink:href="#glyph-3-6" x="1935.261578" y="10.651"/>
</g>
<g fill="rgb(0%, 0%, 0%)" fill-opacity="1">
<use xlink:href="#glyph-0-7" x="1939.816" y="10.651"/>
</g>
<g fill="rgb(0%, 0%, 0%)" fill-opacity="1">
<use xlink:href="#glyph-0-2" x="1945.194644" y="10.651"/>
<use xlink:href="#glyph-0-6" x="1951.171049" y="10.651"/>
<use xlink:href="#glyph-0-18" x="1957.446333" y="10.651"/>
</g>
<g fill="rgb(0%, 0%, 0%)" fill-opacity="1">
<use xlink:href="#glyph-0-4" x="1966.560978" y="10.651"/>
<use xlink:href="#glyph-0-2" x="1970.445222" y="10.651"/>
<use xlink:href="#glyph-0-6" x="1976.421627" y="10.651"/>
<use xlink:href="#glyph-0-4" x="1982.696911" y="10.651"/>
</g>
<g fill="rgb(0%, 0%, 0%)" fill-opacity="1">
<use xlink:href="#glyph-3-9" x="1990.763" y="10.651"/>
</g>
<g fill="rgb(0%, 0%, 0%)" fill-opacity="1">
<use xlink:href="#glyph-2-1" x="2003.838" y="10.651"/>
</g>
<g fill="rgb(0%, 0%, 0%)" fill-opacity="1">
<use xlink:href="#glyph-5-1" x="2015.129" y="10.651"/>
</g>
<g fill="rgb(0%, 0%, 0%)" fill-opacity="1">
<use xlink:href="#glyph-6-1" x="2023.764" y="6.313"/>
</g>
<g fill="rgb(0%, 0%, 0%)" fill-opacity="1">
<use xlink:href="#glyph-0-28" x="2033.583" y="10.651"/>
<use xlink:href="#glyph-0-24" x="2038.961644" y="10.651"/>
<use xlink:href="#glyph-0-18" x="2044.340289" y="10.651"/>
<use xlink:href="#glyph-0-3" x="2049.270613" y="10.651"/>
<use xlink:href="#glyph-0-27" x="2052.855978" y="10.651"/>
<use xlink:href="#glyph-0-12" x="2059.430142" y="10.651"/>
<use xlink:href="#glyph-0-9" x="2065.406547" y="10.651"/>
<use xlink:href="#glyph-0-4" x="2071.980711" y="10.651"/>
</g>
<g fill="rgb(0%, 0%, 0%)" fill-opacity="1">
<use xlink:href="#glyph-2-6" x="2080.048" y="10.651"/>
</g>
<g fill="rgb(0%, 0%, 0%)" fill-opacity="1">
<use xlink:href="#glyph-3-9" x="2086.025" y="10.651"/>
</g>
<g fill="rgb(0%, 0%, 0%)" fill-opacity="1">
<use xlink:href="#glyph-2-6" x="2095.78" y="10.651"/>
</g>
<g fill="rgb(0%, 0%, 0%)" fill-opacity="1">
<use xlink:href="#glyph-2-3" x="2105.081146" y="10.651"/>
</g>
<g fill="rgb(0%, 0%, 0%)" fill-opacity="1">
<use xlink:href="#glyph-1-5" x="2117.698" y="10.651"/>
</g>
<g fill="rgb(0%, 0%, 0%)" fill-opacity="1">
<use xlink:href="#glyph-0-5" x="2123.331" y="10.651"/>
</g>
<g fill="rgb(0%, 0%, 0%)" fill-opacity="1">
<use xlink:href="#glyph-0-35" x="2131.100684" y="10.651"/>
</g>
<g fill="rgb(0%, 0%, 0%)" fill-opacity="1">
<use xlink:href="#glyph-0-13" x="2143.972848" y="10.651"/>
<use xlink:href="#glyph-0-30" x="2146.960453" y="10.651"/>
<use xlink:href="#glyph-0-3" x="2150.545817" y="10.651"/>
<use xlink:href="#glyph-0-9" x="2154.131182" y="10.651"/>
<use xlink:href="#glyph-0-28" x="2160.705346" y="10.651"/>
<use xlink:href="#glyph-0-11" x="2166.083991" y="10.651"/>
<use xlink:href="#glyph-0-18" x="2171.462635" y="10.651"/>
<use xlink:href="#glyph-0-8" x="2176.39296" y="10.651"/>
<use xlink:href="#glyph-0-11" x="2181.173844" y="10.651"/>
<use xlink:href="#glyph-0-29" x="2186.552489" y="10.651"/>
</g>
<g fill="rgb(0%, 0%, 0%)" fill-opacity="1">
<use xlink:href="#glyph-0-8" x="2194.322173" y="10.651"/>
<use xlink:href="#glyph-0-3" x="2199.103058" y="10.651"/>
</g>
<g fill="rgb(0%, 0%, 0%)" fill-opacity="1">
<use xlink:href="#glyph-1-1" x="2206.869" y="10.651"/>
</g>
<g fill="rgb(0%, 0%, 0%)" fill-opacity="1">
<use xlink:href="#glyph-0-12" x="2218.721" y="10.651"/>
<use xlink:href="#glyph-0-4" x="2224.697404" y="10.651"/>
<use xlink:href="#glyph-0-4" x="2228.581649" y="10.651"/>
<use xlink:href="#glyph-0-11" x="2232.465893" y="10.651"/>
<use xlink:href="#glyph-0-3" x="2237.844538" y="10.651"/>
<use xlink:href="#glyph-0-9" x="2241.429902" y="10.651"/>
<use xlink:href="#glyph-0-4" x="2248.004067" y="10.651"/>
</g>
<g fill="rgb(0%, 0%, 0%)" fill-opacity="1">
<use xlink:href="#glyph-0-6" x="2256.072631" y="10.651"/>
<use xlink:href="#glyph-0-9" x="2262.347916" y="10.651"/>
</g>
<g fill="rgb(0%, 0%, 0%)" fill-opacity="1">
<use xlink:href="#glyph-0-25" x="2273.1064" y="10.651"/>
<use xlink:href="#glyph-0-12" x="2282.668169" y="10.651"/>
<use xlink:href="#glyph-0-33" x="2288.644574" y="10.651"/>
<use xlink:href="#glyph-0-3" x="2294.023218" y="10.651"/>
<use xlink:href="#glyph-0-25" x="2297.608583" y="10.651"/>
<use xlink:href="#glyph-0-6" x="2307.170352" y="10.651"/>
<use xlink:href="#glyph-0-25" x="2313.445636" y="10.651"/>
</g>
<g fill="rgb(0%, 0%, 0%)" fill-opacity="1">
<use xlink:href="#glyph-0-13" x="2327.191725" y="10.651"/>
<use xlink:href="#glyph-0-2" x="2330.17933" y="10.651"/>
</g>
<g fill="rgb(0%, 0%, 0%)" fill-opacity="1">
<use xlink:href="#glyph-0-15" x="2335.557974" y="10.651"/>
</g>
<g fill="rgb(0%, 0%, 0%)" fill-opacity="1">
<use xlink:href="#glyph-0-12" x="2340.338859" y="10.651"/>
<use xlink:href="#glyph-0-13" x="2346.315263" y="10.651"/>
</g>
<g fill="rgb(0%, 0%, 0%)" fill-opacity="1">
<use xlink:href="#glyph-0-11" x="2353.487188" y="10.651"/>
<use xlink:href="#glyph-0-9" x="2358.865832" y="10.651"/>
</g>
<g fill="rgb(0%, 0%, 0%)" fill-opacity="1">
<use xlink:href="#glyph-1-3" x="2369.618" y="10.651"/>
</g>
<g fill="rgb(0%, 0%, 0%)" fill-opacity="1">
<use xlink:href="#glyph-0-29" x="2375.763" y="10.651"/>
</g>
<g fill="rgb(0%, 0%, 0%)" fill-opacity="1">
<use xlink:href="#glyph-0-13" x="2383.532684" y="10.651"/>
<use xlink:href="#glyph-0-11" x="2386.520289" y="10.651"/>
<use xlink:href="#glyph-0-8" x="2391.898933" y="10.651"/>
</g>
<g fill="rgb(0%, 0%, 0%)" fill-opacity="1">
<use xlink:href="#glyph-0-15" x="2400.864138" y="10.651"/>
</g>
<g fill="rgb(0%, 0%, 0%)" fill-opacity="1">
<use xlink:href="#glyph-0-2" x="2405.645022" y="10.651"/>
<use xlink:href="#glyph-0-9" x="2411.621427" y="10.651"/>
<use xlink:href="#glyph-0-20" x="2418.195591" y="10.651"/>
<use xlink:href="#glyph-0-3" x="2424.171996" y="10.651"/>
<use xlink:href="#glyph-0-4" x="2427.75736" y="10.651"/>
<use xlink:href="#glyph-0-3" x="2431.641605" y="10.651"/>
<use xlink:href="#glyph-0-2" x="2435.226969" y="10.651"/>
<use xlink:href="#glyph-0-9" x="2441.203374" y="10.651"/>
<use xlink:href="#glyph-0-8" x="2447.777538" y="10.651"/>
</g>
<g fill="rgb(0%, 0%, 0%)" fill-opacity="1">
<use xlink:href="#glyph-0-8" x="2456.742743" y="10.651"/>
<use xlink:href="#glyph-0-6" x="2461.523627" y="10.651"/>
<use xlink:href="#glyph-0-18" x="2467.798912" y="10.651"/>
</g>
<g fill="rgb(0%, 0%, 0%)" fill-opacity="1">
<use xlink:href="#glyph-0-13" x="2476.913556" y="10.651"/>
<use xlink:href="#glyph-0-11" x="2479.901161" y="10.651"/>
</g>
<g fill="rgb(0%, 0%, 0%)" fill-opacity="1">
<use xlink:href="#glyph-0-21" x="2489.464125" y="10.651"/>
<use xlink:href="#glyph-0-18" x="2494.84277" y="10.651"/>
</g>
<g fill="rgb(0%, 0%, 0%)" fill-opacity="1">
<use xlink:href="#glyph-0-12" x="2499.175334" y="10.651"/>
<use xlink:href="#glyph-0-20" x="2505.151739" y="10.651"/>
<use xlink:href="#glyph-0-3" x="2511.128143" y="10.651"/>
<use xlink:href="#glyph-0-11" x="2514.713508" y="10.651"/>
<use xlink:href="#glyph-0-9" x="2520.092152" y="10.651"/>
<use xlink:href="#glyph-0-4" x="2526.666316" y="10.651"/>
</g>
<g fill="rgb(0%, 0%, 0%)" fill-opacity="1">
<use xlink:href="#glyph-0-11" x="2534.722926" y="10.651"/>
<use xlink:href="#glyph-0-4" x="2540.10157" y="10.651"/>
</g>
<g fill="rgb(0%, 0%, 0%)" fill-opacity="1">
<use xlink:href="#glyph-0-13" x="2548.170135" y="10.651"/>
<use xlink:href="#glyph-0-12" x="2551.157739" y="10.651"/>
</g>
<g fill="rgb(0%, 0%, 0%)" fill-opacity="1">
<use xlink:href="#glyph-0-26" x="2561.318464" y="10.651"/>
<use xlink:href="#glyph-0-11" x="2570.006308" y="10.651"/>
<use xlink:href="#glyph-0-8" x="2575.384952" y="10.651"/>
<use xlink:href="#glyph-0-8" x="2580.165836" y="10.651"/>
<use xlink:href="#glyph-0-3" x="2584.946721" y="10.651"/>
<use xlink:href="#glyph-0-11" x="2588.532085" y="10.651"/>
<use xlink:href="#glyph-0-9" x="2593.91073" y="10.651"/>
<use xlink:href="#glyph-0-9" x="2600.484894" y="10.651"/>
<use xlink:href="#glyph-0-11" x="2607.059059" y="10.651"/>
</g>
<g fill="rgb(0%, 0%, 0%)" fill-opacity="1">
<use xlink:href="#glyph-0-8" x="2616.622023" y="10.651"/>
<use xlink:href="#glyph-0-11" x="2621.402908" y="10.651"/>
<use xlink:href="#glyph-0-18" x="2626.781552" y="10.651"/>
</g>
<g fill="rgb(0%, 0%, 0%)" fill-opacity="1">
<use xlink:href="#glyph-0-2" x="2631.114117" y="10.651"/>
<use xlink:href="#glyph-0-9" x="2637.090521" y="10.651"/>
<use xlink:href="#glyph-0-4" x="2643.664686" y="10.651"/>
</g>
<g fill="rgb(0%, 0%, 0%)" fill-opacity="1">
<use xlink:href="#glyph-0-18" x="2651.73325" y="10.651"/>
</g>
<g fill="rgb(0%, 0%, 0%)" fill-opacity="1">
<use xlink:href="#glyph-0-11" x="2656.065815" y="10.651"/>
<use xlink:href="#glyph-0-25" x="2661.444459" y="10.651"/>
<use xlink:href="#glyph-0-7" x="2671.006228" y="10.651"/>
<use xlink:href="#glyph-0-13" x="2676.982633" y="10.651"/>
<use xlink:href="#glyph-0-3" x="2679.970237" y="10.651"/>
<use xlink:href="#glyph-0-11" x="2683.555602" y="10.651"/>
<use xlink:href="#glyph-0-8" x="2688.934246" y="10.651"/>
<use xlink:href="#glyph-0-5" x="2693.715131" y="10.651"/>
</g>
</svg>
