<?xml version="1.0" encoding="UTF-8"?>
<svg xmlns="http://www.w3.org/2000/svg" xmlns:xlink="http://www.w3.org/1999/xlink" viewBox="0 0 130.274 12.955">
<defs>
<g>
<g id="glyph-0-0">
</g>
<g id="glyph-0-1">
<path d="M 4.40625 -6.6875 C 3.578125 -6.25 2.546875 -5.5625 2.546875 -4.640625 C 2.546875 -4.421875 3.109375 -3.71875 3.1875 -3.625 C 3.40625 -3.375 3.578125 -3.078125 3.578125 -2.734375 C 3.578125 -1.9375 2.4375 -1.59375 1.65625 -1.59375 C 1.140625 -1.140625 0.6875 -0.609375 0.375 0 L 0.578125 0.1875 C 0.859375 -0.265625 1.296875 -0.765625 1.859375 -0.765625 C 2.609375 -0.765625 3.515625 -0.390625 4.265625 -0.09375 C 4.65625 0.0625 5.359375 0.328125 5.609375 0.328125 C 6.3125 0.328125 7.5 -0.9375 8.265625 -1.75 C 8.671875 -2.828125 8.921875 -3.75 8.921875 -4.90625 C 8.921875 -6.3125 7.9375 -7.625 6.59375 -8.015625 C 5.8125 -8.21875 5.1875 -8.25 4.453125 -8.25 C 3.375 -8.25 2.125 -7.859375 1.34375 -7.09375 C 0.640625 -6.390625 0.328125 -5.5 0.328125 -4.515625 L 0.578125 -4.390625 C 0.609375 -5.09375 0.84375 -5.875 1.375 -6.40625 C 2.078125 -7.125 3.140625 -7.3125 4.140625 -7.3125 C 5.265625 -7.3125 6.390625 -7.046875 7.203125 -6.234375 C 7.8125 -5.625 8.015625 -4.734375 8.015625 -3.890625 C 8.015625 -3.109375 7.9375 -2.21875 7.515625 -1.59375 C 7.109375 -0.984375 6.890625 -0.578125 6.125 -0.578125 C 5.875 -0.578125 5.015625 -0.890625 4.484375 -1.09375 C 3.984375 -1.265625 3.390625 -1.453125 2.875 -1.5625 C 3.609375 -1.875 4.65625 -2.453125 4.65625 -3.3125 C 4.65625 -3.890625 3.578125 -4.8125 3.578125 -5.28125 C 3.578125 -5.734375 4.28125 -6.34375 4.59375 -6.546875 Z M 4.40625 -6.6875 "/>
</g>
<g id="glyph-1-0">
</g>
<g id="glyph-1-1">
<path d="M 2.28125 0.078125 C 2.359375 0.078125 2.46875 0.078125 2.546875 0.078125 C 3.953125 0.078125 5.21875 -1.140625 5.21875 -2.375 C 5.21875 -2.953125 4.90625 -3.515625 4.21875 -3.515625 C 3.65625 -3.515625 3.21875 -3.125 2.890625 -2.609375 C 2.53125 -2.046875 2.375 -1.53125 2.046875 -0.5 C 1.171875 -0.625 0.65625 -1.03125 0.65625 -1.625 C 0.65625 -1.796875 0.828125 -2.65625 1.3125 -3.1875 C 1.40625 -3.296875 1.40625 -3.3125 1.40625 -3.34375 C 1.40625 -3.34375 1.40625 -3.4375 1.28125 -3.4375 C 1 -3.4375 0.40625 -2.234375 0.40625 -1.53125 C 0.40625 -0.9375 0.75 -0.265625 1.875 0.015625 L 1.640625 0.75 C 1.484375 1.25 1.421875 1.421875 1.421875 1.484375 C 1.421875 1.671875 1.609375 1.734375 1.6875 1.734375 C 1.75 1.734375 1.96875 1.703125 2.046875 1.421875 C 2.09375 1.140625 2.21875 0.421875 2.28125 0.078125 Z M 2.375 -0.453125 C 2.53125 -1.375 2.609375 -1.828125 3.0625 -2.390625 C 3.4375 -2.859375 3.828125 -2.984375 4.140625 -2.984375 C 4.640625 -2.984375 4.953125 -2.640625 4.953125 -2.203125 C 4.953125 -1.375 3.9375 -0.453125 2.625 -0.453125 C 2.5625 -0.453125 2.453125 -0.453125 2.375 -0.453125 Z M 2.375 -0.453125 "/>
</g>
<g id="glyph-1-2">
<path d="M 2.984375 -0.875 C 2.953125 -0.71875 2.578125 -0.140625 2.046875 -0.140625 C 1.65625 -0.140625 1.515625 -0.4375 1.515625 -0.78125 C 1.515625 -1.265625 1.796875 -1.96875 1.96875 -2.421875 C 2.046875 -2.625 2.078125 -2.6875 2.078125 -2.84375 C 2.078125 -3.28125 1.71875 -3.515625 1.359375 -3.515625 C 0.5625 -3.515625 0.234375 -2.390625 0.234375 -2.296875 C 0.234375 -2.21875 0.296875 -2.1875 0.359375 -2.1875 C 0.46875 -2.1875 0.46875 -2.234375 0.5 -2.3125 C 0.703125 -3.03125 1.046875 -3.296875 1.328125 -3.296875 C 1.453125 -3.296875 1.515625 -3.21875 1.515625 -3.03125 C 1.515625 -2.84375 1.453125 -2.65625 1.34375 -2.375 C 1.015625 -1.53125 0.9375 -1.1875 0.9375 -0.90625 C 0.9375 -0.125 1.53125 0.078125 2 0.078125 C 2.59375 0.078125 2.96875 -0.390625 3 -0.4375 C 3.125 -0.0625 3.484375 0.078125 3.765625 0.078125 C 4.140625 0.078125 4.328125 -0.234375 4.375 -0.359375 C 4.546875 -0.640625 4.65625 -1.109375 4.65625 -1.140625 C 4.65625 -1.1875 4.625 -1.25 4.53125 -1.25 C 4.4375 -1.25 4.421875 -1.203125 4.359375 -1 C 4.265625 -0.59375 4.125 -0.140625 3.796875 -0.140625 C 3.609375 -0.140625 3.53125 -0.296875 3.53125 -0.515625 C 3.53125 -0.65625 3.609375 -0.921875 3.65625 -1.125 C 3.703125 -1.328125 3.828125 -1.796875 3.859375 -1.9375 L 4.015625 -2.546875 C 4.0625 -2.765625 4.15625 -3.140625 4.15625 -3.1875 C 4.15625 -3.390625 4 -3.4375 3.90625 -3.4375 C 3.796875 -3.4375 3.625 -3.359375 3.5625 -3.171875 Z M 2.984375 -0.875 "/>
</g>
<g id="glyph-2-0">
</g>
<g id="glyph-2-1">
<path d="M 3.890625 2.90625 C 3.890625 2.875 3.890625 2.84375 3.6875 2.640625 C 2.484375 1.4375 1.8125 -0.53125 1.8125 -2.96875 C 1.8125 -5.296875 2.375 -7.296875 3.765625 -8.703125 C 3.890625 -8.8125 3.890625 -8.828125 3.890625 -8.875 C 3.890625 -8.9375 3.828125 -8.96875 3.78125 -8.96875 C 3.625 -8.96875 2.640625 -8.109375 2.0625 -6.9375 C 1.453125 -5.71875 1.171875 -4.453125 1.171875 -2.96875 C 1.171875 -1.90625 1.34375 -0.484375 1.953125 0.78125 C 2.671875 2.21875 3.640625 3 3.78125 3 C 3.828125 3 3.890625 2.96875 3.890625 2.90625 Z M 3.890625 2.90625 "/>
</g>
<g id="glyph-2-2">
<path d="M 3.375 -2.96875 C 3.375 -3.890625 3.25 -5.359375 2.578125 -6.75 C 1.875 -8.1875 0.890625 -8.96875 0.765625 -8.96875 C 0.71875 -8.96875 0.65625 -8.9375 0.65625 -8.875 C 0.65625 -8.828125 0.65625 -8.8125 0.859375 -8.609375 C 2.0625 -7.40625 2.71875 -5.421875 2.71875 -2.984375 C 2.71875 -0.671875 2.15625 1.328125 0.78125 2.734375 C 0.65625 2.84375 0.65625 2.875 0.65625 2.90625 C 0.65625 2.96875 0.71875 3 0.765625 3 C 0.921875 3 1.90625 2.140625 2.484375 0.96875 C 3.09375 -0.25 3.375 -1.546875 3.375 -2.96875 Z M 3.375 -2.96875 "/>
</g>
<g id="glyph-3-0">
</g>
<g id="glyph-3-1">
<path d="M 5.46875 -4.46875 C 5.46875 -5.21875 5.078125 -5.265625 4.984375 -5.265625 C 4.703125 -5.265625 4.4375 -4.984375 4.4375 -4.75 C 4.4375 -4.609375 4.515625 -4.515625 4.5625 -4.46875 C 4.6875 -4.359375 5 -4.046875 5 -3.421875 C 5 -2.921875 4.28125 -0.125 2.84375 -0.125 C 2.109375 -0.125 1.96875 -0.734375 1.96875 -1.171875 C 1.96875 -1.765625 2.25 -2.609375 2.5625 -3.46875 C 2.765625 -3.953125 2.8125 -4.078125 2.8125 -4.3125 C 2.8125 -4.8125 2.453125 -5.265625 1.859375 -5.265625 C 0.765625 -5.265625 0.328125 -3.53125 0.328125 -3.4375 C 0.328125 -3.390625 0.375 -3.328125 0.453125 -3.328125 C 0.5625 -3.328125 0.578125 -3.375 0.625 -3.546875 C 0.90625 -4.578125 1.375 -5.03125 1.828125 -5.03125 C 1.9375 -5.03125 2.140625 -5.03125 2.140625 -4.640625 C 2.140625 -4.328125 2.015625 -3.984375 1.828125 -3.53125 C 1.25 -2 1.25 -1.625 1.25 -1.34375 C 1.25 -1.078125 1.296875 -0.578125 1.65625 -0.25 C 2.09375 0.125 2.6875 0.125 2.796875 0.125 C 4.78125 0.125 5.46875 -3.796875 5.46875 -4.46875 Z M 5.46875 -4.46875 "/>
</g>
<g id="glyph-3-2">
<path d="M 4.078125 -0.6875 C 4.234375 -0.03125 4.8125 0.125 5.09375 0.125 C 5.46875 0.125 5.765625 -0.125 5.953125 -0.53125 C 6.15625 -0.96875 6.3125 -1.671875 6.3125 -1.703125 C 6.3125 -1.765625 6.265625 -1.8125 6.1875 -1.8125 C 6.078125 -1.8125 6.078125 -1.75 6.03125 -1.578125 C 5.8125 -0.75 5.59375 -0.125 5.109375 -0.125 C 4.75 -0.125 4.75 -0.515625 4.75 -0.671875 C 4.75 -0.9375 4.796875 -1.0625 4.90625 -1.5625 C 5 -1.890625 5.078125 -2.21875 5.15625 -2.546875 L 5.640625 -4.5 C 5.71875 -4.796875 5.71875 -4.8125 5.71875 -4.859375 C 5.71875 -5.03125 5.578125 -5.15625 5.40625 -5.15625 C 5.0625 -5.15625 4.96875 -4.859375 4.90625 -4.546875 C 4.78125 -4.09375 4.140625 -1.515625 4.046875 -1.09375 C 4.046875 -1.09375 3.578125 -0.125 2.703125 -0.125 C 2.078125 -0.125 1.953125 -0.65625 1.953125 -1.09375 C 1.953125 -1.78125 2.296875 -2.734375 2.609375 -3.53125 C 2.75 -3.921875 2.8125 -4.078125 2.8125 -4.3125 C 2.8125 -4.828125 2.4375 -5.265625 1.859375 -5.265625 C 0.765625 -5.265625 0.328125 -3.53125 0.328125 -3.4375 C 0.328125 -3.390625 0.375 -3.328125 0.453125 -3.328125 C 0.5625 -3.328125 0.578125 -3.375 0.625 -3.546875 C 0.90625 -4.578125 1.375 -5.03125 1.828125 -5.03125 C 1.953125 -5.03125 2.140625 -5.015625 2.140625 -4.640625 C 2.140625 -4.328125 2.015625 -3.984375 1.828125 -3.53125 C 1.296875 -2.109375 1.25 -1.65625 1.25 -1.296875 C 1.25 -0.078125 2.15625 0.125 2.65625 0.125 C 3.421875 0.125 3.84375 -0.40625 4.078125 -0.6875 Z M 4.078125 -0.6875 "/>
</g>
<g id="glyph-3-3">
<path d="M 3.59375 -0.53125 C 3.390625 -0.53125 3.21875 -0.53125 3.21875 -0.578125 C 3.21875 -0.609375 3.421875 -1.734375 3.484375 -2 C 3.875 -3.53125 4.78125 -4.625 5.828125 -4.625 C 6.59375 -4.625 6.953125 -4.046875 6.953125 -3.375 C 6.953125 -2.015625 5.421875 -0.53125 3.59375 -0.53125 Z M 3.078125 0.09375 C 3.15625 0.109375 3.28125 0.125 3.484375 0.125 C 5.453125 0.125 7.25 -1.765625 7.25 -3.65625 C 7.25 -4.390625 6.9375 -5.265625 5.921875 -5.265625 C 4.203125 -5.265625 3.484375 -2.84375 2.8125 -0.59375 C 1.4375 -0.859375 0.859375 -1.59375 0.859375 -2.390625 C 0.859375 -2.71875 1.109375 -4 1.8125 -4.859375 C 1.9375 -5.015625 1.9375 -5.03125 1.9375 -5.0625 C 1.9375 -5.15625 1.84375 -5.15625 1.8125 -5.15625 C 1.5 -5.15625 0.578125 -3.40625 0.578125 -2.265625 C 0.578125 -0.9375 1.640625 -0.203125 2.609375 0.015625 L 1.984375 2.03125 C 1.921875 2.21875 1.921875 2.234375 1.921875 2.28125 C 1.921875 2.5625 2.21875 2.578125 2.234375 2.578125 C 2.359375 2.578125 2.5625 2.53125 2.671875 2.296875 C 2.703125 2.1875 3.03125 0.328125 3.078125 0.09375 Z M 3.078125 0.09375 "/>
</g>
<g id="glyph-4-0">
</g>
<g id="glyph-4-1">
<path d="M 7.875 -2.75 C 8.078125 -2.75 8.296875 -2.75 8.296875 -2.984375 C 8.296875 -3.234375 8.078125 -3.234375 7.875 -3.234375 L 1.40625 -3.234375 C 1.203125 -3.234375 0.984375 -3.234375 0.984375 -2.984375 C 0.984375 -2.75 1.203125 -2.75 1.40625 -2.75 Z M 7.875 -2.75 "/>
</g>
<g id="glyph-4-2">
<path d="M 8.0625 -7.09375 C 8.203125 -7.15625 8.296875 -7.21875 8.296875 -7.359375 C 8.296875 -7.5 8.203125 -7.609375 8.0625 -7.609375 C 8 -7.609375 7.890625 -7.546875 7.84375 -7.53125 L 1.234375 -4.40625 C 1.03125 -4.3125 0.984375 -4.234375 0.984375 -4.140625 C 0.984375 -4.03125 1.0625 -3.9375 1.234375 -3.875 L 7.84375 -0.765625 C 8 -0.6875 8.015625 -0.6875 8.0625 -0.6875 C 8.1875 -0.6875 8.296875 -0.78125 8.296875 -0.921875 C 8.296875 -1.03125 8.25 -1.09375 8.046875 -1.1875 L 1.796875 -4.140625 Z M 7.875 1.640625 C 8.078125 1.640625 8.296875 1.640625 8.296875 1.40625 C 8.296875 1.15625 8.046875 1.15625 7.859375 1.15625 L 1.421875 1.15625 C 1.25 1.15625 0.984375 1.15625 0.984375 1.40625 C 0.984375 1.640625 1.203125 1.640625 1.40625 1.640625 Z M 7.875 1.640625 "/>
</g>
</g>
<clipPath id="clip-0">
<path clip-rule="nonzero" d="M 10 8 L 16 8 L 16 12.953125 L 10 12.953125 Z M 10 8 "/>
</clipPath>
<clipPath id="clip-1">
<path clip-rule="nonzero" d="M 17 0 L 21 0 L 21 12.953125 L 17 12.953125 Z M 17 0 "/>
</clipPath>
<clipPath id="clip-2">
<path clip-rule="nonzero" d="M 49 0 L 52 0 L 52 12.953125 L 49 12.953125 Z M 49 0 "/>
</clipPath>
<clipPath id="clip-3">
<path clip-rule="nonzero" d="M 69 4 L 77 4 L 77 12.953125 L 69 12.953125 Z M 69 4 "/>
</clipPath>
<clipPath id="clip-4">
<path clip-rule="nonzero" d="M 77 0 L 81 0 L 81 12.953125 L 77 12.953125 Z M 77 0 "/>
</clipPath>
<clipPath id="clip-5">
<path clip-rule="nonzero" d="M 87 0 L 91 0 L 91 12.953125 L 87 12.953125 Z M 87 0 "/>
</clipPath>
<clipPath id="clip-6">
<path clip-rule="nonzero" d="M 106 4 L 114 4 L 114 12.953125 L 106 12.953125 Z M 106 4 "/>
</clipPath>
<clipPath id="clip-7">
<path clip-rule="nonzero" d="M 115 0 L 118 0 L 118 12.953125 L 115 12.953125 Z M 115 0 "/>
</clipPath>
<clipPath id="clip-8">
<path clip-rule="nonzero" d="M 125 0 L 129 0 L 129 12.953125 L 125 12.953125 Z M 125 0 "/>
</clipPath>
</defs>
<g fill="rgb(0%, 0%, 0%)" fill-opacity="1">
<use xlink:href="#glyph-0-1" x="0.5" y="9.466"/>
</g>
<g fill="rgb(0%, 0%, 0%)" fill-opacity="1">
<use xlink:href="#glyph-1-1" x="10.442" y="4.53"/>
</g>
<g clip-path="url(#clip-0)">
<g fill="rgb(0%, 0%, 0%)" fill-opacity="1">
<use xlink:href="#glyph-1-2" x="10.442" y="12.422"/>
</g>
</g>
<g clip-path="url(#clip-1)">
<g fill="rgb(0%, 0%, 0%)" fill-opacity="1">
<use xlink:href="#glyph-2-1" x="16.458" y="9.466"/>
</g>
</g>
<g fill="rgb(0%, 0%, 0%)" fill-opacity="1">
<use xlink:href="#glyph-3-1" x="21.01" y="9.466"/>
</g>
<g fill="rgb(0%, 0%, 0%)" fill-opacity="1">
<use xlink:href="#glyph-4-1" x="29.755" y="9.466"/>
</g>
<g fill="rgb(0%, 0%, 0%)" fill-opacity="1">
<use xlink:href="#glyph-3-2" x="41.71" y="9.466"/>
</g>
<g clip-path="url(#clip-2)">
<g fill="rgb(0%, 0%, 0%)" fill-opacity="1">
<use xlink:href="#glyph-2-2" x="48.373" y="9.466"/>
</g>
</g>
<g fill="rgb(0%, 0%, 0%)" fill-opacity="1">
<use xlink:href="#glyph-4-2" x="56.246" y="9.466"/>
</g>
<g clip-path="url(#clip-3)">
<g fill="rgb(0%, 0%, 0%)" fill-opacity="1">
<use xlink:href="#glyph-3-3" x="68.865" y="9.466"/>
</g>
</g>
<g clip-path="url(#clip-4)">
<g fill="rgb(0%, 0%, 0%)" fill-opacity="1">
<use xlink:href="#glyph-2-1" x="76.534" y="9.466"/>
</g>
</g>
<g fill="rgb(0%, 0%, 0%)" fill-opacity="1">
<use xlink:href="#glyph-3-1" x="81.086" y="9.466"/>
</g>
<g clip-path="url(#clip-5)">
<g fill="rgb(0%, 0%, 0%)" fill-opacity="1">
<use xlink:href="#glyph-2-2" x="87.174" y="9.466"/>
</g>
</g>
<g fill="rgb(0%, 0%, 0%)" fill-opacity="1">
<use xlink:href="#glyph-4-1" x="94.383" y="9.466"/>
</g>
<g clip-path="url(#clip-6)">
<g fill="rgb(0%, 0%, 0%)" fill-opacity="1">
<use xlink:href="#glyph-3-3" x="106.338" y="9.466"/>
</g>
</g>
<g clip-path="url(#clip-7)">
<g fill="rgb(0%, 0%, 0%)" fill-opacity="1">
<use xlink:href="#glyph-2-1" x="114.007" y="9.466"/>
</g>
</g>
<g fill="rgb(0%, 0%, 0%)" fill-opacity="1">
<use xlink:href="#glyph-3-2" x="118.559" y="9.466"/>
</g>
<g clip-path="url(#clip-8)">
<g fill="rgb(0%, 0%, 0%)" fill-opacity="1">
<use xlink:href="#glyph-2-2" x="125.221" y="9.466"/>
</g>
</g>
</svg>
