<?xml version="1.0" encoding="UTF-8"?>
<svg xmlns="http://www.w3.org/2000/svg" xmlns:xlink="http://www.w3.org/1999/xlink" viewBox="0 0 30.43 9.637">
<defs>
<g>
<g id="glyph-0-0">
</g>
<g id="glyph-0-1">
<path d="M 4.671875 -4.5 C 4.453125 -4.5 4.34375 -4.5 4.171875 -4.34375 C 4.09375 -4.296875 3.96875 -4.109375 3.96875 -3.921875 C 3.96875 -3.6875 4.140625 -3.53125 4.375 -3.53125 C 4.65625 -3.53125 4.984375 -3.78125 4.984375 -4.25 C 4.984375 -4.828125 4.4375 -5.265625 3.609375 -5.265625 C 2.046875 -5.265625 0.484375 -3.5625 0.484375 -1.859375 C 0.484375 -0.828125 1.125 0.125 2.34375 0.125 C 3.96875 0.125 5 -1.140625 5 -1.296875 C 5 -1.375 4.921875 -1.4375 4.875 -1.4375 C 4.84375 -1.4375 4.828125 -1.421875 4.71875 -1.3125 C 3.953125 -0.296875 2.828125 -0.125 2.359375 -0.125 C 1.546875 -0.125 1.28125 -0.84375 1.28125 -1.4375 C 1.28125 -1.859375 1.484375 -3.015625 1.90625 -3.828125 C 2.21875 -4.390625 2.875 -5.03125 3.625 -5.03125 C 3.78125 -5.03125 4.4375 -5.015625 4.671875 -4.5 Z M 4.671875 -4.5 "/>
</g>
<g id="glyph-1-0">
</g>
<g id="glyph-1-1">
<path d="M 6.546875 -2.75 C 6.75 -2.75 6.96875 -2.75 6.96875 -2.984375 C 6.96875 -3.234375 6.75 -3.234375 6.546875 -3.234375 L 1.484375 -3.234375 C 1.625 -4.828125 3 -5.96875 4.6875 -5.96875 L 6.546875 -5.96875 C 6.75 -5.96875 6.96875 -5.96875 6.96875 -6.21875 C 6.96875 -6.453125 6.75 -6.453125 6.546875 -6.453125 L 4.65625 -6.453125 C 2.625 -6.453125 0.984375 -4.90625 0.984375 -2.984375 C 0.984375 -1.078125 2.625 0.484375 4.65625 0.484375 L 6.546875 0.484375 C 6.75 0.484375 6.96875 0.484375 6.96875 0.234375 C 6.96875 0 6.75 0 6.546875 0 L 4.6875 0 C 3 0 1.625 -1.140625 1.484375 -2.75 Z M 6.546875 -2.75 "/>
</g>
<g id="glyph-1-2">
<path d="M 9.921875 -7.703125 C 9.921875 -8.265625 9 -8.171875 8.625 -8.171875 L 4.125 -8.171875 C 3.53125 -8.171875 2.46875 -7.828125 2.265625 -7.1875 C 2.296875 -7.109375 2.3125 -7.09375 2.390625 -7.09375 C 2.65625 -7.09375 3.015625 -7.3125 3.171875 -7.5 C 3.546875 -7.5 3.90625 -7.515625 4.28125 -7.515625 L 5.015625 -7.515625 C 5.015625 -7.515625 4.96875 -7.296875 4.96875 -7.296875 C 4.5 -5.109375 3.796875 -3.25 3.28125 -2.078125 C 3.203125 -1.921875 2.5625 -0.4375 2.390625 -0.28125 C 1.859375 -0.28125 1.46875 -0.578125 1.25 -1.046875 C 1.21875 -1.109375 1.21875 -1.15625 1.140625 -1.15625 C 0.859375 -1.15625 0.203125 -0.78125 0.203125 -0.578125 C 0.203125 -0.546875 0.21875 -0.53125 0.234375 -0.5 C 0.4375 0.0625 0.984375 0.375 1.5625 0.375 C 2.171875 0.375 2.875 -0.0625 3.265625 -0.5 C 3.65625 -0.953125 4.453125 -2.921875 4.75 -3.640625 L 7.0625 -3.640625 C 7.046875 -3.625 7.046875 -3.609375 7.046875 -3.59375 C 7.046875 -3.546875 7.109375 -3.515625 7.15625 -3.515625 C 7.421875 -3.515625 8.109375 -3.84375 8.109375 -4.21875 C 8.109375 -4.296875 8.015625 -4.296875 7.875 -4.296875 L 5.015625 -4.296875 C 5.3125 -5.359375 5.71875 -6.421875 5.9375 -7.515625 L 7.515625 -7.515625 C 7.8125 -7.515625 8.65625 -7.578125 8.875 -7.3125 C 8.890625 -7.25 8.859375 -7.125 8.890625 -7.0625 C 8.921875 -7.046875 8.953125 -7.03125 8.984375 -7.03125 C 9.28125 -7.03125 9.921875 -7.390625 9.921875 -7.703125 Z M 9.921875 -7.703125 "/>
</g>
</g>
<clipPath id="clip-0">
<path clip-rule="nonzero" d="M 9 2 L 16 2 L 16 9.636719 L 9 9.636719 Z M 9 2 "/>
</clipPath>
<clipPath id="clip-1">
<path clip-rule="nonzero" d="M 20 0 L 30.429688 0 L 30.429688 9.636719 L 20 9.636719 Z M 20 0 "/>
</clipPath>
</defs>
<g fill="rgb(0%, 0%, 0%)" fill-opacity="1">
<use xlink:href="#glyph-0-1" x="0.5" y="8.67"/>
</g>
<g clip-path="url(#clip-0)">
<g fill="rgb(0%, 0%, 0%)" fill-opacity="1">
<use xlink:href="#glyph-1-1" x="8.859" y="8.67"/>
</g>
</g>
<g clip-path="url(#clip-1)">
<g fill="rgb(0%, 0%, 0%)" fill-opacity="1">
<use xlink:href="#glyph-1-2" x="20.153077" y="8.67"/>
</g>
</g>
</svg>
