<?xml version="1.0" encoding="UTF-8"?>
<svg xmlns="http://www.w3.org/2000/svg" xmlns:xlink="http://www.w3.org/1999/xlink" viewBox="0 0 23.018 13.453">
<defs>
<g>
<g id="glyph-0-0">
</g>
<g id="glyph-0-1">
<path d="M 3.921875 -8.515625 C 3.984375 -8.640625 3.984375 -8.671875 3.984375 -8.71875 C 3.984375 -8.859375 3.875 -8.96875 3.734375 -8.96875 C 3.640625 -8.96875 3.546875 -8.90625 3.46875 -8.6875 L 1.375 -3.203125 C 1.34375 -3.125 1.3125 -3.0625 1.3125 -2.984375 C 1.3125 -2.953125 1.3125 -2.921875 1.375 -2.78125 L 3.46875 2.703125 C 3.515625 2.828125 3.578125 2.984375 3.734375 2.984375 C 3.875 2.984375 3.984375 2.875 3.984375 2.75 C 3.984375 2.71875 3.984375 2.6875 3.921875 2.5625 L 1.8125 -2.984375 Z M 3.921875 -8.515625 "/>
</g>
<g id="glyph-0-2">
<path d="M 1.90625 -8.53125 C 1.90625 -8.75 1.90625 -8.96875 1.65625 -8.96875 C 1.421875 -8.96875 1.421875 -8.75 1.421875 -8.53125 L 1.421875 2.5625 C 1.421875 2.765625 1.421875 2.984375 1.65625 2.984375 C 1.90625 2.984375 1.90625 2.765625 1.90625 2.5625 Z M 1.90625 -8.53125 "/>
</g>
<g id="glyph-0-3">
<path d="M 3.265625 -2.78125 C 3.328125 -2.921875 3.328125 -2.953125 3.328125 -2.984375 C 3.328125 -3.03125 3.328125 -3.046875 3.265625 -3.1875 L 1.171875 -8.6875 C 1.09375 -8.890625 1.03125 -8.96875 0.890625 -8.96875 C 0.765625 -8.96875 0.65625 -8.859375 0.65625 -8.71875 C 0.65625 -8.6875 0.65625 -8.671875 0.71875 -8.53125 L 2.828125 -2.984375 L 0.71875 2.53125 C 0.65625 2.671875 0.65625 2.6875 0.65625 2.75 C 0.65625 2.875 0.765625 2.984375 0.890625 2.984375 C 1.046875 2.984375 1.09375 2.875 1.140625 2.75 Z M 3.265625 -2.78125 "/>
</g>
<g id="glyph-1-0">
</g>
<g id="glyph-1-1">
<path d="M 4.28125 -3.203125 C 4.265625 -3.21875 4.234375 -3.296875 4.234375 -3.3125 C 4.234375 -3.328125 4.359375 -3.421875 4.453125 -3.46875 C 5.078125 -3.9375 5.9375 -4.5625 6.203125 -4.71875 C 6.609375 -4.984375 6.90625 -5.140625 7.265625 -5.171875 C 7.328125 -5.1875 7.4375 -5.203125 7.4375 -5.34375 C 7.421875 -5.390625 7.375 -5.4375 7.328125 -5.4375 C 7.3125 -5.4375 7.09375 -5.421875 7.03125 -5.421875 L 6.71875 -5.421875 C 6.578125 -5.421875 6.390625 -5.421875 6.3125 -5.421875 C 6.25 -5.421875 5.9375 -5.4375 5.890625 -5.4375 C 5.828125 -5.4375 5.71875 -5.4375 5.71875 -5.296875 C 5.71875 -5.28125 5.734375 -5.1875 5.84375 -5.171875 C 5.90625 -5.171875 6.046875 -5.15625 6.046875 -5.0625 C 6.046875 -4.9375 5.875 -4.796875 5.859375 -4.796875 L 5.796875 -4.734375 C 5.78125 -4.703125 5.75 -4.671875 5.703125 -4.65625 L 2.453125 -2.296875 L 3.078125 -4.828125 C 3.15625 -5.109375 3.171875 -5.171875 3.75 -5.171875 C 3.90625 -5.171875 4.015625 -5.171875 4.015625 -5.328125 C 4.015625 -5.34375 4 -5.4375 3.875 -5.4375 C 3.71875 -5.4375 3.53125 -5.421875 3.375 -5.421875 L 2.875 -5.421875 C 2.109375 -5.421875 1.90625 -5.4375 1.84375 -5.4375 C 1.8125 -5.4375 1.6875 -5.4375 1.6875 -5.296875 C 1.6875 -5.171875 1.78125 -5.171875 1.921875 -5.171875 C 2.1875 -5.171875 2.421875 -5.171875 2.421875 -5.046875 C 2.421875 -5.015625 2.40625 -5.015625 2.375 -4.90625 L 1.3125 -0.625 C 1.25 -0.328125 1.234375 -0.265625 0.640625 -0.265625 C 0.484375 -0.265625 0.390625 -0.265625 0.390625 -0.109375 C 0.390625 -0.078125 0.421875 0 0.515625 0 C 0.671875 0 0.859375 -0.015625 1.015625 -0.03125 L 2.046875 -0.03125 C 2.171875 -0.015625 2.4375 0 2.546875 0 C 2.59375 0 2.703125 0 2.703125 -0.140625 C 2.703125 -0.265625 2.609375 -0.265625 2.484375 -0.265625 C 2.421875 -0.265625 2.3125 -0.265625 2.171875 -0.28125 C 2.015625 -0.296875 1.984375 -0.3125 1.984375 -0.390625 C 1.984375 -0.4375 2.046875 -0.640625 2.0625 -0.765625 L 2.359375 -1.96875 L 3.65625 -2.890625 L 4.609375 -0.921875 C 4.640625 -0.859375 4.71875 -0.6875 4.75 -0.609375 C 4.8125 -0.53125 4.8125 -0.515625 4.8125 -0.484375 C 4.8125 -0.265625 4.515625 -0.265625 4.421875 -0.265625 C 4.34375 -0.265625 4.234375 -0.265625 4.234375 -0.109375 C 4.234375 -0.109375 4.234375 0 4.359375 0 C 4.453125 0 4.75 -0.015625 4.828125 -0.03125 L 5.28125 -0.03125 C 6.015625 -0.03125 6 0 6.09375 0 C 6.125 0 6.25 0 6.25 -0.15625 C 6.25 -0.265625 6.140625 -0.265625 6.09375 -0.265625 C 5.78125 -0.265625 5.671875 -0.328125 5.546875 -0.59375 Z M 4.28125 -3.203125 "/>
</g>
</g>
</defs>
<g fill="rgb(0%, 0%, 0%)" fill-opacity="1">
<use xlink:href="#glyph-0-1" x="0.5" y="9.466"/>
<use xlink:href="#glyph-0-2" x="5.149377" y="9.466"/>
</g>
<g fill="rgb(0%, 0%, 0%)" fill-opacity="1">
<use xlink:href="#glyph-0-3" x="9.666052" y="9.466"/>
</g>
<g fill="rgb(0%, 0%, 0%)" fill-opacity="1">
<use xlink:href="#glyph-1-1" x="14.315" y="12.953"/>
</g>
</svg>
