<?xml version="1.0" encoding="UTF-8"?>
<svg xmlns="http://www.w3.org/2000/svg" xmlns:xlink="http://www.w3.org/1999/xlink" viewBox="0 0 32.71 10.928">
<defs>
<g>
<g id="glyph-0-0">
</g>
<g id="glyph-0-1">
<path d="M 5.9375 -4.25 C 6.15625 -5.171875 6.1875 -5.671875 6.1875 -6.078125 C 6.1875 -6.90625 6 -8.421875 4.90625 -8.421875 C 3.9375 -8.421875 3.1875 -7.125 3.1875 -6.234375 C 3.1875 -5.0625 4.375 -4.484375 5.109375 -4.25 C 4.796875 -2.90625 4.546875 -2.21875 4.203125 -1.53125 C 3.703125 -0.5625 3.296875 -0.125 2.828125 -0.125 C 1.953125 -0.125 1.953125 -0.84375 1.953125 -1.078125 C 1.953125 -1.34375 2.015625 -1.640625 2.109375 -2.0625 C 2.171875 -2.359375 2.25 -2.625 2.328125 -2.96875 C 2.4375 -3.375 2.375 -3.125 2.46875 -3.546875 C 2.53125 -3.765625 2.59375 -4 2.59375 -4.203125 C 2.59375 -4.921875 2.046875 -5.265625 1.546875 -5.265625 C 1.203125 -5.265625 0.9375 -5.109375 0.703125 -4.65625 C 0.484375 -4.21875 0.328125 -3.484375 0.328125 -3.4375 C 0.328125 -3.390625 0.375 -3.328125 0.453125 -3.328125 C 0.546875 -3.328125 0.5625 -3.34375 0.640625 -3.625 C 0.8125 -4.328125 1.046875 -5.03125 1.515625 -5.03125 C 1.796875 -5.03125 1.890625 -4.84375 1.890625 -4.484375 C 1.890625 -4.21875 1.84375 -4.046875 1.75 -3.703125 C 1.703125 -3.4375 1.59375 -3.03125 1.546875 -2.828125 L 1.328125 -1.953125 C 1.234375 -1.546875 1.234375 -1.375 1.234375 -1.21875 C 1.234375 -1.046875 1.234375 -0.515625 1.65625 -0.171875 C 2.0625 0.109375 2.59375 0.125 2.78125 0.125 C 4.15625 0.125 5.40625 -2.15625 5.875 -4.015625 C 6.15625 -3.953125 6.375 -3.90625 6.4375 -3.90625 C 6.5 -3.90625 6.53125 -4 6.53125 -4.046875 C 6.53125 -4.125 6.453125 -4.140625 6.28125 -4.171875 Z M 5.171875 -4.484375 C 4.0625 -4.859375 3.453125 -5.453125 3.453125 -6.25 C 3.453125 -7.03125 4.09375 -8.171875 4.890625 -8.171875 C 5.46875 -8.171875 5.515625 -7.421875 5.515625 -6.75 C 5.515625 -6.0625 5.390625 -5.4375 5.171875 -4.484375 Z M 5.171875 -4.484375 "/>
</g>
<g id="glyph-0-2">
<path d="M 8.359375 -7.796875 C 8.4375 -7.875 8.5 -7.953125 8.5 -8.0625 C 8.5 -8.15625 8.484375 -8.15625 8.21875 -8.15625 L 3.28125 -8.15625 C 3 -8.15625 2.984375 -8.15625 2.921875 -7.9375 L 2.265625 -5.78125 C 2.21875 -5.671875 2.21875 -5.640625 2.21875 -5.625 C 2.21875 -5.5625 2.265625 -5.5 2.34375 -5.5 C 2.4375 -5.5 2.46875 -5.546875 2.515625 -5.703125 C 2.953125 -7 3.53125 -7.8125 5.421875 -7.8125 L 7.390625 -7.8125 L 0.84375 -0.40625 C 0.734375 -0.28125 0.6875 -0.234375 0.6875 -0.09375 C 0.6875 0 0.734375 0 0.96875 0 L 6.078125 0 C 6.34375 0 6.359375 -0.015625 6.4375 -0.234375 L 7.265625 -2.875 C 7.28125 -2.90625 7.296875 -2.984375 7.296875 -3.03125 C 7.296875 -3.09375 7.25 -3.15625 7.1875 -3.15625 C 7.09375 -3.15625 7.078125 -3.140625 6.984375 -2.84375 C 6.484375 -1.296875 5.953125 -0.375 3.875 -0.375 L 1.8125 -0.375 Z M 8.359375 -7.796875 "/>
</g>
<g id="glyph-1-0">
</g>
<g id="glyph-1-1">
<path d="M 8.0625 -7.09375 C 8.203125 -7.15625 8.296875 -7.21875 8.296875 -7.359375 C 8.296875 -7.5 8.203125 -7.609375 8.0625 -7.609375 C 8 -7.609375 7.890625 -7.546875 7.84375 -7.53125 L 1.234375 -4.40625 C 1.03125 -4.3125 0.984375 -4.234375 0.984375 -4.140625 C 0.984375 -4.03125 1.0625 -3.9375 1.234375 -3.875 L 7.84375 -0.765625 C 8 -0.6875 8.015625 -0.6875 8.0625 -0.6875 C 8.1875 -0.6875 8.296875 -0.78125 8.296875 -0.921875 C 8.296875 -1.03125 8.25 -1.09375 8.046875 -1.1875 L 1.796875 -4.140625 Z M 7.875 1.640625 C 8.078125 1.640625 8.296875 1.640625 8.296875 1.40625 C 8.296875 1.15625 8.046875 1.15625 7.859375 1.15625 L 1.421875 1.15625 C 1.25 1.15625 0.984375 1.15625 0.984375 1.40625 C 0.984375 1.640625 1.203125 1.640625 1.40625 1.640625 Z M 7.875 1.640625 "/>
</g>
</g>
<clipPath id="clip-0">
<path clip-rule="nonzero" d="M 11 1 L 20 1 L 20 10.929688 L 11 10.929688 Z M 11 1 "/>
</clipPath>
</defs>
<g fill="rgb(0%, 0%, 0%)" fill-opacity="1">
<use xlink:href="#glyph-0-1" x="0.5" y="8.802"/>
</g>
<g clip-path="url(#clip-0)">
<g fill="rgb(0%, 0%, 0%)" fill-opacity="1">
<use xlink:href="#glyph-1-1" x="10.72" y="8.802"/>
</g>
</g>
<g fill="rgb(0%, 0%, 0%)" fill-opacity="1">
<use xlink:href="#glyph-0-2" x="23.339" y="8.802"/>
</g>
</svg>
