<?xml version="1.0" encoding="UTF-8"?>
<svg xmlns="http://www.w3.org/2000/svg" xmlns:xlink="http://www.w3.org/1999/xlink" viewBox="0 0 31.307 9.637">
<defs>
<g>
<g id="glyph-0-0">
</g>
<g id="glyph-0-1">
<path d="M 3.59375 -1.421875 C 3.53125 -1.21875 3.53125 -1.1875 3.375 -0.96875 C 3.109375 -0.640625 2.578125 -0.125 2.015625 -0.125 C 1.53125 -0.125 1.25 -0.5625 1.25 -1.265625 C 1.25 -1.921875 1.625 -3.265625 1.859375 -3.765625 C 2.265625 -4.609375 2.828125 -5.03125 3.28125 -5.03125 C 4.078125 -5.03125 4.234375 -4.046875 4.234375 -3.953125 C 4.234375 -3.9375 4.203125 -3.796875 4.1875 -3.765625 Z M 4.359375 -4.484375 C 4.234375 -4.796875 3.90625 -5.265625 3.28125 -5.265625 C 1.9375 -5.265625 0.484375 -3.53125 0.484375 -1.75 C 0.484375 -0.578125 1.171875 0.125 1.984375 0.125 C 2.640625 0.125 3.203125 -0.390625 3.53125 -0.78125 C 3.65625 -0.078125 4.21875 0.125 4.578125 0.125 C 4.9375 0.125 5.21875 -0.09375 5.4375 -0.53125 C 5.625 -0.9375 5.796875 -1.65625 5.796875 -1.703125 C 5.796875 -1.765625 5.75 -1.8125 5.671875 -1.8125 C 5.5625 -1.8125 5.5625 -1.75 5.515625 -1.578125 C 5.328125 -0.875 5.109375 -0.125 4.609375 -0.125 C 4.265625 -0.125 4.25 -0.4375 4.25 -0.671875 C 4.25 -0.9375 4.28125 -1.078125 4.390625 -1.546875 C 4.46875 -1.84375 4.53125 -2.109375 4.625 -2.453125 C 5.0625 -4.25 5.171875 -4.671875 5.171875 -4.75 C 5.171875 -4.90625 5.046875 -5.046875 4.859375 -5.046875 C 4.484375 -5.046875 4.390625 -4.625 4.359375 -4.484375 Z M 4.359375 -4.484375 "/>
</g>
<g id="glyph-1-0">
</g>
<g id="glyph-1-1">
<path d="M 6.546875 -2.75 C 6.75 -2.75 6.96875 -2.75 6.96875 -2.984375 C 6.96875 -3.234375 6.75 -3.234375 6.546875 -3.234375 L 1.484375 -3.234375 C 1.625 -4.828125 3 -5.96875 4.6875 -5.96875 L 6.546875 -5.96875 C 6.75 -5.96875 6.96875 -5.96875 6.96875 -6.21875 C 6.96875 -6.453125 6.75 -6.453125 6.546875 -6.453125 L 4.65625 -6.453125 C 2.625 -6.453125 0.984375 -4.90625 0.984375 -2.984375 C 0.984375 -1.078125 2.625 0.484375 4.65625 0.484375 L 6.546875 0.484375 C 6.75 0.484375 6.96875 0.484375 6.96875 0.234375 C 6.96875 0 6.75 0 6.546875 0 L 4.6875 0 C 3 0 1.625 -1.140625 1.484375 -2.75 Z M 6.546875 -2.75 "/>
</g>
<g id="glyph-1-2">
<path d="M 5.8125 -7.421875 L 7.796875 -7.421875 C 9.375 -7.421875 9.96875 -8.328125 9.96875 -8.484375 C 9.96875 -8.546875 9.921875 -8.578125 9.859375 -8.578125 C 9.734375 -8.578125 9.421875 -8.453125 9.125 -8.234375 C 9.03125 -8.15625 9 -8.15625 8.78125 -8.15625 L 3.546875 -8.15625 C 2.0625 -8.15625 0.40625 -6.890625 0.40625 -5.90625 C 0.40625 -5.828125 0.40625 -5.765625 0.5 -5.765625 C 0.78125 -5.765625 1.546875 -6.15625 1.5625 -6.4375 C 1.578125 -6.640625 1.609375 -6.875 1.84375 -7.1875 C 1.953125 -7.328125 2.0625 -7.421875 2.578125 -7.421875 L 4.953125 -7.421875 C 4.75 -7.296875 4.703125 -7.109375 4.6875 -7 L 3.328125 -1.578125 C 3.171875 -0.984375 2.921875 -0.234375 2.578125 0.53125 C 2.515625 0.6875 2.515625 0.703125 2.515625 0.734375 C 2.515625 0.796875 2.5625 0.8125 2.625 0.8125 C 2.859375 0.8125 3.4375 0.484375 3.625 0.234375 C 3.6875 0.125 4.21875 -1.09375 4.46875 -2.09375 Z M 5.8125 -7.421875 "/>
</g>
</g>
<clipPath id="clip-0">
<path clip-rule="nonzero" d="M 10 2 L 17 2 L 17 9.636719 L 10 9.636719 Z M 10 2 "/>
</clipPath>
<clipPath id="clip-1">
<path clip-rule="nonzero" d="M 21 0 L 31.308594 0 L 31.308594 9.636719 L 21 9.636719 Z M 21 0 "/>
</clipPath>
</defs>
<g fill="rgb(0%, 0%, 0%)" fill-opacity="1">
<use xlink:href="#glyph-0-1" x="0.5" y="8.67"/>
</g>
<g clip-path="url(#clip-0)">
<g fill="rgb(0%, 0%, 0%)" fill-opacity="1">
<use xlink:href="#glyph-1-1" x="9.966" y="8.67"/>
</g>
</g>
<g clip-path="url(#clip-1)">
<g fill="rgb(0%, 0%, 0%)" fill-opacity="1">
<use xlink:href="#glyph-1-2" x="21.260077" y="8.67"/>
</g>
</g>
</svg>
