<?xml version="1.0" encoding="UTF-8"?>
<svg xmlns="http://www.w3.org/2000/svg" xmlns:xlink="http://www.w3.org/1999/xlink" viewBox="0 0 53.449 11.471">
<defs>
<g>
<g id="glyph-0-0">
</g>
<g id="glyph-0-1">
<path d="M 5.671875 -4.875 C 5.28125 -4.8125 5.140625 -4.515625 5.140625 -4.296875 C 5.140625 -4 5.359375 -3.90625 5.53125 -3.90625 C 5.890625 -3.90625 6.140625 -4.21875 6.140625 -4.546875 C 6.140625 -5.046875 5.5625 -5.265625 5.0625 -5.265625 C 4.34375 -5.265625 3.9375 -4.546875 3.828125 -4.328125 C 3.546875 -5.21875 2.8125 -5.265625 2.59375 -5.265625 C 1.375 -5.265625 0.734375 -3.703125 0.734375 -3.4375 C 0.734375 -3.390625 0.78125 -3.328125 0.859375 -3.328125 C 0.953125 -3.328125 0.984375 -3.40625 1 -3.453125 C 1.40625 -4.78125 2.21875 -5.03125 2.5625 -5.03125 C 3.09375 -5.03125 3.203125 -4.53125 3.203125 -4.25 C 3.203125 -3.984375 3.125 -3.703125 2.984375 -3.125 L 2.578125 -1.5 C 2.40625 -0.78125 2.0625 -0.125 1.421875 -0.125 C 1.359375 -0.125 1.0625 -0.125 0.8125 -0.28125 C 1.25 -0.359375 1.34375 -0.71875 1.34375 -0.859375 C 1.34375 -1.09375 1.15625 -1.25 0.9375 -1.25 C 0.640625 -1.25 0.328125 -0.984375 0.328125 -0.609375 C 0.328125 -0.109375 0.890625 0.125 1.40625 0.125 C 1.984375 0.125 2.390625 -0.328125 2.640625 -0.828125 C 2.828125 -0.125 3.4375 0.125 3.875 0.125 C 5.09375 0.125 5.734375 -1.453125 5.734375 -1.703125 C 5.734375 -1.765625 5.6875 -1.8125 5.625 -1.8125 C 5.515625 -1.8125 5.5 -1.75 5.46875 -1.65625 C 5.140625 -0.609375 4.453125 -0.125 3.90625 -0.125 C 3.484375 -0.125 3.265625 -0.4375 3.265625 -0.921875 C 3.265625 -1.1875 3.3125 -1.375 3.5 -2.15625 L 3.921875 -3.796875 C 4.09375 -4.5 4.5 -5.03125 5.0625 -5.03125 C 5.078125 -5.03125 5.421875 -5.03125 5.671875 -4.875 Z M 5.671875 -4.875 "/>
</g>
<g id="glyph-1-0">
</g>
<g id="glyph-1-1">
<path d="M 7.234375 -6.71875 C 7.234375 -7.109375 7.203125 -7.140625 6.8125 -7.140625 L 1.140625 -7.140625 C 0.765625 -7.140625 0.734375 -7.109375 0.734375 -6.71875 L 0.734375 -0.4375 C 0.734375 -0.25 0.734375 0 0.96875 0 C 1.203125 0 1.203125 -0.21875 1.203125 -0.4375 L 1.203125 -6.671875 L 6.75 -6.671875 L 6.75 -0.4375 C 6.75 -0.25 6.75 0 7 0 C 7.234375 0 7.234375 -0.21875 7.234375 -0.4375 Z M 7.234375 -6.71875 "/>
</g>
<g id="glyph-2-0">
</g>
<g id="glyph-2-1">
<path d="M 1.96875 -3.703125 C 2.140625 -3.671875 2.296875 -3.640625 2.40625 -3.609375 C 2.671875 -3.53125 2.796875 -3.5 2.953125 -3.5 C 3.234375 -3.5 3.28125 -3.6875 3.28125 -3.796875 C 3.28125 -3.953125 3.15625 -4.09375 2.984375 -4.09375 C 2.8125 -4.09375 2.640625 -4.0625 2.5 -4.015625 C 2.3125 -3.96875 2.15625 -3.921875 1.96875 -3.90625 C 1.984375 -4.125 2.0625 -4.46875 2.09375 -4.625 C 2.15625 -4.96875 2.171875 -5.171875 2.171875 -5.265625 C 2.171875 -5.609375 1.90625 -5.609375 1.875 -5.609375 C 1.78125 -5.609375 1.578125 -5.5625 1.578125 -5.265625 C 1.578125 -5.09375 1.625 -4.828125 1.671875 -4.578125 C 1.765625 -4.15625 1.78125 -3.953125 1.78125 -3.90625 C 1.609375 -3.921875 1.453125 -3.96875 1.34375 -4 C 1.171875 -4.046875 0.984375 -4.09375 0.765625 -4.09375 C 0.59375 -4.09375 0.46875 -3.953125 0.46875 -3.796875 C 0.46875 -3.6875 0.515625 -3.5 0.8125 -3.5 C 0.921875 -3.5 1.015625 -3.515625 1.40625 -3.625 C 1.609375 -3.671875 1.75 -3.703125 1.78125 -3.703125 C 1.765625 -3.46875 1.6875 -3.140625 1.671875 -2.984375 C 1.59375 -2.640625 1.578125 -2.4375 1.578125 -2.328125 C 1.578125 -1.984375 1.84375 -1.984375 1.875 -1.984375 C 1.96875 -1.984375 2.171875 -2.03125 2.171875 -2.328125 C 2.171875 -2.515625 2.140625 -2.78125 2.078125 -3.015625 C 1.984375 -3.453125 1.96875 -3.65625 1.96875 -3.703125 Z M 1.96875 -0.078125 C 2.171875 -0.046875 2.1875 -0.046875 2.53125 0.046875 C 2.65625 0.078125 2.828125 0.125 2.953125 0.125 C 3.265625 0.125 3.28125 -0.140625 3.28125 -0.171875 C 3.28125 -0.265625 3.25 -0.484375 2.953125 -0.484375 C 2.8125 -0.484375 2.625 -0.4375 2.453125 -0.390625 C 2.1875 -0.3125 2.15625 -0.3125 1.96875 -0.28125 C 1.984375 -0.515625 2.09375 -0.96875 2.09375 -1.046875 C 2.171875 -1.40625 2.171875 -1.609375 2.171875 -1.640625 C 2.171875 -1.984375 1.90625 -1.984375 1.875 -1.984375 C 1.78125 -1.984375 1.578125 -1.9375 1.578125 -1.640625 C 1.578125 -1.578125 1.578125 -1.375 1.65625 -1.046875 C 1.6875 -0.90625 1.765625 -0.5 1.78125 -0.28125 C 1.578125 -0.3125 1.5625 -0.3125 1.21875 -0.40625 C 1.09375 -0.4375 0.921875 -0.484375 0.796875 -0.484375 C 0.484375 -0.484375 0.46875 -0.21875 0.46875 -0.1875 C 0.46875 -0.09375 0.515625 0.125 0.796875 0.125 C 0.984375 0.125 1.21875 0.0625 1.359375 0.015625 C 1.5625 -0.046875 1.625 -0.0625 1.78125 -0.078125 C 1.765625 0.15625 1.671875 0.609375 1.65625 0.6875 C 1.578125 1.046875 1.578125 1.25 1.578125 1.28125 C 1.578125 1.625 1.84375 1.625 1.875 1.625 C 1.96875 1.625 2.171875 1.578125 2.171875 1.28125 C 2.171875 1.21875 2.171875 1.015625 2.109375 0.6875 C 2.078125 0.546875 1.984375 0.140625 1.96875 -0.078125 Z M 1.96875 -0.078125 "/>
</g>
<g id="glyph-3-0">
</g>
<g id="glyph-3-1">
<path d="M 8.0625 -3.875 C 8.234375 -3.875 8.453125 -3.875 8.453125 -4.09375 C 8.453125 -4.3125 8.25 -4.3125 8.0625 -4.3125 L 1.03125 -4.3125 C 0.859375 -4.3125 0.640625 -4.3125 0.640625 -4.09375 C 0.640625 -3.875 0.84375 -3.875 1.03125 -3.875 Z M 8.0625 -1.65625 C 8.234375 -1.65625 8.453125 -1.65625 8.453125 -1.859375 C 8.453125 -2.09375 8.25 -2.09375 8.0625 -2.09375 L 1.03125 -2.09375 C 0.859375 -2.09375 0.640625 -2.09375 0.640625 -1.875 C 0.640625 -1.65625 0.84375 -1.65625 1.03125 -1.65625 Z M 8.0625 -1.65625 "/>
</g>
<g id="glyph-3-2">
<path d="M 5.359375 -3.828125 C 5.359375 -4.8125 5.296875 -5.78125 4.859375 -6.6875 C 4.375 -7.6875 3.515625 -7.953125 2.921875 -7.953125 C 2.234375 -7.953125 1.390625 -7.609375 0.9375 -6.609375 C 0.609375 -5.859375 0.484375 -5.109375 0.484375 -3.828125 C 0.484375 -2.671875 0.578125 -1.796875 1 -0.9375 C 1.46875 -0.03125 2.296875 0.25 2.921875 0.25 C 3.953125 0.25 4.546875 -0.375 4.90625 -1.0625 C 5.328125 -1.953125 5.359375 -3.125 5.359375 -3.828125 Z M 2.921875 0.015625 C 2.53125 0.015625 1.75 -0.203125 1.53125 -1.5 C 1.40625 -2.21875 1.40625 -3.125 1.40625 -3.96875 C 1.40625 -4.953125 1.40625 -5.828125 1.59375 -6.53125 C 1.796875 -7.34375 2.40625 -7.703125 2.921875 -7.703125 C 3.375 -7.703125 4.0625 -7.4375 4.296875 -6.40625 C 4.453125 -5.71875 4.453125 -4.78125 4.453125 -3.96875 C 4.453125 -3.171875 4.453125 -2.265625 4.3125 -1.53125 C 4.09375 -0.21875 3.328125 0.015625 2.921875 0.015625 Z M 2.921875 0.015625 "/>
</g>
</g>
<clipPath id="clip-0">
<path clip-rule="nonzero" d="M 0 5 L 7 5 L 7 11.472656 L 0 11.472656 Z M 0 5 "/>
</clipPath>
<clipPath id="clip-1">
<path clip-rule="nonzero" d="M 20 5 L 27 5 L 27 11.472656 L 20 11.472656 Z M 20 5 "/>
</clipPath>
<clipPath id="clip-2">
<path clip-rule="nonzero" d="M 47 3 L 53 3 L 53 11.472656 L 47 11.472656 Z M 47 3 "/>
</clipPath>
</defs>
<g clip-path="url(#clip-0)">
<g fill="rgb(0%, 0%, 0%)" fill-opacity="1">
<use xlink:href="#glyph-0-1" x="0.5" y="10.971"/>
</g>
</g>
<g fill="rgb(0%, 0%, 0%)" fill-opacity="1">
<use xlink:href="#glyph-1-1" x="9.809" y="10.971"/>
</g>
<g clip-path="url(#clip-1)">
<g fill="rgb(0%, 0%, 0%)" fill-opacity="1">
<use xlink:href="#glyph-0-1" x="20.436" y="10.971"/>
</g>
</g>
<g fill="rgb(0%, 0%, 0%)" fill-opacity="1">
<use xlink:href="#glyph-2-1" x="27.088" y="6.035"/>
</g>
<g fill="rgb(0%, 0%, 0%)" fill-opacity="1">
<use xlink:href="#glyph-3-1" x="34.67" y="10.971"/>
</g>
<g clip-path="url(#clip-2)">
<g fill="rgb(0%, 0%, 0%)" fill-opacity="1">
<use xlink:href="#glyph-3-2" x="47.098626" y="10.971"/>
</g>
</g>
</svg>
