<?xml version="1.0" encoding="UTF-8"?>
<svg xmlns="http://www.w3.org/2000/svg" xmlns:xlink="http://www.w3.org/1999/xlink" viewBox="0 0 382.703 25.591">
<defs>
<g>
<g id="glyph-0-0">
</g>
<g id="glyph-0-1">
<path d="M 6.015625 -8 C 6.03125 -8.046875 6.046875 -8.109375 6.046875 -8.171875 C 6.046875 -8.296875 5.921875 -8.296875 5.90625 -8.296875 C 5.890625 -8.296875 5.3125 -8.25 5.25 -8.234375 C 5.046875 -8.21875 4.859375 -8.203125 4.65625 -8.1875 C 4.34375 -8.15625 4.265625 -8.15625 4.265625 -7.9375 C 4.265625 -7.8125 4.359375 -7.8125 4.53125 -7.8125 C 5.109375 -7.8125 5.125 -7.703125 5.125 -7.59375 C 5.125 -7.515625 5.109375 -7.421875 5.09375 -7.390625 L 4.359375 -4.484375 C 4.234375 -4.796875 3.90625 -5.265625 3.28125 -5.265625 C 1.9375 -5.265625 0.484375 -3.53125 0.484375 -1.75 C 0.484375 -0.578125 1.171875 0.125 1.984375 0.125 C 2.640625 0.125 3.203125 -0.390625 3.53125 -0.78125 C 3.65625 -0.078125 4.21875 0.125 4.578125 0.125 C 4.9375 0.125 5.21875 -0.09375 5.4375 -0.53125 C 5.625 -0.9375 5.796875 -1.65625 5.796875 -1.703125 C 5.796875 -1.765625 5.75 -1.8125 5.671875 -1.8125 C 5.5625 -1.8125 5.5625 -1.75 5.515625 -1.578125 C 5.328125 -0.875 5.109375 -0.125 4.609375 -0.125 C 4.265625 -0.125 4.25 -0.4375 4.25 -0.671875 C 4.25 -0.71875 4.25 -0.96875 4.328125 -1.296875 Z M 3.59375 -1.421875 C 3.53125 -1.21875 3.53125 -1.1875 3.375 -0.96875 C 3.109375 -0.640625 2.578125 -0.125 2.015625 -0.125 C 1.53125 -0.125 1.25 -0.5625 1.25 -1.265625 C 1.25 -1.921875 1.625 -3.265625 1.859375 -3.765625 C 2.265625 -4.609375 2.828125 -5.03125 3.28125 -5.03125 C 4.078125 -5.03125 4.234375 -4.046875 4.234375 -3.953125 C 4.234375 -3.9375 4.203125 -3.796875 4.1875 -3.765625 Z M 3.59375 -1.421875 "/>
</g>
<g id="glyph-0-2">
<path d="M 4.40625 -7.28125 C 4.5 -7.703125 4.53125 -7.8125 5.40625 -7.8125 C 5.671875 -7.8125 5.765625 -7.8125 5.765625 -8.046875 C 5.765625 -8.15625 5.625 -8.15625 5.59375 -8.15625 C 5.375 -8.15625 5.109375 -8.140625 4.90625 -8.140625 L 3.4375 -8.140625 C 3.1875 -8.140625 2.921875 -8.15625 2.671875 -8.15625 C 2.578125 -8.15625 2.453125 -8.15625 2.453125 -7.9375 C 2.453125 -7.8125 2.546875 -7.8125 2.78125 -7.8125 C 3.53125 -7.8125 3.53125 -7.71875 3.53125 -7.59375 C 3.53125 -7.5 3.5 -7.4375 3.484375 -7.328125 L 1.859375 -0.890625 C 1.75 -0.46875 1.734375 -0.34375 0.859375 -0.34375 C 0.59375 -0.34375 0.484375 -0.34375 0.484375 -0.125 C 0.484375 0 0.609375 0 0.671875 0 C 0.890625 0 1.140625 -0.03125 1.359375 -0.03125 L 2.828125 -0.03125 C 3.078125 -0.03125 3.328125 0 3.578125 0 C 3.671875 0 3.8125 0 3.8125 -0.21875 C 3.8125 -0.34375 3.734375 -0.34375 3.484375 -0.34375 C 2.734375 -0.34375 2.734375 -0.4375 2.734375 -0.578125 C 2.734375 -0.609375 2.734375 -0.671875 2.78125 -0.859375 Z M 4.40625 -7.28125 "/>
</g>
<g id="glyph-0-3">
<path d="M 2.40625 -4.8125 L 3.5 -4.8125 C 3.734375 -4.8125 3.84375 -4.8125 3.84375 -5.015625 C 3.84375 -5.15625 3.78125 -5.15625 3.53125 -5.15625 L 2.484375 -5.15625 L 2.921875 -6.890625 C 2.96875 -7.0625 2.96875 -7.09375 2.96875 -7.171875 C 2.96875 -7.359375 2.828125 -7.46875 2.671875 -7.46875 C 2.5625 -7.46875 2.296875 -7.4375 2.203125 -7.046875 L 1.734375 -5.15625 L 0.609375 -5.15625 C 0.375 -5.15625 0.265625 -5.15625 0.265625 -4.921875 C 0.265625 -4.8125 0.34375 -4.8125 0.578125 -4.8125 L 1.640625 -4.8125 L 0.84375 -1.65625 C 0.75 -1.234375 0.71875 -1.109375 0.71875 -0.953125 C 0.71875 -0.390625 1.109375 0.125 1.78125 0.125 C 2.984375 0.125 3.640625 -1.625 3.640625 -1.703125 C 3.640625 -1.78125 3.578125 -1.8125 3.515625 -1.8125 C 3.484375 -1.8125 3.4375 -1.8125 3.421875 -1.765625 C 3.40625 -1.75 3.390625 -1.75 3.3125 -1.546875 C 3.0625 -0.953125 2.515625 -0.125 1.8125 -0.125 C 1.453125 -0.125 1.4375 -0.421875 1.4375 -0.6875 C 1.4375 -0.6875 1.4375 -0.921875 1.46875 -1.0625 Z M 2.40625 -4.8125 "/>
</g>
<g id="glyph-0-4">
<path d="M 5.421875 -4 C 5.359375 -4.65625 4.9375 -5.46875 3.859375 -5.46875 C 2.171875 -5.46875 0.453125 -3.75 0.453125 -1.859375 C 0.453125 -1.125 0.953125 0.25 2.578125 0.25 C 5.40625 0.25 6.609375 -3.859375 6.609375 -5.5 C 6.609375 -7.21875 5.640625 -8.546875 4.109375 -8.546875 C 2.375 -8.546875 1.859375 -7.03125 1.859375 -6.703125 C 1.859375 -6.59375 1.9375 -6.328125 2.265625 -6.328125 C 2.6875 -6.328125 2.875 -6.71875 2.875 -6.921875 C 2.875 -7.296875 2.5 -7.296875 2.34375 -7.296875 C 2.828125 -8.171875 3.734375 -8.265625 4.0625 -8.265625 C 5.109375 -8.265625 5.78125 -7.421875 5.78125 -6.078125 C 5.78125 -5.3125 5.5625 -4.4375 5.4375 -4 Z M 2.625 -0.078125 C 1.5 -0.078125 1.296875 -0.953125 1.296875 -1.453125 C 1.296875 -1.984375 1.640625 -3.21875 1.8125 -3.65625 C 1.96875 -4.015625 2.65625 -5.21875 3.890625 -5.21875 C 4.984375 -5.21875 5.234375 -4.28125 5.234375 -3.640625 C 5.234375 -2.75 4.453125 -0.078125 2.625 -0.078125 Z M 2.625 -0.078125 "/>
</g>
<g id="glyph-0-5">
<path d="M 3.546875 -3.890625 L 4.703125 -3.890625 C 5.609375 -3.890625 5.671875 -3.6875 5.671875 -3.34375 C 5.671875 -3.1875 5.65625 -3.03125 5.59375 -2.765625 C 5.5625 -2.71875 5.5625 -2.65625 5.5625 -2.625 C 5.5625 -2.546875 5.609375 -2.5 5.6875 -2.5 C 5.78125 -2.5 5.796875 -2.546875 5.84375 -2.734375 L 6.53125 -5.515625 C 6.53125 -5.5625 6.5 -5.640625 6.421875 -5.640625 C 6.3125 -5.640625 6.296875 -5.59375 6.25 -5.390625 C 6 -4.5 5.765625 -4.25 4.71875 -4.25 L 3.640625 -4.25 L 4.40625 -7.34375 C 4.515625 -7.75 4.546875 -7.796875 5.03125 -7.796875 L 6.640625 -7.796875 C 8.125 -7.796875 8.34375 -7.34375 8.34375 -6.5 C 8.34375 -6.4375 8.34375 -6.171875 8.3125 -5.859375 C 8.296875 -5.8125 8.265625 -5.65625 8.265625 -5.609375 C 8.265625 -5.515625 8.328125 -5.46875 8.40625 -5.46875 C 8.484375 -5.46875 8.53125 -5.515625 8.5625 -5.734375 L 8.8125 -7.828125 C 8.8125 -7.859375 8.828125 -7.984375 8.828125 -8.015625 C 8.828125 -8.140625 8.71875 -8.140625 8.515625 -8.140625 L 2.84375 -8.140625 C 2.625 -8.140625 2.5 -8.140625 2.5 -7.921875 C 2.5 -7.796875 2.578125 -7.796875 2.78125 -7.796875 C 3.53125 -7.796875 3.53125 -7.703125 3.53125 -7.578125 C 3.53125 -7.515625 3.515625 -7.46875 3.484375 -7.34375 L 1.859375 -0.890625 C 1.75 -0.46875 1.734375 -0.34375 0.890625 -0.34375 C 0.671875 -0.34375 0.546875 -0.34375 0.546875 -0.125 C 0.546875 0 0.65625 0 0.734375 0 C 0.953125 0 1.1875 -0.03125 1.421875 -0.03125 L 2.96875 -0.03125 C 3.234375 -0.03125 3.53125 0 3.796875 0 C 3.890625 0 4.046875 0 4.046875 -0.21875 C 4.046875 -0.34375 3.96875 -0.34375 3.703125 -0.34375 C 2.765625 -0.34375 2.734375 -0.4375 2.734375 -0.609375 C 2.734375 -0.671875 2.765625 -0.765625 2.78125 -0.84375 Z M 3.546875 -3.890625 "/>
</g>
<g id="glyph-0-6">
<path d="M 2.71875 -2.390625 C 2.921875 -2.359375 3.25 -2.28125 3.328125 -2.265625 C 3.484375 -2.21875 4.015625 -2.03125 4.015625 -1.453125 C 4.015625 -1.09375 3.6875 -0.125 2.296875 -0.125 C 2.046875 -0.125 1.140625 -0.15625 0.90625 -0.8125 C 1.390625 -0.75 1.625 -1.125 1.625 -1.390625 C 1.625 -1.640625 1.453125 -1.765625 1.21875 -1.765625 C 0.953125 -1.765625 0.609375 -1.5625 0.609375 -1.03125 C 0.609375 -0.328125 1.328125 0.125 2.28125 0.125 C 4.09375 0.125 4.640625 -1.21875 4.640625 -1.84375 C 4.640625 -2.015625 4.640625 -2.359375 4.25 -2.734375 C 3.953125 -3.03125 3.671875 -3.078125 3.03125 -3.21875 C 2.703125 -3.28125 2.1875 -3.390625 2.1875 -3.9375 C 2.1875 -4.171875 2.40625 -5.03125 3.53125 -5.03125 C 4.046875 -5.03125 4.53125 -4.84375 4.65625 -4.40625 C 4.125 -4.40625 4.09375 -3.953125 4.09375 -3.9375 C 4.09375 -3.6875 4.328125 -3.625 4.4375 -3.625 C 4.609375 -3.625 4.9375 -3.75 4.9375 -4.25 C 4.9375 -4.75 4.484375 -5.265625 3.546875 -5.265625 C 1.984375 -5.265625 1.5625 -4.046875 1.5625 -3.546875 C 1.5625 -2.640625 2.453125 -2.453125 2.71875 -2.390625 Z M 2.71875 -2.390625 "/>
</g>
<g id="glyph-0-7">
<path d="M 2.765625 -8 C 2.765625 -8.046875 2.796875 -8.109375 2.796875 -8.171875 C 2.796875 -8.296875 2.671875 -8.296875 2.65625 -8.296875 C 2.640625 -8.296875 2.21875 -8.265625 2 -8.234375 C 1.796875 -8.21875 1.609375 -8.203125 1.40625 -8.1875 C 1.109375 -8.15625 1.03125 -8.15625 1.03125 -7.9375 C 1.03125 -7.8125 1.140625 -7.8125 1.265625 -7.8125 C 1.875 -7.8125 1.875 -7.703125 1.875 -7.59375 C 1.875 -7.5 1.78125 -7.15625 1.734375 -6.9375 L 1.453125 -5.796875 C 1.328125 -5.3125 0.640625 -2.609375 0.59375 -2.390625 C 0.53125 -2.09375 0.53125 -1.890625 0.53125 -1.734375 C 0.53125 -0.515625 1.21875 0.125 2 0.125 C 3.375 0.125 4.8125 -1.65625 4.8125 -3.390625 C 4.8125 -4.5 4.203125 -5.265625 3.296875 -5.265625 C 2.671875 -5.265625 2.109375 -4.75 1.890625 -4.515625 Z M 2.015625 -0.125 C 1.625 -0.125 1.203125 -0.40625 1.203125 -1.34375 C 1.203125 -1.734375 1.25 -1.953125 1.453125 -2.796875 C 1.5 -2.953125 1.6875 -3.71875 1.734375 -3.875 C 1.75 -3.96875 2.46875 -5.03125 3.28125 -5.03125 C 3.796875 -5.03125 4.046875 -4.5 4.046875 -3.890625 C 4.046875 -3.3125 3.703125 -1.953125 3.40625 -1.34375 C 3.109375 -0.6875 2.5625 -0.125 2.015625 -0.125 Z M 2.015625 -0.125 "/>
</g>
<g id="glyph-0-8">
<path d="M 2.328125 0.046875 C 2.328125 -0.640625 2.109375 -1.15625 1.609375 -1.15625 C 1.234375 -1.15625 1.046875 -0.84375 1.046875 -0.578125 C 1.046875 -0.328125 1.21875 0 1.625 0 C 1.78125 0 1.90625 -0.046875 2.015625 -0.15625 C 2.046875 -0.171875 2.0625 -0.171875 2.0625 -0.171875 C 2.09375 -0.171875 2.09375 -0.015625 2.09375 0.046875 C 2.09375 0.4375 2.015625 1.21875 1.328125 2 C 1.1875 2.140625 1.1875 2.15625 1.1875 2.1875 C 1.1875 2.25 1.25 2.3125 1.3125 2.3125 C 1.40625 2.3125 2.328125 1.421875 2.328125 0.046875 Z M 2.328125 0.046875 "/>
</g>
<g id="glyph-0-9">
<path d="M 3.59375 -1.421875 C 3.53125 -1.21875 3.53125 -1.1875 3.375 -0.96875 C 3.109375 -0.640625 2.578125 -0.125 2.015625 -0.125 C 1.53125 -0.125 1.25 -0.5625 1.25 -1.265625 C 1.25 -1.921875 1.625 -3.265625 1.859375 -3.765625 C 2.265625 -4.609375 2.828125 -5.03125 3.28125 -5.03125 C 4.078125 -5.03125 4.234375 -4.046875 4.234375 -3.953125 C 4.234375 -3.9375 4.203125 -3.796875 4.1875 -3.765625 Z M 4.359375 -4.484375 C 4.234375 -4.796875 3.90625 -5.265625 3.28125 -5.265625 C 1.9375 -5.265625 0.484375 -3.53125 0.484375 -1.75 C 0.484375 -0.578125 1.171875 0.125 1.984375 0.125 C 2.640625 0.125 3.203125 -0.390625 3.53125 -0.78125 C 3.65625 -0.078125 4.21875 0.125 4.578125 0.125 C 4.9375 0.125 5.21875 -0.09375 5.4375 -0.53125 C 5.625 -0.9375 5.796875 -1.65625 5.796875 -1.703125 C 5.796875 -1.765625 5.75 -1.8125 5.671875 -1.8125 C 5.5625 -1.8125 5.5625 -1.75 5.515625 -1.578125 C 5.328125 -0.875 5.109375 -0.125 4.609375 -0.125 C 4.265625 -0.125 4.25 -0.4375 4.25 -0.671875 C 4.25 -0.9375 4.28125 -1.078125 4.390625 -1.546875 C 4.46875 -1.84375 4.53125 -2.109375 4.625 -2.453125 C 5.0625 -4.25 5.171875 -4.671875 5.171875 -4.75 C 5.171875 -4.90625 5.046875 -5.046875 4.859375 -5.046875 C 4.484375 -5.046875 4.390625 -4.625 4.359375 -4.484375 Z M 4.359375 -4.484375 "/>
</g>
<g id="glyph-1-0">
</g>
<g id="glyph-1-1">
<path d="M 3.890625 2.90625 C 3.890625 2.875 3.890625 2.84375 3.6875 2.640625 C 2.484375 1.4375 1.8125 -0.53125 1.8125 -2.96875 C 1.8125 -5.296875 2.375 -7.296875 3.765625 -8.703125 C 3.890625 -8.8125 3.890625 -8.828125 3.890625 -8.875 C 3.890625 -8.9375 3.828125 -8.96875 3.78125 -8.96875 C 3.625 -8.96875 2.640625 -8.109375 2.0625 -6.9375 C 1.453125 -5.71875 1.171875 -4.453125 1.171875 -2.96875 C 1.171875 -1.90625 1.34375 -0.484375 1.953125 0.78125 C 2.671875 2.21875 3.640625 3 3.78125 3 C 3.828125 3 3.890625 2.96875 3.890625 2.90625 Z M 3.890625 2.90625 "/>
</g>
<g id="glyph-1-2">
<path d="M 3.375 -2.96875 C 3.375 -3.890625 3.25 -5.359375 2.578125 -6.75 C 1.875 -8.1875 0.890625 -8.96875 0.765625 -8.96875 C 0.71875 -8.96875 0.65625 -8.9375 0.65625 -8.875 C 0.65625 -8.828125 0.65625 -8.8125 0.859375 -8.609375 C 2.0625 -7.40625 2.71875 -5.421875 2.71875 -2.984375 C 2.71875 -0.671875 2.15625 1.328125 0.78125 2.734375 C 0.65625 2.84375 0.65625 2.875 0.65625 2.90625 C 0.65625 2.96875 0.71875 3 0.765625 3 C 0.921875 3 1.90625 2.140625 2.484375 0.96875 C 3.09375 -0.25 3.375 -1.546875 3.375 -2.96875 Z M 3.375 -2.96875 "/>
</g>
<g id="glyph-1-3">
<path d="M 8.0625 -3.875 C 8.234375 -3.875 8.453125 -3.875 8.453125 -4.09375 C 8.453125 -4.3125 8.25 -4.3125 8.0625 -4.3125 L 1.03125 -4.3125 C 0.859375 -4.3125 0.640625 -4.3125 0.640625 -4.09375 C 0.640625 -3.875 0.84375 -3.875 1.03125 -3.875 Z M 8.0625 -1.65625 C 8.234375 -1.65625 8.453125 -1.65625 8.453125 -1.859375 C 8.453125 -2.09375 8.25 -2.09375 8.0625 -2.09375 L 1.03125 -2.09375 C 0.859375 -2.09375 0.640625 -2.09375 0.640625 -1.875 C 0.640625 -1.65625 0.84375 -1.65625 1.03125 -1.65625 Z M 8.0625 -1.65625 "/>
</g>
<g id="glyph-1-4">
<path d="M 4.765625 -2.765625 L 8.0625 -2.765625 C 8.234375 -2.765625 8.453125 -2.765625 8.453125 -2.96875 C 8.453125 -3.203125 8.25 -3.203125 8.0625 -3.203125 L 4.765625 -3.203125 L 4.765625 -6.5 C 4.765625 -6.671875 4.765625 -6.890625 4.546875 -6.890625 C 4.328125 -6.890625 4.328125 -6.6875 4.328125 -6.5 L 4.328125 -3.203125 L 1.03125 -3.203125 C 0.859375 -3.203125 0.640625 -3.203125 0.640625 -2.984375 C 0.640625 -2.765625 0.84375 -2.765625 1.03125 -2.765625 L 4.328125 -2.765625 L 4.328125 0.53125 C 4.328125 0.703125 4.328125 0.921875 4.546875 0.921875 C 4.765625 0.921875 4.765625 0.71875 4.765625 0.53125 Z M 4.765625 -2.765625 "/>
</g>
<g id="glyph-2-0">
</g>
<g id="glyph-2-1">
<path d="M 2.296875 -2.984375 C 2.296875 -3.328125 2.015625 -3.625 1.65625 -3.625 C 1.3125 -3.625 1.03125 -3.328125 1.03125 -2.984375 C 1.03125 -2.640625 1.3125 -2.359375 1.65625 -2.359375 C 2.015625 -2.359375 2.296875 -2.640625 2.296875 -2.984375 Z M 2.296875 -2.984375 "/>
</g>
<g id="glyph-2-2">
<path d="M 7.875 -2.75 C 8.078125 -2.75 8.296875 -2.75 8.296875 -2.984375 C 8.296875 -3.234375 8.078125 -3.234375 7.875 -3.234375 L 1.40625 -3.234375 C 1.203125 -3.234375 0.984375 -3.234375 0.984375 -2.984375 C 0.984375 -2.75 1.203125 -2.75 1.40625 -2.75 Z M 7.875 -2.75 "/>
</g>
</g>
<clipPath id="clip-0">
<path clip-rule="nonzero" d="M 3 16 L 13 16 L 13 25.589844 L 3 25.589844 Z M 3 16 "/>
</clipPath>
<clipPath id="clip-1">
<path clip-rule="nonzero" d="M 47 16 L 54 16 L 54 25.589844 L 47 25.589844 Z M 47 16 "/>
</clipPath>
<clipPath id="clip-2">
<path clip-rule="nonzero" d="M 54 19 L 59 19 L 59 25.589844 L 54 25.589844 Z M 54 19 "/>
</clipPath>
<clipPath id="clip-3">
<path clip-rule="nonzero" d="M 110 16 L 120 16 L 120 25.589844 L 110 25.589844 Z M 110 16 "/>
</clipPath>
<clipPath id="clip-4">
<path clip-rule="nonzero" d="M 153 16 L 160 16 L 160 25.589844 L 153 25.589844 Z M 153 16 "/>
</clipPath>
<clipPath id="clip-5">
<path clip-rule="nonzero" d="M 160 17 L 164 17 L 164 25.589844 L 160 25.589844 Z M 160 17 "/>
</clipPath>
<clipPath id="clip-6">
<path clip-rule="nonzero" d="M 222 16 L 229 16 L 229 25.589844 L 222 25.589844 Z M 222 16 "/>
</clipPath>
<clipPath id="clip-7">
<path clip-rule="nonzero" d="M 229 19 L 235 19 L 235 25.589844 L 229 25.589844 Z M 229 19 "/>
</clipPath>
<clipPath id="clip-8">
<path clip-rule="nonzero" d="M 286 16 L 296 16 L 296 25.589844 L 286 25.589844 Z M 286 16 "/>
</clipPath>
<clipPath id="clip-9">
<path clip-rule="nonzero" d="M 329 16 L 337 16 L 337 25.589844 L 329 25.589844 Z M 329 16 "/>
</clipPath>
<clipPath id="clip-10">
<path clip-rule="nonzero" d="M 336 17 L 341 17 L 341 25.589844 L 336 25.589844 Z M 336 17 "/>
</clipPath>
</defs>
<g fill="rgb(0%, 0%, 0%)" fill-opacity="1">
<use xlink:href="#glyph-0-1" x="1.696" y="8.803"/>
<use xlink:href="#glyph-0-2" x="7.778806" y="8.803"/>
</g>
<path fill="none" stroke-width="0.478" stroke-linecap="butt" stroke-linejoin="miter" stroke="rgb(0%, 0%, 0%)" stroke-opacity="1" stroke-miterlimit="10" d="M -0.0006875 -0.00034375 L 12.186813 -0.00034375 " transform="matrix(1, 0, 0, -1, 1.696, 13.902)"/>
<g clip-path="url(#clip-0)">
<g fill="rgb(0%, 0%, 0%)" fill-opacity="1">
<use xlink:href="#glyph-0-1" x="2.633" y="25.091"/>
<use xlink:href="#glyph-0-3" x="8.715806" y="25.091"/>
</g>
</g>
<g fill="rgb(0%, 0%, 0%)" fill-opacity="1">
<use xlink:href="#glyph-1-1" x="15.076" y="16.89"/>
</g>
<g fill="rgb(0%, 0%, 0%)" fill-opacity="1">
<use xlink:href="#glyph-0-3" x="19.629" y="16.89"/>
</g>
<g fill="rgb(0%, 0%, 0%)" fill-opacity="1">
<use xlink:href="#glyph-1-2" x="23.856" y="16.89"/>
</g>
<g fill="rgb(0%, 0%, 0%)" fill-opacity="1">
<use xlink:href="#glyph-1-3" x="31.732086" y="16.89"/>
</g>
<g fill="rgb(0%, 0%, 0%)" fill-opacity="1">
<use xlink:href="#glyph-0-4" x="45.35" y="8.803"/>
</g>
<g fill="rgb(0%, 0%, 0%)" fill-opacity="1">
<use xlink:href="#glyph-0-5" x="52.175224" y="8.803"/>
</g>
<path fill="none" stroke-width="0.478" stroke-linecap="butt" stroke-linejoin="miter" stroke="rgb(0%, 0%, 0%)" stroke-opacity="1" stroke-miterlimit="10" d="M 0.0015625 -0.00034375 L 16.032813 -0.00034375 " transform="matrix(1, 0, 0, -1, 45.35, 13.902)"/>
<g clip-path="url(#clip-1)">
<g fill="rgb(0%, 0%, 0%)" fill-opacity="1">
<use xlink:href="#glyph-0-4" x="47.195" y="25.091"/>
</g>
</g>
<g clip-path="url(#clip-2)">
<g fill="rgb(0%, 0%, 0%)" fill-opacity="1">
<use xlink:href="#glyph-0-6" x="54.020224" y="25.091"/>
</g>
</g>
<g fill="rgb(0%, 0%, 0%)" fill-opacity="1">
<use xlink:href="#glyph-1-1" x="62.579" y="16.89"/>
</g>
<g fill="rgb(0%, 0%, 0%)" fill-opacity="1">
<use xlink:href="#glyph-0-7" x="67.131" y="16.89"/>
</g>
<g fill="rgb(0%, 0%, 0%)" fill-opacity="1">
<use xlink:href="#glyph-1-1" x="72.109" y="16.89"/>
</g>
<g fill="rgb(0%, 0%, 0%)" fill-opacity="1">
<use xlink:href="#glyph-0-3" x="76.661" y="16.89"/>
</g>
<g fill="rgb(0%, 0%, 0%)" fill-opacity="1">
<use xlink:href="#glyph-1-2" x="80.888" y="16.89"/>
</g>
<g fill="rgb(0%, 0%, 0%)" fill-opacity="1">
<use xlink:href="#glyph-0-8" x="85.44" y="16.89"/>
</g>
<g fill="rgb(0%, 0%, 0%)" fill-opacity="1">
<use xlink:href="#glyph-0-3" x="90.688333" y="16.89"/>
</g>
<g fill="rgb(0%, 0%, 0%)" fill-opacity="1">
<use xlink:href="#glyph-1-2" x="94.912" y="16.89"/>
</g>
<g fill="rgb(0%, 0%, 0%)" fill-opacity="1">
<use xlink:href="#glyph-2-1" x="102.121" y="16.89"/>
</g>
<g fill="rgb(0%, 0%, 0%)" fill-opacity="1">
<use xlink:href="#glyph-0-1" x="109.294" y="8.803"/>
<use xlink:href="#glyph-0-7" x="115.376806" y="8.803"/>
</g>
<path fill="none" stroke-width="0.478" stroke-linecap="butt" stroke-linejoin="miter" stroke="rgb(0%, 0%, 0%)" stroke-opacity="1" stroke-miterlimit="10" d="M -0.00103125 -0.00034375 L 11.061469 -0.00034375 " transform="matrix(1, 0, 0, -1, 109.294, 13.902)"/>
<g clip-path="url(#clip-3)">
<g fill="rgb(0%, 0%, 0%)" fill-opacity="1">
<use xlink:href="#glyph-0-1" x="109.669" y="25.091"/>
<use xlink:href="#glyph-0-3" x="115.751806" y="25.091"/>
</g>
</g>
<g fill="rgb(0%, 0%, 0%)" fill-opacity="1">
<use xlink:href="#glyph-1-1" x="121.549" y="16.89"/>
</g>
<g fill="rgb(0%, 0%, 0%)" fill-opacity="1">
<use xlink:href="#glyph-0-3" x="126.101" y="16.89"/>
</g>
<g fill="rgb(0%, 0%, 0%)" fill-opacity="1">
<use xlink:href="#glyph-1-2" x="130.328" y="16.89"/>
</g>
<g fill="rgb(0%, 0%, 0%)" fill-opacity="1">
<use xlink:href="#glyph-1-4" x="137.534595" y="16.89"/>
</g>
<g fill="rgb(0%, 0%, 0%)" fill-opacity="1">
<use xlink:href="#glyph-0-4" x="150.494" y="8.803"/>
</g>
<g fill="rgb(0%, 0%, 0%)" fill-opacity="1">
<use xlink:href="#glyph-0-5" x="157.319224" y="8.803"/>
</g>
<path fill="none" stroke-width="0.478" stroke-linecap="butt" stroke-linejoin="miter" stroke="rgb(0%, 0%, 0%)" stroke-opacity="1" stroke-miterlimit="10" d="M -0.0018125 -0.00034375 L 16.033344 -0.00034375 " transform="matrix(1, 0, 0, -1, 150.494, 13.902)"/>
<g clip-path="url(#clip-4)">
<g fill="rgb(0%, 0%, 0%)" fill-opacity="1">
<use xlink:href="#glyph-0-4" x="152.983" y="25.091"/>
</g>
</g>
<g clip-path="url(#clip-5)">
<g fill="rgb(0%, 0%, 0%)" fill-opacity="1">
<use xlink:href="#glyph-0-3" x="159.808224" y="25.091"/>
</g>
</g>
<g fill="rgb(0%, 0%, 0%)" fill-opacity="1">
<use xlink:href="#glyph-1-1" x="167.723" y="16.89"/>
</g>
<g fill="rgb(0%, 0%, 0%)" fill-opacity="1">
<use xlink:href="#glyph-0-7" x="172.276" y="16.89"/>
</g>
<g fill="rgb(0%, 0%, 0%)" fill-opacity="1">
<use xlink:href="#glyph-1-1" x="177.253" y="16.89"/>
</g>
<g fill="rgb(0%, 0%, 0%)" fill-opacity="1">
<use xlink:href="#glyph-0-3" x="181.805" y="16.89"/>
</g>
<g fill="rgb(0%, 0%, 0%)" fill-opacity="1">
<use xlink:href="#glyph-1-2" x="186.032" y="16.89"/>
</g>
<g fill="rgb(0%, 0%, 0%)" fill-opacity="1">
<use xlink:href="#glyph-0-8" x="190.585" y="16.89"/>
</g>
<g fill="rgb(0%, 0%, 0%)" fill-opacity="1">
<use xlink:href="#glyph-0-3" x="195.833333" y="16.89"/>
</g>
<g fill="rgb(0%, 0%, 0%)" fill-opacity="1">
<use xlink:href="#glyph-1-2" x="200.056" y="16.89"/>
</g>
<g fill="rgb(0%, 0%, 0%)" fill-opacity="1">
<use xlink:href="#glyph-2-2" x="207.265" y="16.89"/>
</g>
<g fill="rgb(0%, 0%, 0%)" fill-opacity="1">
<use xlink:href="#glyph-0-4" x="220.416" y="8.803"/>
</g>
<g fill="rgb(0%, 0%, 0%)" fill-opacity="1">
<use xlink:href="#glyph-0-5" x="227.241224" y="8.803"/>
</g>
<path fill="none" stroke-width="0.478" stroke-linecap="butt" stroke-linejoin="miter" stroke="rgb(0%, 0%, 0%)" stroke-opacity="1" stroke-miterlimit="10" d="M -0.0009375 -0.00034375 L 16.034219 -0.00034375 " transform="matrix(1, 0, 0, -1, 220.415, 13.902)"/>
<g clip-path="url(#clip-6)">
<g fill="rgb(0%, 0%, 0%)" fill-opacity="1">
<use xlink:href="#glyph-0-4" x="222.26" y="25.091"/>
</g>
</g>
<g clip-path="url(#clip-7)">
<g fill="rgb(0%, 0%, 0%)" fill-opacity="1">
<use xlink:href="#glyph-0-6" x="229.085224" y="25.091"/>
</g>
</g>
<g fill="rgb(0%, 0%, 0%)" fill-opacity="1">
<use xlink:href="#glyph-1-1" x="237.644" y="16.89"/>
</g>
<g fill="rgb(0%, 0%, 0%)" fill-opacity="1">
<use xlink:href="#glyph-0-9" x="242.197" y="16.89"/>
</g>
<g fill="rgb(0%, 0%, 0%)" fill-opacity="1">
<use xlink:href="#glyph-1-1" x="248.342" y="16.89"/>
</g>
<g fill="rgb(0%, 0%, 0%)" fill-opacity="1">
<use xlink:href="#glyph-0-3" x="252.894" y="16.89"/>
</g>
<g fill="rgb(0%, 0%, 0%)" fill-opacity="1">
<use xlink:href="#glyph-1-2" x="257.121" y="16.89"/>
</g>
<g fill="rgb(0%, 0%, 0%)" fill-opacity="1">
<use xlink:href="#glyph-0-8" x="261.674" y="16.89"/>
</g>
<g fill="rgb(0%, 0%, 0%)" fill-opacity="1">
<use xlink:href="#glyph-0-3" x="266.922333" y="16.89"/>
</g>
<g fill="rgb(0%, 0%, 0%)" fill-opacity="1">
<use xlink:href="#glyph-1-2" x="271.145" y="16.89"/>
</g>
<g fill="rgb(0%, 0%, 0%)" fill-opacity="1">
<use xlink:href="#glyph-2-1" x="278.354" y="16.89"/>
</g>
<g fill="rgb(0%, 0%, 0%)" fill-opacity="1">
<use xlink:href="#glyph-0-1" x="285.527" y="8.803"/>
<use xlink:href="#glyph-0-7" x="291.609806" y="8.803"/>
</g>
<path fill="none" stroke-width="0.478" stroke-linecap="butt" stroke-linejoin="miter" stroke="rgb(0%, 0%, 0%)" stroke-opacity="1" stroke-miterlimit="10" d="M 0.00034375 -0.00034375 L 11.058938 -0.00034375 " transform="matrix(1, 0, 0, -1, 285.527, 13.902)"/>
<g clip-path="url(#clip-8)">
<g fill="rgb(0%, 0%, 0%)" fill-opacity="1">
<use xlink:href="#glyph-0-1" x="285.902" y="25.091"/>
<use xlink:href="#glyph-0-3" x="291.984806" y="25.091"/>
</g>
</g>
<g fill="rgb(0%, 0%, 0%)" fill-opacity="1">
<use xlink:href="#glyph-1-1" x="297.782" y="16.89"/>
</g>
<g fill="rgb(0%, 0%, 0%)" fill-opacity="1">
<use xlink:href="#glyph-0-3" x="302.335" y="16.89"/>
</g>
<g fill="rgb(0%, 0%, 0%)" fill-opacity="1">
<use xlink:href="#glyph-1-2" x="306.562" y="16.89"/>
</g>
<g fill="rgb(0%, 0%, 0%)" fill-opacity="1">
<use xlink:href="#glyph-2-2" x="313.771" y="16.89"/>
</g>
<g fill="rgb(0%, 0%, 0%)" fill-opacity="1">
<use xlink:href="#glyph-0-4" x="326.921" y="8.803"/>
</g>
<g fill="rgb(0%, 0%, 0%)" fill-opacity="1">
<use xlink:href="#glyph-0-5" x="333.746224" y="8.803"/>
</g>
<path fill="none" stroke-width="0.478" stroke-linecap="butt" stroke-linejoin="miter" stroke="rgb(0%, 0%, 0%)" stroke-opacity="1" stroke-miterlimit="10" d="M 0.000875 -0.00034375 L 16.032125 -0.00034375 " transform="matrix(1, 0, 0, -1, 326.921, 13.902)"/>
<g clip-path="url(#clip-9)">
<g fill="rgb(0%, 0%, 0%)" fill-opacity="1">
<use xlink:href="#glyph-0-4" x="329.41" y="25.091"/>
</g>
</g>
<g clip-path="url(#clip-10)">
<g fill="rgb(0%, 0%, 0%)" fill-opacity="1">
<use xlink:href="#glyph-0-3" x="336.235224" y="25.091"/>
</g>
</g>
<g fill="rgb(0%, 0%, 0%)" fill-opacity="1">
<use xlink:href="#glyph-1-1" x="344.15" y="16.89"/>
</g>
<g fill="rgb(0%, 0%, 0%)" fill-opacity="1">
<use xlink:href="#glyph-0-9" x="348.703" y="16.89"/>
</g>
<g fill="rgb(0%, 0%, 0%)" fill-opacity="1">
<use xlink:href="#glyph-1-1" x="354.848" y="16.89"/>
</g>
<g fill="rgb(0%, 0%, 0%)" fill-opacity="1">
<use xlink:href="#glyph-0-3" x="359.4" y="16.89"/>
</g>
<g fill="rgb(0%, 0%, 0%)" fill-opacity="1">
<use xlink:href="#glyph-1-2" x="363.627" y="16.89"/>
</g>
<g fill="rgb(0%, 0%, 0%)" fill-opacity="1">
<use xlink:href="#glyph-0-8" x="368.179" y="16.89"/>
</g>
<g fill="rgb(0%, 0%, 0%)" fill-opacity="1">
<use xlink:href="#glyph-0-3" x="373.427333" y="16.89"/>
</g>
<g fill="rgb(0%, 0%, 0%)" fill-opacity="1">
<use xlink:href="#glyph-1-2" x="377.651" y="16.89"/>
</g>
</svg>
