<?xml version="1.0" encoding="UTF-8"?>
<svg xmlns="http://www.w3.org/2000/svg" xmlns:xlink="http://www.w3.org/1999/xlink" viewBox="0 0 24.841 11.394">
<defs>
<g>
<g id="glyph-0-0">
</g>
<g id="glyph-0-1">
<path d="M 8.625 -7.796875 C 8.625 -8.15625 8.578125 -8.21875 8.203125 -8.21875 L 1.09375 -8.21875 C 0.71875 -8.21875 0.671875 -8.171875 0.671875 -7.796875 L 0.671875 -0.4375 C 0.671875 -0.046875 0.703125 0 1.09375 0 L 8.1875 0 C 8.578125 0 8.625 -0.03125 8.625 -0.421875 Z M 1.140625 -4.34375 L 1.140625 -7.734375 L 4.40625 -7.734375 L 4.40625 -4.34375 Z M 8.140625 -7.734375 L 8.140625 -4.34375 L 4.890625 -4.34375 L 4.890625 -7.734375 Z M 1.140625 -0.484375 L 1.140625 -3.875 L 4.40625 -3.875 L 4.40625 -0.484375 Z M 8.140625 -3.875 L 8.140625 -0.484375 L 4.890625 -0.484375 L 4.890625 -3.875 Z M 8.140625 -3.875 "/>
</g>
<g id="glyph-0-2">
<path d="M 8.625 -2.984375 C 8.625 -5.1875 6.84375 -6.96875 4.65625 -6.96875 C 2.453125 -6.96875 0.671875 -5.171875 0.671875 -2.984375 C 0.671875 -0.78125 2.46875 0.984375 4.65625 0.984375 C 6.84375 0.984375 8.625 -0.796875 8.625 -2.984375 Z M 4.65625 0.6875 C 2.625 0.6875 0.96875 -0.953125 0.96875 -2.984375 C 0.96875 -5.015625 2.625 -6.671875 4.65625 -6.671875 C 6.6875 -6.671875 8.328125 -5.015625 8.328125 -2.984375 C 8.328125 -0.953125 6.6875 0.6875 4.65625 0.6875 Z M 6.09375 -1.796875 C 6.234375 -1.703125 6.4375 -1.546875 6.53125 -1.546875 C 6.703125 -1.546875 6.84375 -1.703125 6.84375 -1.875 C 6.84375 -2.0625 6.765625 -2.09375 6.578125 -2.1875 C 6.421875 -2.265625 5.671875 -2.609375 4.921875 -2.984375 L 6.59375 -3.796875 C 6.765625 -3.890625 6.84375 -3.921875 6.84375 -4.09375 C 6.84375 -4.265625 6.703125 -4.4375 6.53125 -4.4375 C 6.421875 -4.4375 6.34375 -4.375 6.3125 -4.34375 L 4.796875 -3.234375 L 4.953125 -5.109375 C 4.96875 -5.265625 4.96875 -5.5625 4.65625 -5.5625 C 4.46875 -5.5625 4.296875 -5.421875 4.34375 -5.265625 L 4.34375 -5.109375 L 4.5 -3.234375 L 3.203125 -4.1875 C 3.0625 -4.28125 2.875 -4.4375 2.765625 -4.4375 C 2.59375 -4.4375 2.453125 -4.265625 2.453125 -4.09375 C 2.453125 -3.921875 2.5625 -3.859375 2.6875 -3.796875 L 4.375 -2.984375 L 2.703125 -2.1875 C 2.53125 -2.09375 2.453125 -2.0625 2.453125 -1.875 C 2.453125 -1.703125 2.59375 -1.546875 2.765625 -1.546875 C 2.859375 -1.546875 3.046875 -1.6875 3.171875 -1.78125 L 4.5 -2.734375 L 4.328125 -0.734375 C 4.328125 -0.515625 4.515625 -0.421875 4.65625 -0.421875 C 4.78125 -0.421875 4.96875 -0.515625 4.96875 -0.734375 C 4.96875 -0.765625 4.90625 -1.328125 4.90625 -1.375 C 4.90625 -1.390625 4.859375 -1.859375 4.859375 -2.09375 L 4.796875 -2.734375 Z M 6.09375 -1.796875 "/>
</g>
<g id="glyph-1-0">
</g>
<g id="glyph-1-1">
<path d="M 2.328125 0.046875 C 2.328125 -0.640625 2.109375 -1.15625 1.609375 -1.15625 C 1.234375 -1.15625 1.046875 -0.84375 1.046875 -0.578125 C 1.046875 -0.328125 1.21875 0 1.625 0 C 1.78125 0 1.90625 -0.046875 2.015625 -0.15625 C 2.046875 -0.171875 2.0625 -0.171875 2.0625 -0.171875 C 2.09375 -0.171875 2.09375 -0.015625 2.09375 0.046875 C 2.09375 0.4375 2.015625 1.21875 1.328125 2 C 1.1875 2.140625 1.1875 2.15625 1.1875 2.1875 C 1.1875 2.25 1.25 2.3125 1.3125 2.3125 C 1.40625 2.3125 2.328125 1.421875 2.328125 0.046875 Z M 2.328125 0.046875 "/>
</g>
</g>
</defs>
<g fill="rgb(0%, 0%, 0%)" fill-opacity="1">
<use xlink:href="#glyph-0-1" x="0.5" y="8.569"/>
</g>
<g fill="rgb(0%, 0%, 0%)" fill-opacity="1">
<use xlink:href="#glyph-1-1" x="9.798" y="8.569"/>
</g>
<g fill="rgb(0%, 0%, 0%)" fill-opacity="1">
<use xlink:href="#glyph-0-2" x="15.043" y="8.569"/>
</g>
</svg>
