<?xml version="1.0" encoding="UTF-8"?>
<svg xmlns="http://www.w3.org/2000/svg" xmlns:xlink="http://www.w3.org/1999/xlink" viewBox="0 0 205.363 38.277">
<defs>
<g>
<g id="glyph-0-0">
</g>
<g id="glyph-0-1">
<path d="M 15.125 16.734375 L 16.578125 12.90625 L 16.28125 12.90625 C 15.8125 14.15625 14.546875 14.96875 13.171875 15.328125 C 12.921875 15.390625 11.75 15.6875 9.453125 15.6875 L 2.25 15.6875 L 8.328125 8.5625 C 8.421875 8.46875 8.4375 8.421875 8.4375 8.359375 C 8.4375 8.34375 8.4375 8.3125 8.359375 8.1875 L 2.78125 0.578125 L 9.328125 0.578125 C 10.9375 0.578125 12.03125 0.734375 12.125 0.765625 C 12.78125 0.859375 13.8125 1.0625 14.765625 1.65625 C 15.0625 1.859375 15.875 2.390625 16.28125 3.359375 L 16.578125 3.359375 L 15.125 0 L 1 0 C 0.734375 0 0.71875 0.015625 0.6875 0.078125 C 0.671875 0.125 0.671875 0.34375 0.671875 0.484375 L 7 9.125 L 0.796875 16.390625 C 0.6875 16.53125 0.6875 16.59375 0.6875 16.609375 C 0.6875 16.734375 0.78125 16.734375 1 16.734375 Z M 15.125 16.734375 "/>
</g>
<g id="glyph-0-2">
<path d="M 5.390625 21.84375 C 5.390625 20.53125 4.484375 18.5 2.40625 17.453125 C 3.6875 16.765625 5.234375 15.359375 5.375 13.125 L 5.390625 13.046875 L 5.390625 4.765625 C 5.390625 3.796875 5.390625 3.578125 5.484375 3.125 C 5.703125 2.15625 6.28125 0.984375 7.796875 0.078125 C 7.890625 0.03125 7.90625 0.015625 7.90625 -0.203125 C 7.90625 -0.46875 7.890625 -0.484375 7.625 -0.484375 C 7.40625 -0.484375 7.390625 -0.484375 7.0625 -0.28125 C 4.390625 1.234375 4.234375 3.453125 4.234375 3.875 L 4.234375 12.375 C 4.234375 13.234375 4.234375 14.203125 3.609375 15.296875 C 3.0625 16.28125 2.421875 16.765625 1.90625 17.109375 C 1.734375 17.21875 1.71875 17.234375 1.71875 17.4375 C 1.71875 17.65625 1.734375 17.671875 1.828125 17.71875 C 2.84375 18.390625 3.9375 19.453125 4.203125 21.40625 C 4.234375 21.671875 4.234375 21.6875 4.234375 21.84375 L 4.234375 31.015625 C 4.234375 31.984375 4.828125 34 7.140625 35.21875 C 7.40625 35.375 7.4375 35.375 7.625 35.375 C 7.890625 35.375 7.90625 35.359375 7.90625 35.09375 C 7.90625 34.875 7.890625 34.875 7.84375 34.84375 C 7.328125 34.515625 5.765625 33.578125 5.4375 31.5 C 5.390625 31.1875 5.390625 31.15625 5.390625 31 Z M 5.390625 21.84375 "/>
</g>
<g id="glyph-0-3">
<path d="M 4.234375 30.125 C 4.234375 31.109375 4.234375 31.3125 4.140625 31.765625 C 3.921875 32.734375 3.34375 33.90625 1.828125 34.8125 C 1.734375 34.875 1.71875 34.875 1.71875 35.09375 C 1.71875 35.375 1.734375 35.375 2.015625 35.375 C 2.21875 35.375 2.234375 35.375 2.5625 35.171875 C 5.234375 33.65625 5.390625 31.4375 5.390625 31.015625 L 5.390625 22.515625 C 5.390625 21.65625 5.390625 20.6875 6.015625 19.59375 C 6.53125 18.65625 7.140625 18.15625 7.71875 17.78125 C 7.890625 17.671875 7.90625 17.65625 7.90625 17.4375 C 7.90625 17.28125 7.90625 17.21875 7.859375 17.1875 C 7.296875 16.828125 5.734375 15.84375 5.421875 13.484375 C 5.390625 13.21875 5.390625 13.203125 5.390625 13.046875 L 5.390625 3.875 C 5.390625 2.90625 4.796875 0.890625 2.484375 -0.328125 C 2.21875 -0.484375 2.1875 -0.484375 2.015625 -0.484375 C 1.734375 -0.484375 1.71875 -0.484375 1.71875 -0.203125 C 1.71875 -0.015625 1.71875 0.03125 1.8125 0.078125 C 4.078125 1.421875 4.234375 3.421875 4.234375 3.890625 L 4.234375 13.046875 C 4.234375 14.375 5.140625 16.390625 7.21875 17.4375 C 5.921875 18.140625 4.390625 19.53125 4.25 21.765625 L 4.234375 21.84375 Z M 4.234375 30.125 "/>
</g>
<g id="glyph-1-0">
</g>
<g id="glyph-1-1">
<path d="M 2.328125 -5.296875 C 2.328125 -5.3125 2.359375 -5.40625 2.359375 -5.421875 C 2.359375 -5.453125 2.328125 -5.53125 2.234375 -5.53125 C 2.203125 -5.53125 1.953125 -5.5 1.765625 -5.484375 L 1.328125 -5.453125 C 1.140625 -5.4375 1.0625 -5.4375 1.0625 -5.296875 C 1.0625 -5.171875 1.171875 -5.171875 1.28125 -5.171875 C 1.65625 -5.171875 1.65625 -5.125 1.65625 -5.0625 C 1.65625 -5.03125 1.65625 -5.015625 1.625 -4.875 L 0.484375 -0.34375 C 0.453125 -0.21875 0.453125 -0.171875 0.453125 -0.171875 C 0.453125 -0.03125 0.5625 0.078125 0.71875 0.078125 C 0.984375 0.078125 1.046875 -0.171875 1.078125 -0.28125 C 1.15625 -0.625 1.375 -1.46875 1.453125 -1.796875 C 1.890625 -1.75 2.4375 -1.609375 2.4375 -1.140625 C 2.4375 -1.109375 2.4375 -1.0625 2.421875 -0.984375 C 2.390625 -0.890625 2.375 -0.765625 2.375 -0.734375 C 2.375 -0.265625 2.71875 0.078125 3.1875 0.078125 C 3.515625 0.078125 3.734375 -0.171875 3.828125 -0.3125 C 4.03125 -0.609375 4.15625 -1.09375 4.15625 -1.140625 C 4.15625 -1.21875 4.09375 -1.25 4.03125 -1.25 C 3.9375 -1.25 3.921875 -1.1875 3.890625 -1.046875 C 3.78125 -0.671875 3.578125 -0.140625 3.203125 -0.140625 C 3 -0.140625 2.953125 -0.3125 2.953125 -0.53125 C 2.953125 -0.640625 2.953125 -0.734375 3 -0.921875 C 3 -0.953125 3.03125 -1.078125 3.03125 -1.15625 C 3.03125 -1.8125 2.21875 -1.953125 1.8125 -2.015625 C 2.109375 -2.1875 2.375 -2.46875 2.46875 -2.5625 C 2.90625 -3 3.265625 -3.296875 3.65625 -3.296875 C 3.75 -3.296875 3.84375 -3.265625 3.90625 -3.1875 C 3.484375 -3.125 3.484375 -2.75 3.484375 -2.75 C 3.484375 -2.578125 3.625 -2.453125 3.796875 -2.453125 C 4.015625 -2.453125 4.25 -2.625 4.25 -2.953125 C 4.25 -3.234375 4.0625 -3.515625 3.65625 -3.515625 C 3.203125 -3.515625 2.78125 -3.15625 2.328125 -2.703125 C 1.859375 -2.25 1.671875 -2.171875 1.53125 -2.109375 Z M 2.328125 -5.296875 "/>
</g>
<g id="glyph-1-2">
<path d="M 5.90625 -5.140625 C 5.96875 -5.203125 6.03125 -5.265625 6.03125 -5.359375 C 6.03125 -5.4375 5.953125 -5.4375 5.8125 -5.4375 L 2.265625 -5.4375 C 2.0625 -5.4375 2.046875 -5.4375 2 -5.28125 L 1.546875 -3.859375 C 1.546875 -3.828125 1.53125 -3.78125 1.53125 -3.75 C 1.53125 -3.734375 1.53125 -3.640625 1.65625 -3.640625 C 1.734375 -3.640625 1.75 -3.671875 1.796875 -3.828125 C 2.1875 -4.90625 2.8125 -5.171875 3.78125 -5.171875 L 5.15625 -5.171875 L 0.609375 -0.296875 C 0.546875 -0.234375 0.5 -0.1875 0.5 -0.09375 C 0.5 0 0.5625 0 0.703125 0 L 4.390625 0 C 4.59375 0 4.609375 -0.015625 4.65625 -0.15625 L 5.21875 -1.90625 C 5.25 -2.015625 5.25 -2.03125 5.25 -2.03125 C 5.25 -2.046875 5.234375 -2.140625 5.125 -2.140625 C 5.078125 -2.140625 5.046875 -2.125 5.046875 -2.109375 C 5.03125 -2.09375 5.015625 -2.078125 5 -2.0625 C 4.984375 -2.015625 4.984375 -2 4.921875 -1.828125 C 4.5625 -0.75 4.109375 -0.28125 2.84375 -0.28125 L 1.390625 -0.28125 Z M 5.90625 -5.140625 "/>
</g>
<g id="glyph-1-3">
<path d="M 3.09375 -4.828125 C 3.15625 -5.09375 3.171875 -5.171875 3.78125 -5.171875 C 3.953125 -5.171875 4.0625 -5.171875 4.0625 -5.328125 C 4.0625 -5.34375 4.046875 -5.4375 3.921875 -5.4375 C 3.796875 -5.4375 3.546875 -5.421875 3.421875 -5.421875 L 2.328125 -5.421875 C 2.21875 -5.421875 1.921875 -5.4375 1.8125 -5.4375 C 1.78125 -5.4375 1.65625 -5.4375 1.65625 -5.296875 C 1.65625 -5.171875 1.75 -5.171875 1.90625 -5.171875 C 2.421875 -5.171875 2.421875 -5.125 2.421875 -5.03125 C 2.421875 -5.015625 2.421875 -4.984375 2.375 -4.859375 L 1.328125 -0.625 C 1.25 -0.34375 1.234375 -0.265625 0.640625 -0.265625 C 0.453125 -0.265625 0.359375 -0.265625 0.359375 -0.109375 C 0.359375 -0.078125 0.390625 0 0.484375 0 C 0.59375 0 0.859375 -0.015625 0.984375 -0.03125 L 2.09375 -0.03125 C 2.203125 -0.015625 2.484375 0 2.59375 0 C 2.640625 0 2.75 0 2.75 -0.15625 C 2.75 -0.265625 2.65625 -0.265625 2.5 -0.265625 C 2.375 -0.265625 2.328125 -0.265625 2.1875 -0.28125 C 2.0625 -0.296875 1.984375 -0.296875 1.984375 -0.390625 C 1.984375 -0.4375 2 -0.4375 2.03125 -0.546875 Z M 3.09375 -4.828125 "/>
</g>
<g id="glyph-2-0">
</g>
<g id="glyph-2-1">
<path d="M 4.625 -1.8125 C 4.75 -1.8125 4.9375 -1.8125 4.9375 -1.984375 C 4.9375 -2.171875 4.75 -2.171875 4.625 -2.171875 L 1.078125 -2.171875 C 1.171875 -3.28125 2.109375 -4.125 3.3125 -4.125 L 4.625 -4.125 C 4.75 -4.125 4.9375 -4.125 4.9375 -4.3125 C 4.9375 -4.5 4.75 -4.5 4.625 -4.5 L 3.296875 -4.5 C 1.859375 -4.5 0.703125 -3.375 0.703125 -1.984375 C 0.703125 -0.59375 1.859375 0.515625 3.296875 0.515625 L 4.625 0.515625 C 4.75 0.515625 4.9375 0.515625 4.9375 0.328125 C 4.9375 0.140625 4.75 0.140625 4.625 0.140625 L 3.3125 0.140625 C 2.109375 0.140625 1.171875 -0.703125 1.078125 -1.8125 Z M 4.625 -1.8125 "/>
</g>
<g id="glyph-3-0">
</g>
<g id="glyph-3-1">
<path d="M 2.953125 -1.34375 L 4.890625 -1.34375 C 4.96875 -1.34375 5.109375 -1.34375 5.109375 -1.5 C 5.109375 -1.65625 4.96875 -1.65625 4.890625 -1.65625 L 2.953125 -1.65625 L 2.953125 -3.59375 C 2.953125 -3.671875 2.953125 -3.828125 2.796875 -3.828125 C 2.640625 -3.828125 2.640625 -3.671875 2.640625 -3.59375 L 2.640625 -1.65625 L 0.703125 -1.65625 C 0.625 -1.65625 0.46875 -1.65625 0.46875 -1.5 C 0.46875 -1.34375 0.625 -1.34375 0.703125 -1.34375 L 2.640625 -1.34375 L 2.640625 0.59375 C 2.640625 0.6875 2.640625 0.828125 2.796875 0.828125 C 2.953125 0.828125 2.953125 0.6875 2.953125 0.59375 Z M 2.953125 -1.34375 "/>
</g>
<g id="glyph-4-0">
</g>
<g id="glyph-4-1">
<path d="M 3.59375 -1.421875 C 3.53125 -1.21875 3.53125 -1.1875 3.375 -0.96875 C 3.109375 -0.640625 2.578125 -0.125 2.015625 -0.125 C 1.53125 -0.125 1.25 -0.5625 1.25 -1.265625 C 1.25 -1.921875 1.625 -3.265625 1.859375 -3.765625 C 2.265625 -4.609375 2.828125 -5.03125 3.28125 -5.03125 C 4.078125 -5.03125 4.234375 -4.046875 4.234375 -3.953125 C 4.234375 -3.9375 4.203125 -3.796875 4.1875 -3.765625 Z M 4.359375 -4.484375 C 4.234375 -4.796875 3.90625 -5.265625 3.28125 -5.265625 C 1.9375 -5.265625 0.484375 -3.53125 0.484375 -1.75 C 0.484375 -0.578125 1.171875 0.125 1.984375 0.125 C 2.640625 0.125 3.203125 -0.390625 3.53125 -0.78125 C 3.65625 -0.078125 4.21875 0.125 4.578125 0.125 C 4.9375 0.125 5.21875 -0.09375 5.4375 -0.53125 C 5.625 -0.9375 5.796875 -1.65625 5.796875 -1.703125 C 5.796875 -1.765625 5.75 -1.8125 5.671875 -1.8125 C 5.5625 -1.8125 5.5625 -1.75 5.515625 -1.578125 C 5.328125 -0.875 5.109375 -0.125 4.609375 -0.125 C 4.265625 -0.125 4.25 -0.4375 4.25 -0.671875 C 4.25 -0.9375 4.28125 -1.078125 4.390625 -1.546875 C 4.46875 -1.84375 4.53125 -2.109375 4.625 -2.453125 C 5.0625 -4.25 5.171875 -4.671875 5.171875 -4.75 C 5.171875 -4.90625 5.046875 -5.046875 4.859375 -5.046875 C 4.484375 -5.046875 4.390625 -4.625 4.359375 -4.484375 Z M 4.359375 -4.484375 "/>
</g>
<g id="glyph-4-2">
<path d="M 4.40625 -7.28125 C 4.5 -7.703125 4.53125 -7.8125 5.40625 -7.8125 C 5.671875 -7.8125 5.765625 -7.8125 5.765625 -8.046875 C 5.765625 -8.15625 5.625 -8.15625 5.59375 -8.15625 C 5.375 -8.15625 5.109375 -8.140625 4.90625 -8.140625 L 3.4375 -8.140625 C 3.1875 -8.140625 2.921875 -8.15625 2.671875 -8.15625 C 2.578125 -8.15625 2.453125 -8.15625 2.453125 -7.9375 C 2.453125 -7.8125 2.546875 -7.8125 2.78125 -7.8125 C 3.53125 -7.8125 3.53125 -7.71875 3.53125 -7.59375 C 3.53125 -7.5 3.5 -7.4375 3.484375 -7.328125 L 1.859375 -0.890625 C 1.75 -0.46875 1.734375 -0.34375 0.859375 -0.34375 C 0.59375 -0.34375 0.484375 -0.34375 0.484375 -0.125 C 0.484375 0 0.609375 0 0.671875 0 C 0.890625 0 1.140625 -0.03125 1.359375 -0.03125 L 2.828125 -0.03125 C 3.078125 -0.03125 3.328125 0 3.578125 0 C 3.671875 0 3.8125 0 3.8125 -0.21875 C 3.8125 -0.34375 3.734375 -0.34375 3.484375 -0.34375 C 2.734375 -0.34375 2.734375 -0.4375 2.734375 -0.578125 C 2.734375 -0.609375 2.734375 -0.671875 2.78125 -0.859375 Z M 4.40625 -7.28125 "/>
</g>
<g id="glyph-4-3">
<path d="M 8.359375 -7.796875 C 8.4375 -7.875 8.5 -7.953125 8.5 -8.0625 C 8.5 -8.15625 8.484375 -8.15625 8.21875 -8.15625 L 3.28125 -8.15625 C 3 -8.15625 2.984375 -8.15625 2.921875 -7.9375 L 2.265625 -5.78125 C 2.21875 -5.671875 2.21875 -5.640625 2.21875 -5.625 C 2.21875 -5.5625 2.265625 -5.5 2.34375 -5.5 C 2.4375 -5.5 2.46875 -5.546875 2.515625 -5.703125 C 2.953125 -7 3.53125 -7.8125 5.421875 -7.8125 L 7.390625 -7.8125 L 0.84375 -0.40625 C 0.734375 -0.28125 0.6875 -0.234375 0.6875 -0.09375 C 0.6875 0 0.734375 0 0.96875 0 L 6.078125 0 C 6.34375 0 6.359375 -0.015625 6.4375 -0.234375 L 7.265625 -2.875 C 7.28125 -2.90625 7.296875 -2.984375 7.296875 -3.03125 C 7.296875 -3.09375 7.25 -3.15625 7.1875 -3.15625 C 7.09375 -3.15625 7.078125 -3.140625 6.984375 -2.84375 C 6.484375 -1.296875 5.953125 -0.375 3.875 -0.375 L 1.8125 -0.375 Z M 8.359375 -7.796875 "/>
</g>
<g id="glyph-4-4">
<path d="M 2.328125 0.046875 C 2.328125 -0.640625 2.109375 -1.15625 1.609375 -1.15625 C 1.234375 -1.15625 1.046875 -0.84375 1.046875 -0.578125 C 1.046875 -0.328125 1.21875 0 1.625 0 C 1.78125 0 1.90625 -0.046875 2.015625 -0.15625 C 2.046875 -0.171875 2.0625 -0.171875 2.0625 -0.171875 C 2.09375 -0.171875 2.09375 -0.015625 2.09375 0.046875 C 2.09375 0.4375 2.015625 1.21875 1.328125 2 C 1.1875 2.140625 1.1875 2.15625 1.1875 2.1875 C 1.1875 2.25 1.25 2.3125 1.3125 2.3125 C 1.40625 2.3125 2.328125 1.421875 2.328125 0.046875 Z M 2.328125 0.046875 "/>
</g>
<g id="glyph-5-0">
</g>
<g id="glyph-5-1">
<path d="M 8.0625 -3.875 C 8.234375 -3.875 8.453125 -3.875 8.453125 -4.09375 C 8.453125 -4.3125 8.25 -4.3125 8.0625 -4.3125 L 1.03125 -4.3125 C 0.859375 -4.3125 0.640625 -4.3125 0.640625 -4.09375 C 0.640625 -3.875 0.84375 -3.875 1.03125 -3.875 Z M 8.0625 -1.65625 C 8.234375 -1.65625 8.453125 -1.65625 8.453125 -1.859375 C 8.453125 -2.09375 8.25 -2.09375 8.0625 -2.09375 L 1.03125 -2.09375 C 0.859375 -2.09375 0.640625 -2.09375 0.640625 -1.875 C 0.640625 -1.65625 0.84375 -1.65625 1.03125 -1.65625 Z M 8.0625 -1.65625 "/>
</g>
<g id="glyph-5-2">
<path d="M 3.921875 -5.0625 C 3.921875 -5.265625 3.921875 -5.328125 3.796875 -5.328125 C 3.703125 -5.328125 3.484375 -5.0625 3.390625 -4.953125 C 3.03125 -5.265625 2.65625 -5.328125 2.265625 -5.328125 C 0.828125 -5.328125 0.390625 -4.546875 0.390625 -3.890625 C 0.390625 -3.75 0.390625 -3.328125 0.84375 -2.921875 C 1.234375 -2.578125 1.640625 -2.5 2.1875 -2.390625 C 2.84375 -2.265625 3 -2.21875 3.296875 -1.984375 C 3.515625 -1.8125 3.671875 -1.546875 3.671875 -1.203125 C 3.671875 -0.6875 3.375 -0.125 2.3125 -0.125 C 1.53125 -0.125 0.953125 -0.578125 0.6875 -1.765625 C 0.640625 -1.984375 0.640625 -2 0.640625 -2.015625 C 0.609375 -2.0625 0.5625 -2.0625 0.53125 -2.0625 C 0.390625 -2.0625 0.390625 -2 0.390625 -1.78125 L 0.390625 -0.15625 C 0.390625 0.0625 0.390625 0.125 0.515625 0.125 C 0.578125 0.125 0.578125 0.109375 0.78125 -0.140625 C 0.84375 -0.234375 0.84375 -0.25 1.03125 -0.4375 C 1.484375 0.125 2.125 0.125 2.328125 0.125 C 3.578125 0.125 4.203125 -0.578125 4.203125 -1.515625 C 4.203125 -2.15625 3.8125 -2.546875 3.703125 -2.65625 C 3.28125 -3.03125 2.953125 -3.09375 2.15625 -3.234375 C 1.8125 -3.3125 0.9375 -3.484375 0.9375 -4.203125 C 0.9375 -4.5625 1.1875 -5.109375 2.265625 -5.109375 C 3.5625 -5.109375 3.640625 -4 3.65625 -3.640625 C 3.671875 -3.53125 3.75 -3.53125 3.796875 -3.53125 C 3.921875 -3.53125 3.921875 -3.59375 3.921875 -3.8125 Z M 3.921875 -5.0625 "/>
</g>
<g id="glyph-5-3">
<path d="M 3.640625 -5.140625 L 3.640625 -4.796875 C 4.453125 -4.796875 4.546875 -4.703125 4.546875 -4.125 L 4.546875 -1.984375 C 4.546875 -0.96875 4 -0.125 3.109375 -0.125 C 2.125 -0.125 2.0625 -0.6875 2.0625 -1.3125 L 2.0625 -5.265625 L 0.375 -5.140625 L 0.375 -4.796875 C 1.296875 -4.796875 1.296875 -4.75 1.296875 -3.6875 L 1.296875 -1.90625 C 1.296875 -1.15625 1.296875 -0.734375 1.65625 -0.328125 C 1.9375 -0.03125 2.421875 0.125 3.03125 0.125 C 3.234375 0.125 3.625 0.125 4.03125 -0.234375 C 4.375 -0.5 4.5625 -0.953125 4.5625 -0.953125 L 4.5625 0.125 L 6.234375 0 L 6.234375 -0.34375 C 5.421875 -0.34375 5.3125 -0.4375 5.3125 -1.015625 L 5.3125 -5.265625 Z M 3.640625 -5.140625 "/>
</g>
<g id="glyph-5-4">
<path d="M 2.921875 1.96875 C 2.15625 1.96875 2.015625 1.96875 2.015625 1.4375 L 2.015625 -0.640625 C 2.234375 -0.34375 2.71875 0.125 3.484375 0.125 C 4.859375 0.125 6.078125 -1.046875 6.078125 -2.578125 C 6.078125 -4.09375 4.953125 -5.265625 3.640625 -5.265625 C 2.59375 -5.265625 2.03125 -4.515625 2 -4.46875 L 2 -5.265625 L 0.328125 -5.140625 L 0.328125 -4.796875 C 1.171875 -4.796875 1.25 -4.703125 1.25 -4.1875 L 1.25 1.4375 C 1.25 1.96875 1.109375 1.96875 0.328125 1.96875 L 0.328125 2.3125 C 0.640625 2.296875 1.296875 2.296875 1.625 2.296875 C 1.96875 2.296875 2.625 2.296875 2.921875 2.3125 Z M 2.015625 -3.8125 C 2.015625 -4.046875 2.015625 -4.046875 2.15625 -4.25 C 2.515625 -4.78125 3.09375 -5.015625 3.546875 -5.015625 C 4.453125 -5.015625 5.15625 -3.921875 5.15625 -2.578125 C 5.15625 -1.15625 4.34375 -0.125 3.4375 -0.125 C 3.0625 -0.125 2.71875 -0.28125 2.46875 -0.5 C 2.203125 -0.78125 2.015625 -1.015625 2.015625 -1.34375 Z M 2.015625 -3.8125 "/>
</g>
<g id="glyph-5-5">
<path d="M 2.203125 -4.578125 C 2.203125 -4.90625 1.921875 -5.15625 1.625 -5.15625 C 1.28125 -5.15625 1.046875 -4.875 1.046875 -4.578125 C 1.046875 -4.21875 1.34375 -4 1.609375 -4 C 1.9375 -4 2.203125 -4.25 2.203125 -4.578125 Z M 2.203125 -0.578125 C 2.203125 -0.90625 1.921875 -1.15625 1.625 -1.15625 C 1.28125 -1.15625 1.046875 -0.890625 1.046875 -0.578125 C 1.046875 -0.234375 1.34375 0 1.609375 0 C 1.9375 0 2.203125 -0.25 2.203125 -0.578125 Z M 2.203125 -0.578125 "/>
</g>
<g id="glyph-5-6">
<path d="M 3.796875 -5.1875 C 3.734375 -5.1875 3.609375 -5.171875 3.578125 -5.15625 C 3.5625 -5.15625 3.53125 -5.15625 3.375 -5.15625 L 1.96875 -5.15625 L 1.96875 -6.5 C 1.96875 -7.71875 3.015625 -8.171875 3.71875 -8.171875 C 3.84375 -8.171875 4.40625 -8.15625 4.765625 -7.75 C 4.265625 -7.75 4.234375 -7.390625 4.234375 -7.25 C 4.234375 -6.90625 4.515625 -6.75 4.71875 -6.75 C 4.9375 -6.75 5.21875 -6.890625 5.21875 -7.265625 C 5.21875 -7.875 4.65625 -8.421875 3.734375 -8.421875 C 2.65625 -8.421875 1.25 -7.8125 1.25 -6.53125 L 1.25 -5.15625 L 0.3125 -5.15625 L 0.3125 -4.8125 L 1.25 -4.8125 L 1.25 -0.890625 C 1.25 -0.34375 1.109375 -0.34375 0.328125 -0.34375 L 0.328125 0 C 0.671875 -0.03125 1.25 -0.03125 1.609375 -0.03125 C 1.96875 -0.03125 2.5625 -0.03125 2.90625 0 L 2.90625 -0.34375 C 2.140625 -0.34375 2 -0.34375 2 -0.890625 L 2 -4.8125 L 3.875 -4.8125 C 4.421875 -4.8125 4.5 -4.65625 4.5 -4.15625 L 4.5 -0.890625 C 4.5 -0.34375 4.359375 -0.34375 3.578125 -0.34375 L 3.578125 0 C 3.921875 -0.03125 4.5 -0.03125 4.859375 -0.03125 C 5.21875 -0.03125 5.828125 -0.03125 6.15625 0 L 6.15625 -0.34375 C 5.390625 -0.34375 5.25 -0.34375 5.25 -0.890625 L 5.25 -5.28125 Z M 3.796875 -5.1875 "/>
</g>
<g id="glyph-5-7">
<path d="M 5.3125 -2.90625 C 5.3125 -4.015625 5.3125 -4.34375 5.046875 -4.734375 C 4.703125 -5.203125 4.140625 -5.265625 3.734375 -5.265625 C 2.5625 -5.265625 2.109375 -4.28125 2.015625 -4.046875 L 2.015625 -5.265625 L 0.375 -5.140625 L 0.375 -4.796875 C 1.1875 -4.796875 1.296875 -4.703125 1.296875 -4.125 L 1.296875 -0.890625 C 1.296875 -0.34375 1.15625 -0.34375 0.375 -0.34375 L 0.375 0 C 0.6875 -0.03125 1.34375 -0.03125 1.671875 -0.03125 C 2.015625 -0.03125 2.671875 -0.03125 2.96875 0 L 2.96875 -0.34375 C 2.21875 -0.34375 2.0625 -0.34375 2.0625 -0.890625 L 2.0625 -3.109375 C 2.0625 -4.359375 2.890625 -5.03125 3.640625 -5.03125 C 4.375 -5.03125 4.546875 -4.421875 4.546875 -3.6875 L 4.546875 -0.890625 C 4.546875 -0.34375 4.40625 -0.34375 3.640625 -0.34375 L 3.640625 0 C 3.9375 -0.03125 4.59375 -0.03125 4.921875 -0.03125 C 5.265625 -0.03125 5.921875 -0.03125 6.234375 0 L 6.234375 -0.34375 C 5.625 -0.34375 5.328125 -0.34375 5.3125 -0.703125 Z M 5.3125 -2.90625 "/>
</g>
<g id="glyph-5-8">
<path d="M 2.078125 -7.359375 C 2.078125 -7.671875 1.828125 -7.953125 1.5 -7.953125 C 1.1875 -7.953125 0.921875 -7.703125 0.921875 -7.375 C 0.921875 -7.015625 1.203125 -6.796875 1.5 -6.796875 C 1.859375 -6.796875 2.078125 -7.09375 2.078125 -7.359375 Z M 0.4375 -5.140625 L 0.4375 -4.796875 C 1.1875 -4.796875 1.296875 -4.71875 1.296875 -4.140625 L 1.296875 -0.890625 C 1.296875 -0.34375 1.171875 -0.34375 0.390625 -0.34375 L 0.390625 0 C 0.734375 -0.03125 1.296875 -0.03125 1.65625 -0.03125 C 1.78125 -0.03125 2.46875 -0.03125 2.875 0 L 2.875 -0.34375 C 2.109375 -0.34375 2.0625 -0.40625 2.0625 -0.875 L 2.0625 -5.265625 Z M 0.4375 -5.140625 "/>
</g>
<g id="glyph-6-0">
</g>
<g id="glyph-6-1">
<path d="M 7.875 -7.125 C 8.078125 -7.125 8.296875 -7.125 8.296875 -7.359375 C 8.296875 -7.609375 8.078125 -7.609375 7.875 -7.609375 L 4.65625 -7.609375 C 2.609375 -7.609375 0.984375 -6.03125 0.984375 -4.140625 C 0.984375 -2.21875 2.640625 -0.6875 4.65625 -0.6875 L 7.875 -0.6875 C 8.078125 -0.6875 8.296875 -0.6875 8.296875 -0.921875 C 8.296875 -1.15625 8.078125 -1.15625 7.875 -1.15625 L 4.6875 -1.15625 C 2.796875 -1.15625 1.46875 -2.5625 1.46875 -4.140625 C 1.46875 -5.765625 2.828125 -7.125 4.6875 -7.125 Z M 1.65625 1.15625 C 1.453125 1.15625 1.234375 1.15625 1.234375 1.40625 C 1.234375 1.640625 1.453125 1.640625 1.65625 1.640625 L 7.875 1.640625 C 8.078125 1.640625 8.296875 1.640625 8.296875 1.40625 C 8.296875 1.15625 8.078125 1.15625 7.875 1.15625 Z M 1.65625 1.15625 "/>
</g>
<g id="glyph-7-0">
</g>
<g id="glyph-7-1">
<path d="M 3.46875 -1.8125 L 5.8125 -1.8125 C 5.921875 -1.8125 6.109375 -1.8125 6.109375 -1.984375 C 6.109375 -2.171875 5.921875 -2.171875 5.8125 -2.171875 L 3.46875 -2.171875 L 3.46875 -4.53125 C 3.46875 -4.640625 3.46875 -4.8125 3.296875 -4.8125 C 3.109375 -4.8125 3.109375 -4.640625 3.109375 -4.53125 L 3.109375 -2.171875 L 0.75 -2.171875 C 0.640625 -2.171875 0.46875 -2.171875 0.46875 -1.984375 C 0.46875 -1.8125 0.640625 -1.8125 0.75 -1.8125 L 3.109375 -1.8125 L 3.109375 0.546875 C 3.109375 0.65625 3.109375 0.828125 3.296875 0.828125 C 3.46875 0.828125 3.46875 0.65625 3.46875 0.546875 Z M 3.46875 -1.8125 "/>
</g>
</g>
</defs>
<g fill="rgb(0%, 0%, 0%)" fill-opacity="1">
<use xlink:href="#glyph-0-1" x="3.194" y="10.065"/>
</g>
<g fill="rgb(0%, 0%, 0%)" fill-opacity="1">
<use xlink:href="#glyph-1-1" x="0.5" y="36.078"/>
</g>
<g fill="rgb(0%, 0%, 0%)" fill-opacity="1">
<use xlink:href="#glyph-2-1" x="5.122" y="36.078"/>
</g>
<g fill="rgb(0%, 0%, 0%)" fill-opacity="1">
<use xlink:href="#glyph-1-2" x="10.767" y="36.078"/>
</g>
<g fill="rgb(0%, 0%, 0%)" fill-opacity="1">
<use xlink:href="#glyph-3-1" x="17.069" y="33.809"/>
</g>
<g fill="rgb(0%, 0%, 0%)" fill-opacity="1">
<use xlink:href="#glyph-4-1" x="25.149" y="21.422"/>
</g>
<g fill="rgb(0%, 0%, 0%)" fill-opacity="1">
<use xlink:href="#glyph-1-1" x="31.294" y="23.215"/>
</g>
<g fill="rgb(0%, 0%, 0%)" fill-opacity="1">
<use xlink:href="#glyph-5-1" x="39.735" y="21.422"/>
</g>
<g fill="rgb(0%, 0%, 0%)" fill-opacity="1">
<use xlink:href="#glyph-5-2" x="52.163626" y="21.422"/>
<use xlink:href="#glyph-5-3" x="56.780724" y="21.422"/>
<use xlink:href="#glyph-5-4" x="63.284353" y="21.422"/>
</g>
<g fill="rgb(0%, 0%, 0%)" fill-opacity="1">
<use xlink:href="#glyph-0-2" x="71.777" y="0.979"/>
</g>
<g fill="rgb(0%, 0%, 0%)" fill-opacity="1">
<use xlink:href="#glyph-0-1" x="81.407" y="10.065"/>
</g>
<g fill="rgb(0%, 0%, 0%)" fill-opacity="1">
<use xlink:href="#glyph-1-1" x="82.761" y="35.525"/>
</g>
<g fill="rgb(0%, 0%, 0%)" fill-opacity="1">
<use xlink:href="#glyph-2-1" x="87.383" y="35.525"/>
</g>
<g fill="rgb(0%, 0%, 0%)" fill-opacity="1">
<use xlink:href="#glyph-1-3" x="93.029" y="35.525"/>
</g>
<g fill="rgb(0%, 0%, 0%)" fill-opacity="1">
<use xlink:href="#glyph-4-1" x="100.669" y="21.422"/>
</g>
<g fill="rgb(0%, 0%, 0%)" fill-opacity="1">
<use xlink:href="#glyph-1-1" x="106.814" y="23.215"/>
</g>
<g fill="rgb(0%, 0%, 0%)" fill-opacity="1">
<use xlink:href="#glyph-5-5" x="115.254" y="21.422"/>
</g>
<g fill="rgb(0%, 0%, 0%)" fill-opacity="1">
<use xlink:href="#glyph-4-2" x="121.827" y="21.422"/>
</g>
<g fill="rgb(0%, 0%, 0%)" fill-opacity="1">
<use xlink:href="#glyph-6-1" x="131.25" y="21.422"/>
</g>
<g fill="rgb(0%, 0%, 0%)" fill-opacity="1">
<use xlink:href="#glyph-4-3" x="143.87" y="21.422"/>
</g>
<g fill="rgb(0%, 0%, 0%)" fill-opacity="1">
<use xlink:href="#glyph-7-1" x="152.74" y="16.486"/>
</g>
<g fill="rgb(0%, 0%, 0%)" fill-opacity="1">
<use xlink:href="#glyph-4-4" x="159.825" y="21.422"/>
</g>
<g fill="rgb(0%, 0%, 0%)" fill-opacity="1">
<use xlink:href="#glyph-4-2" x="168.970728" y="21.422"/>
</g>
<g fill="rgb(0%, 0%, 0%)" fill-opacity="1">
<use xlink:href="#glyph-5-6" x="178.974" y="21.422"/>
<use xlink:href="#glyph-5-7" x="185.477629" y="21.422"/>
<use xlink:href="#glyph-5-8" x="191.981258" y="21.422"/>
</g>
<g fill="rgb(0%, 0%, 0%)" fill-opacity="1">
<use xlink:href="#glyph-0-3" x="195.232" y="0.979"/>
</g>
</svg>
