<?xml version="1.0" encoding="UTF-8"?>
<svg xmlns="http://www.w3.org/2000/svg" xmlns:xlink="http://www.w3.org/1999/xlink" viewBox="0 0 52.121 11.793">
<defs>
<g>
<g id="glyph-0-0">
</g>
<g id="glyph-0-1">
<path d="M 8.3125 -2.765625 C 8.3125 -2.8125 8.359375 -2.890625 8.359375 -2.9375 C 8.359375 -3 8.3125 -3.0625 8.234375 -3.0625 C 8.1875 -3.0625 8.15625 -3.046875 8.125 -3.015625 C 8.109375 -3 8.109375 -2.96875 8 -2.734375 C 7.296875 -1.0625 6.78125 -0.34375 4.859375 -0.34375 L 3.125 -0.34375 C 2.953125 -0.34375 2.921875 -0.34375 2.859375 -0.359375 C 2.71875 -0.375 2.71875 -0.390625 2.71875 -0.484375 C 2.71875 -0.578125 2.734375 -0.640625 2.765625 -0.75 L 3.578125 -4.046875 L 4.765625 -4.046875 C 5.703125 -4.046875 5.765625 -3.84375 5.765625 -3.484375 C 5.765625 -3.375 5.765625 -3.265625 5.6875 -2.90625 C 5.671875 -2.859375 5.65625 -2.8125 5.65625 -2.765625 C 5.65625 -2.6875 5.71875 -2.65625 5.78125 -2.65625 C 5.890625 -2.65625 5.90625 -2.734375 5.953125 -2.90625 L 6.640625 -5.671875 C 6.640625 -5.734375 6.59375 -5.796875 6.515625 -5.796875 C 6.40625 -5.796875 6.390625 -5.75 6.34375 -5.578125 C 6.109375 -4.65625 5.875 -4.40625 4.8125 -4.40625 L 3.671875 -4.40625 L 4.40625 -7.34375 C 4.515625 -7.75 4.546875 -7.796875 5.03125 -7.796875 L 6.734375 -7.796875 C 8.21875 -7.796875 8.515625 -7.40625 8.515625 -6.484375 C 8.515625 -6.484375 8.515625 -6.140625 8.46875 -5.75 C 8.453125 -5.703125 8.4375 -5.625 8.4375 -5.609375 C 8.4375 -5.515625 8.5 -5.46875 8.578125 -5.46875 C 8.65625 -5.46875 8.703125 -5.515625 8.71875 -5.734375 L 8.984375 -7.828125 C 8.984375 -7.859375 9 -7.984375 9 -8.015625 C 9 -8.140625 8.890625 -8.140625 8.671875 -8.140625 L 2.84375 -8.140625 C 2.625 -8.140625 2.5 -8.140625 2.5 -7.921875 C 2.5 -7.796875 2.578125 -7.796875 2.78125 -7.796875 C 3.53125 -7.796875 3.53125 -7.703125 3.53125 -7.578125 C 3.53125 -7.515625 3.515625 -7.46875 3.484375 -7.34375 L 1.859375 -0.890625 C 1.75 -0.46875 1.734375 -0.34375 0.890625 -0.34375 C 0.671875 -0.34375 0.546875 -0.34375 0.546875 -0.125 C 0.546875 0 0.625 0 0.859375 0 L 6.859375 0 C 7.125 0 7.140625 -0.015625 7.21875 -0.203125 Z M 8.3125 -2.765625 "/>
</g>
<g id="glyph-0-2">
<path d="M 7.59375 -8.3125 C 7.59375 -8.421875 7.5 -8.421875 7.484375 -8.421875 C 7.4375 -8.421875 7.421875 -8.40625 7.28125 -8.21875 C 7.203125 -8.140625 6.71875 -7.515625 6.703125 -7.5 C 6.3125 -8.28125 5.515625 -8.421875 5.015625 -8.421875 C 3.5 -8.421875 2.125 -7.03125 2.125 -5.671875 C 2.125 -4.78125 2.671875 -4.25 3.25 -4.046875 C 3.375 -4 4.09375 -3.8125 4.453125 -3.734375 C 5.0625 -3.5625 5.21875 -3.515625 5.46875 -3.25 C 5.515625 -3.1875 5.75 -2.921875 5.75 -2.359375 C 5.75 -1.25 4.71875 -0.09375 3.53125 -0.09375 C 2.546875 -0.09375 1.453125 -0.515625 1.453125 -1.859375 C 1.453125 -2.078125 1.5 -2.359375 1.546875 -2.484375 C 1.546875 -2.515625 1.546875 -2.578125 1.546875 -2.609375 C 1.546875 -2.65625 1.53125 -2.71875 1.4375 -2.71875 C 1.328125 -2.71875 1.3125 -2.6875 1.265625 -2.484375 L 0.65625 -0.03125 C 0.65625 -0.03125 0.609375 0.125 0.609375 0.140625 C 0.609375 0.25 0.703125 0.25 0.734375 0.25 C 0.78125 0.25 0.78125 0.234375 0.9375 0.0625 L 1.484375 -0.65625 C 1.765625 -0.234375 2.390625 0.25 3.5 0.25 C 5.046875 0.25 6.453125 -1.25 6.453125 -2.734375 C 6.453125 -3.234375 6.328125 -3.6875 5.875 -4.125 C 5.625 -4.375 5.421875 -4.4375 4.3125 -4.71875 C 3.515625 -4.9375 3.40625 -4.96875 3.1875 -5.15625 C 2.984375 -5.359375 2.828125 -5.65625 2.828125 -6.0625 C 2.828125 -7.0625 3.84375 -8.09375 4.984375 -8.09375 C 6.15625 -8.09375 6.703125 -7.375 6.703125 -6.234375 C 6.703125 -5.921875 6.640625 -5.609375 6.640625 -5.5625 C 6.640625 -5.453125 6.734375 -5.453125 6.78125 -5.453125 C 6.890625 -5.453125 6.890625 -5.484375 6.9375 -5.671875 Z M 7.59375 -8.3125 "/>
</g>
<g id="glyph-1-0">
</g>
<g id="glyph-1-1">
<path d="M 8.0625 -3.875 C 8.234375 -3.875 8.453125 -3.875 8.453125 -4.09375 C 8.453125 -4.3125 8.25 -4.3125 8.0625 -4.3125 L 1.03125 -4.3125 C 0.859375 -4.3125 0.640625 -4.3125 0.640625 -4.09375 C 0.640625 -3.875 0.84375 -3.875 1.03125 -3.875 Z M 8.0625 -1.65625 C 8.234375 -1.65625 8.453125 -1.65625 8.453125 -1.859375 C 8.453125 -2.09375 8.25 -2.09375 8.0625 -2.09375 L 1.03125 -2.09375 C 0.859375 -2.09375 0.640625 -2.09375 0.640625 -1.875 C 0.640625 -1.65625 0.84375 -1.65625 1.03125 -1.65625 Z M 8.0625 -1.65625 "/>
</g>
<g id="glyph-2-0">
</g>
<g id="glyph-2-1">
<path d="M 1.59375 -1.3125 C 1.625 -1.421875 1.703125 -1.734375 1.71875 -1.84375 C 1.75 -1.921875 1.796875 -2.125 1.8125 -2.203125 C 1.828125 -2.234375 2.09375 -2.75 2.4375 -3.015625 C 2.703125 -3.234375 2.96875 -3.296875 3.203125 -3.296875 C 3.484375 -3.296875 3.65625 -3.109375 3.65625 -2.75 C 3.65625 -2.5625 3.609375 -2.375 3.515625 -2.015625 C 3.453125 -1.8125 3.328125 -1.28125 3.28125 -1.0625 L 3.15625 -0.578125 C 3.109375 -0.453125 3.0625 -0.203125 3.0625 -0.171875 C 3.0625 0.015625 3.21875 0.078125 3.3125 0.078125 C 3.453125 0.078125 3.578125 -0.015625 3.640625 -0.109375 C 3.65625 -0.15625 3.71875 -0.4375 3.765625 -0.59375 L 3.9375 -1.3125 C 3.96875 -1.421875 4.046875 -1.734375 4.078125 -1.84375 C 4.1875 -2.28125 4.1875 -2.28125 4.359375 -2.546875 C 4.625 -2.9375 5 -3.296875 5.53125 -3.296875 C 5.828125 -3.296875 6 -3.125 6 -2.75 C 6 -2.3125 5.65625 -1.390625 5.5 -1.015625 C 5.421875 -0.8125 5.40625 -0.75 5.40625 -0.59375 C 5.40625 -0.140625 5.78125 0.078125 6.125 0.078125 C 6.90625 0.078125 7.234375 -1.03125 7.234375 -1.140625 C 7.234375 -1.21875 7.15625 -1.25 7.109375 -1.25 C 7.015625 -1.25 7 -1.1875 6.96875 -1.109375 C 6.78125 -0.453125 6.453125 -0.140625 6.140625 -0.140625 C 6.015625 -0.140625 5.953125 -0.21875 5.953125 -0.40625 C 5.953125 -0.59375 6.015625 -0.765625 6.09375 -0.96875 C 6.21875 -1.265625 6.5625 -2.1875 6.5625 -2.625 C 6.5625 -3.234375 6.15625 -3.515625 5.578125 -3.515625 C 5.03125 -3.515625 4.578125 -3.234375 4.21875 -2.734375 C 4.15625 -3.375 3.640625 -3.515625 3.234375 -3.515625 C 2.859375 -3.515625 2.375 -3.390625 1.9375 -2.8125 C 1.875 -3.296875 1.5 -3.515625 1.125 -3.515625 C 0.84375 -3.515625 0.640625 -3.34375 0.515625 -3.078125 C 0.3125 -2.703125 0.234375 -2.3125 0.234375 -2.296875 C 0.234375 -2.21875 0.296875 -2.1875 0.359375 -2.1875 C 0.46875 -2.1875 0.46875 -2.21875 0.53125 -2.4375 C 0.625 -2.828125 0.765625 -3.296875 1.09375 -3.296875 C 1.3125 -3.296875 1.359375 -3.09375 1.359375 -2.921875 C 1.359375 -2.765625 1.3125 -2.625 1.25 -2.359375 C 1.234375 -2.296875 1.109375 -1.828125 1.078125 -1.71875 L 0.78125 -0.515625 C 0.75 -0.390625 0.703125 -0.203125 0.703125 -0.171875 C 0.703125 0.015625 0.859375 0.078125 0.96875 0.078125 C 1.109375 0.078125 1.234375 -0.015625 1.28125 -0.109375 C 1.3125 -0.15625 1.375 -0.4375 1.40625 -0.59375 Z M 1.59375 -1.3125 "/>
</g>
<g id="glyph-3-0">
</g>
<g id="glyph-3-1">
<path d="M 5.5625 -1.8125 C 5.703125 -1.8125 5.875 -1.8125 5.875 -1.984375 C 5.875 -2.171875 5.703125 -2.171875 5.5625 -2.171875 L 1 -2.171875 C 0.875 -2.171875 0.703125 -2.171875 0.703125 -1.984375 C 0.703125 -1.8125 0.875 -1.8125 1 -1.8125 Z M 5.5625 -1.8125 "/>
</g>
<g id="glyph-4-0">
</g>
<g id="glyph-4-1">
<path d="M 2.5 -5.078125 C 2.5 -5.296875 2.484375 -5.296875 2.265625 -5.296875 C 1.9375 -4.984375 1.515625 -4.796875 0.765625 -4.796875 L 0.765625 -4.53125 C 0.984375 -4.53125 1.40625 -4.53125 1.875 -4.734375 L 1.875 -0.65625 C 1.875 -0.359375 1.84375 -0.265625 1.09375 -0.265625 L 0.8125 -0.265625 L 0.8125 0 C 1.140625 -0.03125 1.828125 -0.03125 2.1875 -0.03125 C 2.546875 -0.03125 3.234375 -0.03125 3.5625 0 L 3.5625 -0.265625 L 3.28125 -0.265625 C 2.53125 -0.265625 2.5 -0.359375 2.5 -0.65625 Z M 2.5 -5.078125 "/>
</g>
</g>
</defs>
<g fill="rgb(0%, 0%, 0%)" fill-opacity="1">
<use xlink:href="#glyph-0-1" x="0.5" y="8.669"/>
</g>
<g fill="rgb(0%, 0%, 0%)" fill-opacity="1">
<use xlink:href="#glyph-1-1" x="13.187" y="8.669"/>
</g>
<g fill="rgb(0%, 0%, 0%)" fill-opacity="1">
<use xlink:href="#glyph-0-2" x="25.612" y="8.669"/>
</g>
<g fill="rgb(0%, 0%, 0%)" fill-opacity="1">
<use xlink:href="#glyph-2-1" x="32.812" y="10.463"/>
</g>
<g fill="rgb(0%, 0%, 0%)" fill-opacity="1">
<use xlink:href="#glyph-3-1" x="40.302" y="10.463"/>
</g>
<g fill="rgb(0%, 0%, 0%)" fill-opacity="1">
<use xlink:href="#glyph-4-1" x="46.889" y="10.463"/>
</g>
</svg>
