<?xml version="1.0" encoding="UTF-8"?>
<svg xmlns="http://www.w3.org/2000/svg" xmlns:xlink="http://www.w3.org/1999/xlink" viewBox="0 0 113.876 24.993">
<defs>
<g>
<g id="glyph-0-0">
</g>
<g id="glyph-0-1">
<path d="M 3.09375 -4.015625 C 3.390625 -4.015625 3.96875 -4.015625 4.390625 -3.765625 C 4.953125 -3.390625 5.015625 -2.75 5.015625 -2.671875 C 5.015625 -2.515625 5.015625 -2.359375 5.21875 -2.359375 C 5.421875 -2.359375 5.421875 -2.515625 5.421875 -2.734375 L 5.421875 -5.96875 C 5.421875 -6.171875 5.421875 -6.359375 5.21875 -6.359375 C 5.015625 -6.359375 5.015625 -6.1875 5.015625 -6.078125 C 4.9375 -4.546875 3.71875 -4.453125 3.09375 -4.453125 L 3.09375 -6.96875 C 3.09375 -7.765625 3.328125 -7.765625 3.609375 -7.765625 L 4.1875 -7.765625 C 5.796875 -7.765625 6.59375 -6.9375 6.671875 -6.125 C 6.6875 -6.03125 6.6875 -5.84375 6.890625 -5.84375 C 7.09375 -5.84375 7.09375 -6.03125 7.09375 -6.234375 L 7.09375 -7.796875 C 7.09375 -8.15625 7.0625 -8.1875 6.6875 -8.1875 L 0.578125 -8.1875 C 0.359375 -8.1875 0.171875 -8.1875 0.171875 -7.96875 C 0.171875 -7.765625 0.390625 -7.765625 0.484375 -7.765625 C 1.171875 -7.765625 1.21875 -7.671875 1.21875 -7.09375 L 1.21875 -1.09375 C 1.21875 -0.53125 1.1875 -0.421875 0.546875 -0.421875 C 0.375 -0.421875 0.171875 -0.421875 0.171875 -0.21875 C 0.171875 0 0.359375 0 0.578125 0 L 6.90625 0 C 7.140625 0 7.25 0 7.296875 -0.171875 C 7.296875 -0.171875 7.640625 -2.171875 7.640625 -2.234375 C 7.640625 -2.359375 7.53125 -2.453125 7.4375 -2.453125 C 7.265625 -2.453125 7.21875 -2.296875 7.21875 -2.28125 C 7.140625 -1.96875 7.03125 -1.46875 6.15625 -0.953125 C 5.53125 -0.578125 4.921875 -0.421875 4.265625 -0.421875 L 3.609375 -0.421875 C 3.328125 -0.421875 3.09375 -0.421875 3.09375 -1.21875 Z M 6.671875 -7.765625 L 6.671875 -7.203125 C 6.46875 -7.421875 6.234375 -7.609375 5.984375 -7.765625 Z M 4.34375 -4.265625 C 4.53125 -4.34375 4.796875 -4.53125 5.015625 -4.78125 L 5.015625 -3.78125 C 4.71875 -4.09375 4.34375 -4.25 4.34375 -4.25 Z M 1.640625 -7.109375 C 1.640625 -7.25 1.640625 -7.546875 1.546875 -7.765625 L 2.8125 -7.765625 C 2.671875 -7.5 2.671875 -7.09375 2.671875 -7 L 2.671875 -1.1875 C 2.671875 -0.765625 2.765625 -0.53125 2.8125 -0.421875 L 1.546875 -0.421875 C 1.640625 -0.640625 1.640625 -0.9375 1.640625 -1.078125 Z M 6.078125 -0.421875 L 6.078125 -0.4375 C 6.46875 -0.625 6.796875 -0.875 7.03125 -1.09375 C 7.015625 -1.046875 6.9375 -0.515625 6.921875 -0.421875 Z M 6.078125 -0.421875 "/>
</g>
<g id="glyph-1-0">
</g>
<g id="glyph-1-1">
<path d="M 2.984375 2.984375 L 2.984375 2.546875 L 1.828125 2.546875 L 1.828125 -8.515625 L 2.984375 -8.515625 L 2.984375 -8.96875 L 1.390625 -8.96875 L 1.390625 2.984375 Z M 2.984375 2.984375 "/>
</g>
<g id="glyph-1-2">
<path d="M 1.859375 -8.96875 L 0.25 -8.96875 L 0.25 -8.515625 L 1.40625 -8.515625 L 1.40625 2.546875 L 0.25 2.546875 L 0.25 2.984375 L 1.859375 2.984375 Z M 1.859375 -8.96875 "/>
</g>
<g id="glyph-1-3">
<path d="M 8.0625 -3.875 C 8.234375 -3.875 8.453125 -3.875 8.453125 -4.09375 C 8.453125 -4.3125 8.25 -4.3125 8.0625 -4.3125 L 1.03125 -4.3125 C 0.859375 -4.3125 0.640625 -4.3125 0.640625 -4.09375 C 0.640625 -3.875 0.84375 -3.875 1.03125 -3.875 Z M 8.0625 -1.65625 C 8.234375 -1.65625 8.453125 -1.65625 8.453125 -1.859375 C 8.453125 -2.09375 8.25 -2.09375 8.0625 -2.09375 L 1.03125 -2.09375 C 0.859375 -2.09375 0.640625 -2.09375 0.640625 -1.875 C 0.640625 -1.65625 0.84375 -1.65625 1.03125 -1.65625 Z M 8.0625 -1.65625 "/>
</g>
<g id="glyph-1-4">
<path d="M 3.4375 -7.65625 C 3.4375 -7.9375 3.4375 -7.953125 3.203125 -7.953125 C 2.921875 -7.625 2.3125 -7.1875 1.09375 -7.1875 L 1.09375 -6.84375 C 1.359375 -6.84375 1.953125 -6.84375 2.625 -7.140625 L 2.625 -0.921875 C 2.625 -0.484375 2.578125 -0.34375 1.53125 -0.34375 L 1.15625 -0.34375 L 1.15625 0 C 1.484375 -0.03125 2.640625 -0.03125 3.03125 -0.03125 C 3.4375 -0.03125 4.578125 -0.03125 4.90625 0 L 4.90625 -0.34375 L 4.53125 -0.34375 C 3.484375 -0.34375 3.4375 -0.484375 3.4375 -0.921875 Z M 3.4375 -7.65625 "/>
</g>
<g id="glyph-2-0">
</g>
<g id="glyph-2-1">
<path d="M 10.859375 -7.296875 C 10.96875 -7.703125 10.984375 -7.8125 11.828125 -7.8125 C 12.0625 -7.8125 12.171875 -7.8125 12.171875 -8.046875 C 12.171875 -8.15625 12.078125 -8.15625 11.859375 -8.15625 L 10.421875 -8.15625 C 10.125 -8.15625 10.109375 -8.15625 9.984375 -7.953125 L 5.625 -1.0625 L 4.71875 -7.90625 C 4.6875 -8.15625 4.671875 -8.15625 4.359375 -8.15625 L 2.875 -8.15625 C 2.65625 -8.15625 2.546875 -8.15625 2.546875 -7.9375 C 2.546875 -7.8125 2.65625 -7.8125 2.828125 -7.8125 C 3.5625 -7.8125 3.5625 -7.71875 3.5625 -7.59375 C 3.5625 -7.5625 3.5625 -7.5 3.515625 -7.3125 L 1.984375 -1.21875 C 1.84375 -0.640625 1.5625 -0.375 0.765625 -0.34375 C 0.734375 -0.34375 0.578125 -0.328125 0.578125 -0.125 C 0.578125 0 0.6875 0 0.734375 0 C 0.984375 0 1.59375 -0.03125 1.828125 -0.03125 L 2.40625 -0.03125 C 2.5625 -0.03125 2.765625 0 2.9375 0 C 3.03125 0 3.15625 0 3.15625 -0.234375 C 3.15625 -0.328125 3.03125 -0.34375 2.984375 -0.34375 C 2.59375 -0.359375 2.21875 -0.4375 2.21875 -0.859375 C 2.21875 -0.984375 2.21875 -0.984375 2.265625 -1.15625 L 3.90625 -7.75 L 3.921875 -7.75 L 4.90625 -0.328125 C 4.953125 -0.03125 4.953125 0 5.0625 0 C 5.203125 0 5.265625 -0.09375 5.3125 -0.203125 L 10.125 -7.8125 L 10.140625 -7.8125 L 8.40625 -0.890625 C 8.296875 -0.46875 8.265625 -0.34375 7.4375 -0.34375 C 7.203125 -0.34375 7.09375 -0.34375 7.09375 -0.125 C 7.09375 0 7.203125 0 7.265625 0 C 7.46875 0 7.703125 -0.03125 7.90625 -0.03125 L 9.328125 -0.03125 C 9.53125 -0.03125 9.78125 0 9.984375 0 C 10.078125 0 10.203125 0 10.203125 -0.234375 C 10.203125 -0.34375 10.09375 -0.34375 9.921875 -0.34375 C 9.1875 -0.34375 9.1875 -0.4375 9.1875 -0.5625 C 9.1875 -0.578125 9.1875 -0.65625 9.21875 -0.75 Z M 10.859375 -7.296875 "/>
</g>
<g id="glyph-2-2">
<path d="M 8.84375 -6.90625 C 8.984375 -7.421875 9.171875 -7.78125 10.078125 -7.8125 C 10.109375 -7.8125 10.25 -7.828125 10.25 -8.03125 C 10.25 -8.15625 10.140625 -8.15625 10.09375 -8.15625 C 9.859375 -8.15625 9.25 -8.140625 9.015625 -8.140625 L 8.4375 -8.140625 C 8.265625 -8.140625 8.0625 -8.15625 7.890625 -8.15625 C 7.8125 -8.15625 7.671875 -8.15625 7.671875 -7.9375 C 7.671875 -7.8125 7.765625 -7.8125 7.859375 -7.8125 C 8.578125 -7.796875 8.625 -7.515625 8.625 -7.296875 C 8.625 -7.203125 8.609375 -7.15625 8.578125 -7 L 7.21875 -1.609375 L 4.65625 -7.953125 C 4.578125 -8.15625 4.5625 -8.15625 4.296875 -8.15625 L 2.84375 -8.15625 C 2.609375 -8.15625 2.5 -8.15625 2.5 -7.9375 C 2.5 -7.8125 2.578125 -7.8125 2.8125 -7.8125 C 2.875 -7.8125 3.578125 -7.8125 3.578125 -7.703125 C 3.578125 -7.6875 3.546875 -7.59375 3.53125 -7.546875 L 1.953125 -1.21875 C 1.8125 -0.640625 1.515625 -0.375 0.734375 -0.34375 C 0.671875 -0.34375 0.546875 -0.328125 0.546875 -0.125 C 0.546875 0 0.671875 0 0.703125 0 C 0.9375 0 1.546875 -0.03125 1.796875 -0.03125 L 2.359375 -0.03125 C 2.53125 -0.03125 2.734375 0 2.90625 0 C 2.984375 0 3.125 0 3.125 -0.234375 C 3.125 -0.328125 3 -0.34375 2.953125 -0.34375 C 2.5625 -0.359375 2.171875 -0.4375 2.171875 -0.859375 C 2.171875 -0.953125 2.203125 -1.0625 2.21875 -1.15625 L 3.84375 -7.546875 C 3.90625 -7.4375 3.90625 -7.40625 3.953125 -7.296875 L 6.796875 -0.21875 C 6.859375 -0.078125 6.890625 0 7 0 C 7.109375 0 7.125 -0.03125 7.171875 -0.234375 Z M 8.84375 -6.90625 "/>
</g>
<g id="glyph-2-3">
<path d="M 1.71875 -0.265625 C 2.015625 0.015625 2.46875 0.125 2.875 0.125 C 3.640625 0.125 4.15625 -0.390625 4.4375 -0.765625 C 4.546875 -0.125 5.0625 0.125 5.46875 0.125 C 5.828125 0.125 6.125 -0.09375 6.328125 -0.53125 C 6.53125 -0.9375 6.6875 -1.65625 6.6875 -1.703125 C 6.6875 -1.765625 6.640625 -1.8125 6.578125 -1.8125 C 6.46875 -1.8125 6.453125 -1.75 6.40625 -1.578125 C 6.234375 -0.875 6 -0.125 5.515625 -0.125 C 5.15625 -0.125 5.140625 -0.4375 5.140625 -0.671875 C 5.140625 -0.9375 5.25 -1.375 5.328125 -1.734375 L 5.671875 -3.03125 C 5.71875 -3.25 5.84375 -3.796875 5.90625 -4 C 5.96875 -4.296875 6.109375 -4.8125 6.109375 -4.859375 C 6.109375 -5.03125 5.96875 -5.15625 5.78125 -5.15625 C 5.671875 -5.15625 5.421875 -5.109375 5.328125 -4.75 L 4.5 -1.421875 C 4.4375 -1.1875 4.4375 -1.15625 4.28125 -0.96875 C 4.140625 -0.765625 3.671875 -0.125 2.921875 -0.125 C 2.25 -0.125 2.03125 -0.609375 2.03125 -1.171875 C 2.03125 -1.515625 2.140625 -1.9375 2.1875 -2.140625 L 2.71875 -4.296875 C 2.78125 -4.515625 2.875 -4.90625 2.875 -4.96875 C 2.875 -5.15625 2.71875 -5.265625 2.5625 -5.265625 C 2.46875 -5.265625 2.203125 -5.234375 2.109375 -4.859375 L 0.375 2.0625 C 0.359375 2.125 0.328125 2.203125 0.328125 2.265625 C 0.328125 2.453125 0.484375 2.5625 0.65625 2.5625 C 1 2.5625 1.078125 2.296875 1.15625 1.953125 Z M 1.71875 -0.265625 "/>
</g>
<g id="glyph-3-0">
</g>
<g id="glyph-3-1">
<path d="M 6.3125 -4.578125 C 6.40625 -4.96875 6.578125 -5.15625 7.15625 -5.171875 C 7.234375 -5.171875 7.296875 -5.234375 7.296875 -5.328125 C 7.296875 -5.375 7.265625 -5.4375 7.1875 -5.4375 C 7.125 -5.4375 6.96875 -5.421875 6.390625 -5.421875 C 5.75 -5.421875 5.640625 -5.4375 5.5625 -5.4375 C 5.4375 -5.4375 5.421875 -5.359375 5.421875 -5.296875 C 5.421875 -5.1875 5.515625 -5.171875 5.59375 -5.171875 C 6.078125 -5.15625 6.078125 -4.953125 6.078125 -4.84375 C 6.078125 -4.796875 6.078125 -4.75 6.046875 -4.625 L 5.171875 -1.140625 L 3.25 -5.296875 C 3.1875 -5.4375 3.171875 -5.4375 2.984375 -5.4375 L 1.9375 -5.4375 C 1.796875 -5.4375 1.703125 -5.4375 1.703125 -5.296875 C 1.703125 -5.171875 1.796875 -5.171875 1.953125 -5.171875 C 2.03125 -5.171875 2.265625 -5.171875 2.453125 -5.125 L 1.375 -0.859375 C 1.28125 -0.453125 1.078125 -0.28125 0.546875 -0.265625 C 0.5 -0.265625 0.390625 -0.25 0.390625 -0.109375 C 0.390625 -0.0625 0.4375 0 0.515625 0 C 0.546875 0 0.734375 -0.03125 1.3125 -0.03125 C 1.9375 -0.03125 2.0625 0 2.125 0 C 2.15625 0 2.28125 0 2.28125 -0.15625 C 2.28125 -0.25 2.1875 -0.265625 2.140625 -0.265625 C 1.84375 -0.265625 1.609375 -0.3125 1.609375 -0.59375 C 1.609375 -0.640625 1.640625 -0.75 1.640625 -0.75 L 2.671875 -4.921875 L 2.6875 -4.921875 L 4.90625 -0.140625 C 4.953125 -0.015625 4.96875 0 5.046875 0 C 5.15625 0 5.171875 -0.03125 5.203125 -0.171875 Z M 6.3125 -4.578125 "/>
</g>
</g>
<clipPath id="clip-0">
<path clip-rule="nonzero" d="M 53 16 L 64 16 L 64 24.992188 L 53 24.992188 Z M 53 16 "/>
</clipPath>
<clipPath id="clip-1">
<path clip-rule="nonzero" d="M 106 11 L 113.875 11 L 113.875 19 L 106 19 Z M 106 11 "/>
</clipPath>
</defs>
<g fill="rgb(0%, 0%, 0%)" fill-opacity="1">
<use xlink:href="#glyph-0-1" x="0.5" y="16.292"/>
</g>
<g fill="rgb(0%, 0%, 0%)" fill-opacity="1">
<use xlink:href="#glyph-1-1" x="10.463" y="16.292"/>
</g>
<g fill="rgb(0%, 0%, 0%)" fill-opacity="1">
<use xlink:href="#glyph-2-1" x="13.714" y="16.292"/>
</g>
<g fill="rgb(0%, 0%, 0%)" fill-opacity="1">
<use xlink:href="#glyph-3-1" x="25.039" y="18.086"/>
</g>
<g fill="rgb(0%, 0%, 0%)" fill-opacity="1">
<use xlink:href="#glyph-1-2" x="33.108" y="16.292"/>
</g>
<g fill="rgb(0%, 0%, 0%)" fill-opacity="1">
<use xlink:href="#glyph-1-3" x="39.68336" y="16.292"/>
</g>
<g fill="rgb(0%, 0%, 0%)" fill-opacity="1">
<use xlink:href="#glyph-1-4" x="55.686" y="8.205"/>
</g>
<path fill="none" stroke-width="0.478" stroke-linecap="butt" stroke-linejoin="miter" stroke="rgb(0%, 0%, 0%)" stroke-opacity="1" stroke-miterlimit="10" d="M -0.00021875 -0.0006875 L 10.624781 -0.0006875 " transform="matrix(1, 0, 0, -1, 53.301, 13.304)"/>
<g clip-path="url(#clip-0)">
<g fill="rgb(0%, 0%, 0%)" fill-opacity="1">
<use xlink:href="#glyph-2-2" x="53.301" y="24.493"/>
</g>
</g>
<g fill="rgb(0%, 0%, 0%)" fill-opacity="1">
<use xlink:href="#glyph-2-2" x="69.02" y="16.292"/>
</g>
<g fill="rgb(0%, 0%, 0%)" fill-opacity="1">
<use xlink:href="#glyph-2-3" x="83.546764" y="16.292"/>
</g>
<g fill="rgb(0%, 0%, 0%)" fill-opacity="1">
<use xlink:href="#glyph-1-3" x="93.908" y="16.292"/>
</g>
<g clip-path="url(#clip-1)">
<g fill="rgb(0%, 0%, 0%)" fill-opacity="1">
<use xlink:href="#glyph-2-3" x="106.333" y="16.292"/>
</g>
</g>
</svg>
