<?xml version="1.0" encoding="UTF-8"?>
<svg xmlns="http://www.w3.org/2000/svg" xmlns:xlink="http://www.w3.org/1999/xlink" viewBox="0 0 61.114 15.346">
<defs>
<g>
<g id="glyph-0-0">
</g>
<g id="glyph-0-1">
<path d="M 3.09375 -4.015625 C 3.390625 -4.015625 3.96875 -4.015625 4.390625 -3.765625 C 4.953125 -3.390625 5.015625 -2.75 5.015625 -2.671875 C 5.015625 -2.515625 5.015625 -2.359375 5.21875 -2.359375 C 5.421875 -2.359375 5.421875 -2.515625 5.421875 -2.734375 L 5.421875 -5.96875 C 5.421875 -6.171875 5.421875 -6.359375 5.21875 -6.359375 C 5.015625 -6.359375 5.015625 -6.1875 5.015625 -6.078125 C 4.9375 -4.546875 3.71875 -4.453125 3.09375 -4.453125 L 3.09375 -6.96875 C 3.09375 -7.765625 3.328125 -7.765625 3.609375 -7.765625 L 4.1875 -7.765625 C 5.796875 -7.765625 6.59375 -6.9375 6.671875 -6.125 C 6.6875 -6.03125 6.6875 -5.84375 6.890625 -5.84375 C 7.09375 -5.84375 7.09375 -6.03125 7.09375 -6.234375 L 7.09375 -7.796875 C 7.09375 -8.15625 7.0625 -8.1875 6.6875 -8.1875 L 0.578125 -8.1875 C 0.359375 -8.1875 0.171875 -8.1875 0.171875 -7.96875 C 0.171875 -7.765625 0.390625 -7.765625 0.484375 -7.765625 C 1.171875 -7.765625 1.21875 -7.671875 1.21875 -7.09375 L 1.21875 -1.09375 C 1.21875 -0.53125 1.1875 -0.421875 0.546875 -0.421875 C 0.375 -0.421875 0.171875 -0.421875 0.171875 -0.21875 C 0.171875 0 0.359375 0 0.578125 0 L 6.90625 0 C 7.140625 0 7.25 0 7.296875 -0.171875 C 7.296875 -0.171875 7.640625 -2.171875 7.640625 -2.234375 C 7.640625 -2.359375 7.53125 -2.453125 7.4375 -2.453125 C 7.265625 -2.453125 7.21875 -2.296875 7.21875 -2.28125 C 7.140625 -1.96875 7.03125 -1.46875 6.15625 -0.953125 C 5.53125 -0.578125 4.921875 -0.421875 4.265625 -0.421875 L 3.609375 -0.421875 C 3.328125 -0.421875 3.09375 -0.421875 3.09375 -1.21875 Z M 6.671875 -7.765625 L 6.671875 -7.203125 C 6.46875 -7.421875 6.234375 -7.609375 5.984375 -7.765625 Z M 4.34375 -4.265625 C 4.53125 -4.34375 4.796875 -4.53125 5.015625 -4.78125 L 5.015625 -3.78125 C 4.71875 -4.09375 4.34375 -4.25 4.34375 -4.25 Z M 1.640625 -7.109375 C 1.640625 -7.25 1.640625 -7.546875 1.546875 -7.765625 L 2.8125 -7.765625 C 2.671875 -7.5 2.671875 -7.09375 2.671875 -7 L 2.671875 -1.1875 C 2.671875 -0.765625 2.765625 -0.53125 2.8125 -0.421875 L 1.546875 -0.421875 C 1.640625 -0.640625 1.640625 -0.9375 1.640625 -1.078125 Z M 6.078125 -0.421875 L 6.078125 -0.4375 C 6.46875 -0.625 6.796875 -0.875 7.03125 -1.09375 C 7.015625 -1.046875 6.9375 -0.515625 6.921875 -0.421875 Z M 6.078125 -0.421875 "/>
</g>
<g id="glyph-1-0">
</g>
<g id="glyph-1-1">
<path d="M 2.421875 13.859375 L 4.703125 13.859375 L 4.703125 13.375 L 2.890625 13.375 L 2.890625 0 L 4.703125 0 L 4.703125 -0.484375 L 2.421875 -0.484375 Z M 2.421875 13.859375 "/>
</g>
<g id="glyph-1-2">
<path d="M 2.5625 13.859375 L 2.5625 -0.484375 L 0.265625 -0.484375 L 0.265625 0 L 2.078125 0 L 2.078125 13.375 L 0.265625 13.375 L 0.265625 13.859375 Z M 2.5625 13.859375 "/>
</g>
<g id="glyph-2-0">
</g>
<g id="glyph-2-1">
<path d="M 7.59375 -8.3125 C 7.59375 -8.421875 7.5 -8.421875 7.484375 -8.421875 C 7.4375 -8.421875 7.421875 -8.40625 7.28125 -8.21875 C 7.203125 -8.140625 6.71875 -7.515625 6.703125 -7.5 C 6.3125 -8.28125 5.515625 -8.421875 5.015625 -8.421875 C 3.5 -8.421875 2.125 -7.03125 2.125 -5.671875 C 2.125 -4.78125 2.671875 -4.25 3.25 -4.046875 C 3.375 -4 4.09375 -3.8125 4.453125 -3.734375 C 5.0625 -3.5625 5.21875 -3.515625 5.46875 -3.25 C 5.515625 -3.1875 5.75 -2.921875 5.75 -2.359375 C 5.75 -1.25 4.71875 -0.09375 3.53125 -0.09375 C 2.546875 -0.09375 1.453125 -0.515625 1.453125 -1.859375 C 1.453125 -2.078125 1.5 -2.359375 1.546875 -2.484375 C 1.546875 -2.515625 1.546875 -2.578125 1.546875 -2.609375 C 1.546875 -2.65625 1.53125 -2.71875 1.4375 -2.71875 C 1.328125 -2.71875 1.3125 -2.6875 1.265625 -2.484375 L 0.65625 -0.03125 C 0.65625 -0.03125 0.609375 0.125 0.609375 0.140625 C 0.609375 0.25 0.703125 0.25 0.734375 0.25 C 0.78125 0.25 0.78125 0.234375 0.9375 0.0625 L 1.484375 -0.65625 C 1.765625 -0.234375 2.390625 0.25 3.5 0.25 C 5.046875 0.25 6.453125 -1.25 6.453125 -2.734375 C 6.453125 -3.234375 6.328125 -3.6875 5.875 -4.125 C 5.625 -4.375 5.421875 -4.4375 4.3125 -4.71875 C 3.515625 -4.9375 3.40625 -4.96875 3.1875 -5.15625 C 2.984375 -5.359375 2.828125 -5.65625 2.828125 -6.0625 C 2.828125 -7.0625 3.84375 -8.09375 4.984375 -8.09375 C 6.15625 -8.09375 6.703125 -7.375 6.703125 -6.234375 C 6.703125 -5.921875 6.640625 -5.609375 6.640625 -5.5625 C 6.640625 -5.453125 6.734375 -5.453125 6.78125 -5.453125 C 6.890625 -5.453125 6.890625 -5.484375 6.9375 -5.671875 Z M 7.59375 -8.3125 "/>
</g>
<g id="glyph-2-2">
<path d="M 6.078125 -4.5 C 6.234375 -4.5 6.625 -4.5 6.625 -4.890625 C 6.625 -5.15625 6.390625 -5.15625 6.1875 -5.15625 L 3.53125 -5.15625 C 1.75 -5.15625 0.453125 -3.15625 0.453125 -1.75 C 0.453125 -0.734375 1.109375 0.125 2.1875 0.125 C 3.59375 0.125 5.140625 -1.40625 5.140625 -3.1875 C 5.140625 -3.65625 5.03125 -4.109375 4.75 -4.5 Z M 2.203125 -0.125 C 1.59375 -0.125 1.140625 -0.578125 1.140625 -1.40625 C 1.140625 -2.125 1.578125 -4.5 3.328125 -4.5 C 3.84375 -4.5 4.421875 -4.25 4.421875 -3.328125 C 4.421875 -2.921875 4.234375 -1.90625 3.8125 -1.21875 C 3.375 -0.515625 2.734375 -0.125 2.203125 -0.125 Z M 2.203125 -0.125 "/>
</g>
<g id="glyph-3-0">
</g>
<g id="glyph-3-1">
<path d="M 2.25 -1.625 C 2.375 -1.75 2.703125 -2.015625 2.84375 -2.125 C 3.328125 -2.578125 3.796875 -3.015625 3.796875 -3.734375 C 3.796875 -4.6875 3 -5.296875 2.015625 -5.296875 C 1.046875 -5.296875 0.421875 -4.578125 0.421875 -3.859375 C 0.421875 -3.46875 0.734375 -3.421875 0.84375 -3.421875 C 1.015625 -3.421875 1.265625 -3.53125 1.265625 -3.84375 C 1.265625 -4.25 0.859375 -4.25 0.765625 -4.25 C 1 -4.84375 1.53125 -5.03125 1.921875 -5.03125 C 2.65625 -5.03125 3.046875 -4.40625 3.046875 -3.734375 C 3.046875 -2.90625 2.46875 -2.296875 1.515625 -1.34375 L 0.515625 -0.296875 C 0.421875 -0.21875 0.421875 -0.203125 0.421875 0 L 3.5625 0 L 3.796875 -1.421875 L 3.546875 -1.421875 C 3.53125 -1.265625 3.46875 -0.875 3.375 -0.71875 C 3.328125 -0.65625 2.71875 -0.65625 2.59375 -0.65625 L 1.171875 -0.65625 Z M 2.25 -1.625 "/>
</g>
<g id="glyph-4-0">
</g>
<g id="glyph-4-1">
<path d="M 8.0625 -3.875 C 8.234375 -3.875 8.453125 -3.875 8.453125 -4.09375 C 8.453125 -4.3125 8.25 -4.3125 8.0625 -4.3125 L 1.03125 -4.3125 C 0.859375 -4.3125 0.640625 -4.3125 0.640625 -4.09375 C 0.640625 -3.875 0.84375 -3.875 1.03125 -3.875 Z M 8.0625 -1.65625 C 8.234375 -1.65625 8.453125 -1.65625 8.453125 -1.859375 C 8.453125 -2.09375 8.25 -2.09375 8.0625 -2.09375 L 1.03125 -2.09375 C 0.859375 -2.09375 0.640625 -2.09375 0.640625 -1.875 C 0.640625 -1.65625 0.84375 -1.65625 1.03125 -1.65625 Z M 8.0625 -1.65625 "/>
</g>
</g>
</defs>
<g fill="rgb(0%, 0%, 0%)" fill-opacity="1">
<use xlink:href="#glyph-0-1" x="0.5" y="10.662"/>
</g>
<g fill="rgb(0%, 0%, 0%)" fill-opacity="1">
<use xlink:href="#glyph-1-1" x="10.463" y="0.978"/>
</g>
<g fill="rgb(0%, 0%, 0%)" fill-opacity="1">
<use xlink:href="#glyph-2-1" x="15.444" y="10.662"/>
</g>
<g fill="rgb(0%, 0%, 0%)" fill-opacity="1">
<use xlink:href="#glyph-3-1" x="23.339" y="5.725"/>
</g>
<g fill="rgb(0%, 0%, 0%)" fill-opacity="1">
<use xlink:href="#glyph-1-2" x="28.072" y="0.978"/>
</g>
<g fill="rgb(0%, 0%, 0%)" fill-opacity="1">
<use xlink:href="#glyph-4-1" x="36.374" y="10.662"/>
</g>
<g fill="rgb(0%, 0%, 0%)" fill-opacity="1">
<use xlink:href="#glyph-2-2" x="48.799" y="10.662"/>
</g>
<g fill="rgb(0%, 0%, 0%)" fill-opacity="1">
<use xlink:href="#glyph-3-1" x="55.882" y="5.725"/>
</g>
</svg>
