<?xml version="1.0" encoding="UTF-8"?>
<svg xmlns="http://www.w3.org/2000/svg" xmlns:xlink="http://www.w3.org/1999/xlink" viewBox="0 0 96.747 13.74">
<defs>
<g>
<g id="glyph-0-0">
</g>
<g id="glyph-0-1">
<path d="M 4.078125 -0.6875 C 4.234375 -0.03125 4.8125 0.125 5.09375 0.125 C 5.46875 0.125 5.765625 -0.125 5.953125 -0.53125 C 6.15625 -0.96875 6.3125 -1.671875 6.3125 -1.703125 C 6.3125 -1.765625 6.265625 -1.8125 6.1875 -1.8125 C 6.078125 -1.8125 6.078125 -1.75 6.03125 -1.578125 C 5.8125 -0.75 5.59375 -0.125 5.109375 -0.125 C 4.75 -0.125 4.75 -0.515625 4.75 -0.671875 C 4.75 -0.9375 4.796875 -1.0625 4.90625 -1.5625 C 5 -1.890625 5.078125 -2.21875 5.15625 -2.546875 L 5.640625 -4.5 C 5.71875 -4.796875 5.71875 -4.8125 5.71875 -4.859375 C 5.71875 -5.03125 5.578125 -5.15625 5.40625 -5.15625 C 5.0625 -5.15625 4.96875 -4.859375 4.90625 -4.546875 C 4.78125 -4.09375 4.140625 -1.515625 4.046875 -1.09375 C 4.046875 -1.09375 3.578125 -0.125 2.703125 -0.125 C 2.078125 -0.125 1.953125 -0.65625 1.953125 -1.09375 C 1.953125 -1.78125 2.296875 -2.734375 2.609375 -3.53125 C 2.75 -3.921875 2.8125 -4.078125 2.8125 -4.3125 C 2.8125 -4.828125 2.4375 -5.265625 1.859375 -5.265625 C 0.765625 -5.265625 0.328125 -3.53125 0.328125 -3.4375 C 0.328125 -3.390625 0.375 -3.328125 0.453125 -3.328125 C 0.5625 -3.328125 0.578125 -3.375 0.625 -3.546875 C 0.90625 -4.578125 1.375 -5.03125 1.828125 -5.03125 C 1.953125 -5.03125 2.140625 -5.015625 2.140625 -4.640625 C 2.140625 -4.328125 2.015625 -3.984375 1.828125 -3.53125 C 1.296875 -2.109375 1.25 -1.65625 1.25 -1.296875 C 1.25 -0.078125 2.15625 0.125 2.65625 0.125 C 3.421875 0.125 3.84375 -0.40625 4.078125 -0.6875 Z M 4.078125 -0.6875 "/>
</g>
<g id="glyph-0-2">
<path d="M 3.375 -1.703125 C 3.375 -1.765625 3.328125 -1.8125 3.265625 -1.8125 C 3.15625 -1.8125 3.140625 -1.78125 3.078125 -1.578125 C 2.765625 -0.484375 2.28125 -0.125 1.890625 -0.125 C 1.75 -0.125 1.578125 -0.15625 1.578125 -0.515625 C 1.578125 -0.84375 1.71875 -1.1875 1.859375 -1.546875 L 2.6875 -3.78125 C 2.71875 -3.875 2.8125 -4.09375 2.8125 -4.3125 C 2.8125 -4.8125 2.453125 -5.265625 1.859375 -5.265625 C 0.765625 -5.265625 0.328125 -3.53125 0.328125 -3.4375 C 0.328125 -3.390625 0.375 -3.328125 0.453125 -3.328125 C 0.5625 -3.328125 0.578125 -3.375 0.625 -3.546875 C 0.90625 -4.546875 1.359375 -5.03125 1.828125 -5.03125 C 1.9375 -5.03125 2.140625 -5.015625 2.140625 -4.640625 C 2.140625 -4.328125 1.984375 -3.9375 1.890625 -3.671875 L 1.046875 -1.453125 C 0.984375 -1.25 0.90625 -1.0625 0.90625 -0.84375 C 0.90625 -0.3125 1.28125 0.125 1.859375 0.125 C 2.953125 0.125 3.375 -1.625 3.375 -1.703125 Z M 3.28125 -7.453125 C 3.28125 -7.640625 3.140625 -7.859375 2.875 -7.859375 C 2.609375 -7.859375 2.296875 -7.59375 2.296875 -7.28125 C 2.296875 -6.984375 2.546875 -6.890625 2.6875 -6.890625 C 3.015625 -6.890625 3.28125 -7.203125 3.28125 -7.453125 Z M 3.28125 -7.453125 "/>
</g>
<g id="glyph-0-3">
<path d="M 4.1875 -3.796875 C 4.234375 -3.984375 4.234375 -4.140625 4.234375 -4.203125 C 4.234375 -4.890625 3.71875 -5.265625 3.171875 -5.265625 C 1.96875 -5.265625 1.328125 -3.53125 1.328125 -3.4375 C 1.328125 -3.375 1.375 -3.328125 1.453125 -3.328125 C 1.546875 -3.328125 1.546875 -3.375 1.609375 -3.5 C 2.09375 -4.65625 2.6875 -5.03125 3.140625 -5.03125 C 3.390625 -5.03125 3.53125 -4.90625 3.53125 -4.484375 C 3.53125 -4.203125 3.484375 -4.078125 3.4375 -3.859375 L 2.3125 0.640625 C 2.078125 1.53125 1.515625 2.203125 0.859375 2.203125 C 0.8125 2.203125 0.5625 2.203125 0.328125 2.078125 C 0.625 2.015625 0.84375 1.796875 0.84375 1.5 C 0.84375 1.3125 0.703125 1.125 0.4375 1.125 C 0.125 1.125 -0.15625 1.390625 -0.15625 1.75 C -0.15625 2.234375 0.375 2.4375 0.859375 2.4375 C 1.6875 2.4375 2.765625 1.828125 3.078125 0.640625 Z M 4.671875 -7.453125 C 4.671875 -7.75 4.421875 -7.859375 4.28125 -7.859375 C 3.953125 -7.859375 3.6875 -7.546875 3.6875 -7.28125 C 3.6875 -7.09375 3.828125 -6.890625 4.09375 -6.890625 C 4.359375 -6.890625 4.671875 -7.140625 4.671875 -7.453125 Z M 4.671875 -7.453125 "/>
</g>
<g id="glyph-0-4">
<path d="M 2.328125 0.046875 C 2.328125 -0.640625 2.109375 -1.15625 1.609375 -1.15625 C 1.234375 -1.15625 1.046875 -0.84375 1.046875 -0.578125 C 1.046875 -0.328125 1.21875 0 1.625 0 C 1.78125 0 1.90625 -0.046875 2.015625 -0.15625 C 2.046875 -0.171875 2.0625 -0.171875 2.0625 -0.171875 C 2.09375 -0.171875 2.09375 -0.015625 2.09375 0.046875 C 2.09375 0.4375 2.015625 1.21875 1.328125 2 C 1.1875 2.140625 1.1875 2.15625 1.1875 2.1875 C 1.1875 2.25 1.25 2.3125 1.3125 2.3125 C 1.40625 2.3125 2.328125 1.421875 2.328125 0.046875 Z M 2.328125 0.046875 "/>
</g>
<g id="glyph-1-0">
</g>
<g id="glyph-1-1">
<path d="M 8.0625 -3.875 C 8.234375 -3.875 8.453125 -3.875 8.453125 -4.09375 C 8.453125 -4.3125 8.25 -4.3125 8.0625 -4.3125 L 1.03125 -4.3125 C 0.859375 -4.3125 0.640625 -4.3125 0.640625 -4.09375 C 0.640625 -3.875 0.84375 -3.875 1.03125 -3.875 Z M 8.0625 -1.65625 C 8.234375 -1.65625 8.453125 -1.65625 8.453125 -1.859375 C 8.453125 -2.09375 8.25 -2.09375 8.0625 -2.09375 L 1.03125 -2.09375 C 0.859375 -2.09375 0.640625 -2.09375 0.640625 -1.875 C 0.640625 -1.65625 0.84375 -1.65625 1.03125 -1.65625 Z M 8.0625 -1.65625 "/>
</g>
<g id="glyph-1-2">
<path d="M 3.890625 2.90625 C 3.890625 2.875 3.890625 2.84375 3.6875 2.640625 C 2.484375 1.4375 1.8125 -0.53125 1.8125 -2.96875 C 1.8125 -5.296875 2.375 -7.296875 3.765625 -8.703125 C 3.890625 -8.8125 3.890625 -8.828125 3.890625 -8.875 C 3.890625 -8.9375 3.828125 -8.96875 3.78125 -8.96875 C 3.625 -8.96875 2.640625 -8.109375 2.0625 -6.9375 C 1.453125 -5.71875 1.171875 -4.453125 1.171875 -2.96875 C 1.171875 -1.90625 1.34375 -0.484375 1.953125 0.78125 C 2.671875 2.21875 3.640625 3 3.78125 3 C 3.828125 3 3.890625 2.96875 3.890625 2.90625 Z M 3.890625 2.90625 "/>
</g>
<g id="glyph-1-3">
<path d="M 5.359375 -3.828125 C 5.359375 -4.8125 5.296875 -5.78125 4.859375 -6.6875 C 4.375 -7.6875 3.515625 -7.953125 2.921875 -7.953125 C 2.234375 -7.953125 1.390625 -7.609375 0.9375 -6.609375 C 0.609375 -5.859375 0.484375 -5.109375 0.484375 -3.828125 C 0.484375 -2.671875 0.578125 -1.796875 1 -0.9375 C 1.46875 -0.03125 2.296875 0.25 2.921875 0.25 C 3.953125 0.25 4.546875 -0.375 4.90625 -1.0625 C 5.328125 -1.953125 5.359375 -3.125 5.359375 -3.828125 Z M 2.921875 0.015625 C 2.53125 0.015625 1.75 -0.203125 1.53125 -1.5 C 1.40625 -2.21875 1.40625 -3.125 1.40625 -3.96875 C 1.40625 -4.953125 1.40625 -5.828125 1.59375 -6.53125 C 1.796875 -7.34375 2.40625 -7.703125 2.921875 -7.703125 C 3.375 -7.703125 4.0625 -7.4375 4.296875 -6.40625 C 4.453125 -5.71875 4.453125 -4.78125 4.453125 -3.96875 C 4.453125 -3.171875 4.453125 -2.265625 4.3125 -1.53125 C 4.09375 -0.21875 3.328125 0.015625 2.921875 0.015625 Z M 2.921875 0.015625 "/>
</g>
<g id="glyph-1-4">
<path d="M 3.375 -2.96875 C 3.375 -3.890625 3.25 -5.359375 2.578125 -6.75 C 1.875 -8.1875 0.890625 -8.96875 0.765625 -8.96875 C 0.71875 -8.96875 0.65625 -8.9375 0.65625 -8.875 C 0.65625 -8.828125 0.65625 -8.8125 0.859375 -8.609375 C 2.0625 -7.40625 2.71875 -5.421875 2.71875 -2.984375 C 2.71875 -0.671875 2.15625 1.328125 0.78125 2.734375 C 0.65625 2.84375 0.65625 2.875 0.65625 2.90625 C 0.65625 2.96875 0.71875 3 0.765625 3 C 0.921875 3 1.90625 2.140625 2.484375 0.96875 C 3.09375 -0.25 3.375 -1.546875 3.375 -2.96875 Z M 3.375 -2.96875 "/>
</g>
<g id="glyph-2-0">
</g>
<g id="glyph-2-1">
<path d="M 7.875 -2.75 C 8.078125 -2.75 8.296875 -2.75 8.296875 -2.984375 C 8.296875 -3.234375 8.078125 -3.234375 7.875 -3.234375 L 1.40625 -3.234375 C 1.203125 -3.234375 0.984375 -3.234375 0.984375 -2.984375 C 0.984375 -2.75 1.203125 -2.75 1.40625 -2.75 Z M 7.875 -2.75 "/>
</g>
<g id="glyph-2-2">
<path d="M 6.546875 -2.75 C 6.75 -2.75 6.96875 -2.75 6.96875 -2.984375 C 6.96875 -3.234375 6.75 -3.234375 6.546875 -3.234375 L 1.484375 -3.234375 C 1.625 -4.828125 3 -5.96875 4.6875 -5.96875 L 6.546875 -5.96875 C 6.75 -5.96875 6.96875 -5.96875 6.96875 -6.21875 C 6.96875 -6.453125 6.75 -6.453125 6.546875 -6.453125 L 4.65625 -6.453125 C 2.625 -6.453125 0.984375 -4.90625 0.984375 -2.984375 C 0.984375 -1.078125 2.625 0.484375 4.65625 0.484375 L 6.546875 0.484375 C 6.75 0.484375 6.96875 0.484375 6.96875 0.234375 C 6.96875 0 6.75 0 6.546875 0 L 4.6875 0 C 3 0 1.625 -1.140625 1.484375 -2.75 Z M 6.546875 -2.75 "/>
</g>
<g id="glyph-3-0">
</g>
<g id="glyph-3-1">
<path d="M 7.125 -7.75 C 7.234375 -7.90625 7.234375 -7.9375 7.234375 -7.96875 C 7.234375 -8.1875 7.046875 -8.1875 6.84375 -8.1875 L 1.359375 -8.1875 C 0.984375 -8.1875 0.984375 -8.15625 0.9375 -7.84375 L 0.765625 -6.234375 L 0.734375 -6.078125 C 0.734375 -5.90625 0.875 -5.84375 0.953125 -5.84375 C 1.0625 -5.84375 1.140625 -5.921875 1.15625 -6.03125 C 1.203125 -6.3125 1.3125 -6.84375 2.046875 -7.296875 C 2.71875 -7.734375 3.5625 -7.765625 3.96875 -7.765625 L 4.9375 -7.765625 L 0.4375 -0.4375 C 0.328125 -0.28125 0.328125 -0.25 0.328125 -0.21875 C 0.328125 0 0.53125 0 0.734375 0 L 6.875 0 C 7.234375 0 7.234375 -0.03125 7.28125 -0.328125 L 7.609375 -2.6875 C 7.609375 -2.828125 7.5 -2.90625 7.40625 -2.90625 C 7.21875 -2.90625 7.203125 -2.78125 7.15625 -2.546875 C 6.953125 -1.5625 6.03125 -0.421875 4.328125 -0.421875 L 2.625 -0.421875 Z M 1.34375 -7.765625 L 1.984375 -7.765625 L 1.984375 -7.75 C 1.65625 -7.578125 1.4375 -7.359375 1.296875 -7.234375 Z M 5.421875 -7.765625 L 6.640625 -7.765625 L 2.140625 -0.421875 L 0.921875 -0.421875 Z M 6.0625 -0.4375 C 6.390625 -0.625 6.703125 -0.890625 6.984375 -1.21875 C 6.953125 -0.984375 6.9375 -0.84375 6.875 -0.421875 L 6.0625 -0.421875 Z M 6.0625 -0.4375 "/>
</g>
<g id="glyph-4-0">
</g>
<g id="glyph-4-1">
<path d="M 3.46875 -1.8125 L 5.8125 -1.8125 C 5.921875 -1.8125 6.109375 -1.8125 6.109375 -1.984375 C 6.109375 -2.171875 5.921875 -2.171875 5.8125 -2.171875 L 3.46875 -2.171875 L 3.46875 -4.53125 C 3.46875 -4.640625 3.46875 -4.8125 3.296875 -4.8125 C 3.109375 -4.8125 3.109375 -4.640625 3.109375 -4.53125 L 3.109375 -2.171875 L 0.75 -2.171875 C 0.640625 -2.171875 0.46875 -2.171875 0.46875 -1.984375 C 0.46875 -1.8125 0.640625 -1.8125 0.75 -1.8125 L 3.109375 -1.8125 L 3.109375 0.546875 C 3.109375 0.65625 3.109375 0.828125 3.296875 0.828125 C 3.46875 0.828125 3.46875 0.65625 3.46875 0.546875 Z M 3.46875 -1.8125 "/>
</g>
</g>
<clipPath id="clip-0">
<path clip-rule="nonzero" d="M 24 1 L 27 1 L 27 13.738281 L 24 13.738281 Z M 24 1 "/>
</clipPath>
<clipPath id="clip-1">
<path clip-rule="nonzero" d="M 56 1 L 66 1 L 66 13.738281 L 56 13.738281 Z M 56 1 "/>
</clipPath>
</defs>
<g fill="rgb(0%, 0%, 0%)" fill-opacity="1">
<use xlink:href="#glyph-0-1" x="0.5" y="10.251"/>
</g>
<g fill="rgb(0%, 0%, 0%)" fill-opacity="1">
<use xlink:href="#glyph-1-1" x="10.483" y="10.251"/>
</g>
<g clip-path="url(#clip-0)">
<g fill="rgb(0%, 0%, 0%)" fill-opacity="1">
<use xlink:href="#glyph-1-2" x="22.911626" y="10.251"/>
</g>
</g>
<g fill="rgb(0%, 0%, 0%)" fill-opacity="1">
<use xlink:href="#glyph-0-2" x="27.461" y="10.251"/>
</g>
<g fill="rgb(0%, 0%, 0%)" fill-opacity="1">
<use xlink:href="#glyph-2-1" x="34.111" y="10.251"/>
</g>
<g fill="rgb(0%, 0%, 0%)" fill-opacity="1">
<use xlink:href="#glyph-0-3" x="46.066" y="10.251"/>
</g>
<g fill="rgb(0%, 0%, 0%)" fill-opacity="1">
<use xlink:href="#glyph-0-4" x="50.932962" y="10.251"/>
</g>
<g clip-path="url(#clip-1)">
<g fill="rgb(0%, 0%, 0%)" fill-opacity="1">
<use xlink:href="#glyph-1-3" x="56.176" y="10.251"/>
<use xlink:href="#glyph-1-4" x="62.029266" y="10.251"/>
</g>
</g>
<g fill="rgb(0%, 0%, 0%)" fill-opacity="1">
<use xlink:href="#glyph-2-2" x="69.902" y="10.251"/>
</g>
<g fill="rgb(0%, 0%, 0%)" fill-opacity="1">
<use xlink:href="#glyph-3-1" x="81.193" y="10.251"/>
</g>
<g fill="rgb(0%, 0%, 0%)" fill-opacity="1">
<use xlink:href="#glyph-4-1" x="89.163" y="5.315"/>
</g>
</svg>
