<?xml version="1.0" encoding="UTF-8"?>
<svg xmlns="http://www.w3.org/2000/svg" xmlns:xlink="http://www.w3.org/1999/xlink" viewBox="0 0 10.393 9.169">
<defs>
<g>
<g id="glyph-0-0">
</g>
<g id="glyph-0-1">
<path d="M 7.03125 -6.84375 L 7.296875 -7.109375 C 7.828125 -7.65625 8.265625 -7.78125 8.6875 -7.8125 C 8.828125 -7.828125 8.921875 -7.84375 8.921875 -8.046875 C 8.921875 -8.15625 8.8125 -8.15625 8.78125 -8.15625 C 8.640625 -8.15625 8.484375 -8.140625 8.34375 -8.140625 L 7.859375 -8.140625 C 7.5 -8.140625 7.140625 -8.15625 6.796875 -8.15625 C 6.71875 -8.15625 6.59375 -8.15625 6.59375 -7.9375 C 6.59375 -7.828125 6.703125 -7.8125 6.734375 -7.8125 C 7.09375 -7.796875 7.09375 -7.609375 7.09375 -7.546875 C 7.09375 -7.40625 7 -7.234375 6.765625 -6.953125 L 3.921875 -3.6875 L 2.5625 -7.328125 C 2.5 -7.5 2.5 -7.515625 2.5 -7.546875 C 2.5 -7.796875 2.984375 -7.8125 3.125 -7.8125 C 3.28125 -7.8125 3.40625 -7.8125 3.40625 -8.03125 C 3.40625 -8.15625 3.296875 -8.15625 3.234375 -8.15625 C 3.03125 -8.15625 2.78125 -8.140625 2.578125 -8.140625 L 1.25 -8.140625 C 1.046875 -8.140625 0.8125 -8.15625 0.609375 -8.15625 C 0.53125 -8.15625 0.390625 -8.15625 0.390625 -7.9375 C 0.390625 -7.8125 0.5 -7.8125 0.6875 -7.8125 C 1.265625 -7.8125 1.375 -7.703125 1.484375 -7.4375 L 2.96875 -3.453125 C 2.96875 -3.421875 3.015625 -3.28125 3.015625 -3.25 C 3.015625 -3.21875 2.421875 -0.859375 2.390625 -0.734375 C 2.296875 -0.421875 2.171875 -0.359375 1.40625 -0.34375 C 1.203125 -0.34375 1.109375 -0.34375 1.109375 -0.125 C 1.109375 0 1.25 0 1.28125 0 C 1.5 0 1.75 -0.03125 1.96875 -0.03125 L 3.375 -0.03125 C 3.59375 -0.03125 3.84375 0 4.0625 0 C 4.140625 0 4.296875 0 4.296875 -0.21875 C 4.296875 -0.34375 4.203125 -0.34375 4 -0.34375 C 3.265625 -0.34375 3.265625 -0.4375 3.265625 -0.5625 C 3.265625 -0.640625 3.359375 -1.03125 3.421875 -1.265625 L 3.84375 -2.984375 C 3.921875 -3.234375 3.921875 -3.265625 4.03125 -3.375 Z M 7.03125 -6.84375 "/>
</g>
</g>
</defs>
<g fill="rgb(0%, 0%, 0%)" fill-opacity="1">
<use xlink:href="#glyph-0-1" x="0.5" y="8.669"/>
</g>
</svg>
