<?xml version="1.0" encoding="UTF-8"?>
<svg xmlns="http://www.w3.org/2000/svg" xmlns:xlink="http://www.w3.org/1999/xlink" width="357.767" height="15.446" viewBox="0 0 357.767 15.446">
<defs>
<g>
<g id="glyph-0-0">
</g>
<g id="glyph-0-1">
<path d="M 3.921875 -8.515625 C 3.984375 -8.640625 3.984375 -8.671875 3.984375 -8.71875 C 3.984375 -8.859375 3.875 -8.96875 3.734375 -8.96875 C 3.640625 -8.96875 3.546875 -8.90625 3.46875 -8.6875 L 1.375 -3.203125 C 1.34375 -3.125 1.3125 -3.0625 1.3125 -2.984375 C 1.3125 -2.953125 1.3125 -2.921875 1.375 -2.78125 L 3.46875 2.703125 C 3.515625 2.828125 3.578125 2.984375 3.734375 2.984375 C 3.875 2.984375 3.984375 2.875 3.984375 2.75 C 3.984375 2.71875 3.984375 2.6875 3.921875 2.5625 L 1.8125 -2.984375 Z M 3.921875 -8.515625 "/>
</g>
<g id="glyph-0-2">
<path d="M 1.90625 -8.53125 C 1.90625 -8.75 1.90625 -8.96875 1.65625 -8.96875 C 1.421875 -8.96875 1.421875 -8.75 1.421875 -8.53125 L 1.421875 2.5625 C 1.421875 2.765625 1.421875 2.984375 1.65625 2.984375 C 1.90625 2.984375 1.90625 2.765625 1.90625 2.5625 Z M 1.90625 -8.53125 "/>
</g>
<g id="glyph-0-3">
<path d="M 3.265625 -2.78125 C 3.328125 -2.921875 3.328125 -2.953125 3.328125 -2.984375 C 3.328125 -3.03125 3.328125 -3.046875 3.265625 -3.1875 L 1.171875 -8.6875 C 1.09375 -8.890625 1.03125 -8.96875 0.890625 -8.96875 C 0.765625 -8.96875 0.65625 -8.859375 0.65625 -8.71875 C 0.65625 -8.6875 0.65625 -8.671875 0.71875 -8.53125 L 2.828125 -2.984375 L 0.71875 2.53125 C 0.65625 2.671875 0.65625 2.6875 0.65625 2.75 C 0.65625 2.875 0.765625 2.984375 0.890625 2.984375 C 1.046875 2.984375 1.09375 2.875 1.140625 2.75 Z M 3.265625 -2.78125 "/>
</g>
<g id="glyph-0-4">
<path d="M 5.3125 -2.984375 C 5.3125 -4.265625 4.25 -5.3125 2.984375 -5.3125 C 1.703125 -5.3125 0.65625 -4.25 0.65625 -2.984375 C 0.65625 -1.71875 1.703125 -0.671875 2.984375 -0.671875 C 4.25 -0.671875 5.3125 -1.703125 5.3125 -2.984375 Z M 2.984375 -1.140625 C 1.953125 -1.140625 1.140625 -1.984375 1.140625 -2.984375 C 1.140625 -4 1.953125 -4.828125 2.984375 -4.828125 C 3.984375 -4.828125 4.828125 -4.015625 4.828125 -2.984375 C 4.828125 -1.953125 3.984375 -1.140625 2.984375 -1.140625 Z M 2.984375 -1.140625 "/>
</g>
<g id="glyph-0-5">
<path d="M 2.296875 -2.984375 C 2.296875 -3.328125 2.015625 -3.625 1.65625 -3.625 C 1.3125 -3.625 1.03125 -3.328125 1.03125 -2.984375 C 1.03125 -2.640625 1.3125 -2.359375 1.65625 -2.359375 C 2.015625 -2.359375 2.296875 -2.640625 2.296875 -2.984375 Z M 2.296875 -2.984375 "/>
</g>
<g id="glyph-1-0">
</g>
<g id="glyph-1-1">
<path d="M 1.515625 -0.96875 C 2.03125 -1.546875 2.453125 -1.921875 3.046875 -2.46875 C 3.765625 -3.078125 4.078125 -3.375 4.25 -3.5625 C 5.078125 -4.390625 5.5 -5.078125 5.5 -5.171875 C 5.5 -5.265625 5.40625 -5.265625 5.375 -5.265625 C 5.296875 -5.265625 5.265625 -5.21875 5.21875 -5.140625 C 4.90625 -4.625 4.625 -4.375 4.3125 -4.375 C 4.0625 -4.375 3.9375 -4.484375 3.703125 -4.765625 C 3.453125 -5.0625 3.25 -5.265625 2.90625 -5.265625 C 2.03125 -5.265625 1.5 -4.1875 1.5 -3.9375 C 1.5 -3.890625 1.515625 -3.828125 1.625 -3.828125 C 1.71875 -3.828125 1.734375 -3.875 1.765625 -3.953125 C 1.96875 -4.4375 2.546875 -4.515625 2.765625 -4.515625 C 3.03125 -4.515625 3.265625 -4.4375 3.515625 -4.328125 C 3.96875 -4.140625 4.15625 -4.140625 4.28125 -4.140625 C 4.359375 -4.140625 4.40625 -4.140625 4.46875 -4.140625 C 4.078125 -3.6875 3.4375 -3.109375 2.890625 -2.625 L 1.6875 -1.5 C 0.953125 -0.765625 0.515625 -0.0625 0.515625 0.03125 C 0.515625 0.09375 0.578125 0.125 0.640625 0.125 C 0.71875 0.125 0.734375 0.109375 0.8125 -0.03125 C 1 -0.328125 1.390625 -0.78125 1.828125 -0.78125 C 2.078125 -0.78125 2.203125 -0.6875 2.4375 -0.390625 C 2.671875 -0.125 2.875 0.125 3.25 0.125 C 4.421875 0.125 5.09375 -1.40625 5.09375 -1.671875 C 5.09375 -1.71875 5.078125 -1.796875 4.953125 -1.796875 C 4.859375 -1.796875 4.859375 -1.75 4.8125 -1.625 C 4.546875 -0.921875 3.84375 -0.640625 3.375 -0.640625 C 3.125 -0.640625 2.890625 -0.71875 2.640625 -0.828125 C 2.15625 -1.015625 2.03125 -1.015625 1.875 -1.015625 C 1.75 -1.015625 1.625 -1.015625 1.515625 -0.96875 Z M 1.515625 -0.96875 "/>
</g>
<g id="glyph-1-2">
<path d="M 2.03125 -1.328125 C 1.609375 -0.625 1.203125 -0.375 0.640625 -0.34375 C 0.5 -0.328125 0.40625 -0.328125 0.40625 -0.125 C 0.40625 -0.046875 0.46875 0 0.546875 0 C 0.765625 0 1.296875 -0.03125 1.515625 -0.03125 C 1.859375 -0.03125 2.25 0 2.578125 0 C 2.65625 0 2.796875 0 2.796875 -0.234375 C 2.796875 -0.328125 2.703125 -0.34375 2.625 -0.34375 C 2.359375 -0.375 2.125 -0.46875 2.125 -0.75 C 2.125 -0.921875 2.203125 -1.046875 2.359375 -1.3125 L 3.265625 -2.828125 L 6.3125 -2.828125 C 6.328125 -2.71875 6.328125 -2.625 6.328125 -2.515625 C 6.375 -2.203125 6.515625 -0.953125 6.515625 -0.734375 C 6.515625 -0.375 5.90625 -0.34375 5.71875 -0.34375 C 5.578125 -0.34375 5.453125 -0.34375 5.453125 -0.125 C 5.453125 0 5.5625 0 5.625 0 C 5.828125 0 6.078125 -0.03125 6.28125 -0.03125 L 6.953125 -0.03125 C 7.6875 -0.03125 8.21875 0 8.21875 0 C 8.3125 0 8.4375 0 8.4375 -0.234375 C 8.4375 -0.34375 8.328125 -0.34375 8.15625 -0.34375 C 7.5 -0.34375 7.484375 -0.453125 7.453125 -0.8125 L 6.71875 -8.265625 C 6.6875 -8.515625 6.640625 -8.53125 6.515625 -8.53125 C 6.390625 -8.53125 6.328125 -8.515625 6.21875 -8.328125 Z M 3.46875 -3.171875 L 5.875 -7.1875 L 6.28125 -3.171875 Z M 3.46875 -3.171875 "/>
</g>
<g id="glyph-1-3">
<path d="M 5.46875 -4.46875 C 5.46875 -5.21875 5.078125 -5.265625 4.984375 -5.265625 C 4.703125 -5.265625 4.4375 -4.984375 4.4375 -4.75 C 4.4375 -4.609375 4.515625 -4.515625 4.5625 -4.46875 C 4.6875 -4.359375 5 -4.046875 5 -3.421875 C 5 -2.921875 4.28125 -0.125 2.84375 -0.125 C 2.109375 -0.125 1.96875 -0.734375 1.96875 -1.171875 C 1.96875 -1.765625 2.25 -2.609375 2.5625 -3.46875 C 2.765625 -3.953125 2.8125 -4.078125 2.8125 -4.3125 C 2.8125 -4.8125 2.453125 -5.265625 1.859375 -5.265625 C 0.765625 -5.265625 0.328125 -3.53125 0.328125 -3.4375 C 0.328125 -3.390625 0.375 -3.328125 0.453125 -3.328125 C 0.5625 -3.328125 0.578125 -3.375 0.625 -3.546875 C 0.90625 -4.578125 1.375 -5.03125 1.828125 -5.03125 C 1.9375 -5.03125 2.140625 -5.03125 2.140625 -4.640625 C 2.140625 -4.328125 2.015625 -3.984375 1.828125 -3.53125 C 1.25 -2 1.25 -1.625 1.25 -1.34375 C 1.25 -1.078125 1.296875 -0.578125 1.65625 -0.25 C 2.09375 0.125 2.6875 0.125 2.796875 0.125 C 4.78125 0.125 5.46875 -3.796875 5.46875 -4.46875 Z M 5.46875 -4.46875 "/>
</g>
<g id="glyph-1-4">
<path d="M 3.6875 -7.453125 C 3.390625 -8.296875 2.453125 -8.296875 2.296875 -8.296875 C 2.21875 -8.296875 2.09375 -8.296875 2.09375 -8.171875 C 2.09375 -8.078125 2.15625 -8.0625 2.21875 -8.0625 C 2.40625 -8.03125 2.546875 -8.015625 2.734375 -7.65625 C 2.859375 -7.4375 4.09375 -3.859375 4.09375 -3.84375 C 4.09375 -3.828125 4.078125 -3.8125 3.984375 -3.71875 L 0.875 -0.578125 C 0.734375 -0.4375 0.640625 -0.328125 0.640625 -0.171875 C 0.640625 -0.015625 0.78125 0.125 0.96875 0.125 C 1.015625 0.125 1.140625 0.109375 1.21875 0.03125 C 1.40625 -0.140625 3.125 -2.234375 4.203125 -3.53125 C 4.515625 -2.59375 4.90625 -1.5 5.265625 -0.484375 C 5.328125 -0.3125 5.390625 -0.140625 5.5625 0.015625 C 5.671875 0.125 5.703125 0.125 6.03125 0.125 L 6.265625 0.125 C 6.3125 0.125 6.390625 0.125 6.390625 0.03125 C 6.390625 -0.03125 6.390625 -0.03125 6.328125 -0.078125 C 6.234375 -0.21875 6.140625 -0.4375 6.09375 -0.578125 Z M 3.6875 -7.453125 "/>
</g>
<g id="glyph-2-0">
</g>
<g id="glyph-2-1">
<path d="M 2.375 -4.96875 C 2.375 -5.140625 2.25 -5.28125 2.0625 -5.28125 C 1.859375 -5.28125 1.625 -5.078125 1.625 -4.84375 C 1.625 -4.671875 1.75 -4.546875 1.9375 -4.546875 C 2.140625 -4.546875 2.375 -4.734375 2.375 -4.96875 Z M 1.21875 -2.046875 L 0.78125 -0.953125 C 0.734375 -0.828125 0.703125 -0.734375 0.703125 -0.59375 C 0.703125 -0.203125 1 0.078125 1.421875 0.078125 C 2.203125 0.078125 2.53125 -1.03125 2.53125 -1.140625 C 2.53125 -1.21875 2.46875 -1.25 2.40625 -1.25 C 2.3125 -1.25 2.296875 -1.1875 2.265625 -1.109375 C 2.09375 -0.46875 1.765625 -0.140625 1.4375 -0.140625 C 1.34375 -0.140625 1.25 -0.1875 1.25 -0.390625 C 1.25 -0.59375 1.3125 -0.734375 1.40625 -0.984375 C 1.484375 -1.1875 1.5625 -1.40625 1.65625 -1.625 L 1.90625 -2.265625 C 1.96875 -2.453125 2.078125 -2.703125 2.078125 -2.84375 C 2.078125 -3.234375 1.75 -3.515625 1.34375 -3.515625 C 0.578125 -3.515625 0.234375 -2.40625 0.234375 -2.296875 C 0.234375 -2.21875 0.296875 -2.1875 0.359375 -2.1875 C 0.46875 -2.1875 0.46875 -2.234375 0.5 -2.3125 C 0.71875 -3.078125 1.078125 -3.296875 1.328125 -3.296875 C 1.4375 -3.296875 1.515625 -3.25 1.515625 -3.03125 C 1.515625 -2.953125 1.5 -2.84375 1.421875 -2.59375 Z M 1.21875 -2.046875 "/>
</g>
<g id="glyph-2-2">
<path d="M 3.296875 -4.96875 C 3.296875 -5.125 3.171875 -5.28125 2.984375 -5.28125 C 2.734375 -5.28125 2.53125 -5.046875 2.53125 -4.84375 C 2.53125 -4.6875 2.65625 -4.546875 2.84375 -4.546875 C 3.078125 -4.546875 3.296875 -4.765625 3.296875 -4.96875 Z M 1.625 0.390625 C 1.5 0.890625 1.109375 1.40625 0.625 1.40625 C 0.5 1.40625 0.375 1.375 0.359375 1.359375 C 0.609375 1.25 0.640625 1.03125 0.640625 0.953125 C 0.640625 0.765625 0.5 0.65625 0.328125 0.65625 C 0.109375 0.65625 -0.109375 0.859375 -0.109375 1.125 C -0.109375 1.421875 0.1875 1.625 0.640625 1.625 C 1.125 1.625 2 1.328125 2.234375 0.359375 L 2.953125 -2.484375 C 2.984375 -2.578125 3 -2.640625 3 -2.765625 C 3 -3.203125 2.640625 -3.515625 2.1875 -3.515625 C 1.34375 -3.515625 0.84375 -2.40625 0.84375 -2.296875 C 0.84375 -2.21875 0.90625 -2.1875 0.96875 -2.1875 C 1.046875 -2.1875 1.0625 -2.21875 1.109375 -2.328125 C 1.359375 -2.890625 1.765625 -3.296875 2.15625 -3.296875 C 2.328125 -3.296875 2.421875 -3.171875 2.421875 -2.921875 C 2.421875 -2.8125 2.40625 -2.6875 2.375 -2.578125 Z M 1.625 0.390625 "/>
</g>
<g id="glyph-2-3">
<path d="M 3.9375 -2.28125 C 4.0625 -2.328125 4.09375 -2.34375 4.09375 -2.421875 C 4.09375 -2.46875 4.046875 -2.53125 3.984375 -2.53125 C 3.96875 -2.53125 3.75 -2.484375 3.640625 -2.46875 L 2.421875 -2.21875 L 2.234375 -3.6875 C 2.21875 -3.8125 2.203125 -3.890625 2.109375 -3.890625 C 2.015625 -3.890625 2.015625 -3.828125 1.984375 -3.6875 L 1.8125 -2.21875 L 0.34375 -2.515625 L 0.234375 -2.53125 C 0.171875 -2.53125 0.125 -2.46875 0.125 -2.421875 C 0.125 -2.34375 0.1875 -2.3125 0.265625 -2.28125 L 1.640625 -1.65625 L 1 -0.53125 C 0.953125 -0.4375 0.84375 -0.234375 0.84375 -0.21875 C 0.84375 -0.171875 0.875 -0.109375 0.953125 -0.109375 C 0.96875 -0.109375 1 -0.109375 1.046875 -0.140625 C 1.109375 -0.203125 1.265625 -0.375 1.328125 -0.453125 L 2.109375 -1.296875 L 2.984375 -0.359375 C 3.015625 -0.3125 3.109375 -0.21875 3.140625 -0.1875 C 3.234375 -0.109375 3.234375 -0.109375 3.265625 -0.109375 C 3.34375 -0.109375 3.375 -0.171875 3.375 -0.21875 C 3.375 -0.265625 2.6875 -1.484375 2.59375 -1.65625 Z M 3.9375 -2.28125 "/>
</g>
<g id="glyph-3-0">
</g>
<g id="glyph-3-1">
<path d="M 8.0625 -3.875 C 8.234375 -3.875 8.453125 -3.875 8.453125 -4.09375 C 8.453125 -4.3125 8.25 -4.3125 8.0625 -4.3125 L 1.03125 -4.3125 C 0.859375 -4.3125 0.640625 -4.3125 0.640625 -4.09375 C 0.640625 -3.875 0.84375 -3.875 1.03125 -3.875 Z M 8.0625 -1.65625 C 8.234375 -1.65625 8.453125 -1.65625 8.453125 -1.859375 C 8.453125 -2.09375 8.25 -2.09375 8.0625 -2.09375 L 1.03125 -2.09375 C 0.859375 -2.09375 0.640625 -2.09375 0.640625 -1.875 C 0.640625 -1.65625 0.84375 -1.65625 1.03125 -1.65625 Z M 8.0625 -1.65625 "/>
</g>
<g id="glyph-3-2">
<path d="M 3.890625 2.90625 C 3.890625 2.875 3.890625 2.84375 3.6875 2.640625 C 2.484375 1.4375 1.8125 -0.53125 1.8125 -2.96875 C 1.8125 -5.296875 2.375 -7.296875 3.765625 -8.703125 C 3.890625 -8.8125 3.890625 -8.828125 3.890625 -8.875 C 3.890625 -8.9375 3.828125 -8.96875 3.78125 -8.96875 C 3.625 -8.96875 2.640625 -8.109375 2.0625 -6.9375 C 1.453125 -5.71875 1.171875 -4.453125 1.171875 -2.96875 C 1.171875 -1.90625 1.34375 -0.484375 1.953125 0.78125 C 2.671875 2.21875 3.640625 3 3.78125 3 C 3.828125 3 3.890625 2.96875 3.890625 2.90625 Z M 3.890625 2.90625 "/>
</g>
<g id="glyph-3-3">
<path d="M 3.375 -2.96875 C 3.375 -3.890625 3.25 -5.359375 2.578125 -6.75 C 1.875 -8.1875 0.890625 -8.96875 0.765625 -8.96875 C 0.71875 -8.96875 0.65625 -8.9375 0.65625 -8.875 C 0.65625 -8.828125 0.65625 -8.8125 0.859375 -8.609375 C 2.0625 -7.40625 2.71875 -5.421875 2.71875 -2.984375 C 2.71875 -0.671875 2.15625 1.328125 0.78125 2.734375 C 0.65625 2.84375 0.65625 2.875 0.65625 2.90625 C 0.65625 2.96875 0.71875 3 0.765625 3 C 0.921875 3 1.90625 2.140625 2.484375 0.96875 C 3.09375 -0.25 3.375 -1.546875 3.375 -2.96875 Z M 3.375 -2.96875 "/>
</g>
<g id="glyph-4-0">
</g>
<g id="glyph-4-1">
<path d="M 3.390625 -5.3125 C 1.28125 -4.8125 0.546875 -2.984375 0.546875 -1.9375 C 0.546875 -0.484375 1.703125 0.140625 2.96875 0.140625 C 4.546875 0.140625 5.6875 -1.75 5.6875 -3.6875 C 5.6875 -4.75 5.265625 -5.265625 4.765625 -5.734375 C 4.25 -6.234375 3.1875 -7.21875 3.1875 -7.640625 C 3.1875 -7.703125 3.3125 -8.015625 3.75 -8.015625 C 4.140625 -8.015625 4.4375 -7.8125 4.640625 -7.65625 C 4.859375 -7.484375 5.234375 -7.203125 5.5 -7.203125 C 5.859375 -7.203125 6.125 -7.546875 6.125 -7.859375 C 6.125 -8.203125 5.9375 -8.25 5.296875 -8.375 C 5.03125 -8.4375 4.34375 -8.578125 4.03125 -8.578125 C 3.375 -8.578125 2.671875 -8.125 2.671875 -7.265625 C 2.671875 -6.59375 3.125 -5.796875 3.390625 -5.3125 Z M 3.65625 -4.859375 C 3.953125 -4.40625 4.328125 -3.734375 4.328125 -2.890625 C 4.328125 -2.359375 4 -0.28125 3.015625 -0.28125 C 2.875 -0.28125 2.421875 -0.3125 2.09375 -0.609375 C 1.796875 -0.890625 1.796875 -1.34375 1.796875 -1.5 C 1.796875 -2.109375 2.125 -3.28125 2.34375 -3.71875 C 2.515625 -4.03125 2.875 -4.609375 3.65625 -4.859375 Z M 3.65625 -4.859375 "/>
</g>
</g>
</defs>
<g fill="rgb(0%, 0%, 0%)" fill-opacity="1">
<use xlink:href="#glyph-0-1" x="8.302" y="10.612"/>
</g>
<g fill="rgb(0%, 0%, 0%)" fill-opacity="1">
<use xlink:href="#glyph-1-1" x="12.951" y="10.612"/>
</g>
<g fill="rgb(0%, 0%, 0%)" fill-opacity="1">
<use xlink:href="#glyph-2-1" x="18.389" y="12.405"/>
</g>
<g fill="rgb(0%, 0%, 0%)" fill-opacity="1">
<use xlink:href="#glyph-0-2" x="23.763" y="10.612"/>
</g>
<g fill="rgb(0%, 0%, 0%)" fill-opacity="1">
<use xlink:href="#glyph-1-1" x="30.272" y="10.612"/>
</g>
<g fill="rgb(0%, 0%, 0%)" fill-opacity="1">
<use xlink:href="#glyph-2-2" x="35.71" y="12.405"/>
</g>
<g fill="rgb(0%, 0%, 0%)" fill-opacity="1">
<use xlink:href="#glyph-0-3" x="40.092" y="10.612"/>
</g>
<g fill="rgb(0%, 0%, 0%)" fill-opacity="1">
<use xlink:href="#glyph-3-1" x="48.062" y="10.612"/>
</g>
<g fill="rgb(0%, 0%, 0%)" fill-opacity="1">
<use xlink:href="#glyph-0-1" x="60.488" y="10.612"/>
</g>
<g fill="rgb(0%, 0%, 0%)" fill-opacity="1">
<use xlink:href="#glyph-1-2" x="65.137" y="10.612"/>
</g>
<g fill="rgb(0%, 0%, 0%)" fill-opacity="1">
<use xlink:href="#glyph-3-2" x="73.912" y="10.612"/>
</g>
<g fill="rgb(0%, 0%, 0%)" fill-opacity="1">
<use xlink:href="#glyph-1-3" x="78.464" y="10.612"/>
</g>
<g fill="rgb(0%, 0%, 0%)" fill-opacity="1">
<use xlink:href="#glyph-2-1" x="84.124" y="12.405"/>
</g>
<g fill="rgb(0%, 0%, 0%)" fill-opacity="1">
<use xlink:href="#glyph-3-3" x="87.505" y="10.612"/>
</g>
<g fill="rgb(0%, 0%, 0%)" fill-opacity="1">
<use xlink:href="#glyph-0-2" x="94.05" y="10.612"/>
</g>
<g fill="rgb(0%, 0%, 0%)" fill-opacity="1">
<use xlink:href="#glyph-1-2" x="100.559" y="10.612"/>
</g>
<g fill="rgb(0%, 0%, 0%)" fill-opacity="1">
<use xlink:href="#glyph-3-2" x="109.334" y="10.612"/>
</g>
<g fill="rgb(0%, 0%, 0%)" fill-opacity="1">
<use xlink:href="#glyph-1-3" x="113.886" y="10.612"/>
</g>
<g fill="rgb(0%, 0%, 0%)" fill-opacity="1">
<use xlink:href="#glyph-2-2" x="119.546" y="12.405"/>
</g>
<g fill="rgb(0%, 0%, 0%)" fill-opacity="1">
<use xlink:href="#glyph-3-3" x="123.928" y="10.612"/>
</g>
<g fill="rgb(0%, 0%, 0%)" fill-opacity="1">
<use xlink:href="#glyph-0-3" x="128.48" y="10.612"/>
</g>
<g fill="rgb(0%, 0%, 0%)" fill-opacity="1">
<use xlink:href="#glyph-3-1" x="136.45" y="10.612"/>
</g>
<g fill="rgb(0%, 0%, 0%)" fill-opacity="1">
<use xlink:href="#glyph-0-1" x="148.876" y="10.612"/>
</g>
<g fill="rgb(0%, 0%, 0%)" fill-opacity="1">
<use xlink:href="#glyph-1-3" x="153.525" y="10.612"/>
</g>
<g fill="rgb(0%, 0%, 0%)" fill-opacity="1">
<use xlink:href="#glyph-2-1" x="159.184" y="12.405"/>
</g>
<g fill="rgb(0%, 0%, 0%)" fill-opacity="1">
<use xlink:href="#glyph-0-2" x="164.558" y="10.612"/>
</g>
<g fill="rgb(0%, 0%, 0%)" fill-opacity="1">
<use xlink:href="#glyph-1-2" x="171.067" y="10.612"/>
</g>
<g fill="rgb(0%, 0%, 0%)" fill-opacity="1">
<use xlink:href="#glyph-2-3" x="179.842" y="5.676"/>
</g>
<g fill="rgb(0%, 0%, 0%)" fill-opacity="1">
<use xlink:href="#glyph-0-4" x="187.231" y="10.612"/>
</g>
<g fill="rgb(0%, 0%, 0%)" fill-opacity="1">
<use xlink:href="#glyph-1-2" x="195.865" y="10.612"/>
</g>
<g fill="rgb(0%, 0%, 0%)" fill-opacity="1">
<use xlink:href="#glyph-3-2" x="204.641" y="10.612"/>
</g>
<g fill="rgb(0%, 0%, 0%)" fill-opacity="1">
<use xlink:href="#glyph-1-3" x="209.193" y="10.612"/>
</g>
<g fill="rgb(0%, 0%, 0%)" fill-opacity="1">
<use xlink:href="#glyph-2-2" x="214.852" y="12.405"/>
</g>
<g fill="rgb(0%, 0%, 0%)" fill-opacity="1">
<use xlink:href="#glyph-3-3" x="219.234" y="10.612"/>
</g>
<g fill="rgb(0%, 0%, 0%)" fill-opacity="1">
<use xlink:href="#glyph-0-3" x="223.787" y="10.612"/>
</g>
<g fill="rgb(0%, 0%, 0%)" fill-opacity="1">
<use xlink:href="#glyph-3-1" x="231.757" y="10.612"/>
</g>
<g fill="rgb(0%, 0%, 0%)" fill-opacity="1">
<use xlink:href="#glyph-1-4" x="244.182" y="10.612"/>
</g>
<g fill="rgb(0%, 0%, 0%)" fill-opacity="1">
<use xlink:href="#glyph-2-2" x="251.011" y="12.405"/>
</g>
<g fill="rgb(0%, 0%, 0%)" fill-opacity="1">
<use xlink:href="#glyph-0-5" x="258.05" y="10.612"/>
</g>
<g fill="rgb(0%, 0%, 0%)" fill-opacity="1">
<use xlink:href="#glyph-0-1" x="264.025209" y="10.612"/>
</g>
<g fill="rgb(0%, 0%, 0%)" fill-opacity="1">
<use xlink:href="#glyph-1-3" x="268.676" y="10.612"/>
</g>
<g fill="rgb(0%, 0%, 0%)" fill-opacity="1">
<use xlink:href="#glyph-2-1" x="274.336" y="12.405"/>
</g>
<g fill="rgb(0%, 0%, 0%)" fill-opacity="1">
<use xlink:href="#glyph-0-2" x="279.71" y="10.612"/>
</g>
<g fill="rgb(0%, 0%, 0%)" fill-opacity="1">
<use xlink:href="#glyph-1-3" x="286.218" y="10.612"/>
</g>
<g fill="rgb(0%, 0%, 0%)" fill-opacity="1">
<use xlink:href="#glyph-2-2" x="291.878" y="12.405"/>
</g>
<g fill="rgb(0%, 0%, 0%)" fill-opacity="1">
<use xlink:href="#glyph-0-3" x="296.26" y="10.612"/>
</g>
<g fill="rgb(0%, 0%, 0%)" fill-opacity="1">
<use xlink:href="#glyph-3-1" x="304.23" y="10.612"/>
</g>
<g fill="rgb(0%, 0%, 0%)" fill-opacity="1">
<use xlink:href="#glyph-1-4" x="316.655" y="10.612"/>
</g>
<g fill="rgb(0%, 0%, 0%)" fill-opacity="1">
<use xlink:href="#glyph-2-1" x="323.484" y="12.405"/>
</g>
<g fill="rgb(0%, 0%, 0%)" fill-opacity="1">
<use xlink:href="#glyph-0-5" x="329.522" y="10.612"/>
</g>
<g fill="rgb(0%, 0%, 0%)" fill-opacity="1">
<use xlink:href="#glyph-4-1" x="335.499" y="10.612"/>
</g>
<g fill="rgb(0%, 0%, 0%)" fill-opacity="1">
<use xlink:href="#glyph-2-1" x="342.199" y="12.405"/>
<use xlink:href="#glyph-2-2" x="345.081785" y="12.405"/>
</g>
</svg>
