<?xml version="1.0" encoding="UTF-8"?>
<svg xmlns="http://www.w3.org/2000/svg" xmlns:xlink="http://www.w3.org/1999/xlink" viewBox="0 0 156.61 35.603">
<defs>
<g>
<g id="glyph-0-0">
</g>
<g id="glyph-0-1">
<path d="M 2.03125 -1.328125 C 1.609375 -0.625 1.203125 -0.375 0.640625 -0.34375 C 0.5 -0.328125 0.40625 -0.328125 0.40625 -0.125 C 0.40625 -0.046875 0.46875 0 0.546875 0 C 0.765625 0 1.296875 -0.03125 1.515625 -0.03125 C 1.859375 -0.03125 2.25 0 2.578125 0 C 2.65625 0 2.796875 0 2.796875 -0.234375 C 2.796875 -0.328125 2.703125 -0.34375 2.625 -0.34375 C 2.359375 -0.375 2.125 -0.46875 2.125 -0.75 C 2.125 -0.921875 2.203125 -1.046875 2.359375 -1.3125 L 3.265625 -2.828125 L 6.3125 -2.828125 C 6.328125 -2.71875 6.328125 -2.625 6.328125 -2.515625 C 6.375 -2.203125 6.515625 -0.953125 6.515625 -0.734375 C 6.515625 -0.375 5.90625 -0.34375 5.71875 -0.34375 C 5.578125 -0.34375 5.453125 -0.34375 5.453125 -0.125 C 5.453125 0 5.5625 0 5.625 0 C 5.828125 0 6.078125 -0.03125 6.28125 -0.03125 L 6.953125 -0.03125 C 7.6875 -0.03125 8.21875 0 8.21875 0 C 8.3125 0 8.4375 0 8.4375 -0.234375 C 8.4375 -0.34375 8.328125 -0.34375 8.15625 -0.34375 C 7.5 -0.34375 7.484375 -0.453125 7.453125 -0.8125 L 6.71875 -8.265625 C 6.6875 -8.515625 6.640625 -8.53125 6.515625 -8.53125 C 6.390625 -8.53125 6.328125 -8.515625 6.21875 -8.328125 Z M 3.46875 -3.171875 L 5.875 -7.1875 L 6.28125 -3.171875 Z M 3.46875 -3.171875 "/>
</g>
<g id="glyph-0-2">
<path d="M 2.765625 -8 C 2.765625 -8.046875 2.796875 -8.109375 2.796875 -8.171875 C 2.796875 -8.296875 2.671875 -8.296875 2.65625 -8.296875 C 2.640625 -8.296875 2.21875 -8.265625 2 -8.234375 C 1.796875 -8.21875 1.609375 -8.203125 1.40625 -8.1875 C 1.109375 -8.15625 1.03125 -8.15625 1.03125 -7.9375 C 1.03125 -7.8125 1.140625 -7.8125 1.265625 -7.8125 C 1.875 -7.8125 1.875 -7.703125 1.875 -7.59375 C 1.875 -7.5 1.78125 -7.15625 1.734375 -6.9375 L 1.453125 -5.796875 C 1.328125 -5.3125 0.640625 -2.609375 0.59375 -2.390625 C 0.53125 -2.09375 0.53125 -1.890625 0.53125 -1.734375 C 0.53125 -0.515625 1.21875 0.125 2 0.125 C 3.375 0.125 4.8125 -1.65625 4.8125 -3.390625 C 4.8125 -4.5 4.203125 -5.265625 3.296875 -5.265625 C 2.671875 -5.265625 2.109375 -4.75 1.890625 -4.515625 Z M 2.015625 -0.125 C 1.625 -0.125 1.203125 -0.40625 1.203125 -1.34375 C 1.203125 -1.734375 1.25 -1.953125 1.453125 -2.796875 C 1.5 -2.953125 1.6875 -3.71875 1.734375 -3.875 C 1.75 -3.96875 2.46875 -5.03125 3.28125 -5.03125 C 3.796875 -5.03125 4.046875 -4.5 4.046875 -3.890625 C 4.046875 -3.3125 3.703125 -1.953125 3.40625 -1.34375 C 3.109375 -0.6875 2.5625 -0.125 2.015625 -0.125 Z M 2.015625 -0.125 "/>
</g>
<g id="glyph-0-3">
<path d="M 6.078125 -4.5 C 6.234375 -4.5 6.625 -4.5 6.625 -4.890625 C 6.625 -5.15625 6.390625 -5.15625 6.1875 -5.15625 L 3.53125 -5.15625 C 1.75 -5.15625 0.453125 -3.15625 0.453125 -1.75 C 0.453125 -0.734375 1.109375 0.125 2.1875 0.125 C 3.59375 0.125 5.140625 -1.40625 5.140625 -3.1875 C 5.140625 -3.65625 5.03125 -4.109375 4.75 -4.5 Z M 2.203125 -0.125 C 1.59375 -0.125 1.140625 -0.578125 1.140625 -1.40625 C 1.140625 -2.125 1.578125 -4.5 3.328125 -4.5 C 3.84375 -4.5 4.421875 -4.25 4.421875 -3.328125 C 4.421875 -2.921875 4.234375 -1.90625 3.8125 -1.21875 C 3.375 -0.515625 2.734375 -0.125 2.203125 -0.125 Z M 2.203125 -0.125 "/>
</g>
<g id="glyph-0-4">
<path d="M 5.46875 -4.46875 C 5.46875 -5.21875 5.078125 -5.265625 4.984375 -5.265625 C 4.703125 -5.265625 4.4375 -4.984375 4.4375 -4.75 C 4.4375 -4.609375 4.515625 -4.515625 4.5625 -4.46875 C 4.6875 -4.359375 5 -4.046875 5 -3.421875 C 5 -2.921875 4.28125 -0.125 2.84375 -0.125 C 2.109375 -0.125 1.96875 -0.734375 1.96875 -1.171875 C 1.96875 -1.765625 2.25 -2.609375 2.5625 -3.46875 C 2.765625 -3.953125 2.8125 -4.078125 2.8125 -4.3125 C 2.8125 -4.8125 2.453125 -5.265625 1.859375 -5.265625 C 0.765625 -5.265625 0.328125 -3.53125 0.328125 -3.4375 C 0.328125 -3.390625 0.375 -3.328125 0.453125 -3.328125 C 0.5625 -3.328125 0.578125 -3.375 0.625 -3.546875 C 0.90625 -4.578125 1.375 -5.03125 1.828125 -5.03125 C 1.9375 -5.03125 2.140625 -5.03125 2.140625 -4.640625 C 2.140625 -4.328125 2.015625 -3.984375 1.828125 -3.53125 C 1.25 -2 1.25 -1.625 1.25 -1.34375 C 1.25 -1.078125 1.296875 -0.578125 1.65625 -0.25 C 2.09375 0.125 2.6875 0.125 2.796875 0.125 C 4.78125 0.125 5.46875 -3.796875 5.46875 -4.46875 Z M 5.46875 -4.46875 "/>
</g>
<g id="glyph-0-5">
<path d="M 4.078125 -0.6875 C 4.234375 -0.03125 4.8125 0.125 5.09375 0.125 C 5.46875 0.125 5.765625 -0.125 5.953125 -0.53125 C 6.15625 -0.96875 6.3125 -1.671875 6.3125 -1.703125 C 6.3125 -1.765625 6.265625 -1.8125 6.1875 -1.8125 C 6.078125 -1.8125 6.078125 -1.75 6.03125 -1.578125 C 5.8125 -0.75 5.59375 -0.125 5.109375 -0.125 C 4.75 -0.125 4.75 -0.515625 4.75 -0.671875 C 4.75 -0.9375 4.796875 -1.0625 4.90625 -1.5625 C 5 -1.890625 5.078125 -2.21875 5.15625 -2.546875 L 5.640625 -4.5 C 5.71875 -4.796875 5.71875 -4.8125 5.71875 -4.859375 C 5.71875 -5.03125 5.578125 -5.15625 5.40625 -5.15625 C 5.0625 -5.15625 4.96875 -4.859375 4.90625 -4.546875 C 4.78125 -4.09375 4.140625 -1.515625 4.046875 -1.09375 C 4.046875 -1.09375 3.578125 -0.125 2.703125 -0.125 C 2.078125 -0.125 1.953125 -0.65625 1.953125 -1.09375 C 1.953125 -1.78125 2.296875 -2.734375 2.609375 -3.53125 C 2.75 -3.921875 2.8125 -4.078125 2.8125 -4.3125 C 2.8125 -4.828125 2.4375 -5.265625 1.859375 -5.265625 C 0.765625 -5.265625 0.328125 -3.53125 0.328125 -3.4375 C 0.328125 -3.390625 0.375 -3.328125 0.453125 -3.328125 C 0.5625 -3.328125 0.578125 -3.375 0.625 -3.546875 C 0.90625 -4.578125 1.375 -5.03125 1.828125 -5.03125 C 1.953125 -5.03125 2.140625 -5.015625 2.140625 -4.640625 C 2.140625 -4.328125 2.015625 -3.984375 1.828125 -3.53125 C 1.296875 -2.109375 1.25 -1.65625 1.25 -1.296875 C 1.25 -0.078125 2.15625 0.125 2.65625 0.125 C 3.421875 0.125 3.84375 -0.40625 4.078125 -0.6875 Z M 4.078125 -0.6875 "/>
</g>
<g id="glyph-0-6">
<path d="M 5.671875 -4.875 C 5.28125 -4.8125 5.140625 -4.515625 5.140625 -4.296875 C 5.140625 -4 5.359375 -3.90625 5.53125 -3.90625 C 5.890625 -3.90625 6.140625 -4.21875 6.140625 -4.546875 C 6.140625 -5.046875 5.5625 -5.265625 5.0625 -5.265625 C 4.34375 -5.265625 3.9375 -4.546875 3.828125 -4.328125 C 3.546875 -5.21875 2.8125 -5.265625 2.59375 -5.265625 C 1.375 -5.265625 0.734375 -3.703125 0.734375 -3.4375 C 0.734375 -3.390625 0.78125 -3.328125 0.859375 -3.328125 C 0.953125 -3.328125 0.984375 -3.40625 1 -3.453125 C 1.40625 -4.78125 2.21875 -5.03125 2.5625 -5.03125 C 3.09375 -5.03125 3.203125 -4.53125 3.203125 -4.25 C 3.203125 -3.984375 3.125 -3.703125 2.984375 -3.125 L 2.578125 -1.5 C 2.40625 -0.78125 2.0625 -0.125 1.421875 -0.125 C 1.359375 -0.125 1.0625 -0.125 0.8125 -0.28125 C 1.25 -0.359375 1.34375 -0.71875 1.34375 -0.859375 C 1.34375 -1.09375 1.15625 -1.25 0.9375 -1.25 C 0.640625 -1.25 0.328125 -0.984375 0.328125 -0.609375 C 0.328125 -0.109375 0.890625 0.125 1.40625 0.125 C 1.984375 0.125 2.390625 -0.328125 2.640625 -0.828125 C 2.828125 -0.125 3.4375 0.125 3.875 0.125 C 5.09375 0.125 5.734375 -1.453125 5.734375 -1.703125 C 5.734375 -1.765625 5.6875 -1.8125 5.625 -1.8125 C 5.515625 -1.8125 5.5 -1.75 5.46875 -1.65625 C 5.140625 -0.609375 4.453125 -0.125 3.90625 -0.125 C 3.484375 -0.125 3.265625 -0.4375 3.265625 -0.921875 C 3.265625 -1.1875 3.3125 -1.375 3.5 -2.15625 L 3.921875 -3.796875 C 4.09375 -4.5 4.5 -5.03125 5.0625 -5.03125 C 5.078125 -5.03125 5.421875 -5.03125 5.671875 -4.875 Z M 5.671875 -4.875 "/>
</g>
<g id="glyph-1-0">
</g>
<g id="glyph-1-1">
<path d="M 1.96875 -3.328125 C 2.171875 -3.296875 2.1875 -3.296875 2.53125 -3.203125 C 2.65625 -3.171875 2.828125 -3.125 2.953125 -3.125 C 3.265625 -3.125 3.28125 -3.390625 3.28125 -3.421875 C 3.28125 -3.515625 3.25 -3.734375 2.953125 -3.734375 C 2.765625 -3.734375 2.53125 -3.671875 2.390625 -3.625 C 2.1875 -3.5625 2.140625 -3.546875 1.96875 -3.53125 C 1.984375 -3.765625 2.015625 -4.015625 2.09375 -4.515625 C 2.140625 -4.75 2.171875 -5 2.171875 -5.25 C 2.171875 -5.375 2.140625 -5.609375 1.875 -5.609375 C 1.578125 -5.609375 1.578125 -5.328125 1.578125 -5.25 C 1.578125 -5.234375 1.578125 -4.953125 1.65625 -4.515625 C 1.71875 -4.09375 1.765625 -3.828125 1.78125 -3.53125 C 1.578125 -3.5625 1.5625 -3.5625 1.21875 -3.65625 C 1.09375 -3.6875 0.921875 -3.734375 0.796875 -3.734375 C 0.484375 -3.734375 0.46875 -3.46875 0.46875 -3.4375 C 0.46875 -3.34375 0.515625 -3.125 0.796875 -3.125 C 0.984375 -3.125 1.21875 -3.203125 1.359375 -3.25 C 1.5625 -3.296875 1.625 -3.3125 1.78125 -3.328125 C 1.765625 -3.109375 1.734375 -2.953125 1.6875 -2.734375 C 1.578125 -2.234375 1.578125 -2.15625 1.578125 -1.75 C 1.578125 -0.25 1.71875 1.328125 1.75 1.546875 C 1.765625 1.65625 1.765625 1.71875 1.875 1.71875 C 1.984375 1.71875 1.984375 1.65625 2.015625 1.5625 C 2.046875 1.234375 2.078125 0.71875 2.109375 0.359375 C 2.125 0.03125 2.171875 -0.96875 2.171875 -1.75 C 2.171875 -2.109375 2.171875 -2.234375 2.078125 -2.671875 C 2.078125 -2.6875 1.984375 -3.09375 1.96875 -3.328125 Z M 1.96875 -3.328125 "/>
</g>
<g id="glyph-2-0">
</g>
<g id="glyph-2-1">
<path d="M 2.296875 -2.984375 C 2.296875 -3.328125 2.015625 -3.625 1.65625 -3.625 C 1.3125 -3.625 1.03125 -3.328125 1.03125 -2.984375 C 1.03125 -2.640625 1.3125 -2.359375 1.65625 -2.359375 C 2.015625 -2.359375 2.296875 -2.640625 2.296875 -2.984375 Z M 2.296875 -2.984375 "/>
</g>
<g id="glyph-2-2">
<path d="M 3.921875 -8.515625 C 3.984375 -8.640625 3.984375 -8.671875 3.984375 -8.71875 C 3.984375 -8.859375 3.875 -8.96875 3.734375 -8.96875 C 3.640625 -8.96875 3.546875 -8.90625 3.46875 -8.6875 L 1.375 -3.203125 C 1.34375 -3.125 1.3125 -3.0625 1.3125 -2.984375 C 1.3125 -2.953125 1.3125 -2.921875 1.375 -2.78125 L 3.46875 2.703125 C 3.515625 2.828125 3.578125 2.984375 3.734375 2.984375 C 3.875 2.984375 3.984375 2.875 3.984375 2.75 C 3.984375 2.71875 3.984375 2.6875 3.921875 2.5625 L 1.8125 -2.984375 Z M 3.921875 -8.515625 "/>
</g>
<g id="glyph-2-3">
<path d="M 1.90625 -8.53125 C 1.90625 -8.75 1.90625 -8.96875 1.65625 -8.96875 C 1.421875 -8.96875 1.421875 -8.75 1.421875 -8.53125 L 1.421875 2.5625 C 1.421875 2.765625 1.421875 2.984375 1.65625 2.984375 C 1.90625 2.984375 1.90625 2.765625 1.90625 2.5625 Z M 1.90625 -8.53125 "/>
</g>
<g id="glyph-2-4">
<path d="M 3.265625 -2.78125 C 3.328125 -2.921875 3.328125 -2.953125 3.328125 -2.984375 C 3.328125 -3.03125 3.328125 -3.046875 3.265625 -3.1875 L 1.171875 -8.6875 C 1.09375 -8.890625 1.03125 -8.96875 0.890625 -8.96875 C 0.765625 -8.96875 0.65625 -8.859375 0.65625 -8.71875 C 0.65625 -8.6875 0.65625 -8.671875 0.71875 -8.53125 L 2.828125 -2.984375 L 0.71875 2.53125 C 0.65625 2.671875 0.65625 2.6875 0.65625 2.75 C 0.65625 2.875 0.765625 2.984375 0.890625 2.984375 C 1.046875 2.984375 1.09375 2.875 1.140625 2.75 Z M 3.265625 -2.78125 "/>
</g>
<g id="glyph-3-0">
</g>
<g id="glyph-3-1">
<path d="M 8.0625 -3.875 C 8.234375 -3.875 8.453125 -3.875 8.453125 -4.09375 C 8.453125 -4.3125 8.25 -4.3125 8.0625 -4.3125 L 1.03125 -4.3125 C 0.859375 -4.3125 0.640625 -4.3125 0.640625 -4.09375 C 0.640625 -3.875 0.84375 -3.875 1.03125 -3.875 Z M 8.0625 -1.65625 C 8.234375 -1.65625 8.453125 -1.65625 8.453125 -1.859375 C 8.453125 -2.09375 8.25 -2.09375 8.0625 -2.09375 L 1.03125 -2.09375 C 0.859375 -2.09375 0.640625 -2.09375 0.640625 -1.875 C 0.640625 -1.65625 0.84375 -1.65625 1.03125 -1.65625 Z M 8.0625 -1.65625 "/>
</g>
<g id="glyph-3-2">
<path d="M 3.4375 -7.65625 C 3.4375 -7.9375 3.4375 -7.953125 3.203125 -7.953125 C 2.921875 -7.625 2.3125 -7.1875 1.09375 -7.1875 L 1.09375 -6.84375 C 1.359375 -6.84375 1.953125 -6.84375 2.625 -7.140625 L 2.625 -0.921875 C 2.625 -0.484375 2.578125 -0.34375 1.53125 -0.34375 L 1.15625 -0.34375 L 1.15625 0 C 1.484375 -0.03125 2.640625 -0.03125 3.03125 -0.03125 C 3.4375 -0.03125 4.578125 -0.03125 4.90625 0 L 4.90625 -0.34375 L 4.53125 -0.34375 C 3.484375 -0.34375 3.4375 -0.484375 3.4375 -0.921875 Z M 3.4375 -7.65625 "/>
</g>
<g id="glyph-4-0">
</g>
<g id="glyph-4-1">
<path d="M 1.53125 -1.09375 C 1.625 -1.4375 1.71875 -1.78125 1.796875 -2.140625 C 1.796875 -2.15625 1.859375 -2.375 1.859375 -2.421875 C 1.890625 -2.5 2.09375 -2.828125 2.296875 -3.015625 C 2.546875 -3.25 2.828125 -3.296875 2.96875 -3.296875 C 3.046875 -3.296875 3.203125 -3.28125 3.3125 -3.1875 C 2.96875 -3.109375 2.921875 -2.828125 2.921875 -2.75 C 2.921875 -2.578125 3.046875 -2.453125 3.234375 -2.453125 C 3.4375 -2.453125 3.6875 -2.625 3.6875 -2.953125 C 3.6875 -3.234375 3.4375 -3.515625 2.984375 -3.515625 C 2.4375 -3.515625 2.078125 -3.15625 1.90625 -2.9375 C 1.75 -3.515625 1.203125 -3.515625 1.125 -3.515625 C 0.84375 -3.515625 0.640625 -3.328125 0.515625 -3.078125 C 0.328125 -2.71875 0.234375 -2.3125 0.234375 -2.296875 C 0.234375 -2.21875 0.296875 -2.1875 0.359375 -2.1875 C 0.46875 -2.1875 0.46875 -2.21875 0.53125 -2.4375 C 0.625 -2.828125 0.765625 -3.296875 1.09375 -3.296875 C 1.3125 -3.296875 1.359375 -3.09375 1.359375 -2.921875 C 1.359375 -2.765625 1.3125 -2.625 1.25 -2.359375 C 1.234375 -2.296875 1.109375 -1.828125 1.078125 -1.71875 L 0.78125 -0.515625 C 0.75 -0.390625 0.703125 -0.203125 0.703125 -0.171875 C 0.703125 0.015625 0.859375 0.078125 0.96875 0.078125 C 1.25 0.078125 1.296875 -0.140625 1.359375 -0.421875 Z M 1.53125 -1.09375 "/>
</g>
<g id="glyph-4-2">
<path d="M 2.375 -4.96875 C 2.375 -5.140625 2.25 -5.28125 2.0625 -5.28125 C 1.859375 -5.28125 1.625 -5.078125 1.625 -4.84375 C 1.625 -4.671875 1.75 -4.546875 1.9375 -4.546875 C 2.140625 -4.546875 2.375 -4.734375 2.375 -4.96875 Z M 1.21875 -2.046875 L 0.78125 -0.953125 C 0.734375 -0.828125 0.703125 -0.734375 0.703125 -0.59375 C 0.703125 -0.203125 1 0.078125 1.421875 0.078125 C 2.203125 0.078125 2.53125 -1.03125 2.53125 -1.140625 C 2.53125 -1.21875 2.46875 -1.25 2.40625 -1.25 C 2.3125 -1.25 2.296875 -1.1875 2.265625 -1.109375 C 2.09375 -0.46875 1.765625 -0.140625 1.4375 -0.140625 C 1.34375 -0.140625 1.25 -0.1875 1.25 -0.390625 C 1.25 -0.59375 1.3125 -0.734375 1.40625 -0.984375 C 1.484375 -1.1875 1.5625 -1.40625 1.65625 -1.625 L 1.90625 -2.265625 C 1.96875 -2.453125 2.078125 -2.703125 2.078125 -2.84375 C 2.078125 -3.234375 1.75 -3.515625 1.34375 -3.515625 C 0.578125 -3.515625 0.234375 -2.40625 0.234375 -2.296875 C 0.234375 -2.21875 0.296875 -2.1875 0.359375 -2.1875 C 0.46875 -2.1875 0.46875 -2.234375 0.5 -2.3125 C 0.71875 -3.078125 1.078125 -3.296875 1.328125 -3.296875 C 1.4375 -3.296875 1.515625 -3.25 1.515625 -3.03125 C 1.515625 -2.953125 1.5 -2.84375 1.421875 -2.59375 Z M 1.21875 -2.046875 "/>
</g>
<g id="glyph-5-0">
</g>
<g id="glyph-5-1">
<path d="M 15.125 16.734375 L 16.578125 12.90625 L 16.28125 12.90625 C 15.8125 14.15625 14.546875 14.96875 13.171875 15.328125 C 12.921875 15.390625 11.75 15.6875 9.453125 15.6875 L 2.25 15.6875 L 8.328125 8.5625 C 8.421875 8.46875 8.4375 8.421875 8.4375 8.359375 C 8.4375 8.34375 8.4375 8.3125 8.359375 8.1875 L 2.78125 0.578125 L 9.328125 0.578125 C 10.9375 0.578125 12.03125 0.734375 12.125 0.765625 C 12.78125 0.859375 13.8125 1.0625 14.765625 1.65625 C 15.0625 1.859375 15.875 2.390625 16.28125 3.359375 L 16.578125 3.359375 L 15.125 0 L 1 0 C 0.734375 0 0.71875 0.015625 0.6875 0.078125 C 0.671875 0.125 0.671875 0.34375 0.671875 0.484375 L 7 9.125 L 0.796875 16.390625 C 0.6875 16.53125 0.6875 16.59375 0.6875 16.609375 C 0.6875 16.734375 0.78125 16.734375 1 16.734375 Z M 15.125 16.734375 "/>
</g>
<g id="glyph-6-0">
</g>
<g id="glyph-6-1">
<path d="M 5.828125 -2.65625 C 5.9375 -2.65625 6.109375 -2.65625 6.109375 -2.84375 C 6.109375 -3.015625 5.90625 -3.015625 5.796875 -3.015625 L 0.78125 -3.015625 C 0.65625 -3.015625 0.46875 -3.015625 0.46875 -2.84375 C 0.46875 -2.65625 0.625 -2.65625 0.75 -2.65625 Z M 5.796875 -0.96875 C 5.90625 -0.96875 6.109375 -0.96875 6.109375 -1.140625 C 6.109375 -1.328125 5.9375 -1.328125 5.828125 -1.328125 L 0.75 -1.328125 C 0.625 -1.328125 0.46875 -1.328125 0.46875 -1.140625 C 0.46875 -0.96875 0.65625 -0.96875 0.78125 -0.96875 Z M 5.796875 -0.96875 "/>
</g>
<g id="glyph-6-2">
<path d="M 2.5 -5.078125 C 2.5 -5.296875 2.484375 -5.296875 2.265625 -5.296875 C 1.9375 -4.984375 1.515625 -4.796875 0.765625 -4.796875 L 0.765625 -4.53125 C 0.984375 -4.53125 1.40625 -4.53125 1.875 -4.734375 L 1.875 -0.65625 C 1.875 -0.359375 1.84375 -0.265625 1.09375 -0.265625 L 0.8125 -0.265625 L 0.8125 0 C 1.140625 -0.03125 1.828125 -0.03125 2.1875 -0.03125 C 2.546875 -0.03125 3.234375 -0.03125 3.5625 0 L 3.5625 -0.265625 L 3.28125 -0.265625 C 2.53125 -0.265625 2.5 -0.359375 2.5 -0.65625 Z M 2.5 -5.078125 "/>
</g>
</g>
</defs>
<g fill="rgb(0%, 0%, 0%)" fill-opacity="1">
<use xlink:href="#glyph-0-1" x="0.5" y="20.071"/>
</g>
<g fill="rgb(0%, 0%, 0%)" fill-opacity="1">
<use xlink:href="#glyph-1-1" x="9.275" y="15.134"/>
</g>
<g fill="rgb(0%, 0%, 0%)" fill-opacity="1">
<use xlink:href="#glyph-2-1" x="16.194" y="20.071"/>
</g>
<g fill="rgb(0%, 0%, 0%)" fill-opacity="1">
<use xlink:href="#glyph-0-2" x="22.171" y="20.071"/>
</g>
<g fill="rgb(0%, 0%, 0%)" fill-opacity="1">
<use xlink:href="#glyph-3-1" x="30.469" y="20.071"/>
</g>
<g fill="rgb(0%, 0%, 0%)" fill-opacity="1">
<use xlink:href="#glyph-4-1" x="49.501" y="5.127"/>
</g>
<g fill="rgb(0%, 0%, 0%)" fill-opacity="1">
<use xlink:href="#glyph-5-1" x="42.895" y="8.713"/>
</g>
<g fill="rgb(0%, 0%, 0%)" fill-opacity="1">
<use xlink:href="#glyph-4-2" x="44.677" y="33.908"/>
</g>
<g fill="rgb(0%, 0%, 0%)" fill-opacity="1">
<use xlink:href="#glyph-6-1" x="47.56" y="33.908"/>
<use xlink:href="#glyph-6-2" x="54.146491" y="33.908"/>
</g>
<g fill="rgb(0%, 0%, 0%)" fill-opacity="1">
<use xlink:href="#glyph-3-2" x="65.442" y="11.983"/>
</g>
<path fill="none" stroke-width="0.478" stroke-linecap="butt" stroke-linejoin="miter" stroke="rgb(0%, 0%, 0%)" stroke-opacity="1" stroke-miterlimit="10" d="M 0.0005625 -0.00003125 L 10.035719 -0.00003125 " transform="matrix(1, 0, 0, -1, 63.351, 17.082)"/>
<g fill="rgb(0%, 0%, 0%)" fill-opacity="1">
<use xlink:href="#glyph-0-3" x="63.351" y="28.271"/>
</g>
<g fill="rgb(0%, 0%, 0%)" fill-opacity="1">
<use xlink:href="#glyph-4-2" x="70.005" y="30.065"/>
</g>
<g fill="rgb(0%, 0%, 0%)" fill-opacity="1">
<use xlink:href="#glyph-2-1" x="77.238" y="20.071"/>
</g>
<g fill="rgb(0%, 0%, 0%)" fill-opacity="1">
<use xlink:href="#glyph-0-4" x="83.216" y="20.071"/>
</g>
<g fill="rgb(0%, 0%, 0%)" fill-opacity="1">
<use xlink:href="#glyph-4-2" x="88.875" y="21.864"/>
</g>
<g fill="rgb(0%, 0%, 0%)" fill-opacity="1">
<use xlink:href="#glyph-2-1" x="94.913" y="20.071"/>
</g>
<g fill="rgb(0%, 0%, 0%)" fill-opacity="1">
<use xlink:href="#glyph-2-2" x="100.888209" y="20.071"/>
</g>
<g fill="rgb(0%, 0%, 0%)" fill-opacity="1">
<use xlink:href="#glyph-0-5" x="105.54" y="20.071"/>
</g>
<g fill="rgb(0%, 0%, 0%)" fill-opacity="1">
<use xlink:href="#glyph-4-2" x="112.202" y="21.864"/>
</g>
<g fill="rgb(0%, 0%, 0%)" fill-opacity="1">
<use xlink:href="#glyph-2-3" x="117.576" y="20.071"/>
</g>
<g fill="rgb(0%, 0%, 0%)" fill-opacity="1">
<use xlink:href="#glyph-0-2" x="124.085" y="20.071"/>
</g>
<g fill="rgb(0%, 0%, 0%)" fill-opacity="1">
<use xlink:href="#glyph-2-4" x="129.062" y="20.071"/>
</g>
<g fill="rgb(0%, 0%, 0%)" fill-opacity="1">
<use xlink:href="#glyph-3-1" x="137.032" y="20.071"/>
</g>
<g fill="rgb(0%, 0%, 0%)" fill-opacity="1">
<use xlink:href="#glyph-0-6" x="149.458" y="20.071"/>
</g>
</svg>
