<?xml version="1.0" encoding="UTF-8"?>
<svg xmlns="http://www.w3.org/2000/svg" xmlns:xlink="http://www.w3.org/1999/xlink" viewBox="0 0 6.778 6.313">
<defs>
<g>
<g id="glyph-0-0">
</g>
<g id="glyph-0-1">
<path d="M 4.296875 -2.546875 C 4.46875 -2.546875 4.75 -2.546875 4.75 -2.84375 C 4.75 -3.109375 4.53125 -3.109375 4.296875 -3.109375 L 2.265625 -3.109375 C 2.453125 -3.84375 2.890625 -4.75 4.3125 -4.75 L 4.8125 -4.75 C 4.984375 -4.75 5.3125 -4.75 5.3125 -5.0625 C 5.3125 -5.15625 5.25 -5.296875 5.0625 -5.3125 L 4.5625 -5.3125 C 3.921875 -5.3125 2.65625 -5.3125 1.609375 -4.375 C 1.046875 -3.875 0.59375 -3.078125 0.59375 -2.140625 C 0.59375 -0.515625 1.96875 0.09375 3.375 0.09375 C 3.53125 0.09375 3.9375 0.09375 4.5 -0.109375 C 4.546875 -0.125 5.21875 -0.375 5.21875 -0.5625 C 5.21875 -0.6875 5.140625 -0.921875 4.984375 -0.921875 C 4.9375 -0.921875 4.90625 -0.921875 4.796875 -0.84375 C 4.078125 -0.40625 3.703125 -0.328125 3.40625 -0.328125 C 3.109375 -0.328125 1.984375 -0.390625 1.984375 -1.640625 C 1.984375 -1.953125 2.046875 -2.25 2.109375 -2.546875 Z M 4.296875 -2.546875 "/>
</g>
</g>
</defs>
<g fill="rgb(0%, 0%, 0%)" fill-opacity="1">
<use xlink:href="#glyph-0-1" x="0.5" y="5.813"/>
</g>
</svg>
