<?xml version="1.0" encoding="UTF-8"?>
<svg xmlns="http://www.w3.org/2000/svg" xmlns:xlink="http://www.w3.org/1999/xlink" width="123.625" height="32.88" viewBox="0 0 123.625 32.88">
<defs>
<g>
<g id="glyph-0-0">
</g>
<g id="glyph-0-1">
<path d="M 4.296875 -2.546875 C 4.46875 -2.546875 4.75 -2.546875 4.75 -2.84375 C 4.75 -3.109375 4.53125 -3.109375 4.296875 -3.109375 L 2.265625 -3.109375 C 2.453125 -3.84375 2.890625 -4.75 4.3125 -4.75 L 4.8125 -4.75 C 4.984375 -4.75 5.3125 -4.75 5.3125 -5.0625 C 5.3125 -5.15625 5.25 -5.296875 5.0625 -5.3125 L 4.5625 -5.3125 C 3.921875 -5.3125 2.65625 -5.3125 1.609375 -4.375 C 1.046875 -3.875 0.59375 -3.078125 0.59375 -2.140625 C 0.59375 -0.515625 1.96875 0.09375 3.375 0.09375 C 3.53125 0.09375 3.9375 0.09375 4.5 -0.109375 C 4.546875 -0.125 5.21875 -0.375 5.21875 -0.5625 C 5.21875 -0.6875 5.140625 -0.921875 4.984375 -0.921875 C 4.9375 -0.921875 4.90625 -0.921875 4.796875 -0.84375 C 4.078125 -0.40625 3.703125 -0.328125 3.40625 -0.328125 C 3.109375 -0.328125 1.984375 -0.390625 1.984375 -1.640625 C 1.984375 -1.953125 2.046875 -2.25 2.109375 -2.546875 Z M 4.296875 -2.546875 "/>
</g>
<g id="glyph-1-0">
</g>
<g id="glyph-1-1">
<path d="M 2.5 -5.078125 C 2.5 -5.296875 2.484375 -5.296875 2.265625 -5.296875 C 1.9375 -4.984375 1.515625 -4.796875 0.765625 -4.796875 L 0.765625 -4.53125 C 0.984375 -4.53125 1.40625 -4.53125 1.875 -4.734375 L 1.875 -0.65625 C 1.875 -0.359375 1.84375 -0.265625 1.09375 -0.265625 L 0.8125 -0.265625 L 0.8125 0 C 1.140625 -0.03125 1.828125 -0.03125 2.1875 -0.03125 C 2.546875 -0.03125 3.234375 -0.03125 3.5625 0 L 3.5625 -0.265625 L 3.28125 -0.265625 C 2.53125 -0.265625 2.5 -0.359375 2.5 -0.65625 Z M 2.5 -5.078125 "/>
</g>
<g id="glyph-1-2">
<path d="M 2.25 -1.625 C 2.375 -1.75 2.703125 -2.015625 2.84375 -2.125 C 3.328125 -2.578125 3.796875 -3.015625 3.796875 -3.734375 C 3.796875 -4.6875 3 -5.296875 2.015625 -5.296875 C 1.046875 -5.296875 0.421875 -4.578125 0.421875 -3.859375 C 0.421875 -3.46875 0.734375 -3.421875 0.84375 -3.421875 C 1.015625 -3.421875 1.265625 -3.53125 1.265625 -3.84375 C 1.265625 -4.25 0.859375 -4.25 0.765625 -4.25 C 1 -4.84375 1.53125 -5.03125 1.921875 -5.03125 C 2.65625 -5.03125 3.046875 -4.40625 3.046875 -3.734375 C 3.046875 -2.90625 2.46875 -2.296875 1.515625 -1.34375 L 0.515625 -0.296875 C 0.421875 -0.21875 0.421875 -0.203125 0.421875 0 L 3.5625 0 L 3.796875 -1.421875 L 3.546875 -1.421875 C 3.53125 -1.265625 3.46875 -0.875 3.375 -0.71875 C 3.328125 -0.65625 2.71875 -0.65625 2.59375 -0.65625 L 1.171875 -0.65625 Z M 2.25 -1.625 "/>
</g>
<g id="glyph-2-0">
</g>
<g id="glyph-2-1">
<path d="M 1.484375 -0.125 C 1.484375 0.390625 1.375 0.859375 0.890625 1.34375 C 0.859375 1.375 0.84375 1.390625 0.84375 1.421875 C 0.84375 1.484375 0.90625 1.53125 0.953125 1.53125 C 1.046875 1.53125 1.71875 0.90625 1.71875 -0.03125 C 1.71875 -0.53125 1.515625 -0.890625 1.171875 -0.890625 C 0.890625 -0.890625 0.734375 -0.65625 0.734375 -0.453125 C 0.734375 -0.21875 0.890625 0 1.171875 0 C 1.375 0 1.484375 -0.109375 1.484375 -0.125 Z M 1.484375 -0.125 "/>
</g>
<g id="glyph-2-2">
<path d="M 1.625 -0.4375 C 1.625 -0.703125 1.390625 -0.890625 1.171875 -0.890625 C 0.921875 -0.890625 0.734375 -0.671875 0.734375 -0.453125 C 0.734375 -0.171875 0.953125 0 1.171875 0 C 1.421875 0 1.625 -0.203125 1.625 -0.4375 Z M 1.625 -0.4375 "/>
</g>
<g id="glyph-2-3">
<path d="M 6.3125 -4.578125 C 6.40625 -4.96875 6.578125 -5.15625 7.15625 -5.171875 C 7.234375 -5.171875 7.296875 -5.234375 7.296875 -5.328125 C 7.296875 -5.375 7.265625 -5.4375 7.1875 -5.4375 C 7.125 -5.4375 6.96875 -5.421875 6.390625 -5.421875 C 5.75 -5.421875 5.640625 -5.4375 5.5625 -5.4375 C 5.4375 -5.4375 5.421875 -5.359375 5.421875 -5.296875 C 5.421875 -5.1875 5.515625 -5.171875 5.59375 -5.171875 C 6.078125 -5.15625 6.078125 -4.953125 6.078125 -4.84375 C 6.078125 -4.796875 6.078125 -4.75 6.046875 -4.625 L 5.171875 -1.140625 L 3.25 -5.296875 C 3.1875 -5.4375 3.171875 -5.4375 2.984375 -5.4375 L 1.9375 -5.4375 C 1.796875 -5.4375 1.703125 -5.4375 1.703125 -5.296875 C 1.703125 -5.171875 1.796875 -5.171875 1.953125 -5.171875 C 2.03125 -5.171875 2.265625 -5.171875 2.453125 -5.125 L 1.375 -0.859375 C 1.28125 -0.453125 1.078125 -0.28125 0.546875 -0.265625 C 0.5 -0.265625 0.390625 -0.25 0.390625 -0.109375 C 0.390625 -0.0625 0.4375 0 0.515625 0 C 0.546875 0 0.734375 -0.03125 1.3125 -0.03125 C 1.9375 -0.03125 2.0625 0 2.125 0 C 2.15625 0 2.28125 0 2.28125 -0.15625 C 2.28125 -0.25 2.1875 -0.265625 2.140625 -0.265625 C 1.84375 -0.265625 1.609375 -0.3125 1.609375 -0.59375 C 1.609375 -0.640625 1.640625 -0.75 1.640625 -0.75 L 2.671875 -4.921875 L 2.6875 -4.921875 L 4.90625 -0.140625 C 4.953125 -0.015625 4.96875 0 5.046875 0 C 5.15625 0 5.171875 -0.03125 5.203125 -0.171875 Z M 6.3125 -4.578125 "/>
</g>
<g id="glyph-2-4">
<path d="M 2.375 -4.96875 C 2.375 -5.140625 2.25 -5.28125 2.0625 -5.28125 C 1.859375 -5.28125 1.625 -5.078125 1.625 -4.84375 C 1.625 -4.671875 1.75 -4.546875 1.9375 -4.546875 C 2.140625 -4.546875 2.375 -4.734375 2.375 -4.96875 Z M 1.21875 -2.046875 L 0.78125 -0.953125 C 0.734375 -0.828125 0.703125 -0.734375 0.703125 -0.59375 C 0.703125 -0.203125 1 0.078125 1.421875 0.078125 C 2.203125 0.078125 2.53125 -1.03125 2.53125 -1.140625 C 2.53125 -1.21875 2.46875 -1.25 2.40625 -1.25 C 2.3125 -1.25 2.296875 -1.1875 2.265625 -1.109375 C 2.09375 -0.46875 1.765625 -0.140625 1.4375 -0.140625 C 1.34375 -0.140625 1.25 -0.1875 1.25 -0.390625 C 1.25 -0.59375 1.3125 -0.734375 1.40625 -0.984375 C 1.484375 -1.1875 1.5625 -1.40625 1.65625 -1.625 L 1.90625 -2.265625 C 1.96875 -2.453125 2.078125 -2.703125 2.078125 -2.84375 C 2.078125 -3.234375 1.75 -3.515625 1.34375 -3.515625 C 0.578125 -3.515625 0.234375 -2.40625 0.234375 -2.296875 C 0.234375 -2.21875 0.296875 -2.1875 0.359375 -2.1875 C 0.46875 -2.1875 0.46875 -2.234375 0.5 -2.3125 C 0.71875 -3.078125 1.078125 -3.296875 1.328125 -3.296875 C 1.4375 -3.296875 1.515625 -3.25 1.515625 -3.03125 C 1.515625 -2.953125 1.5 -2.84375 1.421875 -2.59375 Z M 1.21875 -2.046875 "/>
</g>
<g id="glyph-2-5">
<path d="M 3.296875 -4.96875 C 3.296875 -5.125 3.171875 -5.28125 2.984375 -5.28125 C 2.734375 -5.28125 2.53125 -5.046875 2.53125 -4.84375 C 2.53125 -4.6875 2.65625 -4.546875 2.84375 -4.546875 C 3.078125 -4.546875 3.296875 -4.765625 3.296875 -4.96875 Z M 1.625 0.390625 C 1.5 0.890625 1.109375 1.40625 0.625 1.40625 C 0.5 1.40625 0.375 1.375 0.359375 1.359375 C 0.609375 1.25 0.640625 1.03125 0.640625 0.953125 C 0.640625 0.765625 0.5 0.65625 0.328125 0.65625 C 0.109375 0.65625 -0.109375 0.859375 -0.109375 1.125 C -0.109375 1.421875 0.1875 1.625 0.640625 1.625 C 1.125 1.625 2 1.328125 2.234375 0.359375 L 2.953125 -2.484375 C 2.984375 -2.578125 3 -2.640625 3 -2.765625 C 3 -3.203125 2.640625 -3.515625 2.1875 -3.515625 C 1.34375 -3.515625 0.84375 -2.40625 0.84375 -2.296875 C 0.84375 -2.21875 0.90625 -2.1875 0.96875 -2.1875 C 1.046875 -2.1875 1.0625 -2.21875 1.109375 -2.328125 C 1.359375 -2.890625 1.765625 -3.296875 2.15625 -3.296875 C 2.328125 -3.296875 2.421875 -3.171875 2.421875 -2.921875 C 2.421875 -2.8125 2.40625 -2.6875 2.375 -2.578125 Z M 1.625 0.390625 "/>
</g>
<g id="glyph-2-6">
<path d="M 2.328125 -5.296875 C 2.328125 -5.3125 2.359375 -5.40625 2.359375 -5.421875 C 2.359375 -5.453125 2.328125 -5.53125 2.234375 -5.53125 C 2.203125 -5.53125 1.953125 -5.5 1.765625 -5.484375 L 1.328125 -5.453125 C 1.140625 -5.4375 1.0625 -5.4375 1.0625 -5.296875 C 1.0625 -5.171875 1.171875 -5.171875 1.28125 -5.171875 C 1.65625 -5.171875 1.65625 -5.125 1.65625 -5.0625 C 1.65625 -5.03125 1.65625 -5.015625 1.625 -4.875 L 0.484375 -0.34375 C 0.453125 -0.21875 0.453125 -0.171875 0.453125 -0.171875 C 0.453125 -0.03125 0.5625 0.078125 0.71875 0.078125 C 0.984375 0.078125 1.046875 -0.171875 1.078125 -0.28125 C 1.15625 -0.625 1.375 -1.46875 1.453125 -1.796875 C 1.890625 -1.75 2.4375 -1.609375 2.4375 -1.140625 C 2.4375 -1.109375 2.4375 -1.0625 2.421875 -0.984375 C 2.390625 -0.890625 2.375 -0.765625 2.375 -0.734375 C 2.375 -0.265625 2.71875 0.078125 3.1875 0.078125 C 3.515625 0.078125 3.734375 -0.171875 3.828125 -0.3125 C 4.03125 -0.609375 4.15625 -1.09375 4.15625 -1.140625 C 4.15625 -1.21875 4.09375 -1.25 4.03125 -1.25 C 3.9375 -1.25 3.921875 -1.1875 3.890625 -1.046875 C 3.78125 -0.671875 3.578125 -0.140625 3.203125 -0.140625 C 3 -0.140625 2.953125 -0.3125 2.953125 -0.53125 C 2.953125 -0.640625 2.953125 -0.734375 3 -0.921875 C 3 -0.953125 3.03125 -1.078125 3.03125 -1.15625 C 3.03125 -1.8125 2.21875 -1.953125 1.8125 -2.015625 C 2.109375 -2.1875 2.375 -2.46875 2.46875 -2.5625 C 2.90625 -3 3.265625 -3.296875 3.65625 -3.296875 C 3.75 -3.296875 3.84375 -3.265625 3.90625 -3.1875 C 3.484375 -3.125 3.484375 -2.75 3.484375 -2.75 C 3.484375 -2.578125 3.625 -2.453125 3.796875 -2.453125 C 4.015625 -2.453125 4.25 -2.625 4.25 -2.953125 C 4.25 -3.234375 4.0625 -3.515625 3.65625 -3.515625 C 3.203125 -3.515625 2.78125 -3.15625 2.328125 -2.703125 C 1.859375 -2.25 1.671875 -2.171875 1.53125 -2.109375 Z M 2.328125 -5.296875 "/>
</g>
<g id="glyph-2-7">
<path d="M 2.09375 -5.296875 C 2.09375 -5.3125 2.125 -5.40625 2.125 -5.421875 C 2.125 -5.453125 2.09375 -5.53125 1.984375 -5.53125 L 1.1875 -5.46875 C 0.890625 -5.4375 0.828125 -5.4375 0.828125 -5.296875 C 0.828125 -5.171875 0.9375 -5.171875 1.03125 -5.171875 C 1.421875 -5.171875 1.421875 -5.125 1.421875 -5.0625 C 1.421875 -5.03125 1.421875 -5.015625 1.375 -4.875 L 0.390625 -0.921875 C 0.359375 -0.796875 0.359375 -0.671875 0.359375 -0.671875 C 0.359375 -0.171875 0.765625 0.078125 1.15625 0.078125 C 1.5 0.078125 1.6875 -0.1875 1.78125 -0.359375 C 1.921875 -0.625 2.046875 -1.09375 2.046875 -1.140625 C 2.046875 -1.1875 2.015625 -1.25 1.90625 -1.25 C 1.84375 -1.25 1.8125 -1.203125 1.8125 -1.1875 C 1.796875 -1.171875 1.765625 -1.03125 1.734375 -0.9375 C 1.625 -0.484375 1.46875 -0.140625 1.171875 -0.140625 C 0.984375 -0.140625 0.9375 -0.328125 0.9375 -0.515625 C 0.9375 -0.671875 0.953125 -0.75 0.984375 -0.859375 Z M 2.09375 -5.296875 "/>
</g>
<g id="glyph-3-0">
</g>
<g id="glyph-3-1">
<path d="M 8.0625 -3.875 C 8.234375 -3.875 8.453125 -3.875 8.453125 -4.09375 C 8.453125 -4.3125 8.25 -4.3125 8.0625 -4.3125 L 1.03125 -4.3125 C 0.859375 -4.3125 0.640625 -4.3125 0.640625 -4.09375 C 0.640625 -3.875 0.84375 -3.875 1.03125 -3.875 Z M 8.0625 -1.65625 C 8.234375 -1.65625 8.453125 -1.65625 8.453125 -1.859375 C 8.453125 -2.09375 8.25 -2.09375 8.0625 -2.09375 L 1.03125 -2.09375 C 0.859375 -2.09375 0.640625 -2.09375 0.640625 -1.875 C 0.640625 -1.65625 0.84375 -1.65625 1.03125 -1.65625 Z M 8.0625 -1.65625 "/>
</g>
<g id="glyph-3-2">
<path d="M 3.4375 -7.65625 C 3.4375 -7.9375 3.4375 -7.953125 3.203125 -7.953125 C 2.921875 -7.625 2.3125 -7.1875 1.09375 -7.1875 L 1.09375 -6.84375 C 1.359375 -6.84375 1.953125 -6.84375 2.625 -7.140625 L 2.625 -0.921875 C 2.625 -0.484375 2.578125 -0.34375 1.53125 -0.34375 L 1.15625 -0.34375 L 1.15625 0 C 1.484375 -0.03125 2.640625 -0.03125 3.03125 -0.03125 C 3.4375 -0.03125 4.578125 -0.03125 4.90625 0 L 4.90625 -0.34375 L 4.53125 -0.34375 C 3.484375 -0.34375 3.4375 -0.484375 3.4375 -0.921875 Z M 3.4375 -7.65625 "/>
</g>
<g id="glyph-4-0">
</g>
<g id="glyph-4-1">
<path d="M 7.875 -2.75 C 8.078125 -2.75 8.296875 -2.75 8.296875 -2.984375 C 8.296875 -3.234375 8.078125 -3.234375 7.875 -3.234375 L 1.40625 -3.234375 C 1.203125 -3.234375 0.984375 -3.234375 0.984375 -2.984375 C 0.984375 -2.75 1.203125 -2.75 1.40625 -2.75 Z M 7.875 -2.75 "/>
</g>
</g>
</defs>
<g fill="rgb(0%, 0%, 0%)" fill-opacity="1">
<use xlink:href="#glyph-0-1" x="32.798" y="10.612"/>
</g>
<g fill="rgb(0%, 0%, 0%)" fill-opacity="1">
<use xlink:href="#glyph-1-1" x="38.576" y="12.405"/>
</g>
<g fill="rgb(0%, 0%, 0%)" fill-opacity="1">
<use xlink:href="#glyph-2-1" x="42.811" y="12.405"/>
</g>
<g fill="rgb(0%, 0%, 0%)" fill-opacity="1">
<use xlink:href="#glyph-1-2" x="45.163" y="12.405"/>
</g>
<g fill="rgb(0%, 0%, 0%)" fill-opacity="1">
<use xlink:href="#glyph-2-1" x="49.397" y="12.405"/>
<use xlink:href="#glyph-2-2" x="51.748977" y="12.405"/>
<use xlink:href="#glyph-2-2" x="54.100953" y="12.405"/>
<use xlink:href="#glyph-2-2" x="56.45293" y="12.405"/>
<use xlink:href="#glyph-2-1" x="58.804906" y="12.405"/>
<use xlink:href="#glyph-2-3" x="61.156883" y="12.405"/>
</g>
<g fill="rgb(0%, 0%, 0%)" fill-opacity="1">
<use xlink:href="#glyph-3-1" x="72.548" y="10.612"/>
</g>
<g fill="rgb(0%, 0%, 0%)" fill-opacity="1">
<use xlink:href="#glyph-3-2" x="84.976626" y="10.612"/>
</g>
<g fill="rgb(0%, 0%, 0%)" fill-opacity="1">
<use xlink:href="#glyph-0-1" x="8.302" y="28.046"/>
</g>
<g fill="rgb(0%, 0%, 0%)" fill-opacity="1">
<use xlink:href="#glyph-2-4" x="14.08" y="29.84"/>
<use xlink:href="#glyph-2-2" x="16.962785" y="29.84"/>
<use xlink:href="#glyph-2-2" x="19.314762" y="29.84"/>
<use xlink:href="#glyph-2-2" x="21.666738" y="29.84"/>
<use xlink:href="#glyph-2-5" x="24.018715" y="29.84"/>
</g>
<g fill="rgb(0%, 0%, 0%)" fill-opacity="1">
<use xlink:href="#glyph-2-2" x="27.435497" y="29.84"/>
<use xlink:href="#glyph-2-2" x="29.787473" y="29.84"/>
<use xlink:href="#glyph-2-2" x="32.13945" y="29.84"/>
<use xlink:href="#glyph-2-6" x="34.491426" y="29.84"/>
</g>
<g fill="rgb(0%, 0%, 0%)" fill-opacity="1">
<use xlink:href="#glyph-2-2" x="39.115678" y="29.84"/>
<use xlink:href="#glyph-2-2" x="41.467655" y="29.84"/>
<use xlink:href="#glyph-2-2" x="43.819631" y="29.84"/>
<use xlink:href="#glyph-2-7" x="46.171608" y="29.84"/>
</g>
<g fill="rgb(0%, 0%, 0%)" fill-opacity="1">
<use xlink:href="#glyph-3-1" x="52.611" y="28.046"/>
</g>
<g fill="rgb(0%, 0%, 0%)" fill-opacity="1">
<use xlink:href="#glyph-4-1" x="65.036" y="28.046"/>
</g>
<g fill="rgb(0%, 0%, 0%)" fill-opacity="1">
<use xlink:href="#glyph-0-1" x="74.335" y="28.046"/>
</g>
<g fill="rgb(0%, 0%, 0%)" fill-opacity="1">
<use xlink:href="#glyph-2-4" x="80.113" y="29.84"/>
<use xlink:href="#glyph-2-2" x="82.995785" y="29.84"/>
<use xlink:href="#glyph-2-2" x="85.347762" y="29.84"/>
<use xlink:href="#glyph-2-2" x="87.699738" y="29.84"/>
<use xlink:href="#glyph-2-6" x="90.051715" y="29.84"/>
</g>
<g fill="rgb(0%, 0%, 0%)" fill-opacity="1">
<use xlink:href="#glyph-2-2" x="94.675967" y="29.84"/>
<use xlink:href="#glyph-2-2" x="97.027943" y="29.84"/>
<use xlink:href="#glyph-2-2" x="99.37992" y="29.84"/>
<use xlink:href="#glyph-2-5" x="101.731896" y="29.84"/>
</g>
<g fill="rgb(0%, 0%, 0%)" fill-opacity="1">
<use xlink:href="#glyph-2-2" x="105.148678" y="29.84"/>
<use xlink:href="#glyph-2-2" x="107.500655" y="29.84"/>
<use xlink:href="#glyph-2-2" x="109.852631" y="29.84"/>
<use xlink:href="#glyph-2-7" x="112.204608" y="29.84"/>
</g>
</svg>
