<?xml version="1.0" encoding="UTF-8"?>
<svg xmlns="http://www.w3.org/2000/svg" xmlns:xlink="http://www.w3.org/1999/xlink" viewBox="0 0 86.033 12.955">
<defs>
<g>
<g id="glyph-0-0">
</g>
<g id="glyph-0-1">
<path d="M 2.03125 -1.328125 C 1.609375 -0.625 1.203125 -0.375 0.640625 -0.34375 C 0.5 -0.328125 0.40625 -0.328125 0.40625 -0.125 C 0.40625 -0.046875 0.46875 0 0.546875 0 C 0.765625 0 1.296875 -0.03125 1.515625 -0.03125 C 1.859375 -0.03125 2.25 0 2.578125 0 C 2.65625 0 2.796875 0 2.796875 -0.234375 C 2.796875 -0.328125 2.703125 -0.34375 2.625 -0.34375 C 2.359375 -0.375 2.125 -0.46875 2.125 -0.75 C 2.125 -0.921875 2.203125 -1.046875 2.359375 -1.3125 L 3.265625 -2.828125 L 6.3125 -2.828125 C 6.328125 -2.71875 6.328125 -2.625 6.328125 -2.515625 C 6.375 -2.203125 6.515625 -0.953125 6.515625 -0.734375 C 6.515625 -0.375 5.90625 -0.34375 5.71875 -0.34375 C 5.578125 -0.34375 5.453125 -0.34375 5.453125 -0.125 C 5.453125 0 5.5625 0 5.625 0 C 5.828125 0 6.078125 -0.03125 6.28125 -0.03125 L 6.953125 -0.03125 C 7.6875 -0.03125 8.21875 0 8.21875 0 C 8.3125 0 8.4375 0 8.4375 -0.234375 C 8.4375 -0.34375 8.328125 -0.34375 8.15625 -0.34375 C 7.5 -0.34375 7.484375 -0.453125 7.453125 -0.8125 L 6.71875 -8.265625 C 6.6875 -8.515625 6.640625 -8.53125 6.515625 -8.53125 C 6.390625 -8.53125 6.328125 -8.515625 6.21875 -8.328125 Z M 3.46875 -3.171875 L 5.875 -7.1875 L 6.28125 -3.171875 Z M 3.46875 -3.171875 "/>
</g>
<g id="glyph-0-2">
<path d="M 5.96875 -4.828125 C 5.96875 -4.859375 5.921875 -4.953125 5.921875 -5 C 5.921875 -5.015625 5.921875 -5.015625 6.125 -5.171875 L 7.296875 -6.078125 C 8.890625 -7.328125 9.421875 -7.75 10.25 -7.8125 C 10.328125 -7.828125 10.453125 -7.828125 10.453125 -8.03125 C 10.453125 -8.109375 10.40625 -8.15625 10.3125 -8.15625 C 10.1875 -8.15625 10.046875 -8.140625 9.90625 -8.140625 L 9.453125 -8.140625 C 9.078125 -8.140625 8.6875 -8.15625 8.328125 -8.15625 C 8.25 -8.15625 8.109375 -8.15625 8.109375 -7.953125 C 8.109375 -7.828125 8.1875 -7.8125 8.265625 -7.8125 C 8.390625 -7.8125 8.546875 -7.75 8.546875 -7.59375 C 8.546875 -7.34375 8.1875 -7.0625 8.09375 -7 L 3.40625 -3.34375 L 4.40625 -7.296875 C 4.5 -7.703125 4.53125 -7.8125 5.375 -7.8125 C 5.609375 -7.8125 5.71875 -7.8125 5.71875 -8.046875 C 5.71875 -8.15625 5.59375 -8.15625 5.53125 -8.15625 C 5.3125 -8.15625 5.0625 -8.140625 4.84375 -8.140625 L 3.4375 -8.140625 C 3.21875 -8.140625 2.953125 -8.15625 2.734375 -8.15625 C 2.640625 -8.15625 2.515625 -8.15625 2.515625 -7.9375 C 2.515625 -7.8125 2.625 -7.8125 2.796875 -7.8125 C 3.53125 -7.8125 3.53125 -7.71875 3.53125 -7.59375 C 3.53125 -7.5625 3.53125 -7.5 3.484375 -7.3125 L 1.859375 -0.890625 C 1.75 -0.46875 1.734375 -0.34375 0.890625 -0.34375 C 0.671875 -0.34375 0.546875 -0.34375 0.546875 -0.125 C 0.546875 0 0.65625 0 0.734375 0 C 0.953125 0 1.1875 -0.03125 1.421875 -0.03125 L 2.828125 -0.03125 C 3.046875 -0.03125 3.296875 0 3.53125 0 C 3.625 0 3.75 0 3.75 -0.234375 C 3.75 -0.34375 3.640625 -0.34375 3.46875 -0.34375 C 2.734375 -0.34375 2.734375 -0.4375 2.734375 -0.5625 C 2.734375 -0.640625 2.8125 -0.9375 2.859375 -1.140625 L 3.328125 -2.984375 L 5.140625 -4.40625 C 5.484375 -3.640625 6.125 -2.109375 6.609375 -0.9375 C 6.640625 -0.875 6.671875 -0.796875 6.671875 -0.71875 C 6.671875 -0.359375 6.1875 -0.34375 6.078125 -0.34375 C 5.96875 -0.34375 5.859375 -0.34375 5.859375 -0.125 C 5.859375 0 5.984375 0 6.03125 0 C 6.4375 0 6.890625 -0.03125 7.296875 -0.03125 L 7.875 -0.03125 C 8.0625 -0.03125 8.265625 0 8.4375 0 C 8.515625 0 8.640625 0 8.640625 -0.234375 C 8.640625 -0.34375 8.53125 -0.34375 8.421875 -0.34375 C 7.96875 -0.359375 7.8125 -0.453125 7.640625 -0.890625 Z M 5.96875 -4.828125 "/>
</g>
<g id="glyph-0-3">
<path d="M 2.328125 0.046875 C 2.328125 -0.640625 2.109375 -1.15625 1.609375 -1.15625 C 1.234375 -1.15625 1.046875 -0.84375 1.046875 -0.578125 C 1.046875 -0.328125 1.21875 0 1.625 0 C 1.78125 0 1.90625 -0.046875 2.015625 -0.15625 C 2.046875 -0.171875 2.0625 -0.171875 2.0625 -0.171875 C 2.09375 -0.171875 2.09375 -0.015625 2.09375 0.046875 C 2.09375 0.4375 2.015625 1.21875 1.328125 2 C 1.1875 2.140625 1.1875 2.15625 1.1875 2.1875 C 1.1875 2.25 1.25 2.3125 1.3125 2.3125 C 1.40625 2.3125 2.328125 1.421875 2.328125 0.046875 Z M 2.328125 0.046875 "/>
</g>
<g id="glyph-0-4">
<path d="M 8.84375 -6.90625 C 8.984375 -7.421875 9.171875 -7.78125 10.078125 -7.8125 C 10.109375 -7.8125 10.25 -7.828125 10.25 -8.03125 C 10.25 -8.15625 10.140625 -8.15625 10.09375 -8.15625 C 9.859375 -8.15625 9.25 -8.140625 9.015625 -8.140625 L 8.4375 -8.140625 C 8.265625 -8.140625 8.0625 -8.15625 7.890625 -8.15625 C 7.8125 -8.15625 7.671875 -8.15625 7.671875 -7.9375 C 7.671875 -7.8125 7.765625 -7.8125 7.859375 -7.8125 C 8.578125 -7.796875 8.625 -7.515625 8.625 -7.296875 C 8.625 -7.203125 8.609375 -7.15625 8.578125 -7 L 7.21875 -1.609375 L 4.65625 -7.953125 C 4.578125 -8.15625 4.5625 -8.15625 4.296875 -8.15625 L 2.84375 -8.15625 C 2.609375 -8.15625 2.5 -8.15625 2.5 -7.9375 C 2.5 -7.8125 2.578125 -7.8125 2.8125 -7.8125 C 2.875 -7.8125 3.578125 -7.8125 3.578125 -7.703125 C 3.578125 -7.6875 3.546875 -7.59375 3.53125 -7.546875 L 1.953125 -1.21875 C 1.8125 -0.640625 1.515625 -0.375 0.734375 -0.34375 C 0.671875 -0.34375 0.546875 -0.328125 0.546875 -0.125 C 0.546875 0 0.671875 0 0.703125 0 C 0.9375 0 1.546875 -0.03125 1.796875 -0.03125 L 2.359375 -0.03125 C 2.53125 -0.03125 2.734375 0 2.90625 0 C 2.984375 0 3.125 0 3.125 -0.234375 C 3.125 -0.328125 3 -0.34375 2.953125 -0.34375 C 2.5625 -0.359375 2.171875 -0.4375 2.171875 -0.859375 C 2.171875 -0.953125 2.203125 -1.0625 2.21875 -1.15625 L 3.84375 -7.546875 C 3.90625 -7.4375 3.90625 -7.40625 3.953125 -7.296875 L 6.796875 -0.21875 C 6.859375 -0.078125 6.890625 0 7 0 C 7.109375 0 7.125 -0.03125 7.171875 -0.234375 Z M 8.84375 -6.90625 "/>
</g>
<g id="glyph-1-0">
</g>
<g id="glyph-1-1">
<path d="M 6.546875 -2.75 C 6.75 -2.75 6.96875 -2.75 6.96875 -2.984375 C 6.96875 -3.234375 6.75 -3.234375 6.546875 -3.234375 L 1.484375 -3.234375 C 1.625 -4.828125 3 -5.96875 4.6875 -5.96875 L 6.546875 -5.96875 C 6.75 -5.96875 6.96875 -5.96875 6.96875 -6.21875 C 6.96875 -6.453125 6.75 -6.453125 6.546875 -6.453125 L 4.65625 -6.453125 C 2.625 -6.453125 0.984375 -4.90625 0.984375 -2.984375 C 0.984375 -1.078125 2.625 0.484375 4.65625 0.484375 L 6.546875 0.484375 C 6.75 0.484375 6.96875 0.484375 6.96875 0.234375 C 6.96875 0 6.75 0 6.546875 0 L 4.6875 0 C 3 0 1.625 -1.140625 1.484375 -2.75 Z M 6.546875 -2.75 "/>
</g>
<g id="glyph-2-0">
</g>
<g id="glyph-2-1">
<path d="M 5.5625 -2.515625 L 3.28125 -7.953125 C 3.1875 -8.1875 3.171875 -8.1875 2.859375 -8.1875 L 0.640625 -8.1875 C 0.421875 -8.1875 0.234375 -8.1875 0.234375 -7.96875 C 0.234375 -7.765625 0.453125 -7.765625 0.515625 -7.765625 C 0.65625 -7.765625 0.984375 -7.75 1.25 -7.65625 L 1.25 -1.265625 C 1.25 -1.015625 1.25 -0.484375 0.4375 -0.421875 C 0.203125 -0.390625 0.203125 -0.234375 0.203125 -0.21875 C 0.203125 0 0.390625 0 0.609375 0 L 2.46875 0 C 2.671875 0 2.859375 0 2.859375 -0.21875 C 2.859375 -0.328125 2.765625 -0.40625 2.671875 -0.421875 C 1.75 -0.484375 1.75 -0.984375 1.75 -1.265625 L 1.75 -7.234375 L 4.671875 -0.25 C 4.765625 -0.03125 4.859375 0 4.921875 0 C 5.0625 0 5.109375 -0.09375 5.15625 -0.234375 L 8.09375 -7.234375 L 8.109375 -7.21875 L 8.109375 -1.265625 C 8.109375 -1.015625 8.109375 -0.484375 7.296875 -0.421875 C 7.0625 -0.390625 7.0625 -0.234375 7.0625 -0.21875 C 7.0625 0 7.25 0 7.46875 0 L 10.65625 0 C 10.875 0 11.0625 0 11.0625 -0.21875 C 11.0625 -0.328125 10.96875 -0.40625 10.859375 -0.421875 C 9.9375 -0.484375 9.9375 -0.984375 9.9375 -1.265625 L 9.9375 -6.921875 C 9.9375 -7.171875 9.9375 -7.703125 10.75 -7.765625 C 10.875 -7.78125 10.984375 -7.84375 10.984375 -7.96875 C 10.984375 -8.1875 10.8125 -8.1875 10.59375 -8.1875 L 8.28125 -8.1875 C 7.96875 -8.1875 7.953125 -8.1875 7.84375 -7.9375 Z M 5.21875 -2.296875 C 5.3125 -2.09375 5.3125 -2.078125 5.46875 -2.03125 L 4.9375 -0.765625 L 4.90625 -0.765625 L 2.1875 -7.265625 C 2.125 -7.421875 2.03125 -7.625 1.859375 -7.765625 L 2.90625 -7.765625 Z M 1.609375 -0.421875 L 1.40625 -0.421875 C 1.421875 -0.453125 1.453125 -0.484375 1.46875 -0.515625 C 1.484375 -0.53125 1.484375 -0.53125 1.5 -0.546875 Z M 8.515625 -7.765625 L 9.796875 -7.765625 C 9.53125 -7.46875 9.53125 -7.15625 9.53125 -6.9375 L 9.53125 -1.25 C 9.53125 -1.03125 9.53125 -0.71875 9.796875 -0.421875 L 8.265625 -0.421875 C 8.515625 -0.71875 8.515625 -1.03125 8.515625 -1.25 Z M 8.515625 -7.765625 "/>
</g>
<g id="glyph-3-0">
</g>
<g id="glyph-3-1">
<path d="M 3.890625 2.90625 C 3.890625 2.875 3.890625 2.84375 3.6875 2.640625 C 2.484375 1.4375 1.8125 -0.53125 1.8125 -2.96875 C 1.8125 -5.296875 2.375 -7.296875 3.765625 -8.703125 C 3.890625 -8.8125 3.890625 -8.828125 3.890625 -8.875 C 3.890625 -8.9375 3.828125 -8.96875 3.78125 -8.96875 C 3.625 -8.96875 2.640625 -8.109375 2.0625 -6.9375 C 1.453125 -5.71875 1.171875 -4.453125 1.171875 -2.96875 C 1.171875 -1.90625 1.34375 -0.484375 1.953125 0.78125 C 2.671875 2.21875 3.640625 3 3.78125 3 C 3.828125 3 3.890625 2.96875 3.890625 2.90625 Z M 3.890625 2.90625 "/>
</g>
<g id="glyph-3-2">
<path d="M 3.375 -2.96875 C 3.375 -3.890625 3.25 -5.359375 2.578125 -6.75 C 1.875 -8.1875 0.890625 -8.96875 0.765625 -8.96875 C 0.71875 -8.96875 0.65625 -8.9375 0.65625 -8.875 C 0.65625 -8.828125 0.65625 -8.8125 0.859375 -8.609375 C 2.0625 -7.40625 2.71875 -5.421875 2.71875 -2.984375 C 2.71875 -0.671875 2.15625 1.328125 0.78125 2.734375 C 0.65625 2.84375 0.65625 2.875 0.65625 2.90625 C 0.65625 2.96875 0.71875 3 0.765625 3 C 0.921875 3 1.90625 2.140625 2.484375 0.96875 C 3.09375 -0.25 3.375 -1.546875 3.375 -2.96875 Z M 3.375 -2.96875 "/>
</g>
</g>
<clipPath id="clip-0">
<path clip-rule="nonzero" d="M 36 0 L 40 0 L 40 12.953125 L 36 12.953125 Z M 36 0 "/>
</clipPath>
<clipPath id="clip-1">
<path clip-rule="nonzero" d="M 81 0 L 85 0 L 85 12.953125 L 81 12.953125 Z M 81 0 "/>
</clipPath>
</defs>
<g fill="rgb(0%, 0%, 0%)" fill-opacity="1">
<use xlink:href="#glyph-0-1" x="0.5" y="9.466"/>
</g>
<g fill="rgb(0%, 0%, 0%)" fill-opacity="1">
<use xlink:href="#glyph-1-1" x="12.596" y="9.466"/>
</g>
<g fill="rgb(0%, 0%, 0%)" fill-opacity="1">
<use xlink:href="#glyph-2-1" x="23.887" y="9.466"/>
</g>
<g clip-path="url(#clip-0)">
<g fill="rgb(0%, 0%, 0%)" fill-opacity="1">
<use xlink:href="#glyph-3-1" x="35.178" y="9.466"/>
</g>
</g>
<g fill="rgb(0%, 0%, 0%)" fill-opacity="1">
<use xlink:href="#glyph-0-2" x="39.73" y="9.466"/>
</g>
<g fill="rgb(0%, 0%, 0%)" fill-opacity="1">
<use xlink:href="#glyph-0-3" x="49.89192" y="9.466"/>
</g>
<g fill="rgb(0%, 0%, 0%)" fill-opacity="1">
<use xlink:href="#glyph-0-4" x="55.140253" y="9.466"/>
</g>
<g fill="rgb(0%, 0%, 0%)" fill-opacity="1">
<use xlink:href="#glyph-0-3" x="65.112085" y="9.466"/>
</g>
<g fill="rgb(0%, 0%, 0%)" fill-opacity="1">
<use xlink:href="#glyph-0-4" x="70.360418" y="9.466"/>
</g>
<g clip-path="url(#clip-1)">
<g fill="rgb(0%, 0%, 0%)" fill-opacity="1">
<use xlink:href="#glyph-3-2" x="80.981" y="9.466"/>
</g>
</g>
</svg>
