<?xml version="1.0" encoding="UTF-8"?>
<svg xmlns="http://www.w3.org/2000/svg" xmlns:xlink="http://www.w3.org/1999/xlink" viewBox="0 0 11.992 11.627">
<defs>
<g>
<g id="glyph-0-0">
</g>
<g id="glyph-0-1">
<path d="M 5.625 -8.015625 C 5.625 -8.015625 5.671875 -8.171875 5.671875 -8.1875 C 5.671875 -8.296875 5.5625 -8.296875 5.53125 -8.296875 C 5.421875 -8.296875 5.421875 -8.234375 5.359375 -8.0625 L 3.390625 -0.140625 C 2.40625 -0.265625 2.03125 -0.765625 2.03125 -1.484375 C 2.03125 -1.75 2.03125 -2.015625 2.59375 -3.5 C 2.75 -3.9375 2.8125 -4.09375 2.8125 -4.296875 C 2.8125 -4.84375 2.421875 -5.265625 1.859375 -5.265625 C 0.765625 -5.265625 0.328125 -3.53125 0.328125 -3.4375 C 0.328125 -3.390625 0.375 -3.328125 0.453125 -3.328125 C 0.5625 -3.328125 0.578125 -3.375 0.625 -3.546875 C 0.90625 -4.59375 1.390625 -5.03125 1.828125 -5.03125 C 1.9375 -5.03125 2.140625 -5.015625 2.140625 -4.640625 C 2.140625 -4.59375 2.140625 -4.328125 1.9375 -3.796875 C 1.296875 -2.109375 1.296875 -1.84375 1.296875 -1.5625 C 1.296875 -0.421875 2.25 0.03125 3.328125 0.109375 C 3.234375 0.484375 3.140625 0.859375 3.046875 1.234375 C 2.859375 1.953125 2.765625 2.28125 2.765625 2.328125 C 2.765625 2.4375 2.875 2.4375 2.90625 2.4375 C 2.921875 2.4375 2.96875 2.4375 3 2.390625 C 3.046875 2.34375 3.53125 0.328125 3.578125 0.125 C 4.03125 0.125 4.96875 0.125 6.046875 -0.984375 C 6.4375 -1.421875 6.796875 -1.96875 7 -2.484375 C 7.125 -2.796875 7.40625 -3.859375 7.40625 -4.46875 C 7.40625 -5.1875 7.046875 -5.265625 6.9375 -5.265625 C 6.640625 -5.265625 6.390625 -4.984375 6.390625 -4.75 C 6.390625 -4.609375 6.46875 -4.515625 6.515625 -4.46875 C 6.625 -4.359375 6.9375 -4.046875 6.9375 -3.421875 C 6.9375 -2.984375 6.703125 -2.109375 5.9375 -1.25 C 4.9375 -0.125 4.015625 -0.125 3.65625 -0.125 Z M 5.625 -8.015625 "/>
</g>
<g id="glyph-1-0">
</g>
<g id="glyph-1-1">
<path d="M 2.375 -4.96875 C 2.375 -5.140625 2.25 -5.28125 2.0625 -5.28125 C 1.859375 -5.28125 1.625 -5.078125 1.625 -4.84375 C 1.625 -4.671875 1.75 -4.546875 1.9375 -4.546875 C 2.140625 -4.546875 2.375 -4.734375 2.375 -4.96875 Z M 1.21875 -2.046875 L 0.78125 -0.953125 C 0.734375 -0.828125 0.703125 -0.734375 0.703125 -0.59375 C 0.703125 -0.203125 1 0.078125 1.421875 0.078125 C 2.203125 0.078125 2.53125 -1.03125 2.53125 -1.140625 C 2.53125 -1.21875 2.46875 -1.25 2.40625 -1.25 C 2.3125 -1.25 2.296875 -1.1875 2.265625 -1.109375 C 2.09375 -0.46875 1.765625 -0.140625 1.4375 -0.140625 C 1.34375 -0.140625 1.25 -0.1875 1.25 -0.390625 C 1.25 -0.59375 1.3125 -0.734375 1.40625 -0.984375 C 1.484375 -1.1875 1.5625 -1.40625 1.65625 -1.625 L 1.90625 -2.265625 C 1.96875 -2.453125 2.078125 -2.703125 2.078125 -2.84375 C 2.078125 -3.234375 1.75 -3.515625 1.34375 -3.515625 C 0.578125 -3.515625 0.234375 -2.40625 0.234375 -2.296875 C 0.234375 -2.21875 0.296875 -2.1875 0.359375 -2.1875 C 0.46875 -2.1875 0.46875 -2.234375 0.5 -2.3125 C 0.71875 -3.078125 1.078125 -3.296875 1.328125 -3.296875 C 1.4375 -3.296875 1.515625 -3.25 1.515625 -3.03125 C 1.515625 -2.953125 1.5 -2.84375 1.421875 -2.59375 Z M 1.21875 -2.046875 "/>
</g>
</g>
<clipPath id="clip-0">
<path clip-rule="nonzero" d="M 0 0 L 8 0 L 8 11.628906 L 0 11.628906 Z M 0 0 "/>
</clipPath>
</defs>
<g clip-path="url(#clip-0)">
<g fill="rgb(0%, 0%, 0%)" fill-opacity="1">
<use xlink:href="#glyph-0-1" x="0.5" y="8.802"/>
</g>
</g>
<g fill="rgb(0%, 0%, 0%)" fill-opacity="1">
<use xlink:href="#glyph-1-1" x="8.11" y="10.596"/>
</g>
</svg>
