<?xml version="1.0" encoding="UTF-8"?>
<svg xmlns="http://www.w3.org/2000/svg" xmlns:xlink="http://www.w3.org/1999/xlink" viewBox="0 0 31.768 9.703">
<defs>
<g>
<g id="glyph-0-0">
</g>
<g id="glyph-0-1">
<path d="M 5.53125 -3.03125 C 5.53125 -4.1875 4.875 -5.265625 3.609375 -5.265625 C 2.046875 -5.265625 0.484375 -3.5625 0.484375 -1.859375 C 0.484375 -0.828125 1.125 0.125 2.34375 0.125 C 3.078125 0.125 3.96875 -0.171875 4.8125 -0.890625 C 4.984375 -0.21875 5.359375 0.125 5.875 0.125 C 6.515625 0.125 6.84375 -0.546875 6.84375 -0.703125 C 6.84375 -0.8125 6.75 -0.8125 6.71875 -0.8125 C 6.625 -0.8125 6.609375 -0.78125 6.578125 -0.6875 C 6.46875 -0.375 6.1875 -0.125 5.90625 -0.125 C 5.53125 -0.125 5.53125 -0.890625 5.53125 -1.609375 C 6.75 -3.078125 7.046875 -4.578125 7.046875 -4.59375 C 7.046875 -4.703125 6.9375 -4.703125 6.90625 -4.703125 C 6.796875 -4.703125 6.796875 -4.65625 6.734375 -4.453125 C 6.59375 -3.921875 6.28125 -2.984375 5.53125 -2.015625 Z M 4.78125 -1.171875 C 3.734375 -0.234375 2.78125 -0.125 2.359375 -0.125 C 1.515625 -0.125 1.28125 -0.875 1.28125 -1.4375 C 1.28125 -1.953125 1.546875 -3.171875 1.90625 -3.828125 C 2.40625 -4.65625 3.078125 -5.03125 3.609375 -5.03125 C 4.765625 -5.03125 4.765625 -3.515625 4.765625 -2.515625 C 4.765625 -2.21875 4.75 -1.90625 4.75 -1.609375 C 4.75 -1.359375 4.765625 -1.296875 4.78125 -1.171875 Z M 4.78125 -1.171875 "/>
</g>
<g id="glyph-1-0">
</g>
<g id="glyph-1-1">
<path d="M 6.546875 -2.75 C 6.75 -2.75 6.96875 -2.75 6.96875 -2.984375 C 6.96875 -3.234375 6.75 -3.234375 6.546875 -3.234375 L 1.484375 -3.234375 C 1.625 -4.828125 3 -5.96875 4.6875 -5.96875 L 6.546875 -5.96875 C 6.75 -5.96875 6.96875 -5.96875 6.96875 -6.21875 C 6.96875 -6.453125 6.75 -6.453125 6.546875 -6.453125 L 4.65625 -6.453125 C 2.625 -6.453125 0.984375 -4.90625 0.984375 -2.984375 C 0.984375 -1.078125 2.625 0.484375 4.65625 0.484375 L 6.546875 0.484375 C 6.75 0.484375 6.96875 0.484375 6.96875 0.234375 C 6.96875 0 6.75 0 6.546875 0 L 4.6875 0 C 3 0 1.625 -1.140625 1.484375 -2.75 Z M 6.546875 -2.75 "/>
</g>
<g id="glyph-2-0">
</g>
<g id="glyph-2-1">
<path d="M 7.859375 -8.015625 C 7.859375 -8.21875 7.859375 -8.421875 7.65625 -8.421875 C 7.640625 -8.421875 7.453125 -8.421875 7.4375 -8.203125 C 7.40625 -7.859375 7.125 -7.859375 7.046875 -7.859375 C 6.625 -7.859375 6.203125 -8.046875 5.96875 -8.15625 C 5.359375 -8.421875 4.84375 -8.421875 4.65625 -8.421875 C 2.65625 -8.421875 0.4375 -7.15625 0.4375 -4.09375 C 0.4375 -1.046875 2.609375 0.234375 4.671875 0.234375 C 5.3125 0.234375 6.15625 0.09375 7.03125 -0.4375 C 7.578125 -0.78125 8.1875 -1.375 8.1875 -1.546875 C 8.1875 -1.703125 8.015625 -1.78125 7.9375 -1.78125 C 7.859375 -1.78125 7.8125 -1.75 7.6875 -1.609375 C 7 -0.828125 5.921875 -0.34375 4.859375 -0.34375 C 3.015625 -0.34375 2.546875 -2.21875 2.546875 -4.078125 C 2.546875 -6.4375 3.40625 -8 4.6875 -8 C 5.578125 -8 7.015625 -7.125 7.421875 -5.859375 C 7.453125 -5.75 7.5 -5.625 7.65625 -5.625 C 7.859375 -5.625 7.859375 -5.828125 7.859375 -6.03125 Z M 7.4375 -6.796875 C 7.296875 -7 7.140625 -7.140625 6.84375 -7.453125 C 6.890625 -7.453125 7 -7.453125 7.046875 -7.453125 C 7.1875 -7.453125 7.34375 -7.46875 7.4375 -7.53125 Z M 3.1875 -7.71875 C 2.921875 -7.453125 2.125 -6.421875 2.125 -4.078125 C 2.125 -2.890625 2.3125 -1.25 3.375 -0.375 C 1.421875 -1.015625 0.859375 -2.625 0.859375 -4.09375 C 0.859375 -6.28125 2.0625 -7.34375 3.1875 -7.734375 Z M 3.1875 -7.71875 "/>
</g>
</g>
<clipPath id="clip-0">
<path clip-rule="nonzero" d="M 12 2 L 19 2 L 19 9.703125 L 12 9.703125 Z M 12 2 "/>
</clipPath>
</defs>
<g fill="rgb(0%, 0%, 0%)" fill-opacity="1">
<use xlink:href="#glyph-0-1" x="0.5" y="8.736"/>
</g>
<g clip-path="url(#clip-0)">
<g fill="rgb(0%, 0%, 0%)" fill-opacity="1">
<use xlink:href="#glyph-1-1" x="11.343" y="8.736"/>
</g>
</g>
<g fill="rgb(0%, 0%, 0%)" fill-opacity="1">
<use xlink:href="#glyph-2-1" x="22.634" y="8.736"/>
</g>
</svg>
