<?xml version="1.0" encoding="UTF-8"?>
<svg xmlns="http://www.w3.org/2000/svg" xmlns:xlink="http://www.w3.org/1999/xlink" viewBox="0 0 59.378 12.955">
<defs>
<g>
<g id="glyph-0-0">
</g>
<g id="glyph-0-1">
<path d="M 4.9375 -4.96875 L 5.71875 -5.71875 C 7.015625 -7 7.734375 -7.703125 8.46875 -7.765625 C 8.578125 -7.78125 8.734375 -7.796875 8.734375 -7.96875 C 8.734375 -8.1875 8.5625 -8.1875 8.34375 -8.1875 L 5.828125 -8.1875 C 5.609375 -8.1875 5.421875 -8.1875 5.421875 -7.96875 C 5.421875 -7.796875 5.59375 -7.78125 5.671875 -7.765625 C 6 -7.71875 6.125 -7.4375 6.125 -7.171875 C 6.125 -6.84375 5.9375 -6.640625 5.828125 -6.53125 L 4.53125 -5.296875 C 4.25 -5.03125 3.578125 -4.34375 3.28125 -4.09375 L 3.28125 -7.09375 C 3.28125 -7.6875 3.328125 -7.765625 4.03125 -7.765625 C 4.140625 -7.765625 4.34375 -7.765625 4.34375 -7.96875 C 4.34375 -8.1875 4.15625 -8.1875 3.9375 -8.1875 L 0.6875 -8.1875 C 0.484375 -8.1875 0.28125 -8.1875 0.28125 -7.96875 C 0.28125 -7.765625 0.515625 -7.765625 0.609375 -7.765625 C 1.296875 -7.765625 1.34375 -7.671875 1.34375 -7.09375 L 1.34375 -1.09375 C 1.34375 -0.53125 1.296875 -0.421875 0.671875 -0.421875 C 0.484375 -0.421875 0.28125 -0.421875 0.28125 -0.21875 C 0.28125 0 0.484375 0 0.6875 0 L 3.9375 0 C 4.15625 0 4.34375 0 4.34375 -0.21875 C 4.34375 -0.421875 4.140625 -0.421875 4 -0.421875 C 3.328125 -0.421875 3.28125 -0.53125 3.28125 -1.09375 L 3.28125 -3.40625 L 3.625 -3.71875 L 5.734375 -1.1875 L 6.046875 -0.828125 C 6.1875 -0.65625 6.1875 -0.640625 6.234375 -0.484375 C 6.171875 -0.46875 6.140625 -0.4375 6.09375 -0.4375 C 5.8125 -0.375 5.734375 -0.375 5.734375 -0.21875 C 5.734375 0 5.921875 0 6.125 0 L 8.796875 0 C 9.015625 0 9.1875 0 9.1875 -0.21875 C 9.1875 -0.375 9.046875 -0.40625 8.96875 -0.421875 C 8.78125 -0.4375 8.734375 -0.484375 8.640625 -0.578125 C 8.53125 -0.6875 8.453125 -0.765625 8.390625 -0.84375 Z M 7.375 -7.765625 C 7 -7.5 6.984375 -7.5 6.546875 -7.109375 C 6.546875 -7.296875 6.546875 -7.515625 6.390625 -7.765625 Z M 1.65625 -0.421875 C 1.75 -0.640625 1.75 -0.9375 1.75 -1.078125 L 1.75 -7.109375 C 1.75 -7.25 1.75 -7.546875 1.65625 -7.765625 L 2.96875 -7.765625 C 2.875 -7.546875 2.875 -7.25 2.875 -7.109375 L 2.875 -1.078125 C 2.875 -0.9375 2.875 -0.640625 2.96875 -0.421875 Z M 4.640625 -4.703125 L 8.203125 -0.421875 L 6.65625 -0.421875 C 6.640625 -0.625 6.640625 -0.734375 6.328125 -1.125 C 6.078125 -1.453125 5.390625 -2.265625 5.109375 -2.578125 C 4.875 -2.875 4.046875 -3.875 3.9375 -4 Z M 4.640625 -4.703125 "/>
</g>
<g id="glyph-0-2">
<path d="M 3.203125 -3.75 L 3.640625 -3.75 L 5.421875 -0.984375 C 5.546875 -0.78125 5.828125 -0.328125 5.96875 -0.140625 C 6.046875 0 6.078125 0 6.359375 0 L 8.015625 0 C 8.21875 0 8.40625 0 8.40625 -0.21875 C 8.40625 -0.3125 8.328125 -0.390625 8.21875 -0.421875 C 7.78125 -0.515625 7.203125 -1.296875 6.90625 -1.6875 C 6.828125 -1.8125 6.234375 -2.59375 5.421875 -3.890625 C 6.484375 -4.078125 7.515625 -4.53125 7.515625 -5.953125 C 7.515625 -7.609375 5.765625 -8.1875 4.34375 -8.1875 L 0.59375 -8.1875 C 0.375 -8.1875 0.1875 -8.1875 0.1875 -7.96875 C 0.1875 -7.765625 0.421875 -7.765625 0.515625 -7.765625 C 1.1875 -7.765625 1.25 -7.6875 1.25 -7.09375 L 1.25 -1.09375 C 1.25 -0.5 1.1875 -0.421875 0.515625 -0.421875 C 0.421875 -0.421875 0.1875 -0.421875 0.1875 -0.21875 C 0.1875 0 0.375 0 0.59375 0 L 3.875 0 C 4.09375 0 4.265625 0 4.265625 -0.21875 C 4.265625 -0.421875 4.0625 -0.421875 3.9375 -0.421875 C 3.25 -0.421875 3.203125 -0.515625 3.203125 -1.09375 Z M 5.515625 -4.34375 C 5.84375 -4.78125 5.875 -5.421875 5.875 -5.9375 C 5.875 -6.515625 5.8125 -7.140625 5.421875 -7.640625 C 5.921875 -7.53125 7.09375 -7.15625 7.09375 -5.953125 C 7.09375 -5.171875 6.734375 -4.5625 5.515625 -4.34375 Z M 3.203125 -7.125 C 3.203125 -7.375 3.203125 -7.765625 3.9375 -7.765625 C 4.953125 -7.765625 5.46875 -7.34375 5.46875 -5.9375 C 5.46875 -4.40625 5.09375 -4.171875 3.203125 -4.171875 Z M 1.578125 -0.421875 C 1.671875 -0.640625 1.671875 -0.96875 1.671875 -1.078125 L 1.671875 -7.109375 C 1.671875 -7.234375 1.671875 -7.546875 1.578125 -7.765625 L 2.9375 -7.765625 C 2.78125 -7.578125 2.78125 -7.34375 2.78125 -7.15625 L 2.78125 -1.078125 C 2.78125 -0.953125 2.78125 -0.640625 2.875 -0.421875 Z M 4.125 -3.75 C 4.203125 -3.765625 4.25 -3.78125 4.34375 -3.78125 C 4.53125 -3.78125 4.796875 -3.796875 4.96875 -3.828125 C 5.15625 -3.53125 6.4375 -1.40625 7.4375 -0.421875 L 6.28125 -0.421875 Z M 4.125 -3.75 "/>
</g>
<g id="glyph-0-3">
<path d="M 7.859375 -8.015625 C 7.859375 -8.21875 7.859375 -8.421875 7.65625 -8.421875 C 7.640625 -8.421875 7.453125 -8.421875 7.4375 -8.203125 C 7.40625 -7.859375 7.125 -7.859375 7.046875 -7.859375 C 6.625 -7.859375 6.203125 -8.046875 5.96875 -8.15625 C 5.359375 -8.421875 4.84375 -8.421875 4.65625 -8.421875 C 2.65625 -8.421875 0.4375 -7.15625 0.4375 -4.09375 C 0.4375 -1.046875 2.609375 0.234375 4.671875 0.234375 C 5.3125 0.234375 6.15625 0.09375 7.03125 -0.4375 C 7.578125 -0.78125 8.1875 -1.375 8.1875 -1.546875 C 8.1875 -1.703125 8.015625 -1.78125 7.9375 -1.78125 C 7.859375 -1.78125 7.8125 -1.75 7.6875 -1.609375 C 7 -0.828125 5.921875 -0.34375 4.859375 -0.34375 C 3.015625 -0.34375 2.546875 -2.21875 2.546875 -4.078125 C 2.546875 -6.4375 3.40625 -8 4.6875 -8 C 5.578125 -8 7.015625 -7.125 7.421875 -5.859375 C 7.453125 -5.75 7.5 -5.625 7.65625 -5.625 C 7.859375 -5.625 7.859375 -5.828125 7.859375 -6.03125 Z M 7.4375 -6.796875 C 7.296875 -7 7.140625 -7.140625 6.84375 -7.453125 C 6.890625 -7.453125 7 -7.453125 7.046875 -7.453125 C 7.1875 -7.453125 7.34375 -7.46875 7.4375 -7.53125 Z M 3.1875 -7.71875 C 2.921875 -7.453125 2.125 -6.421875 2.125 -4.078125 C 2.125 -2.890625 2.3125 -1.25 3.375 -0.375 C 1.421875 -1.015625 0.859375 -2.625 0.859375 -4.09375 C 0.859375 -6.28125 2.0625 -7.34375 3.1875 -7.734375 Z M 3.1875 -7.71875 "/>
</g>
<g id="glyph-1-0">
</g>
<g id="glyph-1-1">
<path d="M 6.546875 -2.75 C 6.75 -2.75 6.96875 -2.75 6.96875 -2.984375 C 6.96875 -3.234375 6.75 -3.234375 6.546875 -3.234375 L 1.484375 -3.234375 C 1.625 -4.828125 3 -5.96875 4.6875 -5.96875 L 6.546875 -5.96875 C 6.75 -5.96875 6.96875 -5.96875 6.96875 -6.21875 C 6.96875 -6.453125 6.75 -6.453125 6.546875 -6.453125 L 4.65625 -6.453125 C 2.625 -6.453125 0.984375 -4.90625 0.984375 -2.984375 C 0.984375 -1.078125 2.625 0.484375 4.65625 0.484375 L 6.546875 0.484375 C 6.75 0.484375 6.96875 0.484375 6.96875 0.234375 C 6.96875 0 6.75 0 6.546875 0 L 4.6875 0 C 3 0 1.625 -1.140625 1.484375 -2.75 Z M 6.546875 -2.75 "/>
</g>
<g id="glyph-1-2">
<path d="M 3.375 -7.375 C 3.375 -7.859375 3.6875 -8.625 5 -8.703125 C 5.0625 -8.71875 5.109375 -8.765625 5.109375 -8.828125 C 5.109375 -8.96875 5.015625 -8.96875 4.875 -8.96875 C 3.6875 -8.96875 2.59375 -8.359375 2.578125 -7.46875 L 2.578125 -4.75 C 2.578125 -4.28125 2.578125 -3.890625 2.109375 -3.5 C 1.6875 -3.15625 1.234375 -3.125 0.96875 -3.125 C 0.90625 -3.109375 0.859375 -3.0625 0.859375 -2.984375 C 0.859375 -2.875 0.9375 -2.875 1.046875 -2.859375 C 1.84375 -2.8125 2.421875 -2.375 2.546875 -1.796875 C 2.578125 -1.65625 2.578125 -1.640625 2.578125 -1.203125 L 2.578125 1.15625 C 2.578125 1.65625 2.578125 2.046875 3.15625 2.5 C 3.625 2.859375 4.40625 2.984375 4.875 2.984375 C 5.015625 2.984375 5.109375 2.984375 5.109375 2.859375 C 5.109375 2.734375 5.03125 2.734375 4.90625 2.71875 C 4.15625 2.671875 3.578125 2.296875 3.421875 1.6875 C 3.375 1.578125 3.375 1.546875 3.375 1.125 L 3.375 -1.390625 C 3.375 -1.9375 3.28125 -2.140625 2.90625 -2.515625 C 2.65625 -2.765625 2.3125 -2.890625 1.96875 -2.984375 C 2.953125 -3.265625 3.375 -3.8125 3.375 -4.5 Z M 3.375 -7.375 "/>
</g>
<g id="glyph-1-3">
<path d="M 2.578125 1.40625 C 2.578125 1.875 2.265625 2.640625 0.96875 2.71875 C 0.90625 2.734375 0.859375 2.78125 0.859375 2.859375 C 0.859375 2.984375 0.984375 2.984375 1.09375 2.984375 C 2.265625 2.984375 3.375 2.40625 3.375 1.5 L 3.375 -1.234375 C 3.375 -1.703125 3.375 -2.078125 3.859375 -2.46875 C 4.28125 -2.828125 4.734375 -2.84375 5 -2.859375 C 5.0625 -2.875 5.109375 -2.921875 5.109375 -2.984375 C 5.109375 -3.109375 5.03125 -3.109375 4.90625 -3.125 C 4.125 -3.171875 3.546875 -3.59375 3.421875 -4.1875 C 3.375 -4.3125 3.375 -4.34375 3.375 -4.765625 L 3.375 -7.140625 C 3.375 -7.640625 3.375 -8.015625 2.8125 -8.46875 C 2.328125 -8.84375 1.5 -8.96875 1.09375 -8.96875 C 0.984375 -8.96875 0.859375 -8.96875 0.859375 -8.828125 C 0.859375 -8.71875 0.9375 -8.71875 1.046875 -8.703125 C 1.8125 -8.65625 2.390625 -8.265625 2.546875 -7.65625 C 2.578125 -7.546875 2.578125 -7.53125 2.578125 -7.09375 L 2.578125 -4.59375 C 2.578125 -4.046875 2.671875 -3.84375 3.0625 -3.453125 C 3.3125 -3.203125 3.65625 -3.078125 4 -2.984375 C 3.015625 -2.71875 2.578125 -2.15625 2.578125 -1.46875 Z M 2.578125 1.40625 "/>
</g>
<g id="glyph-2-0">
</g>
<g id="glyph-2-1">
<path d="M 2.328125 0.046875 C 2.328125 -0.640625 2.109375 -1.15625 1.609375 -1.15625 C 1.234375 -1.15625 1.046875 -0.84375 1.046875 -0.578125 C 1.046875 -0.328125 1.21875 0 1.625 0 C 1.78125 0 1.90625 -0.046875 2.015625 -0.15625 C 2.046875 -0.171875 2.0625 -0.171875 2.0625 -0.171875 C 2.09375 -0.171875 2.09375 -0.015625 2.09375 0.046875 C 2.09375 0.4375 2.015625 1.21875 1.328125 2 C 1.1875 2.140625 1.1875 2.15625 1.1875 2.1875 C 1.1875 2.25 1.25 2.3125 1.3125 2.3125 C 1.40625 2.3125 2.328125 1.421875 2.328125 0.046875 Z M 2.328125 0.046875 "/>
</g>
</g>
<clipPath id="clip-0">
<path clip-rule="nonzero" d="M 25 0 L 30 0 L 30 12.953125 L 25 12.953125 Z M 25 0 "/>
</clipPath>
<clipPath id="clip-1">
<path clip-rule="nonzero" d="M 53 0 L 59 0 L 59 12.953125 L 53 12.953125 Z M 53 0 "/>
</clipPath>
</defs>
<g fill="rgb(0%, 0%, 0%)" fill-opacity="1">
<use xlink:href="#glyph-0-1" x="0.5" y="9.466"/>
</g>
<g fill="rgb(0%, 0%, 0%)" fill-opacity="1">
<use xlink:href="#glyph-1-1" x="13.119" y="9.466"/>
</g>
<g clip-path="url(#clip-0)">
<g fill="rgb(0%, 0%, 0%)" fill-opacity="1">
<use xlink:href="#glyph-1-2" x="24.413077" y="9.466"/>
</g>
</g>
<g fill="rgb(0%, 0%, 0%)" fill-opacity="1">
<use xlink:href="#glyph-0-2" x="30.388" y="9.466"/>
</g>
<g fill="rgb(0%, 0%, 0%)" fill-opacity="1">
<use xlink:href="#glyph-2-1" x="39.022" y="9.466"/>
</g>
<g fill="rgb(0%, 0%, 0%)" fill-opacity="1">
<use xlink:href="#glyph-0-3" x="44.266" y="9.466"/>
</g>
<g clip-path="url(#clip-1)">
<g fill="rgb(0%, 0%, 0%)" fill-opacity="1">
<use xlink:href="#glyph-1-3" x="52.901" y="9.466"/>
</g>
</g>
</svg>
