<?xml version="1.0" encoding="UTF-8"?>
<svg xmlns="http://www.w3.org/2000/svg" xmlns:xlink="http://www.w3.org/1999/xlink" viewBox="0 0 39.287 10.963">
<defs>
<g>
<g id="glyph-0-0">
</g>
<g id="glyph-0-1">
<path d="M 3.34375 -8.109375 C 3.375 -8.25 3.375 -8.265625 3.375 -8.3125 C 3.375 -8.390625 3.34375 -8.421875 3.234375 -8.421875 C 3.109375 -8.421875 2.75 -8.25 2.515625 -8.125 C 1.953125 -7.859375 1.5 -7.625 1.5 -7.40625 C 1.5 -7.34375 1.59375 -7.34375 1.640625 -7.34375 C 1.78125 -7.34375 2.09375 -7.5 2.3125 -7.609375 C 2.171875 -6.4375 1.890625 -4.90625 1.671875 -3.890625 C 1.234375 -1.859375 1 -1.125 0.421875 0.03125 C 0.359375 0.140625 0.359375 0.171875 0.359375 0.171875 C 0.359375 0.265625 0.453125 0.265625 0.484375 0.265625 C 0.671875 0.265625 1.171875 0.046875 1.359375 -0.28125 C 1.515625 -0.5625 1.96875 -1.4375 2.328125 -2.828125 C 2.59375 -3.84375 3.046875 -5.421875 3.890625 -6.640625 C 4.453125 -7.421875 4.953125 -7.78125 5.703125 -7.78125 C 6.34375 -7.78125 6.9375 -7.359375 6.9375 -6.734375 C 6.9375 -5.671875 5.796875 -5.296875 4.546875 -4.875 C 4.40625 -4.828125 3.578125 -4.546875 3.578125 -4.25 C 3.578125 -4.171875 3.671875 -4.15625 3.703125 -4.15625 C 3.75 -4.15625 4.03125 -4.203125 4.28125 -4.203125 C 5.484375 -4.203125 6.46875 -3.484375 6.46875 -2.359375 C 6.46875 -0.875 5.203125 -0.390625 4.109375 -0.390625 C 3.1875 -0.390625 2.75 -0.890625 2.59375 -1.0625 C 2.546875 -1.125 2.53125 -1.140625 2.4375 -1.140625 C 2.171875 -1.140625 1.5625 -0.78125 1.5625 -0.5625 C 1.5625 -0.53125 2.03125 0.265625 3.328125 0.265625 C 5.015625 0.265625 7.484375 -0.9375 7.484375 -2.859375 C 7.484375 -3.859375 6.8125 -4.609375 5.59375 -4.84375 C 6.546875 -5.25 7.953125 -6.109375 7.953125 -7.234375 C 7.953125 -7.921875 7.375 -8.4375 6.484375 -8.4375 C 6.078125 -8.4375 4.546875 -8.328125 3.109375 -6.53125 Z M 3.34375 -8.109375 "/>
</g>
<g id="glyph-0-2">
<path d="M 7.875 -2.75 C 8.078125 -2.75 8.296875 -2.75 8.296875 -2.984375 C 8.296875 -3.234375 8.078125 -3.234375 7.875 -3.234375 L 1.40625 -3.234375 C 1.203125 -3.234375 0.984375 -3.234375 0.984375 -2.984375 C 0.984375 -2.75 1.203125 -2.75 1.40625 -2.75 Z M 7.875 -2.75 "/>
</g>
<g id="glyph-1-0">
</g>
<g id="glyph-1-1">
<path d="M 1.765625 -3.171875 L 2.546875 -3.171875 C 2.6875 -3.171875 2.78125 -3.171875 2.78125 -3.328125 C 2.78125 -3.4375 2.6875 -3.4375 2.546875 -3.4375 L 1.828125 -3.4375 L 2.109375 -4.5625 C 2.140625 -4.6875 2.140625 -4.71875 2.140625 -4.734375 C 2.140625 -4.90625 2.015625 -4.984375 1.875 -4.984375 C 1.609375 -4.984375 1.546875 -4.765625 1.46875 -4.40625 L 1.21875 -3.4375 L 0.453125 -3.4375 C 0.296875 -3.4375 0.203125 -3.4375 0.203125 -3.28125 C 0.203125 -3.171875 0.296875 -3.171875 0.4375 -3.171875 L 1.15625 -3.171875 L 0.671875 -1.265625 C 0.625 -1.0625 0.5625 -0.78125 0.5625 -0.671875 C 0.5625 -0.1875 0.953125 0.078125 1.375 0.078125 C 2.21875 0.078125 2.703125 -1.046875 2.703125 -1.140625 C 2.703125 -1.234375 2.640625 -1.25 2.59375 -1.25 C 2.5 -1.25 2.5 -1.21875 2.4375 -1.09375 C 2.28125 -0.703125 1.875 -0.140625 1.390625 -0.140625 C 1.234375 -0.140625 1.125 -0.25 1.125 -0.515625 C 1.125 -0.671875 1.15625 -0.75 1.171875 -0.859375 Z M 1.765625 -3.171875 "/>
</g>
<g id="glyph-1-2">
<path d="M 3.21875 -3 C 3.03125 -2.96875 2.859375 -2.828125 2.859375 -2.625 C 2.859375 -2.484375 2.953125 -2.375 3.125 -2.375 C 3.25 -2.375 3.5 -2.46875 3.5 -2.828125 C 3.5 -3.3125 2.984375 -3.515625 2.484375 -3.515625 C 1.421875 -3.515625 1.078125 -2.75 1.078125 -2.34375 C 1.078125 -2.265625 1.078125 -1.984375 1.375 -1.765625 C 1.5625 -1.625 1.703125 -1.59375 2.109375 -1.515625 C 2.390625 -1.453125 2.84375 -1.375 2.84375 -0.96875 C 2.84375 -0.75 2.6875 -0.5 2.46875 -0.34375 C 2.171875 -0.15625 1.78125 -0.140625 1.65625 -0.140625 C 1.46875 -0.140625 0.921875 -0.171875 0.71875 -0.5 C 1.125 -0.515625 1.1875 -0.84375 1.1875 -0.9375 C 1.1875 -1.171875 0.96875 -1.234375 0.875 -1.234375 C 0.75 -1.234375 0.421875 -1.125 0.421875 -0.6875 C 0.421875 -0.21875 0.921875 0.078125 1.65625 0.078125 C 3.046875 0.078125 3.34375 -0.90625 3.34375 -1.234375 C 3.34375 -1.953125 2.5625 -2.109375 2.265625 -2.15625 C 1.875 -2.234375 1.5625 -2.28125 1.5625 -2.625 C 1.5625 -2.765625 1.703125 -3.296875 2.484375 -3.296875 C 2.78125 -3.296875 3.09375 -3.203125 3.21875 -3 Z M 3.21875 -3 "/>
</g>
</g>
<clipPath id="clip-0">
<path clip-rule="nonzero" d="M 8 5 L 12 5 L 12 10.964844 L 8 10.964844 Z M 8 5 "/>
</clipPath>
<clipPath id="clip-1">
<path clip-rule="nonzero" d="M 34 6 L 38 6 L 38 10.964844 L 34 10.964844 Z M 34 6 "/>
</clipPath>
</defs>
<g fill="rgb(0%, 0%, 0%)" fill-opacity="1">
<use xlink:href="#glyph-0-1" x="0.5" y="8.67"/>
</g>
<g clip-path="url(#clip-0)">
<g fill="rgb(0%, 0%, 0%)" fill-opacity="1">
<use xlink:href="#glyph-1-1" x="8.352" y="10.463"/>
</g>
</g>
<g fill="rgb(0%, 0%, 0%)" fill-opacity="1">
<use xlink:href="#glyph-0-2" x="14.565" y="8.67"/>
</g>
<g fill="rgb(0%, 0%, 0%)" fill-opacity="1">
<use xlink:href="#glyph-0-1" x="26.517809" y="8.67"/>
</g>
<g clip-path="url(#clip-1)">
<g fill="rgb(0%, 0%, 0%)" fill-opacity="1">
<use xlink:href="#glyph-1-2" x="34.372" y="10.463"/>
</g>
</g>
</svg>
