<?xml version="1.0" encoding="UTF-8"?>
<svg xmlns="http://www.w3.org/2000/svg" xmlns:xlink="http://www.w3.org/1999/xlink" viewBox="0 0 75.685 22.436">
<defs>
<g>
<g id="glyph-0-0">
</g>
<g id="glyph-0-1">
<path d="M 4.796875 -1.296875 C 5.109375 -2.09375 5.140625 -2.859375 5.140625 -3.921875 C 5.140625 -4.546875 5.109375 -5.21875 5.109375 -5.4375 C 4.09375 -6.265625 2.875 -7.171875 1.8125 -7.3125 C 1.265625 -7.0625 0.671875 -6.78125 0.15625 -6.484375 L 0.3125 -6.296875 L 0.859375 -6.515625 C 0.890625 -6.53125 1.046875 -6.53125 1.140625 -6.53125 C 2.1875 -6.53125 3.28125 -5.5625 4.03125 -4.765625 C 4.125 -4.25 4.171875 -3.71875 4.171875 -3.1875 C 4.171875 -2.328125 4.046875 -1.453125 3.578125 -0.703125 C 3.53125 -0.625 3.453125 -0.578125 3.390625 -0.578125 C 3.171875 -0.578125 2.671875 -0.953125 2.4375 -1.125 C 2.25 -1.265625 2.0625 -1.421875 1.90625 -1.609375 C 1.859375 -2.046875 1.8125 -2.5625 1.8125 -3.03125 C 1.8125 -3.46875 1.859375 -3.859375 1.96875 -4.140625 C 2.0625 -4.375 2.203125 -4.703125 2.75 -5.296875 L 2.515625 -5.34375 C 2 -5 1.453125 -4.484375 0.9375 -4 C 0.890625 -3.09375 0.875 -2.515625 0.875 -1.984375 C 0.875 -1.65625 0.890625 -1.328125 0.90625 -0.96875 C 1.375 -0.421875 1.953125 0 2.5625 0.40625 Z M 4.796875 -1.296875 "/>
</g>
<g id="glyph-0-2">
<path d="M 0.328125 -4.40625 C 0.484375 -4.53125 0.6875 -4.625 0.828125 -4.671875 L 1.078125 -4.390625 C 1.109375 -3.6875 1.125 -3.015625 1.125 -2.3125 C 1.125 -1.765625 1.125 -1.296875 1.09375 -0.65625 L 1.734375 0.25 C 2.234375 -0.125 2.734375 -0.546875 3.203125 -0.984375 L 3.125 -1.21875 C 3.015625 -1.140625 2.671875 -0.890625 2.484375 -0.890625 C 1.96875 -1.40625 2.046875 -2.0625 2.046875 -2.859375 C 2.046875 -3.578125 2.0625 -4.296875 2.140625 -5.015625 C 1.875 -5.21875 1.65625 -5.4375 1.421875 -5.671875 C 1.015625 -5.296875 0.578125 -4.90625 0.171875 -4.5625 Z M 2.234375 -7.359375 C 2.0625 -7.5 1.796875 -7.8125 1.578125 -8.0625 C 1.359375 -7.8125 1.09375 -7.609375 0.859375 -7.375 C 1.078125 -7.125 1.296875 -6.875 1.546875 -6.640625 Z M 2.234375 -7.359375 "/>
</g>
<g id="glyph-0-3">
<path d="M 2.296875 -2.921875 C 2.234375 -2.890625 2.15625 -2.890625 2.09375 -2.890625 C 1.796875 -2.890625 1.703125 -3.625 1.703125 -4.015625 C 1.703125 -4.296875 1.703125 -4.734375 1.953125 -4.953125 C 2.265625 -4.65625 2.90625 -4.390625 3.765625 -4.34375 L 4.859375 -5.265625 L 4.796875 -5.46875 C 4.484375 -5.265625 4.203125 -5.109375 3.9375 -5.109375 C 3.8125 -5.109375 3.71875 -5.125 3.625 -5.171875 L 2.65625 -5.71875 L 0.84375 -4.5 C 0.78125 -3.96875 0.765625 -3.390625 0.765625 -2.8125 C 0.90625 -2.546875 1.09375 -2.234375 1.28125 -2.015625 L 2.5 -2.703125 C 2.640625 -2.78125 2.75 -2.828125 2.921875 -2.828125 C 3.21875 -2.828125 3.53125 -2.578125 3.53125 -1.671875 C 3.53125 -1.296875 3.5 -0.40625 3.234375 -0.40625 C 3.203125 -0.40625 3.1875 -0.40625 3.171875 -0.421875 L 2.21875 -1.0625 C 1.953125 -1.234375 1.65625 -1.328125 1.34375 -1.328125 C 0.609375 -1.328125 0.078125 -0.578125 -0.328125 -0.140625 L -0.234375 -0.03125 C 0.15625 -0.375 0.484375 -0.5625 0.84375 -0.5625 C 1.34375 -0.5625 1.953125 -0.03125 2.359375 0.359375 C 2.96875 -0.015625 3.640625 -0.3125 4.28125 -0.59375 C 4.421875 -1.125 4.46875 -1.65625 4.46875 -2.21875 C 4.46875 -2.515625 4.453125 -2.828125 4.4375 -3.125 C 4.234375 -3.328125 4.03125 -3.5 3.765625 -3.578125 Z M 2.296875 -2.921875 "/>
</g>
<g id="glyph-0-4">
<path d="M 2.71875 -7.65625 L 1.375 -6.671875 L 1.375 -4.609375 L 0.5 -4.609375 L 0.3125 -4.203125 L 1.390625 -4.203125 C 1.375 -3.03125 1.375 -0.75 1.375 -0.734375 L 2.53125 0.25 L 4.171875 -0.9375 L 4.140625 -1.1875 C 3.734375 -0.921875 3.484375 -0.8125 3.296875 -0.8125 C 3.0625 -0.8125 2.65625 -1.1875 2.34375 -1.46875 L 2.328125 -4.203125 L 3.40625 -4.203125 L 3.609375 -4.609375 L 2.3125 -4.609375 C 2.3125 -5.390625 2.328125 -6.1875 2.46875 -6.953125 C 2.46875 -7.046875 2.515625 -7.125 2.5625 -7.1875 L 2.890625 -7.5 Z M 2.71875 -7.65625 "/>
</g>
<g id="glyph-1-0">
</g>
<g id="glyph-1-1">
<path d="M 3.890625 2.90625 C 3.890625 2.875 3.890625 2.84375 3.6875 2.640625 C 2.484375 1.4375 1.8125 -0.53125 1.8125 -2.96875 C 1.8125 -5.296875 2.375 -7.296875 3.765625 -8.703125 C 3.890625 -8.8125 3.890625 -8.828125 3.890625 -8.875 C 3.890625 -8.9375 3.828125 -8.96875 3.78125 -8.96875 C 3.625 -8.96875 2.640625 -8.109375 2.0625 -6.9375 C 1.453125 -5.71875 1.171875 -4.453125 1.171875 -2.96875 C 1.171875 -1.90625 1.34375 -0.484375 1.953125 0.78125 C 2.671875 2.21875 3.640625 3 3.78125 3 C 3.828125 3 3.890625 2.96875 3.890625 2.90625 Z M 3.890625 2.90625 "/>
</g>
<g id="glyph-1-2">
<path d="M 3.375 -2.96875 C 3.375 -3.890625 3.25 -5.359375 2.578125 -6.75 C 1.875 -8.1875 0.890625 -8.96875 0.765625 -8.96875 C 0.71875 -8.96875 0.65625 -8.9375 0.65625 -8.875 C 0.65625 -8.828125 0.65625 -8.8125 0.859375 -8.609375 C 2.0625 -7.40625 2.71875 -5.421875 2.71875 -2.984375 C 2.71875 -0.671875 2.15625 1.328125 0.78125 2.734375 C 0.65625 2.84375 0.65625 2.875 0.65625 2.90625 C 0.65625 2.96875 0.71875 3 0.765625 3 C 0.921875 3 1.90625 2.140625 2.484375 0.96875 C 3.09375 -0.25 3.375 -1.546875 3.375 -2.96875 Z M 3.375 -2.96875 "/>
</g>
<g id="glyph-1-3">
<path d="M 5.265625 -2.015625 L 5 -2.015625 C 4.953125 -1.8125 4.859375 -1.140625 4.75 -0.953125 C 4.65625 -0.84375 3.984375 -0.84375 3.625 -0.84375 L 1.40625 -0.84375 C 1.734375 -1.125 2.46875 -1.890625 2.765625 -2.171875 C 4.59375 -3.84375 5.265625 -4.46875 5.265625 -5.65625 C 5.265625 -7.03125 4.171875 -7.953125 2.78125 -7.953125 C 1.40625 -7.953125 0.578125 -6.765625 0.578125 -5.734375 C 0.578125 -5.125 1.109375 -5.125 1.140625 -5.125 C 1.40625 -5.125 1.703125 -5.3125 1.703125 -5.6875 C 1.703125 -6.03125 1.484375 -6.25 1.140625 -6.25 C 1.046875 -6.25 1.015625 -6.25 0.984375 -6.234375 C 1.203125 -7.046875 1.859375 -7.609375 2.625 -7.609375 C 3.640625 -7.609375 4.265625 -6.75 4.265625 -5.65625 C 4.265625 -4.640625 3.6875 -3.75 3 -2.984375 L 0.578125 -0.28125 L 0.578125 0 L 4.953125 0 Z M 5.265625 -2.015625 "/>
</g>
<g id="glyph-2-0">
</g>
<g id="glyph-2-1">
<path d="M 6.078125 -4.5 C 6.234375 -4.5 6.625 -4.5 6.625 -4.890625 C 6.625 -5.15625 6.390625 -5.15625 6.1875 -5.15625 L 3.53125 -5.15625 C 1.75 -5.15625 0.453125 -3.15625 0.453125 -1.75 C 0.453125 -0.734375 1.109375 0.125 2.1875 0.125 C 3.59375 0.125 5.140625 -1.40625 5.140625 -3.1875 C 5.140625 -3.65625 5.03125 -4.109375 4.75 -4.5 Z M 2.203125 -0.125 C 1.59375 -0.125 1.140625 -0.578125 1.140625 -1.40625 C 1.140625 -2.125 1.578125 -4.5 3.328125 -4.5 C 3.84375 -4.5 4.421875 -4.25 4.421875 -3.328125 C 4.421875 -2.921875 4.234375 -1.90625 3.8125 -1.21875 C 3.375 -0.515625 2.734375 -0.125 2.203125 -0.125 Z M 2.203125 -0.125 "/>
</g>
<g id="glyph-2-2">
<path d="M 2.328125 0.046875 C 2.328125 -0.640625 2.109375 -1.15625 1.609375 -1.15625 C 1.234375 -1.15625 1.046875 -0.84375 1.046875 -0.578125 C 1.046875 -0.328125 1.21875 0 1.625 0 C 1.78125 0 1.90625 -0.046875 2.015625 -0.15625 C 2.046875 -0.171875 2.0625 -0.171875 2.0625 -0.171875 C 2.09375 -0.171875 2.09375 -0.015625 2.09375 0.046875 C 2.09375 0.4375 2.015625 1.21875 1.328125 2 C 1.1875 2.140625 1.1875 2.15625 1.1875 2.1875 C 1.1875 2.25 1.25 2.3125 1.3125 2.3125 C 1.40625 2.3125 2.328125 1.421875 2.328125 0.046875 Z M 2.328125 0.046875 "/>
</g>
<g id="glyph-2-3">
<path d="M 2.71875 -2.390625 C 2.921875 -2.359375 3.25 -2.28125 3.328125 -2.265625 C 3.484375 -2.21875 4.015625 -2.03125 4.015625 -1.453125 C 4.015625 -1.09375 3.6875 -0.125 2.296875 -0.125 C 2.046875 -0.125 1.140625 -0.15625 0.90625 -0.8125 C 1.390625 -0.75 1.625 -1.125 1.625 -1.390625 C 1.625 -1.640625 1.453125 -1.765625 1.21875 -1.765625 C 0.953125 -1.765625 0.609375 -1.5625 0.609375 -1.03125 C 0.609375 -0.328125 1.328125 0.125 2.28125 0.125 C 4.09375 0.125 4.640625 -1.21875 4.640625 -1.84375 C 4.640625 -2.015625 4.640625 -2.359375 4.25 -2.734375 C 3.953125 -3.03125 3.671875 -3.078125 3.03125 -3.21875 C 2.703125 -3.28125 2.1875 -3.390625 2.1875 -3.9375 C 2.1875 -4.171875 2.40625 -5.03125 3.53125 -5.03125 C 4.046875 -5.03125 4.53125 -4.84375 4.65625 -4.40625 C 4.125 -4.40625 4.09375 -3.953125 4.09375 -3.9375 C 4.09375 -3.6875 4.328125 -3.625 4.4375 -3.625 C 4.609375 -3.625 4.9375 -3.75 4.9375 -4.25 C 4.9375 -4.75 4.484375 -5.265625 3.546875 -5.265625 C 1.984375 -5.265625 1.5625 -4.046875 1.5625 -3.546875 C 1.5625 -2.640625 2.453125 -2.453125 2.71875 -2.390625 Z M 2.71875 -2.390625 "/>
</g>
<g id="glyph-2-4">
<path d="M 3.484375 -2.71875 C 3.65625 -2.71875 3.859375 -2.71875 3.859375 -2.90625 C 3.859375 -3.0625 3.734375 -3.0625 3.53125 -3.0625 L 1.59375 -3.0625 C 1.890625 -4.140625 2.59375 -4.8125 3.65625 -4.8125 L 4 -4.8125 C 4.203125 -4.8125 4.390625 -4.8125 4.390625 -5 C 4.390625 -5.15625 4.25 -5.15625 4.046875 -5.15625 L 3.640625 -5.15625 C 2.15625 -5.15625 0.546875 -3.984375 0.546875 -2.109375 C 0.546875 -0.78125 1.453125 0.125 2.625 0.125 C 3.390625 0.125 4.140625 -0.359375 4.140625 -0.484375 C 4.140625 -0.546875 4.109375 -0.625 4.046875 -0.625 C 4 -0.625 3.984375 -0.609375 3.921875 -0.5625 C 3.46875 -0.265625 3.03125 -0.125 2.671875 -0.125 C 2.03125 -0.125 1.359375 -0.53125 1.359375 -1.703125 C 1.359375 -1.921875 1.390625 -2.234375 1.5 -2.71875 Z M 3.484375 -2.71875 "/>
</g>
<g id="glyph-3-0">
</g>
<g id="glyph-3-1">
<path d="M 1.59375 -1.3125 C 1.625 -1.421875 1.703125 -1.734375 1.71875 -1.84375 C 1.828125 -2.28125 1.828125 -2.28125 2.015625 -2.546875 C 2.28125 -2.9375 2.65625 -3.296875 3.1875 -3.296875 C 3.46875 -3.296875 3.640625 -3.125 3.640625 -2.75 C 3.640625 -2.3125 3.3125 -1.40625 3.15625 -1.015625 C 3.046875 -0.75 3.046875 -0.703125 3.046875 -0.59375 C 3.046875 -0.140625 3.421875 0.078125 3.765625 0.078125 C 4.546875 0.078125 4.875 -1.03125 4.875 -1.140625 C 4.875 -1.21875 4.8125 -1.25 4.75 -1.25 C 4.65625 -1.25 4.640625 -1.1875 4.625 -1.109375 C 4.4375 -0.453125 4.09375 -0.140625 3.796875 -0.140625 C 3.671875 -0.140625 3.609375 -0.21875 3.609375 -0.40625 C 3.609375 -0.59375 3.671875 -0.765625 3.75 -0.96875 C 3.859375 -1.265625 4.21875 -2.1875 4.21875 -2.625 C 4.21875 -3.234375 3.796875 -3.515625 3.234375 -3.515625 C 2.578125 -3.515625 2.171875 -3.125 1.9375 -2.828125 C 1.875 -3.265625 1.53125 -3.515625 1.125 -3.515625 C 0.84375 -3.515625 0.640625 -3.328125 0.515625 -3.078125 C 0.3125 -2.703125 0.234375 -2.3125 0.234375 -2.296875 C 0.234375 -2.21875 0.296875 -2.1875 0.359375 -2.1875 C 0.46875 -2.1875 0.46875 -2.21875 0.53125 -2.4375 C 0.625 -2.828125 0.765625 -3.296875 1.09375 -3.296875 C 1.3125 -3.296875 1.359375 -3.09375 1.359375 -2.921875 C 1.359375 -2.765625 1.3125 -2.625 1.25 -2.359375 C 1.234375 -2.296875 1.109375 -1.828125 1.078125 -1.71875 L 0.78125 -0.515625 C 0.75 -0.390625 0.703125 -0.203125 0.703125 -0.171875 C 0.703125 0.015625 0.859375 0.078125 0.96875 0.078125 C 1.109375 0.078125 1.234375 -0.015625 1.28125 -0.109375 C 1.3125 -0.15625 1.375 -0.4375 1.40625 -0.59375 Z M 1.59375 -1.3125 "/>
</g>
<g id="glyph-4-0">
</g>
<g id="glyph-4-1">
<path d="M 8.0625 -7.09375 C 8.203125 -7.15625 8.296875 -7.21875 8.296875 -7.359375 C 8.296875 -7.5 8.203125 -7.609375 8.0625 -7.609375 C 8 -7.609375 7.890625 -7.546875 7.84375 -7.53125 L 1.234375 -4.40625 C 1.03125 -4.3125 0.984375 -4.234375 0.984375 -4.140625 C 0.984375 -4.03125 1.0625 -3.9375 1.234375 -3.875 L 7.84375 -0.765625 C 8 -0.6875 8.015625 -0.6875 8.0625 -0.6875 C 8.1875 -0.6875 8.296875 -0.78125 8.296875 -0.921875 C 8.296875 -1.03125 8.25 -1.09375 8.046875 -1.1875 L 1.796875 -4.140625 Z M 7.875 1.640625 C 8.078125 1.640625 8.296875 1.640625 8.296875 1.40625 C 8.296875 1.15625 8.046875 1.15625 7.859375 1.15625 L 1.421875 1.15625 C 1.25 1.15625 0.984375 1.15625 0.984375 1.40625 C 0.984375 1.640625 1.203125 1.640625 1.40625 1.640625 Z M 7.875 1.640625 "/>
</g>
</g>
</defs>
<g fill="rgb(0%, 0%, 0%)" fill-opacity="1">
<use xlink:href="#glyph-0-1" x="0.5" y="13.735"/>
<use xlink:href="#glyph-0-2" x="6.460863" y="13.735"/>
<use xlink:href="#glyph-0-3" x="9.796364" y="13.735"/>
<use xlink:href="#glyph-0-4" x="15.088931" y="13.735"/>
</g>
<g fill="rgb(0%, 0%, 0%)" fill-opacity="1">
<use xlink:href="#glyph-1-1" x="19.069" y="13.735"/>
</g>
<g fill="rgb(0%, 0%, 0%)" fill-opacity="1">
<use xlink:href="#glyph-2-1" x="23.621" y="13.735"/>
</g>
<g fill="rgb(0%, 0%, 0%)" fill-opacity="1">
<use xlink:href="#glyph-2-2" x="30.058875" y="13.735"/>
</g>
<g fill="rgb(0%, 0%, 0%)" fill-opacity="1">
<use xlink:href="#glyph-2-3" x="35.295253" y="13.735"/>
</g>
<g fill="rgb(0%, 0%, 0%)" fill-opacity="1">
<use xlink:href="#glyph-3-1" x="40.812" y="15.529"/>
</g>
<g fill="rgb(0%, 0%, 0%)" fill-opacity="1">
<use xlink:href="#glyph-1-2" x="46.448" y="13.735"/>
</g>
<g fill="rgb(0%, 0%, 0%)" fill-opacity="1">
<use xlink:href="#glyph-4-1" x="54.321" y="13.735"/>
</g>
<g fill="rgb(0%, 0%, 0%)" fill-opacity="1">
<use xlink:href="#glyph-2-4" x="68.699" y="5.648"/>
</g>
<path fill="none" stroke-width="0.478" stroke-linecap="butt" stroke-linejoin="miter" stroke="rgb(0%, 0%, 0%)" stroke-opacity="1" stroke-miterlimit="10" d="M 0.00071875 0.00090625 L 5.852281 0.00090625 " transform="matrix(1, 0, 0, -1, 68.136, 10.747)"/>
<g fill="rgb(0%, 0%, 0%)" fill-opacity="1">
<use xlink:href="#glyph-1-3" x="68.136" y="21.936"/>
</g>
</svg>
