<?xml version="1.0" encoding="UTF-8"?>
<svg xmlns="http://www.w3.org/2000/svg" xmlns:xlink="http://www.w3.org/1999/xlink" viewBox="0 0 106.511 12.955">
<defs>
<g>
<g id="glyph-0-0">
</g>
<g id="glyph-0-1">
<path d="M 3.6875 -7.453125 C 3.390625 -8.296875 2.453125 -8.296875 2.296875 -8.296875 C 2.21875 -8.296875 2.09375 -8.296875 2.09375 -8.171875 C 2.09375 -8.078125 2.15625 -8.0625 2.21875 -8.0625 C 2.40625 -8.03125 2.546875 -8.015625 2.734375 -7.65625 C 2.859375 -7.4375 4.09375 -3.859375 4.09375 -3.84375 C 4.09375 -3.828125 4.078125 -3.8125 3.984375 -3.71875 L 0.875 -0.578125 C 0.734375 -0.4375 0.640625 -0.328125 0.640625 -0.171875 C 0.640625 -0.015625 0.78125 0.125 0.96875 0.125 C 1.015625 0.125 1.140625 0.109375 1.21875 0.03125 C 1.40625 -0.140625 3.125 -2.234375 4.203125 -3.53125 C 4.515625 -2.59375 4.90625 -1.5 5.265625 -0.484375 C 5.328125 -0.3125 5.390625 -0.140625 5.5625 0.015625 C 5.671875 0.125 5.703125 0.125 6.03125 0.125 L 6.265625 0.125 C 6.3125 0.125 6.390625 0.125 6.390625 0.03125 C 6.390625 -0.03125 6.390625 -0.03125 6.328125 -0.078125 C 6.234375 -0.21875 6.140625 -0.4375 6.09375 -0.578125 Z M 3.6875 -7.453125 "/>
</g>
<g id="glyph-0-2">
<path d="M 2.328125 0.046875 C 2.328125 -0.640625 2.109375 -1.15625 1.609375 -1.15625 C 1.234375 -1.15625 1.046875 -0.84375 1.046875 -0.578125 C 1.046875 -0.328125 1.21875 0 1.625 0 C 1.78125 0 1.90625 -0.046875 2.015625 -0.15625 C 2.046875 -0.171875 2.0625 -0.171875 2.0625 -0.171875 C 2.09375 -0.171875 2.09375 -0.015625 2.09375 0.046875 C 2.09375 0.4375 2.015625 1.21875 1.328125 2 C 1.1875 2.140625 1.1875 2.15625 1.1875 2.1875 C 1.1875 2.25 1.25 2.3125 1.3125 2.3125 C 1.40625 2.3125 2.328125 1.421875 2.328125 0.046875 Z M 2.328125 0.046875 "/>
</g>
<g id="glyph-0-3">
<path d="M 2.203125 -0.578125 C 2.203125 -0.921875 1.90625 -1.15625 1.625 -1.15625 C 1.28125 -1.15625 1.046875 -0.875 1.046875 -0.578125 C 1.046875 -0.234375 1.328125 0 1.609375 0 C 1.953125 0 2.203125 -0.28125 2.203125 -0.578125 Z M 2.203125 -0.578125 "/>
</g>
<g id="glyph-1-0">
</g>
<g id="glyph-1-1">
<path d="M 2.5 -5.078125 C 2.5 -5.296875 2.484375 -5.296875 2.265625 -5.296875 C 1.9375 -4.984375 1.515625 -4.796875 0.765625 -4.796875 L 0.765625 -4.53125 C 0.984375 -4.53125 1.40625 -4.53125 1.875 -4.734375 L 1.875 -0.65625 C 1.875 -0.359375 1.84375 -0.265625 1.09375 -0.265625 L 0.8125 -0.265625 L 0.8125 0 C 1.140625 -0.03125 1.828125 -0.03125 2.1875 -0.03125 C 2.546875 -0.03125 3.234375 -0.03125 3.5625 0 L 3.5625 -0.265625 L 3.28125 -0.265625 C 2.53125 -0.265625 2.5 -0.359375 2.5 -0.65625 Z M 2.5 -5.078125 "/>
</g>
<g id="glyph-1-2">
<path d="M 2.25 -1.625 C 2.375 -1.75 2.703125 -2.015625 2.84375 -2.125 C 3.328125 -2.578125 3.796875 -3.015625 3.796875 -3.734375 C 3.796875 -4.6875 3 -5.296875 2.015625 -5.296875 C 1.046875 -5.296875 0.421875 -4.578125 0.421875 -3.859375 C 0.421875 -3.46875 0.734375 -3.421875 0.84375 -3.421875 C 1.015625 -3.421875 1.265625 -3.53125 1.265625 -3.84375 C 1.265625 -4.25 0.859375 -4.25 0.765625 -4.25 C 1 -4.84375 1.53125 -5.03125 1.921875 -5.03125 C 2.65625 -5.03125 3.046875 -4.40625 3.046875 -3.734375 C 3.046875 -2.90625 2.46875 -2.296875 1.515625 -1.34375 L 0.515625 -0.296875 C 0.421875 -0.21875 0.421875 -0.203125 0.421875 0 L 3.5625 0 L 3.796875 -1.421875 L 3.546875 -1.421875 C 3.53125 -1.265625 3.46875 -0.875 3.375 -0.71875 C 3.328125 -0.65625 2.71875 -0.65625 2.59375 -0.65625 L 1.171875 -0.65625 Z M 2.25 -1.625 "/>
</g>
<g id="glyph-2-0">
</g>
<g id="glyph-2-1">
<path d="M 8.0625 -3.875 C 8.21875 -3.9375 8.296875 -4.03125 8.296875 -4.140625 C 8.296875 -4.25 8.25 -4.328125 8.0625 -4.40625 L 1.46875 -7.515625 C 1.296875 -7.609375 1.25 -7.609375 1.234375 -7.609375 C 1.09375 -7.609375 0.984375 -7.5 0.984375 -7.359375 C 0.984375 -7.21875 1.09375 -7.15625 1.21875 -7.09375 L 7.5 -4.140625 L 1.25 -1.1875 C 1 -1.09375 0.984375 -0.984375 0.984375 -0.921875 C 0.984375 -0.78125 1.09375 -0.6875 1.234375 -0.6875 C 1.265625 -0.6875 1.296875 -0.6875 1.453125 -0.765625 Z M 7.875 1.640625 C 8.078125 1.640625 8.296875 1.640625 8.296875 1.40625 C 8.296875 1.15625 8.046875 1.15625 7.859375 1.15625 L 1.421875 1.15625 C 1.25 1.15625 0.984375 1.15625 0.984375 1.40625 C 0.984375 1.640625 1.203125 1.640625 1.40625 1.640625 Z M 7.875 1.640625 "/>
</g>
<g id="glyph-2-2">
<path d="M 3.375 -7.375 C 3.375 -7.859375 3.6875 -8.625 5 -8.703125 C 5.0625 -8.71875 5.109375 -8.765625 5.109375 -8.828125 C 5.109375 -8.96875 5.015625 -8.96875 4.875 -8.96875 C 3.6875 -8.96875 2.59375 -8.359375 2.578125 -7.46875 L 2.578125 -4.75 C 2.578125 -4.28125 2.578125 -3.890625 2.109375 -3.5 C 1.6875 -3.15625 1.234375 -3.125 0.96875 -3.125 C 0.90625 -3.109375 0.859375 -3.0625 0.859375 -2.984375 C 0.859375 -2.875 0.9375 -2.875 1.046875 -2.859375 C 1.84375 -2.8125 2.421875 -2.375 2.546875 -1.796875 C 2.578125 -1.65625 2.578125 -1.640625 2.578125 -1.203125 L 2.578125 1.15625 C 2.578125 1.65625 2.578125 2.046875 3.15625 2.5 C 3.625 2.859375 4.40625 2.984375 4.875 2.984375 C 5.015625 2.984375 5.109375 2.984375 5.109375 2.859375 C 5.109375 2.734375 5.03125 2.734375 4.90625 2.71875 C 4.15625 2.671875 3.578125 2.296875 3.421875 1.6875 C 3.375 1.578125 3.375 1.546875 3.375 1.125 L 3.375 -1.390625 C 3.375 -1.9375 3.28125 -2.140625 2.90625 -2.515625 C 2.65625 -2.765625 2.3125 -2.890625 1.96875 -2.984375 C 2.953125 -3.265625 3.375 -3.8125 3.375 -4.5 Z M 3.375 -7.375 "/>
</g>
<g id="glyph-2-3">
<path d="M 2.578125 1.40625 C 2.578125 1.875 2.265625 2.640625 0.96875 2.71875 C 0.90625 2.734375 0.859375 2.78125 0.859375 2.859375 C 0.859375 2.984375 0.984375 2.984375 1.09375 2.984375 C 2.265625 2.984375 3.375 2.40625 3.375 1.5 L 3.375 -1.234375 C 3.375 -1.703125 3.375 -2.078125 3.859375 -2.46875 C 4.28125 -2.828125 4.734375 -2.84375 5 -2.859375 C 5.0625 -2.875 5.109375 -2.921875 5.109375 -2.984375 C 5.109375 -3.109375 5.03125 -3.109375 4.90625 -3.125 C 4.125 -3.171875 3.546875 -3.59375 3.421875 -4.1875 C 3.375 -4.3125 3.375 -4.34375 3.375 -4.765625 L 3.375 -7.140625 C 3.375 -7.640625 3.375 -8.015625 2.8125 -8.46875 C 2.328125 -8.84375 1.5 -8.96875 1.09375 -8.96875 C 0.984375 -8.96875 0.859375 -8.96875 0.859375 -8.828125 C 0.859375 -8.71875 0.9375 -8.71875 1.046875 -8.703125 C 1.8125 -8.65625 2.390625 -8.265625 2.546875 -7.65625 C 2.578125 -7.546875 2.578125 -7.53125 2.578125 -7.09375 L 2.578125 -4.59375 C 2.578125 -4.046875 2.671875 -3.84375 3.0625 -3.453125 C 3.3125 -3.203125 3.65625 -3.078125 4 -2.984375 C 3.015625 -2.71875 2.578125 -2.15625 2.578125 -1.46875 Z M 2.578125 1.40625 "/>
</g>
<g id="glyph-3-0">
</g>
<g id="glyph-3-1">
<path d="M 8.578125 -2.90625 C 8.578125 -4.015625 8.578125 -4.34375 8.296875 -4.734375 C 7.953125 -5.203125 7.390625 -5.265625 6.984375 -5.265625 C 5.984375 -5.265625 5.484375 -4.546875 5.296875 -4.09375 C 5.125 -5.015625 4.484375 -5.265625 3.734375 -5.265625 C 2.5625 -5.265625 2.109375 -4.28125 2.015625 -4.046875 L 2.015625 -5.265625 L 0.375 -5.140625 L 0.375 -4.796875 C 1.1875 -4.796875 1.296875 -4.703125 1.296875 -4.125 L 1.296875 -0.890625 C 1.296875 -0.34375 1.15625 -0.34375 0.375 -0.34375 L 0.375 0 C 0.6875 -0.03125 1.34375 -0.03125 1.671875 -0.03125 C 2.015625 -0.03125 2.671875 -0.03125 2.96875 0 L 2.96875 -0.34375 C 2.21875 -0.34375 2.0625 -0.34375 2.0625 -0.890625 L 2.0625 -3.109375 C 2.0625 -4.359375 2.890625 -5.03125 3.640625 -5.03125 C 4.375 -5.03125 4.546875 -4.421875 4.546875 -3.6875 L 4.546875 -0.890625 C 4.546875 -0.34375 4.40625 -0.34375 3.640625 -0.34375 L 3.640625 0 C 3.9375 -0.03125 4.59375 -0.03125 4.921875 -0.03125 C 5.265625 -0.03125 5.921875 -0.03125 6.234375 0 L 6.234375 -0.34375 C 5.46875 -0.34375 5.3125 -0.34375 5.3125 -0.890625 L 5.3125 -3.109375 C 5.3125 -4.359375 6.140625 -5.03125 6.890625 -5.03125 C 7.625 -5.03125 7.796875 -4.421875 7.796875 -3.6875 L 7.796875 -0.890625 C 7.796875 -0.34375 7.65625 -0.34375 6.890625 -0.34375 L 6.890625 0 C 7.203125 -0.03125 7.84375 -0.03125 8.171875 -0.03125 C 8.515625 -0.03125 9.171875 -0.03125 9.484375 0 L 9.484375 -0.34375 C 8.875 -0.34375 8.578125 -0.34375 8.578125 -0.703125 Z M 8.578125 -2.90625 "/>
</g>
<g id="glyph-3-2">
<path d="M 4.609375 -3.1875 C 4.609375 -3.84375 4.609375 -4.3125 4.09375 -4.78125 C 3.671875 -5.15625 3.125 -5.328125 2.609375 -5.328125 C 1.625 -5.328125 0.875 -4.6875 0.875 -3.90625 C 0.875 -3.5625 1.09375 -3.390625 1.375 -3.390625 C 1.65625 -3.390625 1.859375 -3.59375 1.859375 -3.890625 C 1.859375 -4.375 1.4375 -4.375 1.25 -4.375 C 1.53125 -4.875 2.109375 -5.09375 2.578125 -5.09375 C 3.125 -5.09375 3.84375 -4.640625 3.84375 -3.5625 L 3.84375 -3.078125 C 1.4375 -3.046875 0.53125 -2.046875 0.53125 -1.125 C 0.53125 -0.171875 1.625 0.125 2.359375 0.125 C 3.140625 0.125 3.6875 -0.359375 3.90625 -0.9375 C 3.953125 -0.375 4.328125 0.0625 4.84375 0.0625 C 5.09375 0.0625 5.78125 -0.109375 5.78125 -1.0625 L 5.78125 -1.734375 L 5.515625 -1.734375 L 5.515625 -1.0625 C 5.515625 -0.375 5.234375 -0.28125 5.0625 -0.28125 C 4.609375 -0.28125 4.609375 -0.921875 4.609375 -1.09375 Z M 3.84375 -1.6875 C 3.84375 -0.515625 2.96875 -0.125 2.453125 -0.125 C 1.859375 -0.125 1.375 -0.546875 1.375 -1.125 C 1.375 -2.703125 3.40625 -2.84375 3.84375 -2.875 Z M 3.84375 -1.6875 "/>
</g>
<g id="glyph-3-3">
<path d="M 3.34375 -2.828125 C 3.6875 -3.28125 4.203125 -3.921875 4.421875 -4.171875 C 4.90625 -4.71875 5.46875 -4.8125 5.859375 -4.8125 L 5.859375 -5.15625 C 5.34375 -5.125 5.3125 -5.125 4.859375 -5.125 C 4.40625 -5.125 4.375 -5.125 3.78125 -5.15625 L 3.78125 -4.8125 C 3.9375 -4.78125 4.125 -4.703125 4.125 -4.4375 C 4.125 -4.234375 4.015625 -4.09375 3.9375 -4 L 3.171875 -3.03125 L 2.25 -4.265625 C 2.21875 -4.3125 2.140625 -4.421875 2.140625 -4.5 C 2.140625 -4.578125 2.203125 -4.796875 2.5625 -4.8125 L 2.5625 -5.15625 C 2.265625 -5.125 1.65625 -5.125 1.328125 -5.125 C 0.9375 -5.125 0.90625 -5.125 0.171875 -5.15625 L 0.171875 -4.8125 C 0.78125 -4.8125 1.015625 -4.78125 1.265625 -4.453125 L 2.671875 -2.625 C 2.6875 -2.609375 2.734375 -2.53125 2.734375 -2.5 C 2.734375 -2.46875 1.8125 -1.296875 1.6875 -1.140625 C 1.15625 -0.484375 0.640625 -0.359375 0.125 -0.34375 L 0.125 0 C 0.578125 -0.03125 0.59375 -0.03125 1.109375 -0.03125 C 1.5625 -0.03125 1.59375 -0.03125 2.1875 0 L 2.1875 -0.34375 C 1.90625 -0.375 1.859375 -0.5625 1.859375 -0.734375 C 1.859375 -0.921875 1.9375 -1.015625 2.0625 -1.171875 C 2.234375 -1.421875 2.625 -1.90625 2.921875 -2.28125 L 3.890625 -1 C 4.09375 -0.734375 4.09375 -0.71875 4.09375 -0.640625 C 4.09375 -0.546875 4 -0.359375 3.6875 -0.34375 L 3.6875 0 C 4 -0.03125 4.578125 -0.03125 4.90625 -0.03125 C 5.3125 -0.03125 5.328125 -0.03125 6.046875 0 L 6.046875 -0.34375 C 5.421875 -0.34375 5.203125 -0.375 4.90625 -0.75 Z M 3.34375 -2.828125 "/>
</g>
<g id="glyph-4-0">
</g>
<g id="glyph-4-1">
<path d="M 1.59375 -1.3125 C 1.625 -1.421875 1.703125 -1.734375 1.71875 -1.84375 C 1.828125 -2.28125 1.828125 -2.28125 2.015625 -2.546875 C 2.28125 -2.9375 2.65625 -3.296875 3.1875 -3.296875 C 3.46875 -3.296875 3.640625 -3.125 3.640625 -2.75 C 3.640625 -2.3125 3.3125 -1.40625 3.15625 -1.015625 C 3.046875 -0.75 3.046875 -0.703125 3.046875 -0.59375 C 3.046875 -0.140625 3.421875 0.078125 3.765625 0.078125 C 4.546875 0.078125 4.875 -1.03125 4.875 -1.140625 C 4.875 -1.21875 4.8125 -1.25 4.75 -1.25 C 4.65625 -1.25 4.640625 -1.1875 4.625 -1.109375 C 4.4375 -0.453125 4.09375 -0.140625 3.796875 -0.140625 C 3.671875 -0.140625 3.609375 -0.21875 3.609375 -0.40625 C 3.609375 -0.59375 3.671875 -0.765625 3.75 -0.96875 C 3.859375 -1.265625 4.21875 -2.1875 4.21875 -2.625 C 4.21875 -3.234375 3.796875 -3.515625 3.234375 -3.515625 C 2.578125 -3.515625 2.171875 -3.125 1.9375 -2.828125 C 1.875 -3.265625 1.53125 -3.515625 1.125 -3.515625 C 0.84375 -3.515625 0.640625 -3.328125 0.515625 -3.078125 C 0.3125 -2.703125 0.234375 -2.3125 0.234375 -2.296875 C 0.234375 -2.21875 0.296875 -2.1875 0.359375 -2.1875 C 0.46875 -2.1875 0.46875 -2.21875 0.53125 -2.4375 C 0.625 -2.828125 0.765625 -3.296875 1.09375 -3.296875 C 1.3125 -3.296875 1.359375 -3.09375 1.359375 -2.921875 C 1.359375 -2.765625 1.3125 -2.625 1.25 -2.359375 C 1.234375 -2.296875 1.109375 -1.828125 1.078125 -1.71875 L 0.78125 -0.515625 C 0.75 -0.390625 0.703125 -0.203125 0.703125 -0.171875 C 0.703125 0.015625 0.859375 0.078125 0.96875 0.078125 C 1.109375 0.078125 1.234375 -0.015625 1.28125 -0.109375 C 1.3125 -0.15625 1.375 -0.4375 1.40625 -0.59375 Z M 1.59375 -1.3125 "/>
</g>
</g>
<clipPath id="clip-0">
<path clip-rule="nonzero" d="M 50 0 L 55 0 L 55 12.953125 L 50 12.953125 Z M 50 0 "/>
</clipPath>
<clipPath id="clip-1">
<path clip-rule="nonzero" d="M 100 0 L 106 0 L 106 12.953125 L 100 12.953125 Z M 100 0 "/>
</clipPath>
</defs>
<g fill="rgb(0%, 0%, 0%)" fill-opacity="1">
<use xlink:href="#glyph-0-1" x="0.5" y="9.466"/>
</g>
<g fill="rgb(0%, 0%, 0%)" fill-opacity="1">
<use xlink:href="#glyph-1-1" x="7.328" y="11.259"/>
</g>
<g fill="rgb(0%, 0%, 0%)" fill-opacity="1">
<use xlink:href="#glyph-2-1" x="15.382" y="9.466"/>
</g>
<g fill="rgb(0%, 0%, 0%)" fill-opacity="1">
<use xlink:href="#glyph-3-1" x="28.001" y="9.466"/>
<use xlink:href="#glyph-3-2" x="37.756443" y="9.466"/>
<use xlink:href="#glyph-3-3" x="43.609709" y="9.466"/>
</g>
<g clip-path="url(#clip-0)">
<g fill="rgb(0%, 0%, 0%)" fill-opacity="1">
<use xlink:href="#glyph-2-2" x="49.787" y="9.466"/>
</g>
</g>
<g fill="rgb(0%, 0%, 0%)" fill-opacity="1">
<use xlink:href="#glyph-0-1" x="55.765" y="9.466"/>
</g>
<g fill="rgb(0%, 0%, 0%)" fill-opacity="1">
<use xlink:href="#glyph-1-2" x="62.593" y="11.259"/>
</g>
<g fill="rgb(0%, 0%, 0%)" fill-opacity="1">
<use xlink:href="#glyph-0-2" x="67.325" y="9.466"/>
</g>
<g fill="rgb(0%, 0%, 0%)" fill-opacity="1">
<use xlink:href="#glyph-0-3" x="72.573333" y="9.466"/>
<use xlink:href="#glyph-0-3" x="75.825147" y="9.466"/>
<use xlink:href="#glyph-0-3" x="79.076962" y="9.466"/>
<use xlink:href="#glyph-0-2" x="82.328776" y="9.466"/>
</g>
<g fill="rgb(0%, 0%, 0%)" fill-opacity="1">
<use xlink:href="#glyph-0-1" x="87.565154" y="9.466"/>
</g>
<g fill="rgb(0%, 0%, 0%)" fill-opacity="1">
<use xlink:href="#glyph-4-1" x="94.397" y="11.259"/>
</g>
<g clip-path="url(#clip-1)">
<g fill="rgb(0%, 0%, 0%)" fill-opacity="1">
<use xlink:href="#glyph-2-3" x="100.034" y="9.466"/>
</g>
</g>
</svg>
