<?xml version="1.0" encoding="UTF-8"?>
<svg xmlns="http://www.w3.org/2000/svg" xmlns:xlink="http://www.w3.org/1999/xlink" viewBox="0 0 10.298 8.93">
<defs>
<g>
<g id="glyph-0-0">
</g>
<g id="glyph-0-1">
<path d="M 5.390625 -5.5625 C 5.390625 -5.96875 5.0625 -6.3125 4.65625 -6.3125 C 4.25 -6.3125 3.90625 -5.96875 3.90625 -5.5625 C 3.90625 -5.15625 4.25 -4.828125 4.65625 -4.828125 C 5.0625 -4.828125 5.390625 -5.15625 5.390625 -5.5625 Z M 5.390625 -0.40625 C 5.390625 -0.8125 5.0625 -1.140625 4.65625 -1.140625 C 4.25 -1.140625 3.90625 -0.8125 3.90625 -0.40625 C 3.90625 0 4.25 0.328125 4.65625 0.328125 C 5.0625 0.328125 5.390625 0 5.390625 -0.40625 Z M 7.359375 -5.359375 C 7.5 -5.515625 7.53125 -5.53125 7.53125 -5.625 C 7.53125 -5.765625 7.421875 -5.875 7.296875 -5.875 C 7.203125 -5.875 7.140625 -5.828125 7.03125 -5.703125 L 4.65625 -3.328125 L 2.265625 -5.703125 C 2.109375 -5.84375 2.09375 -5.875 2 -5.875 C 1.875 -5.875 1.75 -5.765625 1.75 -5.625 C 1.75 -5.53125 1.8125 -5.484375 1.921875 -5.359375 L 4.046875 -3.234375 L 1.09375 -3.234375 C 0.890625 -3.234375 0.671875 -3.234375 0.671875 -2.984375 C 0.671875 -2.75 0.890625 -2.75 1.09375 -2.75 L 4.046875 -2.75 L 1.921875 -0.625 C 1.796875 -0.484375 1.75 -0.421875 1.75 -0.34375 C 1.75 -0.21875 1.875 -0.109375 2 -0.109375 C 2.09375 -0.109375 2.109375 -0.125 2.265625 -0.28125 L 4.640625 -2.65625 C 5.21875 -2.078125 6.96875 -0.328125 7.125 -0.171875 C 7.140625 -0.15625 7.21875 -0.109375 7.296875 -0.109375 C 7.4375 -0.109375 7.53125 -0.21875 7.53125 -0.34375 C 7.53125 -0.4375 7.5 -0.46875 7.359375 -0.609375 L 5.234375 -2.75 L 8.203125 -2.75 C 8.40625 -2.75 8.625 -2.75 8.625 -2.984375 C 8.625 -3.234375 8.40625 -3.234375 8.203125 -3.234375 L 5.234375 -3.234375 Z M 7.359375 -5.359375 "/>
</g>
</g>
</defs>
<g fill="rgb(0%, 0%, 0%)" fill-opacity="1">
<use xlink:href="#glyph-0-1" x="0.5" y="7.454"/>
</g>
</svg>
