<?xml version="1.0" encoding="UTF-8"?>
<svg xmlns="http://www.w3.org/2000/svg" xmlns:xlink="http://www.w3.org/1999/xlink" viewBox="0 0 47.965 12.955">
<defs>
<g>
<g id="glyph-0-0">
</g>
<g id="glyph-0-1">
<path d="M 3.890625 2.90625 C 3.890625 2.875 3.890625 2.84375 3.6875 2.640625 C 2.484375 1.4375 1.8125 -0.53125 1.8125 -2.96875 C 1.8125 -5.296875 2.375 -7.296875 3.765625 -8.703125 C 3.890625 -8.8125 3.890625 -8.828125 3.890625 -8.875 C 3.890625 -8.9375 3.828125 -8.96875 3.78125 -8.96875 C 3.625 -8.96875 2.640625 -8.109375 2.0625 -6.9375 C 1.453125 -5.71875 1.171875 -4.453125 1.171875 -2.96875 C 1.171875 -1.90625 1.34375 -0.484375 1.953125 0.78125 C 2.671875 2.21875 3.640625 3 3.78125 3 C 3.828125 3 3.890625 2.96875 3.890625 2.90625 Z M 3.890625 2.90625 "/>
</g>
<g id="glyph-0-2">
<path d="M 3.375 -2.96875 C 3.375 -3.890625 3.25 -5.359375 2.578125 -6.75 C 1.875 -8.1875 0.890625 -8.96875 0.765625 -8.96875 C 0.71875 -8.96875 0.65625 -8.9375 0.65625 -8.875 C 0.65625 -8.828125 0.65625 -8.8125 0.859375 -8.609375 C 2.0625 -7.40625 2.71875 -5.421875 2.71875 -2.984375 C 2.71875 -0.671875 2.15625 1.328125 0.78125 2.734375 C 0.65625 2.84375 0.65625 2.875 0.65625 2.90625 C 0.65625 2.96875 0.71875 3 0.765625 3 C 0.921875 3 1.90625 2.140625 2.484375 0.96875 C 3.09375 -0.25 3.375 -1.546875 3.375 -2.96875 Z M 3.375 -2.96875 "/>
</g>
<g id="glyph-1-0">
</g>
<g id="glyph-1-1">
<path d="M 2.03125 -1.328125 C 1.609375 -0.625 1.203125 -0.375 0.640625 -0.34375 C 0.5 -0.328125 0.40625 -0.328125 0.40625 -0.125 C 0.40625 -0.046875 0.46875 0 0.546875 0 C 0.765625 0 1.296875 -0.03125 1.515625 -0.03125 C 1.859375 -0.03125 2.25 0 2.578125 0 C 2.65625 0 2.796875 0 2.796875 -0.234375 C 2.796875 -0.328125 2.703125 -0.34375 2.625 -0.34375 C 2.359375 -0.375 2.125 -0.46875 2.125 -0.75 C 2.125 -0.921875 2.203125 -1.046875 2.359375 -1.3125 L 3.265625 -2.828125 L 6.3125 -2.828125 C 6.328125 -2.71875 6.328125 -2.625 6.328125 -2.515625 C 6.375 -2.203125 6.515625 -0.953125 6.515625 -0.734375 C 6.515625 -0.375 5.90625 -0.34375 5.71875 -0.34375 C 5.578125 -0.34375 5.453125 -0.34375 5.453125 -0.125 C 5.453125 0 5.5625 0 5.625 0 C 5.828125 0 6.078125 -0.03125 6.28125 -0.03125 L 6.953125 -0.03125 C 7.6875 -0.03125 8.21875 0 8.21875 0 C 8.3125 0 8.4375 0 8.4375 -0.234375 C 8.4375 -0.34375 8.328125 -0.34375 8.15625 -0.34375 C 7.5 -0.34375 7.484375 -0.453125 7.453125 -0.8125 L 6.71875 -8.265625 C 6.6875 -8.515625 6.640625 -8.53125 6.515625 -8.53125 C 6.390625 -8.53125 6.328125 -8.515625 6.21875 -8.328125 Z M 3.46875 -3.171875 L 5.875 -7.1875 L 6.28125 -3.171875 Z M 3.46875 -3.171875 "/>
</g>
<g id="glyph-1-2">
<path d="M 2.328125 0.046875 C 2.328125 -0.640625 2.109375 -1.15625 1.609375 -1.15625 C 1.234375 -1.15625 1.046875 -0.84375 1.046875 -0.578125 C 1.046875 -0.328125 1.21875 0 1.625 0 C 1.78125 0 1.90625 -0.046875 2.015625 -0.15625 C 2.046875 -0.171875 2.0625 -0.171875 2.0625 -0.171875 C 2.09375 -0.171875 2.09375 -0.015625 2.09375 0.046875 C 2.09375 0.4375 2.015625 1.21875 1.328125 2 C 1.1875 2.140625 1.1875 2.15625 1.1875 2.1875 C 1.1875 2.25 1.25 2.3125 1.3125 2.3125 C 1.40625 2.3125 2.328125 1.421875 2.328125 0.046875 Z M 2.328125 0.046875 "/>
</g>
<g id="glyph-2-0">
</g>
<g id="glyph-2-1">
<path d="M 8.625 -7.796875 C 8.625 -8.15625 8.578125 -8.21875 8.203125 -8.21875 L 1.09375 -8.21875 C 0.71875 -8.21875 0.671875 -8.171875 0.671875 -7.796875 L 0.671875 -0.4375 C 0.671875 -0.046875 0.703125 0 1.09375 0 L 8.1875 0 C 8.578125 0 8.625 -0.03125 8.625 -0.421875 Z M 1.140625 -4.34375 L 1.140625 -7.734375 L 4.40625 -7.734375 L 4.40625 -4.34375 Z M 8.140625 -7.734375 L 8.140625 -4.34375 L 4.890625 -4.34375 L 4.890625 -7.734375 Z M 1.140625 -0.484375 L 1.140625 -3.875 L 4.40625 -3.875 L 4.40625 -0.484375 Z M 8.140625 -3.875 L 8.140625 -0.484375 L 4.890625 -0.484375 L 4.890625 -3.875 Z M 8.140625 -3.875 "/>
</g>
<g id="glyph-2-2">
<path d="M 8.625 -2.984375 C 8.625 -5.1875 6.84375 -6.96875 4.65625 -6.96875 C 2.453125 -6.96875 0.671875 -5.171875 0.671875 -2.984375 C 0.671875 -0.78125 2.46875 0.984375 4.65625 0.984375 C 6.84375 0.984375 8.625 -0.796875 8.625 -2.984375 Z M 4.65625 0.6875 C 2.625 0.6875 0.96875 -0.953125 0.96875 -2.984375 C 0.96875 -5.015625 2.625 -6.671875 4.65625 -6.671875 C 6.6875 -6.671875 8.328125 -5.015625 8.328125 -2.984375 C 8.328125 -0.953125 6.6875 0.6875 4.65625 0.6875 Z M 6.09375 -1.796875 C 6.234375 -1.703125 6.4375 -1.546875 6.53125 -1.546875 C 6.703125 -1.546875 6.84375 -1.703125 6.84375 -1.875 C 6.84375 -2.0625 6.765625 -2.09375 6.578125 -2.1875 C 6.421875 -2.265625 5.671875 -2.609375 4.921875 -2.984375 L 6.59375 -3.796875 C 6.765625 -3.890625 6.84375 -3.921875 6.84375 -4.09375 C 6.84375 -4.265625 6.703125 -4.4375 6.53125 -4.4375 C 6.421875 -4.4375 6.34375 -4.375 6.3125 -4.34375 L 4.796875 -3.234375 L 4.953125 -5.109375 C 4.96875 -5.265625 4.96875 -5.5625 4.65625 -5.5625 C 4.46875 -5.5625 4.296875 -5.421875 4.34375 -5.265625 L 4.34375 -5.109375 L 4.5 -3.234375 L 3.203125 -4.1875 C 3.0625 -4.28125 2.875 -4.4375 2.765625 -4.4375 C 2.59375 -4.4375 2.453125 -4.265625 2.453125 -4.09375 C 2.453125 -3.921875 2.5625 -3.859375 2.6875 -3.796875 L 4.375 -2.984375 L 2.703125 -2.1875 C 2.53125 -2.09375 2.453125 -2.0625 2.453125 -1.875 C 2.453125 -1.703125 2.59375 -1.546875 2.765625 -1.546875 C 2.859375 -1.546875 3.046875 -1.6875 3.171875 -1.78125 L 4.5 -2.734375 L 4.328125 -0.734375 C 4.328125 -0.515625 4.515625 -0.421875 4.65625 -0.421875 C 4.78125 -0.421875 4.96875 -0.515625 4.96875 -0.734375 C 4.96875 -0.765625 4.90625 -1.328125 4.90625 -1.375 C 4.90625 -1.390625 4.859375 -1.859375 4.859375 -2.09375 L 4.796875 -2.734375 Z M 6.09375 -1.796875 "/>
</g>
</g>
<clipPath id="clip-0">
<path clip-rule="nonzero" d="M 1 0 L 5 0 L 5 12.953125 L 1 12.953125 Z M 1 0 "/>
</clipPath>
<clipPath id="clip-1">
<path clip-rule="nonzero" d="M 43 0 L 47 0 L 47 12.953125 L 43 12.953125 Z M 43 0 "/>
</clipPath>
</defs>
<g clip-path="url(#clip-0)">
<g fill="rgb(0%, 0%, 0%)" fill-opacity="1">
<use xlink:href="#glyph-0-1" x="0.5" y="9.466"/>
</g>
</g>
<g fill="rgb(0%, 0%, 0%)" fill-opacity="1">
<use xlink:href="#glyph-1-1" x="5.052" y="9.466"/>
<use xlink:href="#glyph-1-2" x="13.827117" y="9.466"/>
</g>
<g fill="rgb(0%, 0%, 0%)" fill-opacity="1">
<use xlink:href="#glyph-2-1" x="19.072" y="9.466"/>
</g>
<g fill="rgb(0%, 0%, 0%)" fill-opacity="1">
<use xlink:href="#glyph-1-2" x="28.37" y="9.466"/>
</g>
<g fill="rgb(0%, 0%, 0%)" fill-opacity="1">
<use xlink:href="#glyph-2-2" x="33.614" y="9.466"/>
</g>
<g clip-path="url(#clip-1)">
<g fill="rgb(0%, 0%, 0%)" fill-opacity="1">
<use xlink:href="#glyph-0-2" x="42.913" y="9.466"/>
</g>
</g>
</svg>
