<?xml version="1.0" encoding="UTF-8"?>
<svg xmlns="http://www.w3.org/2000/svg" xmlns:xlink="http://www.w3.org/1999/xlink" viewBox="0 0 83.278 9.302">
<defs>
<g>
<g id="glyph-0-0">
</g>
<g id="glyph-0-1">
<path d="M 3.59375 -1.421875 C 3.53125 -1.21875 3.53125 -1.1875 3.375 -0.96875 C 3.109375 -0.640625 2.578125 -0.125 2.015625 -0.125 C 1.53125 -0.125 1.25 -0.5625 1.25 -1.265625 C 1.25 -1.921875 1.625 -3.265625 1.859375 -3.765625 C 2.265625 -4.609375 2.828125 -5.03125 3.28125 -5.03125 C 4.078125 -5.03125 4.234375 -4.046875 4.234375 -3.953125 C 4.234375 -3.9375 4.203125 -3.796875 4.1875 -3.765625 Z M 4.359375 -4.484375 C 4.234375 -4.796875 3.90625 -5.265625 3.28125 -5.265625 C 1.9375 -5.265625 0.484375 -3.53125 0.484375 -1.75 C 0.484375 -0.578125 1.171875 0.125 1.984375 0.125 C 2.640625 0.125 3.203125 -0.390625 3.53125 -0.78125 C 3.65625 -0.078125 4.21875 0.125 4.578125 0.125 C 4.9375 0.125 5.21875 -0.09375 5.4375 -0.53125 C 5.625 -0.9375 5.796875 -1.65625 5.796875 -1.703125 C 5.796875 -1.765625 5.75 -1.8125 5.671875 -1.8125 C 5.5625 -1.8125 5.5625 -1.75 5.515625 -1.578125 C 5.328125 -0.875 5.109375 -0.125 4.609375 -0.125 C 4.265625 -0.125 4.25 -0.4375 4.25 -0.671875 C 4.25 -0.9375 4.28125 -1.078125 4.390625 -1.546875 C 4.46875 -1.84375 4.53125 -2.109375 4.625 -2.453125 C 5.0625 -4.25 5.171875 -4.671875 5.171875 -4.75 C 5.171875 -4.90625 5.046875 -5.046875 4.859375 -5.046875 C 4.484375 -5.046875 4.390625 -4.625 4.359375 -4.484375 Z M 4.359375 -4.484375 "/>
</g>
<g id="glyph-0-2">
<path d="M 2.765625 -8 C 2.765625 -8.046875 2.796875 -8.109375 2.796875 -8.171875 C 2.796875 -8.296875 2.671875 -8.296875 2.65625 -8.296875 C 2.640625 -8.296875 2.21875 -8.265625 2 -8.234375 C 1.796875 -8.21875 1.609375 -8.203125 1.40625 -8.1875 C 1.109375 -8.15625 1.03125 -8.15625 1.03125 -7.9375 C 1.03125 -7.8125 1.140625 -7.8125 1.265625 -7.8125 C 1.875 -7.8125 1.875 -7.703125 1.875 -7.59375 C 1.875 -7.5 1.78125 -7.15625 1.734375 -6.9375 L 1.453125 -5.796875 C 1.328125 -5.3125 0.640625 -2.609375 0.59375 -2.390625 C 0.53125 -2.09375 0.53125 -1.890625 0.53125 -1.734375 C 0.53125 -0.515625 1.21875 0.125 2 0.125 C 3.375 0.125 4.8125 -1.65625 4.8125 -3.390625 C 4.8125 -4.5 4.203125 -5.265625 3.296875 -5.265625 C 2.671875 -5.265625 2.109375 -4.75 1.890625 -4.515625 Z M 2.015625 -0.125 C 1.625 -0.125 1.203125 -0.40625 1.203125 -1.34375 C 1.203125 -1.734375 1.25 -1.953125 1.453125 -2.796875 C 1.5 -2.953125 1.6875 -3.71875 1.734375 -3.875 C 1.75 -3.96875 2.46875 -5.03125 3.28125 -5.03125 C 3.796875 -5.03125 4.046875 -4.5 4.046875 -3.890625 C 4.046875 -3.3125 3.703125 -1.953125 3.40625 -1.34375 C 3.109375 -0.6875 2.5625 -0.125 2.015625 -0.125 Z M 2.015625 -0.125 "/>
</g>
<g id="glyph-1-0">
</g>
<g id="glyph-1-1">
<path d="M 8.0625 -3.875 C 8.234375 -3.875 8.453125 -3.875 8.453125 -4.09375 C 8.453125 -4.3125 8.25 -4.3125 8.0625 -4.3125 L 1.03125 -4.3125 C 0.859375 -4.3125 0.640625 -4.3125 0.640625 -4.09375 C 0.640625 -3.875 0.84375 -3.875 1.03125 -3.875 Z M 8.0625 -1.65625 C 8.234375 -1.65625 8.453125 -1.65625 8.453125 -1.859375 C 8.453125 -2.09375 8.25 -2.09375 8.0625 -2.09375 L 1.03125 -2.09375 C 0.859375 -2.09375 0.640625 -2.09375 0.640625 -1.875 C 0.640625 -1.65625 0.84375 -1.65625 1.03125 -1.65625 Z M 8.0625 -1.65625 "/>
</g>
<g id="glyph-1-2">
<path d="M 5.359375 -3.828125 C 5.359375 -4.8125 5.296875 -5.78125 4.859375 -6.6875 C 4.375 -7.6875 3.515625 -7.953125 2.921875 -7.953125 C 2.234375 -7.953125 1.390625 -7.609375 0.9375 -6.609375 C 0.609375 -5.859375 0.484375 -5.109375 0.484375 -3.828125 C 0.484375 -2.671875 0.578125 -1.796875 1 -0.9375 C 1.46875 -0.03125 2.296875 0.25 2.921875 0.25 C 3.953125 0.25 4.546875 -0.375 4.90625 -1.0625 C 5.328125 -1.953125 5.359375 -3.125 5.359375 -3.828125 Z M 2.921875 0.015625 C 2.53125 0.015625 1.75 -0.203125 1.53125 -1.5 C 1.40625 -2.21875 1.40625 -3.125 1.40625 -3.96875 C 1.40625 -4.953125 1.40625 -5.828125 1.59375 -6.53125 C 1.796875 -7.34375 2.40625 -7.703125 2.921875 -7.703125 C 3.375 -7.703125 4.0625 -7.4375 4.296875 -6.40625 C 4.453125 -5.71875 4.453125 -4.78125 4.453125 -3.96875 C 4.453125 -3.171875 4.453125 -2.265625 4.3125 -1.53125 C 4.09375 -0.21875 3.328125 0.015625 2.921875 0.015625 Z M 2.921875 0.015625 "/>
</g>
<g id="glyph-2-0">
</g>
<g id="glyph-2-1">
<path d="M 2.75 -5.328125 C 1.46875 -5.21875 0.34375 -4.09375 0.34375 -2.578125 C 0.34375 -1.21875 1.34375 0.109375 2.921875 0.109375 C 4.359375 0.109375 5.484375 -1.15625 5.484375 -2.5625 C 5.484375 -3.890625 4.5 -5.34375 2.90625 -5.34375 C 2.859375 -5.34375 2.796875 -5.328125 2.75 -5.328125 Z M 1.265625 -2.3125 C 1.25 -2.40625 1.25 -2.5 1.25 -2.59375 C 1.25 -3.421875 1.34375 -4.5 2.265625 -4.9375 C 2.46875 -5.03125 2.6875 -5.078125 2.90625 -5.078125 C 3.359375 -5.078125 3.796875 -4.875 4.09375 -4.515625 C 4.515625 -4.03125 4.5625 -3.359375 4.5625 -2.734375 C 4.5625 -2.0625 4.546875 -1.296875 4.09375 -0.734375 C 3.796875 -0.375 3.359375 -0.15625 2.90625 -0.15625 C 1.90625 -0.15625 1.40625 -1.046875 1.296875 -1.9375 C 1.28125 -2.0625 1.28125 -2.1875 1.265625 -2.3125 Z M 1.265625 -2.3125 "/>
</g>
<g id="glyph-2-2">
<path d="M 0.375 -5.140625 L 0.375 -4.796875 L 0.53125 -4.796875 C 1.046875 -4.796875 1.296875 -4.75 1.296875 -4.03125 L 1.296875 -1.640625 C 1.296875 -1.265625 1.296875 -0.890625 1.5 -0.5625 C 1.8125 -0.03125 2.46875 0.125 3.03125 0.125 C 3.671875 0.125 4.375 -0.296875 4.546875 -0.953125 L 4.5625 0.109375 L 6.234375 -0.015625 L 6.234375 -0.359375 L 6 -0.359375 C 5.65625 -0.359375 5.3125 -0.40625 5.3125 -0.9375 L 5.3125 -5.265625 L 3.640625 -5.140625 L 3.640625 -4.796875 L 3.78125 -4.796875 C 4.1875 -4.796875 4.546875 -4.765625 4.546875 -4.203125 L 4.546875 -1.828125 C 4.484375 -0.984375 4.015625 -0.140625 3.078125 -0.140625 C 2.640625 -0.140625 2.21875 -0.25 2.09375 -0.890625 C 2.0625 -1.109375 2.0625 -1.34375 2.0625 -1.578125 L 2.0625 -5.265625 Z M 0.375 -5.140625 "/>
</g>
</g>
<clipPath id="clip-0">
<path clip-rule="nonzero" d="M 22 0 L 28 0 L 28 9.300781 L 22 9.300781 Z M 22 0 "/>
</clipPath>
<clipPath id="clip-1">
<path clip-rule="nonzero" d="M 77 0 L 83 0 L 83 9.300781 L 77 9.300781 Z M 77 0 "/>
</clipPath>
</defs>
<g fill="rgb(0%, 0%, 0%)" fill-opacity="1">
<use xlink:href="#glyph-0-1" x="0.5" y="8.802"/>
</g>
<g fill="rgb(0%, 0%, 0%)" fill-opacity="1">
<use xlink:href="#glyph-1-1" x="9.966" y="8.802"/>
</g>
<g clip-path="url(#clip-0)">
<g fill="rgb(0%, 0%, 0%)" fill-opacity="1">
<use xlink:href="#glyph-1-2" x="22.394626" y="8.802"/>
</g>
</g>
<g fill="rgb(0%, 0%, 0%)" fill-opacity="1">
<use xlink:href="#glyph-2-1" x="36.046" y="8.802"/>
<use xlink:href="#glyph-2-2" x="41.89807" y="8.802"/>
</g>
<g fill="rgb(0%, 0%, 0%)" fill-opacity="1">
<use xlink:href="#glyph-0-2" x="56.202" y="8.802"/>
</g>
<g fill="rgb(0%, 0%, 0%)" fill-opacity="1">
<use xlink:href="#glyph-1-1" x="64.5" y="8.802"/>
</g>
<g clip-path="url(#clip-1)">
<g fill="rgb(0%, 0%, 0%)" fill-opacity="1">
<use xlink:href="#glyph-1-2" x="76.928626" y="8.802"/>
</g>
</g>
</svg>
