<?xml version="1.0" encoding="UTF-8"?>
<svg xmlns="http://www.w3.org/2000/svg" xmlns:xlink="http://www.w3.org/1999/xlink" viewBox="0 0 32.815 9.703">
<defs>
<g>
<g id="glyph-0-0">
</g>
<g id="glyph-0-1">
<path d="M 8.921875 -8.3125 C 8.921875 -8.421875 8.84375 -8.421875 8.828125 -8.421875 C 8.796875 -8.421875 8.75 -8.421875 8.65625 -8.296875 L 7.828125 -7.296875 C 7.40625 -8.015625 6.75 -8.421875 5.859375 -8.421875 C 3.28125 -8.421875 0.59375 -5.796875 0.59375 -2.984375 C 0.59375 -0.984375 2 0.25 3.734375 0.25 C 4.703125 0.25 5.53125 -0.15625 6.234375 -0.734375 C 7.265625 -1.609375 7.578125 -2.765625 7.578125 -2.875 C 7.578125 -2.96875 7.484375 -2.96875 7.453125 -2.96875 C 7.34375 -2.96875 7.328125 -2.90625 7.296875 -2.859375 C 6.75 -0.984375 5.140625 -0.09375 3.9375 -0.09375 C 2.671875 -0.09375 1.578125 -0.90625 1.578125 -2.609375 C 1.578125 -2.984375 1.703125 -5.0625 3.046875 -6.640625 C 3.703125 -7.40625 4.828125 -8.0625 5.96875 -8.0625 C 7.28125 -8.0625 7.859375 -6.984375 7.859375 -5.765625 C 7.859375 -5.453125 7.828125 -5.1875 7.828125 -5.140625 C 7.828125 -5.03125 7.953125 -5.03125 7.984375 -5.03125 C 8.109375 -5.03125 8.125 -5.046875 8.171875 -5.265625 Z M 8.921875 -8.3125 "/>
</g>
<g id="glyph-1-0">
</g>
<g id="glyph-1-1">
<path d="M 6.546875 -2.75 C 6.75 -2.75 6.96875 -2.75 6.96875 -2.984375 C 6.96875 -3.234375 6.75 -3.234375 6.546875 -3.234375 L 1.484375 -3.234375 C 1.625 -4.828125 3 -5.96875 4.6875 -5.96875 L 6.546875 -5.96875 C 6.75 -5.96875 6.96875 -5.96875 6.96875 -6.21875 C 6.96875 -6.453125 6.75 -6.453125 6.546875 -6.453125 L 4.65625 -6.453125 C 2.625 -6.453125 0.984375 -4.90625 0.984375 -2.984375 C 0.984375 -1.078125 2.625 0.484375 4.65625 0.484375 L 6.546875 0.484375 C 6.75 0.484375 6.96875 0.484375 6.96875 0.234375 C 6.96875 0 6.75 0 6.546875 0 L 4.6875 0 C 3 0 1.625 -1.140625 1.484375 -2.75 Z M 6.546875 -2.75 "/>
</g>
<g id="glyph-2-0">
</g>
<g id="glyph-2-1">
<path d="M 1.671875 -7.09375 C 1.671875 -7.25 1.671875 -7.546875 1.5625 -7.765625 L 2.875 -7.765625 C 2.71875 -7.578125 2.71875 -7.34375 2.71875 -7.15625 L 2.71875 -1.03125 C 2.71875 -0.84375 2.71875 -0.609375 2.875 -0.421875 L 1.5625 -0.421875 C 1.671875 -0.640625 1.671875 -0.9375 1.671875 -1.09375 Z M 4.921875 -4.59375 C 5.3125 -4.96875 5.421875 -5.578125 5.421875 -6.09375 C 5.421875 -6.921875 5.15625 -7.4375 4.875 -7.71875 C 5.703125 -7.625 6.546875 -7.328125 6.546875 -6.140625 C 6.546875 -5.375 5.71875 -4.75 4.921875 -4.59375 Z M 3.125 -7.125 C 3.125 -7.359375 3.125 -7.5 3.296875 -7.625 C 3.34375 -7.65625 3.53125 -7.765625 3.8125 -7.765625 C 4.34375 -7.765625 5 -7.34375 5 -6.09375 C 5 -4.75 4.3125 -4.46875 3.125 -4.453125 Z M 5.640625 -4.390625 C 6.3125 -4.734375 6.96875 -5.328125 6.96875 -6.140625 C 6.96875 -7.8125 5.59375 -8.1875 4.140625 -8.1875 L 0.515625 -8.1875 C 0.296875 -8.1875 0.109375 -8.1875 0.109375 -7.96875 C 0.109375 -7.765625 0.3125 -7.765625 0.5 -7.765625 C 1.21875 -7.765625 1.25 -7.65625 1.25 -7.078125 L 1.25 -1.109375 C 1.25 -0.515625 1.203125 -0.421875 0.453125 -0.421875 C 0.328125 -0.421875 0.109375 -0.421875 0.109375 -0.21875 C 0.109375 0 0.296875 0 0.515625 0 L 4.0625 0 C 5.53125 0 7.421875 -0.578125 7.421875 -2.234375 C 7.421875 -3.484375 6.515625 -4.140625 5.640625 -4.390625 Z M 3.125 -1.0625 L 3.125 -4.03125 C 4.09375 -4.03125 4.5 -4.03125 4.859375 -3.75 C 5.328125 -3.390625 5.359375 -2.625 5.359375 -2.234375 C 5.359375 -1.765625 5.328125 -0.421875 3.84375 -0.421875 C 3.125 -0.421875 3.125 -0.84375 3.125 -1.0625 Z M 5.265625 -0.5625 C 5.703125 -1.0625 5.78125 -1.703125 5.78125 -2.234375 C 5.78125 -3.0625 5.609375 -3.6875 5.125 -4.078125 C 6.234375 -3.890625 7 -3.28125 7 -2.234375 C 7 -1.328125 6.28125 -0.796875 5.265625 -0.5625 Z M 5.265625 -0.5625 "/>
</g>
</g>
<clipPath id="clip-0">
<path clip-rule="nonzero" d="M 14 2 L 21 2 L 21 9.703125 L 14 9.703125 Z M 14 2 "/>
</clipPath>
</defs>
<g fill="rgb(0%, 0%, 0%)" fill-opacity="1">
<use xlink:href="#glyph-0-1" x="0.5" y="8.736"/>
</g>
<g clip-path="url(#clip-0)">
<g fill="rgb(0%, 0%, 0%)" fill-opacity="1">
<use xlink:href="#glyph-1-1" x="13.054" y="8.736"/>
</g>
</g>
<g fill="rgb(0%, 0%, 0%)" fill-opacity="1">
<use xlink:href="#glyph-2-1" x="24.345" y="8.736"/>
</g>
</svg>
