<?xml version="1.0" encoding="UTF-8"?>
<svg xmlns="http://www.w3.org/2000/svg" xmlns:xlink="http://www.w3.org/1999/xlink" viewBox="0 0 59.065 13.862">
<defs>
<g>
<g id="glyph-0-0">
</g>
<g id="glyph-0-1">
<path d="M 7.40625 -6.84375 C 7.8125 -7.484375 8.171875 -7.765625 8.78125 -7.8125 C 8.90625 -7.828125 9 -7.828125 9 -8.046875 C 9 -8.09375 8.984375 -8.15625 8.875 -8.15625 C 8.65625 -8.15625 8.140625 -8.140625 7.921875 -8.140625 C 7.578125 -8.140625 7.21875 -8.15625 6.890625 -8.15625 C 6.796875 -8.15625 6.671875 -8.15625 6.671875 -7.9375 C 6.671875 -7.828125 6.78125 -7.8125 6.828125 -7.8125 C 7.265625 -7.78125 7.3125 -7.5625 7.3125 -7.421875 C 7.3125 -7.25 7.140625 -6.96875 7.140625 -6.953125 L 3.375 -1 L 2.546875 -7.453125 C 2.546875 -7.796875 3.171875 -7.8125 3.296875 -7.8125 C 3.484375 -7.8125 3.578125 -7.8125 3.578125 -8.046875 C 3.578125 -8.15625 3.453125 -8.15625 3.421875 -8.15625 C 3.21875 -8.15625 2.96875 -8.140625 2.765625 -8.140625 L 2.109375 -8.140625 C 1.234375 -8.140625 0.875 -8.15625 0.859375 -8.15625 C 0.78125 -8.15625 0.640625 -8.15625 0.640625 -7.953125 C 0.640625 -7.8125 0.734375 -7.8125 0.921875 -7.8125 C 1.53125 -7.8125 1.5625 -7.703125 1.609375 -7.40625 L 2.5625 -0.03125 C 2.59375 0.21875 2.59375 0.25 2.765625 0.25 C 2.90625 0.25 2.96875 0.21875 3.078125 0.03125 Z M 7.40625 -6.84375 "/>
</g>
<g id="glyph-1-0">
</g>
<g id="glyph-1-1">
<path d="M 7.875 -7.125 C 8.078125 -7.125 8.296875 -7.125 8.296875 -7.359375 C 8.296875 -7.609375 8.078125 -7.609375 7.875 -7.609375 L 4.65625 -7.609375 C 2.609375 -7.609375 0.984375 -6.03125 0.984375 -4.140625 C 0.984375 -2.21875 2.640625 -0.6875 4.65625 -0.6875 L 7.875 -0.6875 C 8.078125 -0.6875 8.296875 -0.6875 8.296875 -0.921875 C 8.296875 -1.15625 8.078125 -1.15625 7.875 -1.15625 L 4.6875 -1.15625 C 2.796875 -1.15625 1.46875 -2.5625 1.46875 -4.140625 C 1.46875 -5.765625 2.828125 -7.125 4.6875 -7.125 Z M 1.65625 1.15625 C 1.453125 1.15625 1.234375 1.15625 1.234375 1.40625 C 1.234375 1.640625 1.453125 1.640625 1.65625 1.640625 L 7.875 1.640625 C 8.078125 1.640625 8.296875 1.640625 8.296875 1.40625 C 8.296875 1.15625 8.078125 1.15625 7.875 1.15625 Z M 1.65625 1.15625 "/>
</g>
<g id="glyph-2-0">
</g>
<g id="glyph-2-1">
<path d="M 3.890625 2.90625 C 3.890625 2.875 3.890625 2.84375 3.6875 2.640625 C 2.484375 1.4375 1.8125 -0.53125 1.8125 -2.96875 C 1.8125 -5.296875 2.375 -7.296875 3.765625 -8.703125 C 3.890625 -8.8125 3.890625 -8.828125 3.890625 -8.875 C 3.890625 -8.9375 3.828125 -8.96875 3.78125 -8.96875 C 3.625 -8.96875 2.640625 -8.109375 2.0625 -6.9375 C 1.453125 -5.71875 1.171875 -4.453125 1.171875 -2.96875 C 1.171875 -1.90625 1.34375 -0.484375 1.953125 0.78125 C 2.671875 2.21875 3.640625 3 3.78125 3 C 3.828125 3 3.890625 2.96875 3.890625 2.90625 Z M 3.890625 2.90625 "/>
</g>
<g id="glyph-2-2">
<path d="M 3.375 -2.96875 C 3.375 -3.890625 3.25 -5.359375 2.578125 -6.75 C 1.875 -8.1875 0.890625 -8.96875 0.765625 -8.96875 C 0.71875 -8.96875 0.65625 -8.9375 0.65625 -8.875 C 0.65625 -8.828125 0.65625 -8.8125 0.859375 -8.609375 C 2.0625 -7.40625 2.71875 -5.421875 2.71875 -2.984375 C 2.71875 -0.671875 2.15625 1.328125 0.78125 2.734375 C 0.65625 2.84375 0.65625 2.875 0.65625 2.90625 C 0.65625 2.96875 0.71875 3 0.765625 3 C 0.921875 3 1.90625 2.140625 2.484375 0.96875 C 3.09375 -0.25 3.375 -1.546875 3.375 -2.96875 Z M 3.375 -2.96875 "/>
</g>
<g id="glyph-3-0">
</g>
<g id="glyph-3-1">
<path d="M 3.46875 -5.234375 C 3.46875 -5.359375 3.46875 -5.53125 3.296875 -5.53125 C 3.109375 -5.53125 3.109375 -5.359375 3.109375 -5.21875 L 3.109375 -0.359375 L 0.78125 -0.359375 C 0.640625 -0.359375 0.46875 -0.359375 0.46875 -0.1875 C 0.46875 0 0.640625 0 0.78125 0 L 5.8125 0 C 5.9375 0 6.109375 0 6.109375 -0.1875 C 6.109375 -0.359375 5.9375 -0.359375 5.8125 -0.359375 L 3.46875 -0.359375 Z M 3.46875 -5.234375 "/>
</g>
</g>
<clipPath id="clip-0">
<path clip-rule="nonzero" d="M 27 1 L 30 1 L 30 13.863281 L 27 13.863281 Z M 27 1 "/>
</clipPath>
<clipPath id="clip-1">
<path clip-rule="nonzero" d="M 47 1 L 51 1 L 51 13.863281 L 47 13.863281 Z M 47 1 "/>
</clipPath>
</defs>
<g fill="rgb(0%, 0%, 0%)" fill-opacity="1">
<use xlink:href="#glyph-0-1" x="0.5" y="10.373"/>
</g>
<g fill="rgb(0%, 0%, 0%)" fill-opacity="1">
<use xlink:href="#glyph-1-1" x="13.246" y="10.373"/>
</g>
<g clip-path="url(#clip-0)">
<g fill="rgb(0%, 0%, 0%)" fill-opacity="1">
<use xlink:href="#glyph-2-1" x="25.866" y="10.373"/>
</g>
</g>
<g fill="rgb(0%, 0%, 0%)" fill-opacity="1">
<use xlink:href="#glyph-0-1" x="30.418" y="10.373"/>
</g>
<g fill="rgb(0%, 0%, 0%)" fill-opacity="1">
<use xlink:href="#glyph-3-1" x="39.844" y="6.035"/>
</g>
<g clip-path="url(#clip-1)">
<g fill="rgb(0%, 0%, 0%)" fill-opacity="1">
<use xlink:href="#glyph-2-2" x="46.928" y="10.373"/>
</g>
</g>
<g fill="rgb(0%, 0%, 0%)" fill-opacity="1">
<use xlink:href="#glyph-3-1" x="51.481" y="6.035"/>
</g>
</svg>
