<?xml version="1.0" encoding="UTF-8"?>
<svg xmlns="http://www.w3.org/2000/svg" xmlns:xlink="http://www.w3.org/1999/xlink" viewBox="0 0 209.563 14.937">
<defs>
<g>
<g id="glyph-0-0">
</g>
<g id="glyph-0-1">
<path d="M 2.0625 -8.5625 C 2.0625 -8.75 2.0625 -8.96875 1.8125 -8.96875 C 1.578125 -8.96875 1.578125 -8.703125 1.578125 -8.515625 L 1.578125 2.546875 C 1.578125 2.734375 1.578125 2.984375 1.8125 2.984375 C 2.0625 2.984375 2.0625 2.765625 2.0625 2.578125 Z M 4.390625 -8.515625 C 4.390625 -8.71875 4.390625 -8.96875 4.140625 -8.96875 C 3.90625 -8.96875 3.90625 -8.75 3.90625 -8.5625 L 3.90625 2.578125 C 3.90625 2.765625 3.90625 2.984375 4.140625 2.984375 C 4.390625 2.984375 4.390625 2.71875 4.390625 2.546875 Z M 4.390625 -8.515625 "/>
</g>
<g id="glyph-0-2">
<path d="M 8.0625 -7.09375 C 8.203125 -7.15625 8.296875 -7.21875 8.296875 -7.359375 C 8.296875 -7.5 8.203125 -7.609375 8.0625 -7.609375 C 8 -7.609375 7.890625 -7.546875 7.84375 -7.53125 L 1.234375 -4.40625 C 1.03125 -4.3125 0.984375 -4.234375 0.984375 -4.140625 C 0.984375 -4.03125 1.0625 -3.9375 1.234375 -3.875 L 7.84375 -0.765625 C 8 -0.6875 8.015625 -0.6875 8.0625 -0.6875 C 8.1875 -0.6875 8.296875 -0.78125 8.296875 -0.921875 C 8.296875 -1.03125 8.25 -1.09375 8.046875 -1.1875 L 1.796875 -4.140625 Z M 7.875 1.640625 C 8.078125 1.640625 8.296875 1.640625 8.296875 1.40625 C 8.296875 1.15625 8.046875 1.15625 7.859375 1.15625 L 1.421875 1.15625 C 1.25 1.15625 0.984375 1.15625 0.984375 1.40625 C 0.984375 1.640625 1.203125 1.640625 1.40625 1.640625 Z M 7.875 1.640625 "/>
</g>
<g id="glyph-0-3">
<path d="M 7.875 -2.75 C 8.078125 -2.75 8.296875 -2.75 8.296875 -2.984375 C 8.296875 -3.234375 8.078125 -3.234375 7.875 -3.234375 L 1.40625 -3.234375 C 1.203125 -3.234375 0.984375 -3.234375 0.984375 -2.984375 C 0.984375 -2.75 1.203125 -2.75 1.40625 -2.75 Z M 7.875 -2.75 "/>
</g>
<g id="glyph-0-4">
<path d="M 6.84375 -8.375 C 6.75 -8.546875 6.734375 -8.5625 6.578125 -8.5625 C 5.75 -8.5625 4.296875 -8.21875 3.671875 -7.203125 C 3.484375 -7.546875 2.90625 -8.421875 2 -8.421875 C 1.1875 -8.421875 0.65625 -7.671875 0.65625 -7 C 0.65625 -6.53125 0.9375 -6.234375 1.265625 -5.890625 C 1.9375 -5.21875 1.9375 -5.03125 1.9375 -4.59375 C 1.9375 -3.890625 1.859375 -3.171875 1.34375 -3.171875 C 1.03125 -3.171875 0.96875 -3.609375 0.953125 -3.828125 C 0.953125 -3.921875 0.9375 -4.015625 0.796875 -4.015625 C 0.65625 -4.015625 0.65625 -3.890625 0.65625 -3.84375 C 0.65625 -3.625 0.765625 -2.90625 1.34375 -2.90625 C 2.3125 -2.90625 2.3125 -4.4375 2.3125 -4.703125 C 2.3125 -5.0625 2.296875 -5.515625 1.484375 -6.28125 C 1.140625 -6.578125 1.015625 -6.75 1.015625 -7.015625 C 1.015625 -7.53125 1.359375 -8.15625 1.984375 -8.15625 C 2.609375 -8.15625 3.078125 -7.234375 3.078125 -5.828125 L 3.078125 -2.3125 C 3.078125 -2.203125 3.078125 0 2.3125 0 C 1.859375 0 1.421875 -0.375 1.171875 -1.125 C 1.203125 -1.125 1.453125 -1.203125 1.453125 -1.3125 C 1.453125 -1.390625 1.34375 -1.453125 1.3125 -1.453125 C 1.265625 -1.453125 1.109375 -1.390625 1.0625 -1.359375 C 1.046875 -1.4375 0.984375 -1.5625 0.90625 -1.5625 C 0.84375 -1.5625 0.75 -1.46875 0.75 -1.40625 C 0.75 -1.359375 0.78125 -1.296875 0.796875 -1.25 C 0.734375 -1.25 0.546875 -1.171875 0.546875 -1.078125 C 0.546875 -1.015625 0.625 -0.9375 0.6875 -0.9375 C 0.71875 -0.9375 0.859375 -0.984375 0.890625 -1.015625 C 1.28125 0.03125 1.890625 0.265625 2.3125 0.265625 C 3.15625 0.265625 4.09375 -0.828125 4.09375 -3.25 L 4.09375 -4.125 L 5.46875 -4.125 L 5.625 -1.5 C 5.625 -1.421875 5.578125 -1.34375 5.578125 -1.109375 C 5.578125 -0.390625 6.171875 0.265625 6.96875 0.265625 C 7.125 0.265625 7.140625 0.265625 7.375 0.09375 L 8.234375 -0.578125 C 8.375 -0.6875 8.390625 -0.703125 8.390625 -0.75 C 8.390625 -0.84375 8.203125 -0.921875 8.15625 -0.921875 C 8.109375 -0.921875 7.671875 -0.578125 7.140625 -0.125 C 6.734375 -0.390625 6.59375 -0.78125 6.59375 -1.109375 C 6.59375 -1.34375 6.640625 -1.375 6.640625 -1.5 C 6.640625 -1.859375 6.578125 -2.46875 6.5625 -2.84375 C 6.53125 -3.078125 6.484375 -4.046875 6.484375 -4.203125 C 7.140625 -4.421875 8.453125 -5.1875 8.46875 -5.203125 C 8.515625 -5.234375 8.53125 -5.265625 8.53125 -5.3125 C 8.53125 -5.34375 8.46875 -5.484375 8.453125 -5.5 Z M 7.53125 -5.109375 C 6.4375 -4.5 6.1875 -4.5 5.828125 -4.5 L 4.09375 -4.5 L 4.09375 -5.078125 C 4.09375 -5.90625 4 -6.375 3.859375 -6.734375 C 4.28125 -7.890625 5.828125 -8.109375 5.828125 -8.109375 C 5.859375 -8.109375 5.921875 -7.984375 5.9375 -7.96875 Z M 7.53125 -5.109375 "/>
</g>
<g id="glyph-0-5">
<path d="M 2.296875 -2.984375 C 2.296875 -3.328125 2.015625 -3.625 1.65625 -3.625 C 1.3125 -3.625 1.03125 -3.328125 1.03125 -2.984375 C 1.03125 -2.640625 1.3125 -2.359375 1.65625 -2.359375 C 2.015625 -2.359375 2.296875 -2.640625 2.296875 -2.984375 Z M 2.296875 -2.984375 "/>
</g>
<g id="glyph-0-6">
<path d="M 3.921875 -8.515625 C 3.984375 -8.640625 3.984375 -8.671875 3.984375 -8.71875 C 3.984375 -8.859375 3.875 -8.96875 3.734375 -8.96875 C 3.640625 -8.96875 3.546875 -8.90625 3.46875 -8.6875 L 1.375 -3.203125 C 1.34375 -3.125 1.3125 -3.0625 1.3125 -2.984375 C 1.3125 -2.953125 1.3125 -2.921875 1.375 -2.78125 L 3.46875 2.703125 C 3.515625 2.828125 3.578125 2.984375 3.734375 2.984375 C 3.875 2.984375 3.984375 2.875 3.984375 2.75 C 3.984375 2.71875 3.984375 2.6875 3.921875 2.5625 L 1.8125 -2.984375 Z M 3.921875 -8.515625 "/>
</g>
<g id="glyph-0-7">
<path d="M 1.90625 -8.53125 C 1.90625 -8.75 1.90625 -8.96875 1.65625 -8.96875 C 1.421875 -8.96875 1.421875 -8.75 1.421875 -8.53125 L 1.421875 2.5625 C 1.421875 2.765625 1.421875 2.984375 1.65625 2.984375 C 1.90625 2.984375 1.90625 2.765625 1.90625 2.5625 Z M 1.90625 -8.53125 "/>
</g>
<g id="glyph-0-8">
<path d="M 3.265625 -2.78125 C 3.328125 -2.921875 3.328125 -2.953125 3.328125 -2.984375 C 3.328125 -3.03125 3.328125 -3.046875 3.265625 -3.1875 L 1.171875 -8.6875 C 1.09375 -8.890625 1.03125 -8.96875 0.890625 -8.96875 C 0.765625 -8.96875 0.65625 -8.859375 0.65625 -8.71875 C 0.65625 -8.6875 0.65625 -8.671875 0.71875 -8.53125 L 2.828125 -2.984375 L 0.71875 2.53125 C 0.65625 2.671875 0.65625 2.6875 0.65625 2.75 C 0.65625 2.875 0.765625 2.984375 0.890625 2.984375 C 1.046875 2.984375 1.09375 2.875 1.140625 2.75 Z M 3.265625 -2.78125 "/>
</g>
<g id="glyph-1-0">
</g>
<g id="glyph-1-1">
<path d="M 2.140625 -2.765625 C 2.46875 -2.765625 3.28125 -2.796875 3.84375 -3.015625 C 4.75 -3.359375 4.84375 -4.046875 4.84375 -4.265625 C 4.84375 -4.796875 4.390625 -5.265625 3.59375 -5.265625 C 2.34375 -5.265625 0.53125 -4.140625 0.53125 -2.015625 C 0.53125 -0.75 1.25 0.125 2.34375 0.125 C 3.96875 0.125 5 -1.140625 5 -1.296875 C 5 -1.375 4.921875 -1.4375 4.875 -1.4375 C 4.84375 -1.4375 4.828125 -1.421875 4.71875 -1.3125 C 3.953125 -0.296875 2.828125 -0.125 2.359375 -0.125 C 1.6875 -0.125 1.328125 -0.65625 1.328125 -1.546875 C 1.328125 -1.703125 1.328125 -2.015625 1.5 -2.765625 Z M 1.5625 -3.015625 C 2.078125 -4.859375 3.21875 -5.03125 3.59375 -5.03125 C 4.125 -5.03125 4.484375 -4.71875 4.484375 -4.265625 C 4.484375 -3.015625 2.5625 -3.015625 2.0625 -3.015625 Z M 1.5625 -3.015625 "/>
</g>
<g id="glyph-1-2">
<path d="M 5.53125 -3.03125 C 5.53125 -4.1875 4.875 -5.265625 3.609375 -5.265625 C 2.046875 -5.265625 0.484375 -3.5625 0.484375 -1.859375 C 0.484375 -0.828125 1.125 0.125 2.34375 0.125 C 3.078125 0.125 3.96875 -0.171875 4.8125 -0.890625 C 4.984375 -0.21875 5.359375 0.125 5.875 0.125 C 6.515625 0.125 6.84375 -0.546875 6.84375 -0.703125 C 6.84375 -0.8125 6.75 -0.8125 6.71875 -0.8125 C 6.625 -0.8125 6.609375 -0.78125 6.578125 -0.6875 C 6.46875 -0.375 6.1875 -0.125 5.90625 -0.125 C 5.53125 -0.125 5.53125 -0.890625 5.53125 -1.609375 C 6.75 -3.078125 7.046875 -4.578125 7.046875 -4.59375 C 7.046875 -4.703125 6.9375 -4.703125 6.90625 -4.703125 C 6.796875 -4.703125 6.796875 -4.65625 6.734375 -4.453125 C 6.59375 -3.921875 6.28125 -2.984375 5.53125 -2.015625 Z M 4.78125 -1.171875 C 3.734375 -0.234375 2.78125 -0.125 2.359375 -0.125 C 1.515625 -0.125 1.28125 -0.875 1.28125 -1.4375 C 1.28125 -1.953125 1.546875 -3.171875 1.90625 -3.828125 C 2.40625 -4.65625 3.078125 -5.03125 3.609375 -5.03125 C 4.765625 -5.03125 4.765625 -3.515625 4.765625 -2.515625 C 4.765625 -2.21875 4.75 -1.90625 4.75 -1.609375 C 4.75 -1.359375 4.765625 -1.296875 4.78125 -1.171875 Z M 4.78125 -1.171875 "/>
</g>
<g id="glyph-1-3">
<path d="M 5.46875 -4.46875 C 5.46875 -5.21875 5.078125 -5.265625 4.984375 -5.265625 C 4.703125 -5.265625 4.4375 -4.984375 4.4375 -4.75 C 4.4375 -4.609375 4.515625 -4.515625 4.5625 -4.46875 C 4.6875 -4.359375 5 -4.046875 5 -3.421875 C 5 -2.921875 4.28125 -0.125 2.84375 -0.125 C 2.109375 -0.125 1.96875 -0.734375 1.96875 -1.171875 C 1.96875 -1.765625 2.25 -2.609375 2.5625 -3.46875 C 2.765625 -3.953125 2.8125 -4.078125 2.8125 -4.3125 C 2.8125 -4.8125 2.453125 -5.265625 1.859375 -5.265625 C 0.765625 -5.265625 0.328125 -3.53125 0.328125 -3.4375 C 0.328125 -3.390625 0.375 -3.328125 0.453125 -3.328125 C 0.5625 -3.328125 0.578125 -3.375 0.625 -3.546875 C 0.90625 -4.578125 1.375 -5.03125 1.828125 -5.03125 C 1.9375 -5.03125 2.140625 -5.03125 2.140625 -4.640625 C 2.140625 -4.328125 2.015625 -3.984375 1.828125 -3.53125 C 1.25 -2 1.25 -1.625 1.25 -1.34375 C 1.25 -1.078125 1.296875 -0.578125 1.65625 -0.25 C 2.09375 0.125 2.6875 0.125 2.796875 0.125 C 4.78125 0.125 5.46875 -3.796875 5.46875 -4.46875 Z M 5.46875 -4.46875 "/>
</g>
<g id="glyph-2-0">
</g>
<g id="glyph-2-1">
<path d="M 2.25 -1.625 C 2.375 -1.75 2.703125 -2.015625 2.84375 -2.125 C 3.328125 -2.578125 3.796875 -3.015625 3.796875 -3.734375 C 3.796875 -4.6875 3 -5.296875 2.015625 -5.296875 C 1.046875 -5.296875 0.421875 -4.578125 0.421875 -3.859375 C 0.421875 -3.46875 0.734375 -3.421875 0.84375 -3.421875 C 1.015625 -3.421875 1.265625 -3.53125 1.265625 -3.84375 C 1.265625 -4.25 0.859375 -4.25 0.765625 -4.25 C 1 -4.84375 1.53125 -5.03125 1.921875 -5.03125 C 2.65625 -5.03125 3.046875 -4.40625 3.046875 -3.734375 C 3.046875 -2.90625 2.46875 -2.296875 1.515625 -1.34375 L 0.515625 -0.296875 C 0.421875 -0.21875 0.421875 -0.203125 0.421875 0 L 3.5625 0 L 3.796875 -1.421875 L 3.546875 -1.421875 C 3.53125 -1.265625 3.46875 -0.875 3.375 -0.71875 C 3.328125 -0.65625 2.71875 -0.65625 2.59375 -0.65625 L 1.171875 -0.65625 Z M 2.25 -1.625 "/>
</g>
<g id="glyph-3-0">
</g>
<g id="glyph-3-1">
<path d="M 5.265625 -2.015625 L 5 -2.015625 C 4.953125 -1.8125 4.859375 -1.140625 4.75 -0.953125 C 4.65625 -0.84375 3.984375 -0.84375 3.625 -0.84375 L 1.40625 -0.84375 C 1.734375 -1.125 2.46875 -1.890625 2.765625 -2.171875 C 4.59375 -3.84375 5.265625 -4.46875 5.265625 -5.65625 C 5.265625 -7.03125 4.171875 -7.953125 2.78125 -7.953125 C 1.40625 -7.953125 0.578125 -6.765625 0.578125 -5.734375 C 0.578125 -5.125 1.109375 -5.125 1.140625 -5.125 C 1.40625 -5.125 1.703125 -5.3125 1.703125 -5.6875 C 1.703125 -6.03125 1.484375 -6.25 1.140625 -6.25 C 1.046875 -6.25 1.015625 -6.25 0.984375 -6.234375 C 1.203125 -7.046875 1.859375 -7.609375 2.625 -7.609375 C 3.640625 -7.609375 4.265625 -6.75 4.265625 -5.65625 C 4.265625 -4.640625 3.6875 -3.75 3 -2.984375 L 0.578125 -0.28125 L 0.578125 0 L 4.953125 0 Z M 5.265625 -2.015625 "/>
</g>
<g id="glyph-3-2">
<path d="M 3.890625 2.90625 C 3.890625 2.875 3.890625 2.84375 3.6875 2.640625 C 2.484375 1.4375 1.8125 -0.53125 1.8125 -2.96875 C 1.8125 -5.296875 2.375 -7.296875 3.765625 -8.703125 C 3.890625 -8.8125 3.890625 -8.828125 3.890625 -8.875 C 3.890625 -8.9375 3.828125 -8.96875 3.78125 -8.96875 C 3.625 -8.96875 2.640625 -8.109375 2.0625 -6.9375 C 1.453125 -5.71875 1.171875 -4.453125 1.171875 -2.96875 C 1.171875 -1.90625 1.34375 -0.484375 1.953125 0.78125 C 2.671875 2.21875 3.640625 3 3.78125 3 C 3.828125 3 3.890625 2.96875 3.890625 2.90625 Z M 3.890625 2.90625 "/>
</g>
<g id="glyph-3-3">
<path d="M 3.375 -2.96875 C 3.375 -3.890625 3.25 -5.359375 2.578125 -6.75 C 1.875 -8.1875 0.890625 -8.96875 0.765625 -8.96875 C 0.71875 -8.96875 0.65625 -8.9375 0.65625 -8.875 C 0.65625 -8.828125 0.65625 -8.8125 0.859375 -8.609375 C 2.0625 -7.40625 2.71875 -5.421875 2.71875 -2.984375 C 2.71875 -0.671875 2.15625 1.328125 0.78125 2.734375 C 0.65625 2.84375 0.65625 2.875 0.65625 2.90625 C 0.65625 2.96875 0.71875 3 0.765625 3 C 0.921875 3 1.90625 2.140625 2.484375 0.96875 C 3.09375 -0.25 3.375 -1.546875 3.375 -2.96875 Z M 3.375 -2.96875 "/>
</g>
<g id="glyph-3-4">
<path d="M 4.765625 -2.765625 L 8.0625 -2.765625 C 8.234375 -2.765625 8.453125 -2.765625 8.453125 -2.96875 C 8.453125 -3.203125 8.25 -3.203125 8.0625 -3.203125 L 4.765625 -3.203125 L 4.765625 -6.5 C 4.765625 -6.671875 4.765625 -6.890625 4.546875 -6.890625 C 4.328125 -6.890625 4.328125 -6.6875 4.328125 -6.5 L 4.328125 -3.203125 L 1.03125 -3.203125 C 0.859375 -3.203125 0.640625 -3.203125 0.640625 -2.984375 C 0.640625 -2.765625 0.84375 -2.765625 1.03125 -2.765625 L 4.328125 -2.765625 L 4.328125 0.53125 C 4.328125 0.703125 4.328125 0.921875 4.546875 0.921875 C 4.765625 0.921875 4.765625 0.71875 4.765625 0.53125 Z M 4.765625 -2.765625 "/>
</g>
</g>
<clipPath id="clip-0">
<path clip-rule="nonzero" d="M 2 2 L 5 2 L 5 14.9375 L 2 14.9375 Z M 2 2 "/>
</clipPath>
<clipPath id="clip-1">
<path clip-rule="nonzero" d="M 13 2 L 17 2 L 17 14.9375 L 13 14.9375 Z M 13 2 "/>
</clipPath>
<clipPath id="clip-2">
<path clip-rule="nonzero" d="M 40 2 L 43 2 L 43 14.9375 L 40 14.9375 Z M 40 2 "/>
</clipPath>
<clipPath id="clip-3">
<path clip-rule="nonzero" d="M 51 2 L 55 2 L 55 14.9375 L 51 14.9375 Z M 51 2 "/>
</clipPath>
<clipPath id="clip-4">
<path clip-rule="nonzero" d="M 90 2 L 94 2 L 94 14.9375 L 90 14.9375 Z M 90 2 "/>
</clipPath>
<clipPath id="clip-5">
<path clip-rule="nonzero" d="M 111 2 L 115 2 L 115 14.9375 L 111 14.9375 Z M 111 2 "/>
</clipPath>
<clipPath id="clip-6">
<path clip-rule="nonzero" d="M 123 2 L 125 2 L 125 14.9375 L 123 14.9375 Z M 123 2 "/>
</clipPath>
<clipPath id="clip-7">
<path clip-rule="nonzero" d="M 135 2 L 139 2 L 139 14.9375 L 135 14.9375 Z M 135 2 "/>
</clipPath>
<clipPath id="clip-8">
<path clip-rule="nonzero" d="M 140 2 L 144 2 L 144 14.9375 L 140 14.9375 Z M 140 2 "/>
</clipPath>
<clipPath id="clip-9">
<path clip-rule="nonzero" d="M 160 2 L 161 2 L 161 14.9375 L 160 14.9375 Z M 160 2 "/>
</clipPath>
<clipPath id="clip-10">
<path clip-rule="nonzero" d="M 171 2 L 172 2 L 172 14.9375 L 171 14.9375 Z M 171 2 "/>
</clipPath>
<clipPath id="clip-11">
<path clip-rule="nonzero" d="M 187 2 L 191 2 L 191 14.9375 L 187 14.9375 Z M 187 2 "/>
</clipPath>
<clipPath id="clip-12">
<path clip-rule="nonzero" d="M 199 2 L 203 2 L 203 14.9375 L 199 14.9375 Z M 199 2 "/>
</clipPath>
</defs>
<g clip-path="url(#clip-0)">
<g fill="rgb(0%, 0%, 0%)" fill-opacity="1">
<use xlink:href="#glyph-0-1" x="0.5" y="11.448"/>
</g>
</g>
<g fill="rgb(0%, 0%, 0%)" fill-opacity="1">
<use xlink:href="#glyph-1-1" x="6.478" y="11.448"/>
</g>
<g clip-path="url(#clip-1)">
<g fill="rgb(0%, 0%, 0%)" fill-opacity="1">
<use xlink:href="#glyph-0-1" x="11.903" y="11.448"/>
</g>
</g>
<g fill="rgb(0%, 0%, 0%)" fill-opacity="1">
<use xlink:href="#glyph-2-1" x="17.881" y="5.637"/>
</g>
<g fill="rgb(0%, 0%, 0%)" fill-opacity="1">
<use xlink:href="#glyph-0-2" x="25.934" y="11.448"/>
</g>
<g clip-path="url(#clip-2)">
<g fill="rgb(0%, 0%, 0%)" fill-opacity="1">
<use xlink:href="#glyph-0-1" x="38.5563" y="11.448"/>
</g>
</g>
<g fill="rgb(0%, 0%, 0%)" fill-opacity="1">
<use xlink:href="#glyph-1-1" x="44.531" y="11.448"/>
</g>
<g clip-path="url(#clip-3)">
<g fill="rgb(0%, 0%, 0%)" fill-opacity="1">
<use xlink:href="#glyph-0-1" x="49.956" y="11.448"/>
</g>
</g>
<g fill="rgb(0%, 0%, 0%)" fill-opacity="1">
<use xlink:href="#glyph-2-1" x="55.934" y="5.637"/>
</g>
<g fill="rgb(0%, 0%, 0%)" fill-opacity="1">
<use xlink:href="#glyph-0-3" x="63.323" y="11.448"/>
</g>
<g fill="rgb(0%, 0%, 0%)" fill-opacity="1">
<use xlink:href="#glyph-3-1" x="75.278" y="11.448"/>
</g>
<g fill="rgb(0%, 0%, 0%)" fill-opacity="1">
<use xlink:href="#glyph-0-4" x="81.131" y="11.448"/>
</g>
<g clip-path="url(#clip-4)">
<g fill="rgb(0%, 0%, 0%)" fill-opacity="1">
<use xlink:href="#glyph-3-2" x="89.765" y="11.448"/>
</g>
</g>
<g fill="rgb(0%, 0%, 0%)" fill-opacity="1">
<use xlink:href="#glyph-1-2" x="94.318" y="11.448"/>
</g>
<g fill="rgb(0%, 0%, 0%)" fill-opacity="1">
<use xlink:href="#glyph-0-5" x="104.496" y="11.448"/>
</g>
<g clip-path="url(#clip-5)">
<g fill="rgb(0%, 0%, 0%)" fill-opacity="1">
<use xlink:href="#glyph-0-6" x="110.471209" y="11.448"/>
</g>
</g>
<g fill="rgb(0%, 0%, 0%)" fill-opacity="1">
<use xlink:href="#glyph-1-1" x="115.123" y="11.448"/>
</g>
<g clip-path="url(#clip-6)">
<g fill="rgb(0%, 0%, 0%)" fill-opacity="1">
<use xlink:href="#glyph-0-7" x="122.541" y="11.448"/>
</g>
</g>
<g fill="rgb(0%, 0%, 0%)" fill-opacity="1">
<use xlink:href="#glyph-1-3" x="129.05" y="11.448"/>
</g>
<g clip-path="url(#clip-7)">
<g fill="rgb(0%, 0%, 0%)" fill-opacity="1">
<use xlink:href="#glyph-0-8" x="135.138" y="11.448"/>
</g>
</g>
<g clip-path="url(#clip-8)">
<g fill="rgb(0%, 0%, 0%)" fill-opacity="1">
<use xlink:href="#glyph-3-3" x="139.787" y="11.448"/>
</g>
</g>
<g fill="rgb(0%, 0%, 0%)" fill-opacity="1">
<use xlink:href="#glyph-3-4" x="146.993595" y="11.448"/>
</g>
<g clip-path="url(#clip-9)">
<g fill="rgb(0%, 0%, 0%)" fill-opacity="1">
<use xlink:href="#glyph-0-7" x="158.757" y="11.448"/>
</g>
</g>
<g fill="rgb(0%, 0%, 0%)" fill-opacity="1">
<use xlink:href="#glyph-1-2" x="162.078" y="11.448"/>
</g>
<g clip-path="url(#clip-10)">
<g fill="rgb(0%, 0%, 0%)" fill-opacity="1">
<use xlink:href="#glyph-0-7" x="169.6" y="11.448"/>
</g>
</g>
<g fill="rgb(0%, 0%, 0%)" fill-opacity="1">
<use xlink:href="#glyph-2-1" x="172.921" y="5.637"/>
</g>
<g fill="rgb(0%, 0%, 0%)" fill-opacity="1">
<use xlink:href="#glyph-0-5" x="180.31" y="11.448"/>
</g>
<g clip-path="url(#clip-11)">
<g fill="rgb(0%, 0%, 0%)" fill-opacity="1">
<use xlink:href="#glyph-0-1" x="186.285209" y="11.448"/>
</g>
</g>
<g fill="rgb(0%, 0%, 0%)" fill-opacity="1">
<use xlink:href="#glyph-1-3" x="192.265" y="11.448"/>
</g>
<g clip-path="url(#clip-12)">
<g fill="rgb(0%, 0%, 0%)" fill-opacity="1">
<use xlink:href="#glyph-0-1" x="198.353" y="11.448"/>
</g>
</g>
<g fill="rgb(0%, 0%, 0%)" fill-opacity="1">
<use xlink:href="#glyph-2-1" x="204.331" y="5.637"/>
</g>
</svg>
