<?xml version="1.0" encoding="UTF-8"?>
<svg xmlns="http://www.w3.org/2000/svg" xmlns:xlink="http://www.w3.org/1999/xlink" viewBox="0 0 10.171 9.169">
<defs>
<g>
<g id="glyph-0-0">
</g>
<g id="glyph-0-1">
<path d="M 3.53125 -3.796875 L 5.546875 -3.796875 C 7.203125 -3.796875 8.84375 -5.015625 8.84375 -6.390625 C 8.84375 -7.3125 8.0625 -8.15625 6.546875 -8.15625 L 2.859375 -8.15625 C 2.625 -8.15625 2.515625 -8.15625 2.515625 -7.9375 C 2.515625 -7.8125 2.625 -7.8125 2.8125 -7.8125 C 3.53125 -7.8125 3.53125 -7.71875 3.53125 -7.59375 C 3.53125 -7.5625 3.53125 -7.5 3.484375 -7.3125 L 1.875 -0.890625 C 1.765625 -0.46875 1.75 -0.34375 0.90625 -0.34375 C 0.6875 -0.34375 0.5625 -0.34375 0.5625 -0.125 C 0.5625 0 0.671875 0 0.734375 0 C 0.96875 0 1.203125 -0.03125 1.4375 -0.03125 L 2.828125 -0.03125 C 3.0625 -0.03125 3.3125 0 3.53125 0 C 3.640625 0 3.765625 0 3.765625 -0.234375 C 3.765625 -0.34375 3.65625 -0.34375 3.484375 -0.34375 C 2.765625 -0.34375 2.75 -0.4375 2.75 -0.546875 C 2.75 -0.609375 2.765625 -0.6875 2.765625 -0.75 Z M 4.40625 -7.34375 C 4.5 -7.796875 4.546875 -7.8125 5.015625 -7.8125 L 6.203125 -7.8125 C 7.09375 -7.8125 7.84375 -7.53125 7.84375 -6.640625 C 7.84375 -6.328125 7.6875 -5.3125 7.140625 -4.75 C 6.9375 -4.546875 6.359375 -4.09375 5.265625 -4.09375 L 3.578125 -4.09375 Z M 4.40625 -7.34375 "/>
</g>
</g>
</defs>
<g fill="rgb(0%, 0%, 0%)" fill-opacity="1">
<use xlink:href="#glyph-0-1" x="0.5" y="8.669"/>
</g>
</svg>
