<?xml version="1.0" encoding="UTF-8"?>
<svg xmlns="http://www.w3.org/2000/svg" xmlns:xlink="http://www.w3.org/1999/xlink" width="255.46" height="72.776" viewBox="0 0 255.46 72.776">
<defs>
<g>
<g id="glyph-0-0">
</g>
<g id="glyph-0-1">
<path d="M 1.25 26.015625 C 1.625 26 1.828125 25.734375 1.828125 25.4375 C 1.828125 25.046875 1.53125 24.84375 1.25 24.84375 C 0.96875 24.84375 0.671875 25.03125 0.671875 25.453125 C 0.671875 26.0625 1.265625 26.5625 2 26.5625 C 3.8125 26.5625 4.5 23.765625 5.34375 20.296875 C 6.265625 16.515625 7.046875 12.703125 7.6875 8.875 C 8.125 6.328125 8.578125 3.9375 8.984375 2.390625 C 9.125 1.8125 9.53125 0.265625 10 0.265625 C 10.359375 0.265625 10.65625 0.484375 10.703125 0.53125 C 10.3125 0.5625 10.109375 0.828125 10.109375 1.125 C 10.109375 1.515625 10.40625 1.703125 10.6875 1.703125 C 10.96875 1.703125 11.265625 1.53125 11.265625 1.109375 C 11.265625 0.46875 10.625 0 9.96875 0 C 9.0625 0 8.390625 1.296875 7.734375 3.734375 C 7.703125 3.875 6.078125 9.875 4.75 17.6875 C 4.453125 19.515625 4.09375 21.515625 3.703125 23.171875 C 3.484375 24.046875 2.9375 26.296875 1.96875 26.296875 C 1.546875 26.296875 1.25 26.015625 1.25 26.015625 Z M 1.25 26.015625 "/>
</g>
<g id="glyph-0-2">
<path d="M 15.125 16.734375 L 16.578125 12.90625 L 16.28125 12.90625 C 15.8125 14.15625 14.546875 14.96875 13.171875 15.328125 C 12.921875 15.390625 11.75 15.6875 9.453125 15.6875 L 2.25 15.6875 L 8.328125 8.5625 C 8.421875 8.46875 8.4375 8.421875 8.4375 8.359375 C 8.4375 8.34375 8.4375 8.3125 8.359375 8.1875 L 2.78125 0.578125 L 9.328125 0.578125 C 10.9375 0.578125 12.03125 0.734375 12.125 0.765625 C 12.78125 0.859375 13.8125 1.0625 14.765625 1.65625 C 15.0625 1.859375 15.875 2.390625 16.28125 3.359375 L 16.578125 3.359375 L 15.125 0 L 1 0 C 0.734375 0 0.71875 0.015625 0.6875 0.078125 C 0.671875 0.125 0.671875 0.34375 0.671875 0.484375 L 7 9.125 L 0.796875 16.390625 C 0.6875 16.53125 0.6875 16.59375 0.6875 16.609375 C 0.6875 16.734375 0.78125 16.734375 1 16.734375 Z M 15.125 16.734375 "/>
</g>
<g id="glyph-0-3">
<path d="M 9.046875 35.25 C 9.046875 35.21875 9.046875 35.1875 8.984375 35.109375 C 7.828125 33.71875 6.875 32.1875 6.171875 30.53125 C 4.609375 26.875 3.984375 22.59375 3.984375 17.453125 C 3.984375 12.359375 4.5625 7.890625 6.328125 3.96875 C 7.03125 2.453125 7.9375 1.046875 9 -0.25 C 9.03125 -0.28125 9.046875 -0.3125 9.046875 -0.359375 C 9.046875 -0.484375 8.96875 -0.484375 8.78125 -0.484375 C 8.609375 -0.484375 8.578125 -0.484375 8.5625 -0.453125 C 8.546875 -0.4375 7.8125 0.28125 6.875 1.59375 C 4.796875 4.53125 3.734375 8.046875 3.203125 11.609375 C 2.921875 13.53125 2.828125 15.484375 2.828125 17.4375 C 2.828125 21.90625 3.375 26.46875 5.296875 30.5625 C 6.140625 32.375 7.28125 34.015625 8.46875 35.265625 C 8.578125 35.359375 8.578125 35.375 8.78125 35.375 C 8.96875 35.375 9.046875 35.375 9.046875 35.25 Z M 9.046875 35.25 "/>
</g>
<g id="glyph-0-4">
<path d="M 6.640625 17.453125 C 6.640625 12.984375 6.078125 8.421875 4.15625 4.328125 C 3.3125 2.515625 2.171875 0.875 0.984375 -0.375 C 0.890625 -0.46875 0.875 -0.484375 0.671875 -0.484375 C 0.5 -0.484375 0.40625 -0.484375 0.40625 -0.359375 C 0.40625 -0.3125 0.453125 -0.25 0.484375 -0.21875 C 1.625 1.171875 2.578125 2.703125 3.28125 4.359375 C 4.859375 8.015625 5.46875 12.296875 5.46875 17.4375 C 5.46875 22.53125 4.890625 27 3.125 30.921875 C 2.421875 32.4375 1.515625 33.84375 0.453125 35.140625 C 0.4375 35.171875 0.40625 35.21875 0.40625 35.25 C 0.40625 35.375 0.5 35.375 0.671875 35.375 C 0.84375 35.375 0.875 35.375 0.890625 35.34375 C 0.90625 35.328125 1.65625 34.609375 2.578125 33.296875 C 4.65625 30.359375 5.71875 26.84375 6.25 23.28125 C 6.53125 21.359375 6.640625 19.40625 6.640625 17.453125 Z M 6.640625 17.453125 "/>
</g>
<g id="glyph-1-0">
</g>
<g id="glyph-1-1">
<path d="M 2.140625 -2.5 L 2.421875 -2.5 L 3.625 -0.65625 C 3.703125 -0.53125 3.890625 -0.21875 3.96875 -0.09375 C 4.03125 0 4.0625 0 4.234375 0 L 5.34375 0 C 5.484375 0 5.609375 0 5.609375 -0.140625 C 5.609375 -0.203125 5.546875 -0.265625 5.484375 -0.28125 C 5.1875 -0.34375 4.796875 -0.875 4.609375 -1.125 C 4.546875 -1.203125 4.15625 -1.734375 3.625 -2.59375 C 4.328125 -2.71875 5.015625 -3.015625 5.015625 -3.96875 C 5.015625 -5.078125 3.84375 -5.453125 2.90625 -5.453125 L 0.390625 -5.453125 C 0.25 -5.453125 0.125 -5.453125 0.125 -5.3125 C 0.125 -5.171875 0.28125 -5.171875 0.34375 -5.171875 C 0.796875 -5.171875 0.84375 -5.125 0.84375 -4.71875 L 0.84375 -0.734375 C 0.84375 -0.328125 0.796875 -0.28125 0.34375 -0.28125 C 0.28125 -0.28125 0.125 -0.28125 0.125 -0.140625 C 0.125 0 0.25 0 0.390625 0 L 2.578125 0 C 2.71875 0 2.84375 0 2.84375 -0.140625 C 2.84375 -0.28125 2.703125 -0.28125 2.625 -0.28125 C 2.171875 -0.28125 2.140625 -0.34375 2.140625 -0.734375 Z M 3.671875 -2.890625 C 3.890625 -3.1875 3.921875 -3.609375 3.921875 -3.953125 C 3.921875 -4.34375 3.875 -4.765625 3.625 -5.09375 C 3.9375 -5.015625 4.734375 -4.765625 4.734375 -3.96875 C 4.734375 -3.453125 4.5 -3.046875 3.671875 -2.890625 Z M 2.140625 -4.75 C 2.140625 -4.921875 2.140625 -5.171875 2.625 -5.171875 C 3.3125 -5.171875 3.640625 -4.90625 3.640625 -3.953125 C 3.640625 -2.9375 3.390625 -2.78125 2.140625 -2.78125 Z M 1.046875 -0.28125 C 1.109375 -0.421875 1.109375 -0.640625 1.109375 -0.71875 L 1.109375 -4.734375 C 1.109375 -4.828125 1.109375 -5.03125 1.046875 -5.171875 L 1.953125 -5.171875 C 1.859375 -5.046875 1.859375 -4.890625 1.859375 -4.765625 L 1.859375 -0.71875 C 1.859375 -0.640625 1.859375 -0.421875 1.921875 -0.28125 Z M 2.75 -2.5 C 2.8125 -2.515625 2.84375 -2.515625 2.90625 -2.515625 C 3.015625 -2.515625 3.203125 -2.53125 3.3125 -2.546875 C 3.4375 -2.359375 4.296875 -0.9375 4.953125 -0.28125 L 4.1875 -0.28125 Z M 2.75 -2.5 "/>
</g>
<g id="glyph-2-0">
</g>
<g id="glyph-2-1">
<path d="M 3.59375 -0.53125 C 3.390625 -0.53125 3.21875 -0.53125 3.21875 -0.578125 C 3.21875 -0.609375 3.421875 -1.734375 3.484375 -2 C 3.875 -3.53125 4.78125 -4.625 5.828125 -4.625 C 6.59375 -4.625 6.953125 -4.046875 6.953125 -3.375 C 6.953125 -2.015625 5.421875 -0.53125 3.59375 -0.53125 Z M 3.078125 0.09375 C 3.15625 0.109375 3.28125 0.125 3.484375 0.125 C 5.453125 0.125 7.25 -1.765625 7.25 -3.65625 C 7.25 -4.390625 6.9375 -5.265625 5.921875 -5.265625 C 4.203125 -5.265625 3.484375 -2.84375 2.8125 -0.59375 C 1.4375 -0.859375 0.859375 -1.59375 0.859375 -2.390625 C 0.859375 -2.71875 1.109375 -4 1.8125 -4.859375 C 1.9375 -5.015625 1.9375 -5.03125 1.9375 -5.0625 C 1.9375 -5.15625 1.84375 -5.15625 1.8125 -5.15625 C 1.5 -5.15625 0.578125 -3.40625 0.578125 -2.265625 C 0.578125 -0.9375 1.640625 -0.203125 2.609375 0.015625 L 1.984375 2.03125 C 1.921875 2.21875 1.921875 2.234375 1.921875 2.28125 C 1.921875 2.5625 2.21875 2.578125 2.234375 2.578125 C 2.359375 2.578125 2.5625 2.53125 2.671875 2.296875 C 2.703125 2.1875 3.03125 0.328125 3.078125 0.09375 Z M 3.078125 0.09375 "/>
</g>
<g id="glyph-2-2">
<path d="M 5.671875 -4.875 C 5.28125 -4.8125 5.140625 -4.515625 5.140625 -4.296875 C 5.140625 -4 5.359375 -3.90625 5.53125 -3.90625 C 5.890625 -3.90625 6.140625 -4.21875 6.140625 -4.546875 C 6.140625 -5.046875 5.5625 -5.265625 5.0625 -5.265625 C 4.34375 -5.265625 3.9375 -4.546875 3.828125 -4.328125 C 3.546875 -5.21875 2.8125 -5.265625 2.59375 -5.265625 C 1.375 -5.265625 0.734375 -3.703125 0.734375 -3.4375 C 0.734375 -3.390625 0.78125 -3.328125 0.859375 -3.328125 C 0.953125 -3.328125 0.984375 -3.40625 1 -3.453125 C 1.40625 -4.78125 2.21875 -5.03125 2.5625 -5.03125 C 3.09375 -5.03125 3.203125 -4.53125 3.203125 -4.25 C 3.203125 -3.984375 3.125 -3.703125 2.984375 -3.125 L 2.578125 -1.5 C 2.40625 -0.78125 2.0625 -0.125 1.421875 -0.125 C 1.359375 -0.125 1.0625 -0.125 0.8125 -0.28125 C 1.25 -0.359375 1.34375 -0.71875 1.34375 -0.859375 C 1.34375 -1.09375 1.15625 -1.25 0.9375 -1.25 C 0.640625 -1.25 0.328125 -0.984375 0.328125 -0.609375 C 0.328125 -0.109375 0.890625 0.125 1.40625 0.125 C 1.984375 0.125 2.390625 -0.328125 2.640625 -0.828125 C 2.828125 -0.125 3.4375 0.125 3.875 0.125 C 5.09375 0.125 5.734375 -1.453125 5.734375 -1.703125 C 5.734375 -1.765625 5.6875 -1.8125 5.625 -1.8125 C 5.515625 -1.8125 5.5 -1.75 5.46875 -1.65625 C 5.140625 -0.609375 4.453125 -0.125 3.90625 -0.125 C 3.484375 -0.125 3.265625 -0.4375 3.265625 -0.921875 C 3.265625 -1.1875 3.3125 -1.375 3.5 -2.15625 L 3.921875 -3.796875 C 4.09375 -4.5 4.5 -5.03125 5.0625 -5.03125 C 5.078125 -5.03125 5.421875 -5.03125 5.671875 -4.875 Z M 5.671875 -4.875 "/>
</g>
<g id="glyph-2-3">
<path d="M 6.015625 -8 C 6.03125 -8.046875 6.046875 -8.109375 6.046875 -8.171875 C 6.046875 -8.296875 5.921875 -8.296875 5.90625 -8.296875 C 5.890625 -8.296875 5.3125 -8.25 5.25 -8.234375 C 5.046875 -8.21875 4.859375 -8.203125 4.65625 -8.1875 C 4.34375 -8.15625 4.265625 -8.15625 4.265625 -7.9375 C 4.265625 -7.8125 4.359375 -7.8125 4.53125 -7.8125 C 5.109375 -7.8125 5.125 -7.703125 5.125 -7.59375 C 5.125 -7.515625 5.109375 -7.421875 5.09375 -7.390625 L 4.359375 -4.484375 C 4.234375 -4.796875 3.90625 -5.265625 3.28125 -5.265625 C 1.9375 -5.265625 0.484375 -3.53125 0.484375 -1.75 C 0.484375 -0.578125 1.171875 0.125 1.984375 0.125 C 2.640625 0.125 3.203125 -0.390625 3.53125 -0.78125 C 3.65625 -0.078125 4.21875 0.125 4.578125 0.125 C 4.9375 0.125 5.21875 -0.09375 5.4375 -0.53125 C 5.625 -0.9375 5.796875 -1.65625 5.796875 -1.703125 C 5.796875 -1.765625 5.75 -1.8125 5.671875 -1.8125 C 5.5625 -1.8125 5.5625 -1.75 5.515625 -1.578125 C 5.328125 -0.875 5.109375 -0.125 4.609375 -0.125 C 4.265625 -0.125 4.25 -0.4375 4.25 -0.671875 C 4.25 -0.71875 4.25 -0.96875 4.328125 -1.296875 Z M 3.59375 -1.421875 C 3.53125 -1.21875 3.53125 -1.1875 3.375 -0.96875 C 3.109375 -0.640625 2.578125 -0.125 2.015625 -0.125 C 1.53125 -0.125 1.25 -0.5625 1.25 -1.265625 C 1.25 -1.921875 1.625 -3.265625 1.859375 -3.765625 C 2.265625 -4.609375 2.828125 -5.03125 3.28125 -5.03125 C 4.078125 -5.03125 4.234375 -4.046875 4.234375 -3.953125 C 4.234375 -3.9375 4.203125 -3.796875 4.1875 -3.765625 Z M 3.59375 -1.421875 "/>
</g>
<g id="glyph-2-4">
<path d="M 3.59375 -1.421875 C 3.53125 -1.21875 3.53125 -1.1875 3.375 -0.96875 C 3.109375 -0.640625 2.578125 -0.125 2.015625 -0.125 C 1.53125 -0.125 1.25 -0.5625 1.25 -1.265625 C 1.25 -1.921875 1.625 -3.265625 1.859375 -3.765625 C 2.265625 -4.609375 2.828125 -5.03125 3.28125 -5.03125 C 4.078125 -5.03125 4.234375 -4.046875 4.234375 -3.953125 C 4.234375 -3.9375 4.203125 -3.796875 4.1875 -3.765625 Z M 4.359375 -4.484375 C 4.234375 -4.796875 3.90625 -5.265625 3.28125 -5.265625 C 1.9375 -5.265625 0.484375 -3.53125 0.484375 -1.75 C 0.484375 -0.578125 1.171875 0.125 1.984375 0.125 C 2.640625 0.125 3.203125 -0.390625 3.53125 -0.78125 C 3.65625 -0.078125 4.21875 0.125 4.578125 0.125 C 4.9375 0.125 5.21875 -0.09375 5.4375 -0.53125 C 5.625 -0.9375 5.796875 -1.65625 5.796875 -1.703125 C 5.796875 -1.765625 5.75 -1.8125 5.671875 -1.8125 C 5.5625 -1.8125 5.5625 -1.75 5.515625 -1.578125 C 5.328125 -0.875 5.109375 -0.125 4.609375 -0.125 C 4.265625 -0.125 4.25 -0.4375 4.25 -0.671875 C 4.25 -0.9375 4.28125 -1.078125 4.390625 -1.546875 C 4.46875 -1.84375 4.53125 -2.109375 4.625 -2.453125 C 5.0625 -4.25 5.171875 -4.671875 5.171875 -4.75 C 5.171875 -4.90625 5.046875 -5.046875 4.859375 -5.046875 C 4.484375 -5.046875 4.390625 -4.625 4.359375 -4.484375 Z M 4.359375 -4.484375 "/>
</g>
<g id="glyph-2-5">
<path d="M 2.46875 -3.5 C 2.484375 -3.578125 2.78125 -4.171875 3.234375 -4.546875 C 3.53125 -4.84375 3.9375 -5.03125 4.40625 -5.03125 C 4.890625 -5.03125 5.0625 -4.671875 5.0625 -4.203125 C 5.0625 -4.125 5.0625 -3.890625 4.90625 -3.328125 L 4.609375 -2.09375 C 4.515625 -1.734375 4.296875 -0.84375 4.265625 -0.71875 C 4.21875 -0.53125 4.140625 -0.234375 4.140625 -0.171875 C 4.140625 -0.015625 4.28125 0.125 4.453125 0.125 C 4.8125 0.125 4.875 -0.15625 4.984375 -0.578125 L 5.703125 -3.4375 C 5.71875 -3.53125 6.34375 -5.03125 7.65625 -5.03125 C 8.140625 -5.03125 8.3125 -4.671875 8.3125 -4.203125 C 8.3125 -3.53125 7.84375 -2.21875 7.578125 -1.5 C 7.46875 -1.21875 7.40625 -1.0625 7.40625 -0.84375 C 7.40625 -0.3125 7.78125 0.125 8.359375 0.125 C 9.46875 0.125 9.890625 -1.640625 9.890625 -1.703125 C 9.890625 -1.765625 9.84375 -1.8125 9.765625 -1.8125 C 9.65625 -1.8125 9.640625 -1.78125 9.59375 -1.578125 C 9.3125 -0.625 8.875 -0.125 8.390625 -0.125 C 8.265625 -0.125 8.078125 -0.125 8.078125 -0.515625 C 8.078125 -0.828125 8.21875 -1.203125 8.265625 -1.34375 C 8.484375 -1.90625 9.03125 -3.328125 9.03125 -4.015625 C 9.03125 -4.734375 8.609375 -5.265625 7.703125 -5.265625 C 6.890625 -5.265625 6.25 -4.8125 5.765625 -4.109375 C 5.734375 -4.75 5.34375 -5.265625 4.453125 -5.265625 C 3.375 -5.265625 2.828125 -4.515625 2.609375 -4.21875 C 2.5625 -4.90625 2.078125 -5.265625 1.546875 -5.265625 C 1.203125 -5.265625 0.9375 -5.109375 0.703125 -4.65625 C 0.484375 -4.21875 0.328125 -3.484375 0.328125 -3.4375 C 0.328125 -3.390625 0.375 -3.328125 0.453125 -3.328125 C 0.546875 -3.328125 0.5625 -3.34375 0.640625 -3.625 C 0.8125 -4.328125 1.046875 -5.03125 1.515625 -5.03125 C 1.796875 -5.03125 1.890625 -4.84375 1.890625 -4.484375 C 1.890625 -4.21875 1.765625 -3.75 1.6875 -3.375 L 1.34375 -2.09375 C 1.296875 -1.859375 1.171875 -1.328125 1.109375 -1.109375 C 1.03125 -0.796875 0.890625 -0.234375 0.890625 -0.171875 C 0.890625 -0.015625 1.03125 0.125 1.203125 0.125 C 1.34375 0.125 1.515625 0.046875 1.609375 -0.125 C 1.640625 -0.1875 1.75 -0.609375 1.8125 -0.84375 L 2.0625 -1.921875 Z M 2.46875 -3.5 "/>
</g>
<g id="glyph-2-6">
<path d="M 3.359375 -8 C 3.375 -8.046875 3.390625 -8.109375 3.390625 -8.171875 C 3.390625 -8.296875 3.28125 -8.296875 3.25 -8.296875 C 3.234375 -8.296875 2.8125 -8.265625 2.59375 -8.234375 C 2.390625 -8.21875 2.21875 -8.203125 2 -8.1875 C 1.703125 -8.15625 1.625 -8.15625 1.625 -7.9375 C 1.625 -7.8125 1.75 -7.8125 1.859375 -7.8125 C 2.46875 -7.8125 2.46875 -7.703125 2.46875 -7.59375 C 2.46875 -7.546875 2.46875 -7.515625 2.421875 -7.296875 L 0.703125 -0.46875 C 0.65625 -0.28125 0.65625 -0.265625 0.65625 -0.1875 C 0.65625 0.078125 0.859375 0.125 0.984375 0.125 C 1.3125 0.125 1.390625 -0.140625 1.484375 -0.515625 L 2.046875 -2.75 C 2.90625 -2.65625 3.421875 -2.296875 3.421875 -1.71875 C 3.421875 -1.65625 3.421875 -1.609375 3.375 -1.421875 C 3.328125 -1.25 3.328125 -1.09375 3.328125 -1.046875 C 3.328125 -0.34375 3.796875 0.125 4.40625 0.125 C 4.953125 0.125 5.234375 -0.375 5.328125 -0.546875 C 5.578125 -0.984375 5.734375 -1.65625 5.734375 -1.703125 C 5.734375 -1.765625 5.6875 -1.8125 5.625 -1.8125 C 5.515625 -1.8125 5.5 -1.765625 5.453125 -1.578125 C 5.28125 -0.953125 5.03125 -0.125 4.421875 -0.125 C 4.1875 -0.125 4.03125 -0.234375 4.03125 -0.6875 C 4.03125 -0.921875 4.078125 -1.1875 4.125 -1.359375 C 4.171875 -1.578125 4.171875 -1.59375 4.171875 -1.734375 C 4.171875 -2.4375 3.53125 -2.828125 2.4375 -2.96875 C 2.875 -3.234375 3.296875 -3.703125 3.46875 -3.890625 C 4.140625 -4.65625 4.609375 -5.03125 5.15625 -5.03125 C 5.4375 -5.03125 5.515625 -4.953125 5.59375 -4.890625 C 5.15625 -4.84375 4.984375 -4.53125 4.984375 -4.296875 C 4.984375 -4 5.21875 -3.90625 5.375 -3.90625 C 5.703125 -3.90625 5.984375 -4.1875 5.984375 -4.5625 C 5.984375 -4.90625 5.71875 -5.265625 5.171875 -5.265625 C 4.515625 -5.265625 3.984375 -4.8125 3.125 -3.84375 C 3.015625 -3.703125 2.5625 -3.25 2.125 -3.078125 Z M 3.359375 -8 "/>
</g>
<g id="glyph-2-7">
<path d="M 3.125 0.0625 L 1.859375 -0.4375 C 1.546875 -0.5625 0.84375 -0.84375 0.84375 -1.5625 C 0.84375 -2.59375 2.09375 -3.640625 2.34375 -3.640625 C 2.359375 -3.640625 2.46875 -3.609375 2.515625 -3.59375 C 2.828125 -3.5 3.140625 -3.5 3.359375 -3.5 C 3.734375 -3.5 4.4375 -3.5 4.4375 -3.84375 C 4.4375 -4.109375 4 -4.140625 3.484375 -4.140625 C 3.25 -4.140625 2.921875 -4.140625 2.5 -4 C 2.21875 -4.25 2.09375 -4.625 2.09375 -4.984375 C 2.09375 -5.640625 2.515625 -6.578125 3.46875 -7.015625 C 3.6875 -6.765625 3.96875 -6.765625 4.21875 -6.765625 C 4.515625 -6.765625 5.25 -6.765625 5.25 -7.109375 C 5.25 -7.40625 4.671875 -7.40625 4.296875 -7.40625 C 4.046875 -7.40625 3.875 -7.40625 3.53125 -7.34375 C 3.484375 -7.5 3.46875 -7.515625 3.46875 -7.78125 C 3.46875 -8 3.515625 -8.15625 3.515625 -8.203125 C 3.515625 -8.265625 3.453125 -8.3125 3.390625 -8.3125 C 3.203125 -8.3125 3.203125 -7.875 3.203125 -7.78125 C 3.203125 -7.609375 3.21875 -7.453125 3.28125 -7.296875 C 1.859375 -6.875 1.21875 -5.859375 1.21875 -5.078125 C 1.21875 -4.359375 1.703125 -3.96875 2.015625 -3.796875 C 0.78125 -3.125 0.265625 -1.90625 0.265625 -1.25 C 0.265625 -0.21875 1.203125 0.15625 1.640625 0.328125 L 2.71875 0.765625 C 3.015625 0.875 3.5 1.078125 3.578125 1.125 C 3.703125 1.203125 3.796875 1.34375 3.796875 1.546875 C 3.796875 1.796875 3.609375 2.203125 3.1875 2.203125 C 3.015625 2.203125 2.625 2.15625 2.1875 1.828125 C 2.109375 1.75 2.09375 1.75 2.046875 1.75 C 1.984375 1.75 1.921875 1.796875 1.921875 1.859375 C 1.921875 2 2.546875 2.4375 3.1875 2.4375 C 3.953125 2.4375 4.421875 1.703125 4.421875 1.1875 C 4.421875 0.8125 4.21875 0.515625 3.84375 0.34375 Z M 3.734375 -7.109375 C 3.9375 -7.171875 4.140625 -7.171875 4.296875 -7.171875 C 4.703125 -7.171875 4.734375 -7.15625 4.96875 -7.09375 C 4.828125 -7.046875 4.734375 -7 4.234375 -7 C 4 -7 3.859375 -7 3.734375 -7.109375 Z M 2.78125 -3.84375 C 3.078125 -3.90625 3.328125 -3.90625 3.484375 -3.90625 C 3.875 -3.90625 3.890625 -3.890625 4.15625 -3.84375 C 4.03125 -3.78125 3.921875 -3.734375 3.40625 -3.734375 C 3.125 -3.734375 3 -3.734375 2.78125 -3.84375 Z M 2.78125 -3.84375 "/>
</g>
<g id="glyph-3-0">
</g>
<g id="glyph-3-1">
<path d="M 2.65625 1.984375 C 2.71875 1.984375 2.8125 1.984375 2.8125 1.890625 C 2.8125 1.859375 2.8125 1.859375 2.703125 1.75 C 1.609375 0.71875 1.34375 -0.75 1.34375 -1.984375 C 1.34375 -4.28125 2.28125 -5.359375 2.6875 -5.734375 C 2.8125 -5.828125 2.8125 -5.84375 2.8125 -5.875 C 2.8125 -5.921875 2.78125 -5.96875 2.703125 -5.96875 C 2.578125 -5.96875 2.171875 -5.5625 2.109375 -5.5 C 1.046875 -4.375 0.828125 -2.953125 0.828125 -1.984375 C 0.828125 -0.203125 1.5625 1.234375 2.65625 1.984375 Z M 2.65625 1.984375 "/>
</g>
<g id="glyph-3-2">
<path d="M 2.46875 -1.984375 C 2.46875 -2.75 2.328125 -3.65625 1.84375 -4.59375 C 1.453125 -5.328125 0.71875 -5.96875 0.578125 -5.96875 C 0.5 -5.96875 0.484375 -5.921875 0.484375 -5.875 C 0.484375 -5.84375 0.484375 -5.828125 0.578125 -5.734375 C 1.6875 -4.671875 1.9375 -3.21875 1.9375 -1.984375 C 1.9375 0.296875 1 1.375 0.59375 1.75 C 0.484375 1.84375 0.484375 1.859375 0.484375 1.890625 C 0.484375 1.9375 0.5 1.984375 0.578125 1.984375 C 0.703125 1.984375 1.109375 1.578125 1.171875 1.515625 C 2.234375 0.390625 2.46875 -1.03125 2.46875 -1.984375 Z M 2.46875 -1.984375 "/>
</g>
<g id="glyph-3-3">
<path d="M 3.890625 -2.546875 C 3.890625 -3.390625 3.8125 -3.90625 3.546875 -4.421875 C 3.203125 -5.125 2.546875 -5.296875 2.109375 -5.296875 C 1.109375 -5.296875 0.734375 -4.546875 0.625 -4.328125 C 0.34375 -3.75 0.328125 -2.953125 0.328125 -2.546875 C 0.328125 -2.015625 0.34375 -1.21875 0.734375 -0.578125 C 1.09375 0.015625 1.6875 0.171875 2.109375 0.171875 C 2.5 0.171875 3.171875 0.046875 3.578125 -0.734375 C 3.875 -1.3125 3.890625 -2.03125 3.890625 -2.546875 Z M 2.109375 -0.0625 C 1.84375 -0.0625 1.296875 -0.1875 1.125 -1.015625 C 1.03125 -1.46875 1.03125 -2.21875 1.03125 -2.640625 C 1.03125 -3.1875 1.03125 -3.75 1.125 -4.1875 C 1.296875 -5 1.90625 -5.078125 2.109375 -5.078125 C 2.375 -5.078125 2.9375 -4.9375 3.09375 -4.21875 C 3.1875 -3.78125 3.1875 -3.171875 3.1875 -2.640625 C 3.1875 -2.171875 3.1875 -1.453125 3.09375 -1 C 2.921875 -0.171875 2.375 -0.0625 2.109375 -0.0625 Z M 2.109375 -0.0625 "/>
</g>
<g id="glyph-3-4">
<path d="M 2.5 -5.078125 C 2.5 -5.296875 2.484375 -5.296875 2.265625 -5.296875 C 1.9375 -4.984375 1.515625 -4.796875 0.765625 -4.796875 L 0.765625 -4.53125 C 0.984375 -4.53125 1.40625 -4.53125 1.875 -4.734375 L 1.875 -0.65625 C 1.875 -0.359375 1.84375 -0.265625 1.09375 -0.265625 L 0.8125 -0.265625 L 0.8125 0 C 1.140625 -0.03125 1.828125 -0.03125 2.1875 -0.03125 C 2.546875 -0.03125 3.234375 -0.03125 3.5625 0 L 3.5625 -0.265625 L 3.28125 -0.265625 C 2.53125 -0.265625 2.5 -0.359375 2.5 -0.65625 Z M 2.5 -5.078125 "/>
</g>
<g id="glyph-4-0">
</g>
<g id="glyph-4-1">
<path d="M 1.59375 -1.3125 C 1.625 -1.421875 1.703125 -1.734375 1.71875 -1.84375 C 1.828125 -2.28125 1.828125 -2.28125 2.015625 -2.546875 C 2.28125 -2.9375 2.65625 -3.296875 3.1875 -3.296875 C 3.46875 -3.296875 3.640625 -3.125 3.640625 -2.75 C 3.640625 -2.3125 3.3125 -1.40625 3.15625 -1.015625 C 3.046875 -0.75 3.046875 -0.703125 3.046875 -0.59375 C 3.046875 -0.140625 3.421875 0.078125 3.765625 0.078125 C 4.546875 0.078125 4.875 -1.03125 4.875 -1.140625 C 4.875 -1.21875 4.8125 -1.25 4.75 -1.25 C 4.65625 -1.25 4.640625 -1.1875 4.625 -1.109375 C 4.4375 -0.453125 4.09375 -0.140625 3.796875 -0.140625 C 3.671875 -0.140625 3.609375 -0.21875 3.609375 -0.40625 C 3.609375 -0.59375 3.671875 -0.765625 3.75 -0.96875 C 3.859375 -1.265625 4.21875 -2.1875 4.21875 -2.625 C 4.21875 -3.234375 3.796875 -3.515625 3.234375 -3.515625 C 2.578125 -3.515625 2.171875 -3.125 1.9375 -2.828125 C 1.875 -3.265625 1.53125 -3.515625 1.125 -3.515625 C 0.84375 -3.515625 0.640625 -3.328125 0.515625 -3.078125 C 0.3125 -2.703125 0.234375 -2.3125 0.234375 -2.296875 C 0.234375 -2.21875 0.296875 -2.1875 0.359375 -2.1875 C 0.46875 -2.1875 0.46875 -2.21875 0.53125 -2.4375 C 0.625 -2.828125 0.765625 -3.296875 1.09375 -3.296875 C 1.3125 -3.296875 1.359375 -3.09375 1.359375 -2.921875 C 1.359375 -2.765625 1.3125 -2.625 1.25 -2.359375 C 1.234375 -2.296875 1.109375 -1.828125 1.078125 -1.71875 L 0.78125 -0.515625 C 0.75 -0.390625 0.703125 -0.203125 0.703125 -0.171875 C 0.703125 0.015625 0.859375 0.078125 0.96875 0.078125 C 1.109375 0.078125 1.234375 -0.015625 1.28125 -0.109375 C 1.3125 -0.15625 1.375 -0.4375 1.40625 -0.59375 Z M 1.59375 -1.3125 "/>
</g>
<g id="glyph-4-2">
<path d="M 2.328125 -5.296875 C 2.328125 -5.3125 2.359375 -5.40625 2.359375 -5.421875 C 2.359375 -5.453125 2.328125 -5.53125 2.234375 -5.53125 C 2.203125 -5.53125 1.953125 -5.5 1.765625 -5.484375 L 1.328125 -5.453125 C 1.140625 -5.4375 1.0625 -5.4375 1.0625 -5.296875 C 1.0625 -5.171875 1.171875 -5.171875 1.28125 -5.171875 C 1.65625 -5.171875 1.65625 -5.125 1.65625 -5.0625 C 1.65625 -5.03125 1.65625 -5.015625 1.625 -4.875 L 0.484375 -0.34375 C 0.453125 -0.21875 0.453125 -0.171875 0.453125 -0.171875 C 0.453125 -0.03125 0.5625 0.078125 0.71875 0.078125 C 0.984375 0.078125 1.046875 -0.171875 1.078125 -0.28125 C 1.15625 -0.625 1.375 -1.46875 1.453125 -1.796875 C 1.890625 -1.75 2.4375 -1.609375 2.4375 -1.140625 C 2.4375 -1.109375 2.4375 -1.0625 2.421875 -0.984375 C 2.390625 -0.890625 2.375 -0.765625 2.375 -0.734375 C 2.375 -0.265625 2.71875 0.078125 3.1875 0.078125 C 3.515625 0.078125 3.734375 -0.171875 3.828125 -0.3125 C 4.03125 -0.609375 4.15625 -1.09375 4.15625 -1.140625 C 4.15625 -1.21875 4.09375 -1.25 4.03125 -1.25 C 3.9375 -1.25 3.921875 -1.1875 3.890625 -1.046875 C 3.78125 -0.671875 3.578125 -0.140625 3.203125 -0.140625 C 3 -0.140625 2.953125 -0.3125 2.953125 -0.53125 C 2.953125 -0.640625 2.953125 -0.734375 3 -0.921875 C 3 -0.953125 3.03125 -1.078125 3.03125 -1.15625 C 3.03125 -1.8125 2.21875 -1.953125 1.8125 -2.015625 C 2.109375 -2.1875 2.375 -2.46875 2.46875 -2.5625 C 2.90625 -3 3.265625 -3.296875 3.65625 -3.296875 C 3.75 -3.296875 3.84375 -3.265625 3.90625 -3.1875 C 3.484375 -3.125 3.484375 -2.75 3.484375 -2.75 C 3.484375 -2.578125 3.625 -2.453125 3.796875 -2.453125 C 4.015625 -2.453125 4.25 -2.625 4.25 -2.953125 C 4.25 -3.234375 4.0625 -3.515625 3.65625 -3.515625 C 3.203125 -3.515625 2.78125 -3.15625 2.328125 -2.703125 C 1.859375 -2.25 1.671875 -2.171875 1.53125 -2.109375 Z M 2.328125 -5.296875 "/>
</g>
<g id="glyph-5-0">
</g>
<g id="glyph-5-1">
<path d="M 3.890625 2.90625 C 3.890625 2.875 3.890625 2.84375 3.6875 2.640625 C 2.484375 1.4375 1.8125 -0.53125 1.8125 -2.96875 C 1.8125 -5.296875 2.375 -7.296875 3.765625 -8.703125 C 3.890625 -8.8125 3.890625 -8.828125 3.890625 -8.875 C 3.890625 -8.9375 3.828125 -8.96875 3.78125 -8.96875 C 3.625 -8.96875 2.640625 -8.109375 2.0625 -6.9375 C 1.453125 -5.71875 1.171875 -4.453125 1.171875 -2.96875 C 1.171875 -1.90625 1.34375 -0.484375 1.953125 0.78125 C 2.671875 2.21875 3.640625 3 3.78125 3 C 3.828125 3 3.890625 2.96875 3.890625 2.90625 Z M 3.890625 2.90625 "/>
</g>
<g id="glyph-5-2">
<path d="M 3.375 -2.96875 C 3.375 -3.890625 3.25 -5.359375 2.578125 -6.75 C 1.875 -8.1875 0.890625 -8.96875 0.765625 -8.96875 C 0.71875 -8.96875 0.65625 -8.9375 0.65625 -8.875 C 0.65625 -8.828125 0.65625 -8.8125 0.859375 -8.609375 C 2.0625 -7.40625 2.71875 -5.421875 2.71875 -2.984375 C 2.71875 -0.671875 2.15625 1.328125 0.78125 2.734375 C 0.65625 2.84375 0.65625 2.875 0.65625 2.90625 C 0.65625 2.96875 0.71875 3 0.765625 3 C 0.921875 3 1.90625 2.140625 2.484375 0.96875 C 3.09375 -0.25 3.375 -1.546875 3.375 -2.96875 Z M 3.375 -2.96875 "/>
</g>
<g id="glyph-5-3">
<path d="M 8.0625 -3.875 C 8.234375 -3.875 8.453125 -3.875 8.453125 -4.09375 C 8.453125 -4.3125 8.25 -4.3125 8.0625 -4.3125 L 1.03125 -4.3125 C 0.859375 -4.3125 0.640625 -4.3125 0.640625 -4.09375 C 0.640625 -3.875 0.84375 -3.875 1.03125 -3.875 Z M 8.0625 -1.65625 C 8.234375 -1.65625 8.453125 -1.65625 8.453125 -1.859375 C 8.453125 -2.09375 8.25 -2.09375 8.0625 -2.09375 L 1.03125 -2.09375 C 0.859375 -2.09375 0.640625 -2.09375 0.640625 -1.875 C 0.640625 -1.65625 0.84375 -1.65625 1.03125 -1.65625 Z M 8.0625 -1.65625 "/>
</g>
<g id="glyph-5-4">
<path d="M 3.4375 -7.65625 C 3.4375 -7.9375 3.4375 -7.953125 3.203125 -7.953125 C 2.921875 -7.625 2.3125 -7.1875 1.09375 -7.1875 L 1.09375 -6.84375 C 1.359375 -6.84375 1.953125 -6.84375 2.625 -7.140625 L 2.625 -0.921875 C 2.625 -0.484375 2.578125 -0.34375 1.53125 -0.34375 L 1.15625 -0.34375 L 1.15625 0 C 1.484375 -0.03125 2.640625 -0.03125 3.03125 -0.03125 C 3.4375 -0.03125 4.578125 -0.03125 4.90625 0 L 4.90625 -0.34375 L 4.53125 -0.34375 C 3.484375 -0.34375 3.4375 -0.484375 3.4375 -0.921875 Z M 3.4375 -7.65625 "/>
</g>
<g id="glyph-6-0">
</g>
<g id="glyph-6-1">
<path d="M 5.5625 -1.8125 C 5.703125 -1.8125 5.875 -1.8125 5.875 -1.984375 C 5.875 -2.171875 5.703125 -2.171875 5.5625 -2.171875 L 1 -2.171875 C 0.875 -2.171875 0.703125 -2.171875 0.703125 -1.984375 C 0.703125 -1.8125 0.875 -1.8125 1 -1.8125 Z M 5.5625 -1.8125 "/>
</g>
<g id="glyph-7-0">
</g>
<g id="glyph-7-1">
<path d="M 7.875 -2.75 C 8.078125 -2.75 8.296875 -2.75 8.296875 -2.984375 C 8.296875 -3.234375 8.078125 -3.234375 7.875 -3.234375 L 1.40625 -3.234375 C 1.203125 -3.234375 0.984375 -3.234375 0.984375 -2.984375 C 0.984375 -2.75 1.203125 -2.75 1.40625 -2.75 Z M 7.875 -2.75 "/>
</g>
</g>
</defs>
<g fill="rgb(0%, 0%, 0%)" fill-opacity="1">
<use xlink:href="#glyph-0-1" x="19.246" y="0.5"/>
</g>
<g fill="rgb(0%, 0%, 0%)" fill-opacity="1">
<use xlink:href="#glyph-1-1" x="25.888" y="27.566"/>
</g>
<g fill="rgb(0%, 0%, 0%)" fill-opacity="1">
<use xlink:href="#glyph-2-1" x="34.134" y="16.773"/>
</g>
<g fill="rgb(0%, 0%, 0%)" fill-opacity="1">
<use xlink:href="#glyph-3-1" x="41.803" y="11.837"/>
</g>
<g fill="rgb(0%, 0%, 0%)" fill-opacity="1">
<use xlink:href="#glyph-4-1" x="45.096" y="11.837"/>
</g>
<g fill="rgb(0%, 0%, 0%)" fill-opacity="1">
<use xlink:href="#glyph-3-2" x="50.234" y="11.837"/>
</g>
<g fill="rgb(0%, 0%, 0%)" fill-opacity="1">
<use xlink:href="#glyph-5-1" x="54.026" y="16.773"/>
</g>
<g fill="rgb(0%, 0%, 0%)" fill-opacity="1">
<use xlink:href="#glyph-2-2" x="58.578" y="16.773"/>
</g>
<g fill="rgb(0%, 0%, 0%)" fill-opacity="1">
<use xlink:href="#glyph-5-2" x="65.23" y="16.773"/>
</g>
<g fill="rgb(0%, 0%, 0%)" fill-opacity="1">
<use xlink:href="#glyph-2-3" x="69.782" y="16.773"/>
<use xlink:href="#glyph-2-2" x="75.864806" y="16.773"/>
</g>
<g fill="rgb(0%, 0%, 0%)" fill-opacity="1">
<use xlink:href="#glyph-5-3" x="85.838" y="16.773"/>
</g>
<g fill="rgb(0%, 0%, 0%)" fill-opacity="1">
<use xlink:href="#glyph-0-2" x="98.263" y="5.415"/>
</g>
<g fill="rgb(0%, 0%, 0%)" fill-opacity="1">
<use xlink:href="#glyph-4-2" x="104.587" y="30.875"/>
</g>
<g fill="rgb(0%, 0%, 0%)" fill-opacity="1">
<use xlink:href="#glyph-2-4" x="117.525" y="16.773"/>
</g>
<g fill="rgb(0%, 0%, 0%)" fill-opacity="1">
<use xlink:href="#glyph-3-3" x="123.669" y="11.837"/>
</g>
<g fill="rgb(0%, 0%, 0%)" fill-opacity="1">
<use xlink:href="#glyph-4-2" x="123.669" y="19.728"/>
</g>
<g fill="rgb(0%, 0%, 0%)" fill-opacity="1">
<use xlink:href="#glyph-0-1" x="130.782" y="0.5"/>
</g>
<g fill="rgb(0%, 0%, 0%)" fill-opacity="1">
<use xlink:href="#glyph-1-1" x="137.424" y="27.566"/>
</g>
<g fill="rgb(0%, 0%, 0%)" fill-opacity="1">
<use xlink:href="#glyph-2-1" x="145.67" y="16.773"/>
</g>
<g fill="rgb(0%, 0%, 0%)" fill-opacity="1">
<use xlink:href="#glyph-3-1" x="153.339" y="11.837"/>
</g>
<g fill="rgb(0%, 0%, 0%)" fill-opacity="1">
<use xlink:href="#glyph-4-1" x="156.632" y="11.837"/>
</g>
<g fill="rgb(0%, 0%, 0%)" fill-opacity="1">
<use xlink:href="#glyph-6-1" x="161.77" y="11.837"/>
</g>
<g fill="rgb(0%, 0%, 0%)" fill-opacity="1">
<use xlink:href="#glyph-3-4" x="168.357" y="11.837"/>
<use xlink:href="#glyph-3-2" x="172.591514" y="11.837"/>
</g>
<g fill="rgb(0%, 0%, 0%)" fill-opacity="1">
<use xlink:href="#glyph-5-1" x="176.382" y="16.773"/>
</g>
<g fill="rgb(0%, 0%, 0%)" fill-opacity="1">
<use xlink:href="#glyph-2-5" x="180.935" y="16.773"/>
<use xlink:href="#glyph-2-2" x="191.174629" y="16.773"/>
</g>
<g fill="rgb(0%, 0%, 0%)" fill-opacity="1">
<use xlink:href="#glyph-7-1" x="200.483" y="16.773"/>
</g>
<g fill="rgb(0%, 0%, 0%)" fill-opacity="1">
<use xlink:href="#glyph-2-6" x="212.438" y="16.773"/>
</g>
<g fill="rgb(0%, 0%, 0%)" fill-opacity="1">
<use xlink:href="#glyph-5-2" x="218.927" y="16.773"/>
</g>
<g fill="rgb(0%, 0%, 0%)" fill-opacity="1">
<use xlink:href="#glyph-2-3" x="223.48" y="16.773"/>
<use xlink:href="#glyph-2-2" x="229.562806" y="16.773"/>
</g>
<g fill="rgb(0%, 0%, 0%)" fill-opacity="1">
<use xlink:href="#glyph-0-1" x="8.302" y="40.705"/>
</g>
<g fill="rgb(0%, 0%, 0%)" fill-opacity="1">
<use xlink:href="#glyph-1-1" x="14.944" y="67.771"/>
</g>
<g fill="rgb(0%, 0%, 0%)" fill-opacity="1">
<use xlink:href="#glyph-2-1" x="23.191" y="56.978"/>
</g>
<g fill="rgb(0%, 0%, 0%)" fill-opacity="1">
<use xlink:href="#glyph-3-1" x="30.859" y="52.042"/>
</g>
<g fill="rgb(0%, 0%, 0%)" fill-opacity="1">
<use xlink:href="#glyph-4-1" x="34.152" y="52.042"/>
</g>
<g fill="rgb(0%, 0%, 0%)" fill-opacity="1">
<use xlink:href="#glyph-3-2" x="39.291" y="52.042"/>
</g>
<g fill="rgb(0%, 0%, 0%)" fill-opacity="1">
<use xlink:href="#glyph-5-1" x="43.082" y="56.978"/>
</g>
<g fill="rgb(0%, 0%, 0%)" fill-opacity="1">
<use xlink:href="#glyph-2-2" x="47.634" y="56.978"/>
</g>
<g fill="rgb(0%, 0%, 0%)" fill-opacity="1">
<use xlink:href="#glyph-5-2" x="54.286" y="56.978"/>
</g>
<g fill="rgb(0%, 0%, 0%)" fill-opacity="1">
<use xlink:href="#glyph-2-3" x="58.839" y="56.978"/>
<use xlink:href="#glyph-2-2" x="64.921806" y="56.978"/>
</g>
<g fill="rgb(0%, 0%, 0%)" fill-opacity="1">
<use xlink:href="#glyph-5-3" x="74.894" y="56.978"/>
</g>
<g fill="rgb(0%, 0%, 0%)" fill-opacity="1">
<use xlink:href="#glyph-0-3" x="87.32" y="36.534"/>
</g>
<g fill="rgb(0%, 0%, 0%)" fill-opacity="1">
<use xlink:href="#glyph-0-2" x="96.784" y="45.62"/>
</g>
<g fill="rgb(0%, 0%, 0%)" fill-opacity="1">
<use xlink:href="#glyph-4-2" x="103.108" y="71.081"/>
</g>
<g fill="rgb(0%, 0%, 0%)" fill-opacity="1">
<use xlink:href="#glyph-2-4" x="116.045" y="56.978"/>
</g>
<g fill="rgb(0%, 0%, 0%)" fill-opacity="1">
<use xlink:href="#glyph-3-3" x="122.19" y="52.042"/>
</g>
<g fill="rgb(0%, 0%, 0%)" fill-opacity="1">
<use xlink:href="#glyph-4-2" x="122.19" y="59.933"/>
</g>
<g fill="rgb(0%, 0%, 0%)" fill-opacity="1">
<use xlink:href="#glyph-0-4" x="127.31" y="36.534"/>
</g>
<g fill="rgb(0%, 0%, 0%)" fill-opacity="1">
<use xlink:href="#glyph-5-4" x="142.156" y="48.89"/>
</g>
<path fill="none" stroke-width="0.478" stroke-linecap="butt" stroke-linejoin="miter" stroke="rgb(0%, 0%, 0%)" stroke-opacity="1" stroke-miterlimit="10" d="M 0.00184375 0.00071875 L 10.240125 0.00071875 " transform="matrix(1, 0, 0, -1, 139.963, 53.989)"/>
<g fill="rgb(0%, 0%, 0%)" fill-opacity="1">
<use xlink:href="#glyph-2-5" x="139.963" y="65.178"/>
</g>
<g fill="rgb(0%, 0%, 0%)" fill-opacity="1">
<use xlink:href="#glyph-0-1" x="153.39" y="40.705"/>
</g>
<g fill="rgb(0%, 0%, 0%)" fill-opacity="1">
<use xlink:href="#glyph-1-1" x="160.032" y="67.771"/>
</g>
<g fill="rgb(0%, 0%, 0%)" fill-opacity="1">
<use xlink:href="#glyph-2-1" x="168.279" y="56.978"/>
</g>
<g fill="rgb(0%, 0%, 0%)" fill-opacity="1">
<use xlink:href="#glyph-3-1" x="175.947" y="52.042"/>
</g>
<g fill="rgb(0%, 0%, 0%)" fill-opacity="1">
<use xlink:href="#glyph-4-1" x="179.24" y="52.042"/>
</g>
<g fill="rgb(0%, 0%, 0%)" fill-opacity="1">
<use xlink:href="#glyph-6-1" x="184.378" y="52.042"/>
</g>
<g fill="rgb(0%, 0%, 0%)" fill-opacity="1">
<use xlink:href="#glyph-3-4" x="190.965" y="52.042"/>
<use xlink:href="#glyph-3-2" x="195.199514" y="52.042"/>
</g>
<g fill="rgb(0%, 0%, 0%)" fill-opacity="1">
<use xlink:href="#glyph-5-1" x="198.99" y="56.978"/>
</g>
<g fill="rgb(0%, 0%, 0%)" fill-opacity="1">
<use xlink:href="#glyph-2-7" x="203.543" y="56.978"/>
</g>
<g fill="rgb(0%, 0%, 0%)" fill-opacity="1">
<use xlink:href="#glyph-5-2" x="209.233" y="56.978"/>
</g>
<g fill="rgb(0%, 0%, 0%)" fill-opacity="1">
<use xlink:href="#glyph-2-3" x="213.786" y="56.978"/>
<use xlink:href="#glyph-2-7" x="219.868806" y="56.978"/>
</g>
<g fill="rgb(0%, 0%, 0%)" fill-opacity="1">
<use xlink:href="#glyph-5-3" x="228.88" y="56.978"/>
</g>
<g fill="rgb(0%, 0%, 0%)" fill-opacity="1">
<use xlink:href="#glyph-5-4" x="241.308626" y="56.978"/>
</g>
</svg>
