<?xml version="1.0" encoding="UTF-8"?>
<svg xmlns="http://www.w3.org/2000/svg" xmlns:xlink="http://www.w3.org/1999/xlink" width="150.711" height="35.652" viewBox="0 0 150.711 35.652">
<defs>
<g>
<g id="glyph-0-0">
</g>
<g id="glyph-0-1">
<path d="M 3.59375 -0.53125 C 3.390625 -0.53125 3.21875 -0.53125 3.21875 -0.578125 C 3.21875 -0.609375 3.421875 -1.734375 3.484375 -2 C 3.875 -3.53125 4.78125 -4.625 5.828125 -4.625 C 6.59375 -4.625 6.953125 -4.046875 6.953125 -3.375 C 6.953125 -2.015625 5.421875 -0.53125 3.59375 -0.53125 Z M 3.078125 0.09375 C 3.15625 0.109375 3.28125 0.125 3.484375 0.125 C 5.453125 0.125 7.25 -1.765625 7.25 -3.65625 C 7.25 -4.390625 6.9375 -5.265625 5.921875 -5.265625 C 4.203125 -5.265625 3.484375 -2.84375 2.8125 -0.59375 C 1.4375 -0.859375 0.859375 -1.59375 0.859375 -2.390625 C 0.859375 -2.71875 1.109375 -4 1.8125 -4.859375 C 1.9375 -5.015625 1.9375 -5.03125 1.9375 -5.0625 C 1.9375 -5.15625 1.84375 -5.15625 1.8125 -5.15625 C 1.5 -5.15625 0.578125 -3.40625 0.578125 -2.265625 C 0.578125 -0.9375 1.640625 -0.203125 2.609375 0.015625 L 1.984375 2.03125 C 1.921875 2.21875 1.921875 2.234375 1.921875 2.28125 C 1.921875 2.5625 2.21875 2.578125 2.234375 2.578125 C 2.359375 2.578125 2.5625 2.53125 2.671875 2.296875 C 2.703125 2.1875 3.03125 0.328125 3.078125 0.09375 Z M 3.078125 0.09375 "/>
</g>
<g id="glyph-0-2">
<path d="M 5.671875 -4.875 C 5.28125 -4.8125 5.140625 -4.515625 5.140625 -4.296875 C 5.140625 -4 5.359375 -3.90625 5.53125 -3.90625 C 5.890625 -3.90625 6.140625 -4.21875 6.140625 -4.546875 C 6.140625 -5.046875 5.5625 -5.265625 5.0625 -5.265625 C 4.34375 -5.265625 3.9375 -4.546875 3.828125 -4.328125 C 3.546875 -5.21875 2.8125 -5.265625 2.59375 -5.265625 C 1.375 -5.265625 0.734375 -3.703125 0.734375 -3.4375 C 0.734375 -3.390625 0.78125 -3.328125 0.859375 -3.328125 C 0.953125 -3.328125 0.984375 -3.40625 1 -3.453125 C 1.40625 -4.78125 2.21875 -5.03125 2.5625 -5.03125 C 3.09375 -5.03125 3.203125 -4.53125 3.203125 -4.25 C 3.203125 -3.984375 3.125 -3.703125 2.984375 -3.125 L 2.578125 -1.5 C 2.40625 -0.78125 2.0625 -0.125 1.421875 -0.125 C 1.359375 -0.125 1.0625 -0.125 0.8125 -0.28125 C 1.25 -0.359375 1.34375 -0.71875 1.34375 -0.859375 C 1.34375 -1.09375 1.15625 -1.25 0.9375 -1.25 C 0.640625 -1.25 0.328125 -0.984375 0.328125 -0.609375 C 0.328125 -0.109375 0.890625 0.125 1.40625 0.125 C 1.984375 0.125 2.390625 -0.328125 2.640625 -0.828125 C 2.828125 -0.125 3.4375 0.125 3.875 0.125 C 5.09375 0.125 5.734375 -1.453125 5.734375 -1.703125 C 5.734375 -1.765625 5.6875 -1.8125 5.625 -1.8125 C 5.515625 -1.8125 5.5 -1.75 5.46875 -1.65625 C 5.140625 -0.609375 4.453125 -0.125 3.90625 -0.125 C 3.484375 -0.125 3.265625 -0.4375 3.265625 -0.921875 C 3.265625 -1.1875 3.3125 -1.375 3.5 -2.15625 L 3.921875 -3.796875 C 4.09375 -4.5 4.5 -5.03125 5.0625 -5.03125 C 5.078125 -5.03125 5.421875 -5.03125 5.671875 -4.875 Z M 5.671875 -4.875 "/>
</g>
<g id="glyph-0-3">
<path d="M 2.46875 -3.5 C 2.484375 -3.578125 2.78125 -4.171875 3.234375 -4.546875 C 3.53125 -4.84375 3.9375 -5.03125 4.40625 -5.03125 C 4.890625 -5.03125 5.0625 -4.671875 5.0625 -4.203125 C 5.0625 -4.125 5.0625 -3.890625 4.90625 -3.328125 L 4.609375 -2.09375 C 4.515625 -1.734375 4.296875 -0.84375 4.265625 -0.71875 C 4.21875 -0.53125 4.140625 -0.234375 4.140625 -0.171875 C 4.140625 -0.015625 4.28125 0.125 4.453125 0.125 C 4.8125 0.125 4.875 -0.15625 4.984375 -0.578125 L 5.703125 -3.4375 C 5.71875 -3.53125 6.34375 -5.03125 7.65625 -5.03125 C 8.140625 -5.03125 8.3125 -4.671875 8.3125 -4.203125 C 8.3125 -3.53125 7.84375 -2.21875 7.578125 -1.5 C 7.46875 -1.21875 7.40625 -1.0625 7.40625 -0.84375 C 7.40625 -0.3125 7.78125 0.125 8.359375 0.125 C 9.46875 0.125 9.890625 -1.640625 9.890625 -1.703125 C 9.890625 -1.765625 9.84375 -1.8125 9.765625 -1.8125 C 9.65625 -1.8125 9.640625 -1.78125 9.59375 -1.578125 C 9.3125 -0.625 8.875 -0.125 8.390625 -0.125 C 8.265625 -0.125 8.078125 -0.125 8.078125 -0.515625 C 8.078125 -0.828125 8.21875 -1.203125 8.265625 -1.34375 C 8.484375 -1.90625 9.03125 -3.328125 9.03125 -4.015625 C 9.03125 -4.734375 8.609375 -5.265625 7.703125 -5.265625 C 6.890625 -5.265625 6.25 -4.8125 5.765625 -4.109375 C 5.734375 -4.75 5.34375 -5.265625 4.453125 -5.265625 C 3.375 -5.265625 2.828125 -4.515625 2.609375 -4.21875 C 2.5625 -4.90625 2.078125 -5.265625 1.546875 -5.265625 C 1.203125 -5.265625 0.9375 -5.109375 0.703125 -4.65625 C 0.484375 -4.21875 0.328125 -3.484375 0.328125 -3.4375 C 0.328125 -3.390625 0.375 -3.328125 0.453125 -3.328125 C 0.546875 -3.328125 0.5625 -3.34375 0.640625 -3.625 C 0.8125 -4.328125 1.046875 -5.03125 1.515625 -5.03125 C 1.796875 -5.03125 1.890625 -4.84375 1.890625 -4.484375 C 1.890625 -4.21875 1.765625 -3.75 1.6875 -3.375 L 1.34375 -2.09375 C 1.296875 -1.859375 1.171875 -1.328125 1.109375 -1.109375 C 1.03125 -0.796875 0.890625 -0.234375 0.890625 -0.171875 C 0.890625 -0.015625 1.03125 0.125 1.203125 0.125 C 1.34375 0.125 1.515625 0.046875 1.609375 -0.125 C 1.640625 -0.1875 1.75 -0.609375 1.8125 -0.84375 L 2.0625 -1.921875 Z M 2.46875 -3.5 "/>
</g>
<g id="glyph-0-4">
<path d="M 3.359375 -8 C 3.375 -8.046875 3.390625 -8.109375 3.390625 -8.171875 C 3.390625 -8.296875 3.28125 -8.296875 3.25 -8.296875 C 3.234375 -8.296875 2.8125 -8.265625 2.59375 -8.234375 C 2.390625 -8.21875 2.21875 -8.203125 2 -8.1875 C 1.703125 -8.15625 1.625 -8.15625 1.625 -7.9375 C 1.625 -7.8125 1.75 -7.8125 1.859375 -7.8125 C 2.46875 -7.8125 2.46875 -7.703125 2.46875 -7.59375 C 2.46875 -7.546875 2.46875 -7.515625 2.421875 -7.296875 L 0.703125 -0.46875 C 0.65625 -0.28125 0.65625 -0.265625 0.65625 -0.1875 C 0.65625 0.078125 0.859375 0.125 0.984375 0.125 C 1.3125 0.125 1.390625 -0.140625 1.484375 -0.515625 L 2.046875 -2.75 C 2.90625 -2.65625 3.421875 -2.296875 3.421875 -1.71875 C 3.421875 -1.65625 3.421875 -1.609375 3.375 -1.421875 C 3.328125 -1.25 3.328125 -1.09375 3.328125 -1.046875 C 3.328125 -0.34375 3.796875 0.125 4.40625 0.125 C 4.953125 0.125 5.234375 -0.375 5.328125 -0.546875 C 5.578125 -0.984375 5.734375 -1.65625 5.734375 -1.703125 C 5.734375 -1.765625 5.6875 -1.8125 5.625 -1.8125 C 5.515625 -1.8125 5.5 -1.765625 5.453125 -1.578125 C 5.28125 -0.953125 5.03125 -0.125 4.421875 -0.125 C 4.1875 -0.125 4.03125 -0.234375 4.03125 -0.6875 C 4.03125 -0.921875 4.078125 -1.1875 4.125 -1.359375 C 4.171875 -1.578125 4.171875 -1.59375 4.171875 -1.734375 C 4.171875 -2.4375 3.53125 -2.828125 2.4375 -2.96875 C 2.875 -3.234375 3.296875 -3.703125 3.46875 -3.890625 C 4.140625 -4.65625 4.609375 -5.03125 5.15625 -5.03125 C 5.4375 -5.03125 5.515625 -4.953125 5.59375 -4.890625 C 5.15625 -4.84375 4.984375 -4.53125 4.984375 -4.296875 C 4.984375 -4 5.21875 -3.90625 5.375 -3.90625 C 5.703125 -3.90625 5.984375 -4.1875 5.984375 -4.5625 C 5.984375 -4.90625 5.71875 -5.265625 5.171875 -5.265625 C 4.515625 -5.265625 3.984375 -4.8125 3.125 -3.84375 C 3.015625 -3.703125 2.5625 -3.25 2.125 -3.078125 Z M 3.359375 -8 "/>
</g>
<g id="glyph-0-5">
<path d="M 5.625 -8.015625 C 5.625 -8.015625 5.671875 -8.171875 5.671875 -8.1875 C 5.671875 -8.296875 5.5625 -8.296875 5.53125 -8.296875 C 5.421875 -8.296875 5.421875 -8.234375 5.359375 -8.0625 L 3.390625 -0.140625 C 2.40625 -0.265625 2.03125 -0.765625 2.03125 -1.484375 C 2.03125 -1.75 2.03125 -2.015625 2.59375 -3.5 C 2.75 -3.9375 2.8125 -4.09375 2.8125 -4.296875 C 2.8125 -4.84375 2.421875 -5.265625 1.859375 -5.265625 C 0.765625 -5.265625 0.328125 -3.53125 0.328125 -3.4375 C 0.328125 -3.390625 0.375 -3.328125 0.453125 -3.328125 C 0.5625 -3.328125 0.578125 -3.375 0.625 -3.546875 C 0.90625 -4.59375 1.390625 -5.03125 1.828125 -5.03125 C 1.9375 -5.03125 2.140625 -5.015625 2.140625 -4.640625 C 2.140625 -4.59375 2.140625 -4.328125 1.9375 -3.796875 C 1.296875 -2.109375 1.296875 -1.84375 1.296875 -1.5625 C 1.296875 -0.421875 2.25 0.03125 3.328125 0.109375 C 3.234375 0.484375 3.140625 0.859375 3.046875 1.234375 C 2.859375 1.953125 2.765625 2.28125 2.765625 2.328125 C 2.765625 2.4375 2.875 2.4375 2.90625 2.4375 C 2.921875 2.4375 2.96875 2.4375 3 2.390625 C 3.046875 2.34375 3.53125 0.328125 3.578125 0.125 C 4.03125 0.125 4.96875 0.125 6.046875 -0.984375 C 6.4375 -1.421875 6.796875 -1.96875 7 -2.484375 C 7.125 -2.796875 7.40625 -3.859375 7.40625 -4.46875 C 7.40625 -5.1875 7.046875 -5.265625 6.9375 -5.265625 C 6.640625 -5.265625 6.390625 -4.984375 6.390625 -4.75 C 6.390625 -4.609375 6.46875 -4.515625 6.515625 -4.46875 C 6.625 -4.359375 6.9375 -4.046875 6.9375 -3.421875 C 6.9375 -2.984375 6.703125 -2.109375 5.9375 -1.25 C 4.9375 -0.125 4.015625 -0.125 3.65625 -0.125 Z M 5.625 -8.015625 "/>
</g>
<g id="glyph-1-0">
</g>
<g id="glyph-1-1">
<path d="M 3.296875 -4.96875 C 3.296875 -5.125 3.171875 -5.28125 2.984375 -5.28125 C 2.734375 -5.28125 2.53125 -5.046875 2.53125 -4.84375 C 2.53125 -4.6875 2.65625 -4.546875 2.84375 -4.546875 C 3.078125 -4.546875 3.296875 -4.765625 3.296875 -4.96875 Z M 1.625 0.390625 C 1.5 0.890625 1.109375 1.40625 0.625 1.40625 C 0.5 1.40625 0.375 1.375 0.359375 1.359375 C 0.609375 1.25 0.640625 1.03125 0.640625 0.953125 C 0.640625 0.765625 0.5 0.65625 0.328125 0.65625 C 0.109375 0.65625 -0.109375 0.859375 -0.109375 1.125 C -0.109375 1.421875 0.1875 1.625 0.640625 1.625 C 1.125 1.625 2 1.328125 2.234375 0.359375 L 2.953125 -2.484375 C 2.984375 -2.578125 3 -2.640625 3 -2.765625 C 3 -3.203125 2.640625 -3.515625 2.1875 -3.515625 C 1.34375 -3.515625 0.84375 -2.40625 0.84375 -2.296875 C 0.84375 -2.21875 0.90625 -2.1875 0.96875 -2.1875 C 1.046875 -2.1875 1.0625 -2.21875 1.109375 -2.328125 C 1.359375 -2.890625 1.765625 -3.296875 2.15625 -3.296875 C 2.328125 -3.296875 2.421875 -3.171875 2.421875 -2.921875 C 2.421875 -2.8125 2.40625 -2.6875 2.375 -2.578125 Z M 1.625 0.390625 "/>
</g>
<g id="glyph-1-2">
<path d="M 2.328125 -5.296875 C 2.328125 -5.3125 2.359375 -5.40625 2.359375 -5.421875 C 2.359375 -5.453125 2.328125 -5.53125 2.234375 -5.53125 C 2.203125 -5.53125 1.953125 -5.5 1.765625 -5.484375 L 1.328125 -5.453125 C 1.140625 -5.4375 1.0625 -5.4375 1.0625 -5.296875 C 1.0625 -5.171875 1.171875 -5.171875 1.28125 -5.171875 C 1.65625 -5.171875 1.65625 -5.125 1.65625 -5.0625 C 1.65625 -5.03125 1.65625 -5.015625 1.625 -4.875 L 0.484375 -0.34375 C 0.453125 -0.21875 0.453125 -0.171875 0.453125 -0.171875 C 0.453125 -0.03125 0.5625 0.078125 0.71875 0.078125 C 0.984375 0.078125 1.046875 -0.171875 1.078125 -0.28125 C 1.15625 -0.625 1.375 -1.46875 1.453125 -1.796875 C 1.890625 -1.75 2.4375 -1.609375 2.4375 -1.140625 C 2.4375 -1.109375 2.4375 -1.0625 2.421875 -0.984375 C 2.390625 -0.890625 2.375 -0.765625 2.375 -0.734375 C 2.375 -0.265625 2.71875 0.078125 3.1875 0.078125 C 3.515625 0.078125 3.734375 -0.171875 3.828125 -0.3125 C 4.03125 -0.609375 4.15625 -1.09375 4.15625 -1.140625 C 4.15625 -1.21875 4.09375 -1.25 4.03125 -1.25 C 3.9375 -1.25 3.921875 -1.1875 3.890625 -1.046875 C 3.78125 -0.671875 3.578125 -0.140625 3.203125 -0.140625 C 3 -0.140625 2.953125 -0.3125 2.953125 -0.53125 C 2.953125 -0.640625 2.953125 -0.734375 3 -0.921875 C 3 -0.953125 3.03125 -1.078125 3.03125 -1.15625 C 3.03125 -1.8125 2.21875 -1.953125 1.8125 -2.015625 C 2.109375 -2.1875 2.375 -2.46875 2.46875 -2.5625 C 2.90625 -3 3.265625 -3.296875 3.65625 -3.296875 C 3.75 -3.296875 3.84375 -3.265625 3.90625 -3.1875 C 3.484375 -3.125 3.484375 -2.75 3.484375 -2.75 C 3.484375 -2.578125 3.625 -2.453125 3.796875 -2.453125 C 4.015625 -2.453125 4.25 -2.625 4.25 -2.953125 C 4.25 -3.234375 4.0625 -3.515625 3.65625 -3.515625 C 3.203125 -3.515625 2.78125 -3.15625 2.328125 -2.703125 C 1.859375 -2.25 1.671875 -2.171875 1.53125 -2.109375 Z M 2.328125 -5.296875 "/>
</g>
<g id="glyph-1-3">
<path d="M 3.703125 -5.640625 C 3.75 -5.75 3.75 -5.765625 3.75 -5.796875 C 3.75 -5.890625 3.671875 -5.96875 3.5625 -5.96875 C 3.4375 -5.96875 3.40625 -5.875 3.375 -5.796875 L 0.515625 1.65625 C 0.46875 1.765625 0.46875 1.78125 0.46875 1.8125 C 0.46875 1.90625 0.546875 1.984375 0.65625 1.984375 C 0.78125 1.984375 0.8125 1.890625 0.84375 1.8125 Z M 3.703125 -5.640625 "/>
</g>
<g id="glyph-1-4">
<path d="M 2.375 -4.96875 C 2.375 -5.140625 2.25 -5.28125 2.0625 -5.28125 C 1.859375 -5.28125 1.625 -5.078125 1.625 -4.84375 C 1.625 -4.671875 1.75 -4.546875 1.9375 -4.546875 C 2.140625 -4.546875 2.375 -4.734375 2.375 -4.96875 Z M 1.21875 -2.046875 L 0.78125 -0.953125 C 0.734375 -0.828125 0.703125 -0.734375 0.703125 -0.59375 C 0.703125 -0.203125 1 0.078125 1.421875 0.078125 C 2.203125 0.078125 2.53125 -1.03125 2.53125 -1.140625 C 2.53125 -1.21875 2.46875 -1.25 2.40625 -1.25 C 2.3125 -1.25 2.296875 -1.1875 2.265625 -1.109375 C 2.09375 -0.46875 1.765625 -0.140625 1.4375 -0.140625 C 1.34375 -0.140625 1.25 -0.1875 1.25 -0.390625 C 1.25 -0.59375 1.3125 -0.734375 1.40625 -0.984375 C 1.484375 -1.1875 1.5625 -1.40625 1.65625 -1.625 L 1.90625 -2.265625 C 1.96875 -2.453125 2.078125 -2.703125 2.078125 -2.84375 C 2.078125 -3.234375 1.75 -3.515625 1.34375 -3.515625 C 0.578125 -3.515625 0.234375 -2.40625 0.234375 -2.296875 C 0.234375 -2.21875 0.296875 -2.1875 0.359375 -2.1875 C 0.46875 -2.1875 0.46875 -2.234375 0.5 -2.3125 C 0.71875 -3.078125 1.078125 -3.296875 1.328125 -3.296875 C 1.4375 -3.296875 1.515625 -3.25 1.515625 -3.03125 C 1.515625 -2.953125 1.5 -2.84375 1.421875 -2.59375 Z M 1.21875 -2.046875 "/>
</g>
<g id="glyph-2-0">
</g>
<g id="glyph-2-1">
<path d="M 3.890625 2.90625 C 3.890625 2.875 3.890625 2.84375 3.6875 2.640625 C 2.484375 1.4375 1.8125 -0.53125 1.8125 -2.96875 C 1.8125 -5.296875 2.375 -7.296875 3.765625 -8.703125 C 3.890625 -8.8125 3.890625 -8.828125 3.890625 -8.875 C 3.890625 -8.9375 3.828125 -8.96875 3.78125 -8.96875 C 3.625 -8.96875 2.640625 -8.109375 2.0625 -6.9375 C 1.453125 -5.71875 1.171875 -4.453125 1.171875 -2.96875 C 1.171875 -1.90625 1.34375 -0.484375 1.953125 0.78125 C 2.671875 2.21875 3.640625 3 3.78125 3 C 3.828125 3 3.890625 2.96875 3.890625 2.90625 Z M 3.890625 2.90625 "/>
</g>
<g id="glyph-2-2">
<path d="M 3.375 -2.96875 C 3.375 -3.890625 3.25 -5.359375 2.578125 -6.75 C 1.875 -8.1875 0.890625 -8.96875 0.765625 -8.96875 C 0.71875 -8.96875 0.65625 -8.9375 0.65625 -8.875 C 0.65625 -8.828125 0.65625 -8.8125 0.859375 -8.609375 C 2.0625 -7.40625 2.71875 -5.421875 2.71875 -2.984375 C 2.71875 -0.671875 2.15625 1.328125 0.78125 2.734375 C 0.65625 2.84375 0.65625 2.875 0.65625 2.90625 C 0.65625 2.96875 0.71875 3 0.765625 3 C 0.921875 3 1.90625 2.140625 2.484375 0.96875 C 3.09375 -0.25 3.375 -1.546875 3.375 -2.96875 Z M 3.375 -2.96875 "/>
</g>
<g id="glyph-2-3">
<path d="M 8.0625 -3.875 C 8.234375 -3.875 8.453125 -3.875 8.453125 -4.09375 C 8.453125 -4.3125 8.25 -4.3125 8.0625 -4.3125 L 1.03125 -4.3125 C 0.859375 -4.3125 0.640625 -4.3125 0.640625 -4.09375 C 0.640625 -3.875 0.84375 -3.875 1.03125 -3.875 Z M 8.0625 -1.65625 C 8.234375 -1.65625 8.453125 -1.65625 8.453125 -1.859375 C 8.453125 -2.09375 8.25 -2.09375 8.0625 -2.09375 L 1.03125 -2.09375 C 0.859375 -2.09375 0.640625 -2.09375 0.640625 -1.875 C 0.640625 -1.65625 0.84375 -1.65625 1.03125 -1.65625 Z M 8.0625 -1.65625 "/>
</g>
<g id="glyph-3-0">
</g>
<g id="glyph-3-1">
<path d="M 2.25 -1.625 C 2.375 -1.75 2.703125 -2.015625 2.84375 -2.125 C 3.328125 -2.578125 3.796875 -3.015625 3.796875 -3.734375 C 3.796875 -4.6875 3 -5.296875 2.015625 -5.296875 C 1.046875 -5.296875 0.421875 -4.578125 0.421875 -3.859375 C 0.421875 -3.46875 0.734375 -3.421875 0.84375 -3.421875 C 1.015625 -3.421875 1.265625 -3.53125 1.265625 -3.84375 C 1.265625 -4.25 0.859375 -4.25 0.765625 -4.25 C 1 -4.84375 1.53125 -5.03125 1.921875 -5.03125 C 2.65625 -5.03125 3.046875 -4.40625 3.046875 -3.734375 C 3.046875 -2.90625 2.46875 -2.296875 1.515625 -1.34375 L 0.515625 -0.296875 C 0.421875 -0.21875 0.421875 -0.203125 0.421875 0 L 3.5625 0 L 3.796875 -1.421875 L 3.546875 -1.421875 C 3.53125 -1.265625 3.46875 -0.875 3.375 -0.71875 C 3.328125 -0.65625 2.71875 -0.65625 2.59375 -0.65625 L 1.171875 -0.65625 Z M 2.25 -1.625 "/>
</g>
<g id="glyph-4-0">
</g>
<g id="glyph-4-1">
<path d="M 7.875 -2.75 C 8.078125 -2.75 8.296875 -2.75 8.296875 -2.984375 C 8.296875 -3.234375 8.078125 -3.234375 7.875 -3.234375 L 1.40625 -3.234375 C 1.203125 -3.234375 0.984375 -3.234375 0.984375 -2.984375 C 0.984375 -2.75 1.203125 -2.75 1.40625 -2.75 Z M 7.875 -2.75 "/>
</g>
</g>
<clipPath id="clip-0">
<path clip-rule="nonzero" d="M 15 28 L 20 28 L 20 35.652344 L 15 35.652344 Z M 15 28 "/>
</clipPath>
</defs>
<g fill="rgb(0%, 0%, 0%)" fill-opacity="1">
<use xlink:href="#glyph-0-1" x="10.149" y="11.414"/>
</g>
<g fill="rgb(0%, 0%, 0%)" fill-opacity="1">
<use xlink:href="#glyph-1-1" x="17.818" y="13.207"/>
</g>
<g fill="rgb(0%, 0%, 0%)" fill-opacity="1">
<use xlink:href="#glyph-1-2" x="21.705018" y="13.207"/>
</g>
<g fill="rgb(0%, 0%, 0%)" fill-opacity="1">
<use xlink:href="#glyph-2-1" x="26.821" y="11.414"/>
</g>
<g fill="rgb(0%, 0%, 0%)" fill-opacity="1">
<use xlink:href="#glyph-0-2" x="31.374" y="11.414"/>
</g>
<g fill="rgb(0%, 0%, 0%)" fill-opacity="1">
<use xlink:href="#glyph-2-2" x="38.026" y="11.414"/>
</g>
<g fill="rgb(0%, 0%, 0%)" fill-opacity="1">
<use xlink:href="#glyph-2-3" x="45.902086" y="11.414"/>
</g>
<g fill="rgb(0%, 0%, 0%)" fill-opacity="1">
<use xlink:href="#glyph-0-3" x="58.324" y="11.414"/>
</g>
<g fill="rgb(0%, 0%, 0%)" fill-opacity="1">
<use xlink:href="#glyph-1-1" x="68.564" y="6.478"/>
</g>
<g fill="rgb(0%, 0%, 0%)" fill-opacity="1">
<use xlink:href="#glyph-1-3" x="72.451018" y="6.478"/>
</g>
<g fill="rgb(0%, 0%, 0%)" fill-opacity="1">
<use xlink:href="#glyph-3-1" x="76.682" y="6.478"/>
</g>
<g fill="rgb(0%, 0%, 0%)" fill-opacity="1">
<use xlink:href="#glyph-0-1" x="81.414" y="11.414"/>
</g>
<g fill="rgb(0%, 0%, 0%)" fill-opacity="1">
<use xlink:href="#glyph-2-1" x="89.082" y="11.414"/>
</g>
<g fill="rgb(0%, 0%, 0%)" fill-opacity="1">
<use xlink:href="#glyph-0-3" x="93.635" y="11.414"/>
</g>
<g fill="rgb(0%, 0%, 0%)" fill-opacity="1">
<use xlink:href="#glyph-1-1" x="103.874" y="6.478"/>
</g>
<g fill="rgb(0%, 0%, 0%)" fill-opacity="1">
<use xlink:href="#glyph-0-2" x="108.256" y="11.414"/>
</g>
<g fill="rgb(0%, 0%, 0%)" fill-opacity="1">
<use xlink:href="#glyph-4-1" x="117.565" y="11.414"/>
</g>
<g fill="rgb(0%, 0%, 0%)" fill-opacity="1">
<use xlink:href="#glyph-0-4" x="129.52" y="11.414"/>
</g>
<g fill="rgb(0%, 0%, 0%)" fill-opacity="1">
<use xlink:href="#glyph-2-2" x="136.01" y="11.414"/>
</g>
<g fill="rgb(0%, 0%, 0%)" fill-opacity="1">
<use xlink:href="#glyph-0-5" x="8.302" y="30.647"/>
</g>
<g fill="rgb(0%, 0%, 0%)" fill-opacity="1">
<use xlink:href="#glyph-1-4" x="16.341" y="25.711"/>
</g>
<g clip-path="url(#clip-0)">
<g fill="rgb(0%, 0%, 0%)" fill-opacity="1">
<use xlink:href="#glyph-1-1" x="15.912" y="33.602"/>
</g>
</g>
<g fill="rgb(0%, 0%, 0%)" fill-opacity="1">
<use xlink:href="#glyph-1-2" x="19.799018" y="33.602"/>
</g>
<g fill="rgb(0%, 0%, 0%)" fill-opacity="1">
<use xlink:href="#glyph-2-1" x="24.916" y="30.647"/>
</g>
<g fill="rgb(0%, 0%, 0%)" fill-opacity="1">
<use xlink:href="#glyph-0-2" x="29.468" y="30.647"/>
</g>
<g fill="rgb(0%, 0%, 0%)" fill-opacity="1">
<use xlink:href="#glyph-2-2" x="36.121" y="30.647"/>
</g>
<g fill="rgb(0%, 0%, 0%)" fill-opacity="1">
<use xlink:href="#glyph-2-3" x="43.997086" y="30.647"/>
</g>
<g fill="rgb(0%, 0%, 0%)" fill-opacity="1">
<use xlink:href="#glyph-0-3" x="56.419" y="30.647"/>
</g>
<g fill="rgb(0%, 0%, 0%)" fill-opacity="1">
<use xlink:href="#glyph-1-1" x="66.658" y="25.711"/>
</g>
<g fill="rgb(0%, 0%, 0%)" fill-opacity="1">
<use xlink:href="#glyph-1-3" x="70.545018" y="25.711"/>
</g>
<g fill="rgb(0%, 0%, 0%)" fill-opacity="1">
<use xlink:href="#glyph-3-1" x="74.777" y="25.711"/>
</g>
<g fill="rgb(0%, 0%, 0%)" fill-opacity="1">
<use xlink:href="#glyph-0-5" x="79.509" y="30.647"/>
</g>
<g fill="rgb(0%, 0%, 0%)" fill-opacity="1">
<use xlink:href="#glyph-1-4" x="87.548" y="25.711"/>
</g>
<g fill="rgb(0%, 0%, 0%)" fill-opacity="1">
<use xlink:href="#glyph-2-1" x="90.929" y="30.647"/>
</g>
<g fill="rgb(0%, 0%, 0%)" fill-opacity="1">
<use xlink:href="#glyph-0-3" x="95.482" y="30.647"/>
</g>
<g fill="rgb(0%, 0%, 0%)" fill-opacity="1">
<use xlink:href="#glyph-1-1" x="105.721" y="25.711"/>
</g>
<g fill="rgb(0%, 0%, 0%)" fill-opacity="1">
<use xlink:href="#glyph-0-2" x="110.103" y="30.647"/>
</g>
<g fill="rgb(0%, 0%, 0%)" fill-opacity="1">
<use xlink:href="#glyph-4-1" x="119.412" y="30.647"/>
</g>
<g fill="rgb(0%, 0%, 0%)" fill-opacity="1">
<use xlink:href="#glyph-0-4" x="131.367" y="30.647"/>
</g>
<g fill="rgb(0%, 0%, 0%)" fill-opacity="1">
<use xlink:href="#glyph-2-2" x="137.857" y="30.647"/>
</g>
</svg>
