<?xml version="1.0" encoding="UTF-8"?>
<svg xmlns="http://www.w3.org/2000/svg" xmlns:xlink="http://www.w3.org/1999/xlink" viewBox="0 0 49.794 12.467">
<defs>
<g>
<g id="glyph-0-0">
</g>
<g id="glyph-0-1">
<path d="M 5.328125 -4.8125 C 5.5625 -4.8125 5.671875 -4.8125 5.671875 -5.03125 C 5.671875 -5.15625 5.5625 -5.15625 5.359375 -5.15625 L 4.390625 -5.15625 C 4.609375 -6.390625 4.78125 -7.234375 4.875 -7.609375 C 4.953125 -7.90625 5.203125 -8.171875 5.515625 -8.171875 C 5.765625 -8.171875 6.015625 -8.0625 6.125 -7.953125 C 5.671875 -7.90625 5.515625 -7.5625 5.515625 -7.359375 C 5.515625 -7.125 5.703125 -6.984375 5.921875 -6.984375 C 6.171875 -6.984375 6.53125 -7.1875 6.53125 -7.640625 C 6.53125 -8.140625 6.03125 -8.421875 5.5 -8.421875 C 4.984375 -8.421875 4.484375 -8.03125 4.25 -7.5625 C 4.03125 -7.140625 3.90625 -6.71875 3.640625 -5.15625 L 2.828125 -5.15625 C 2.609375 -5.15625 2.484375 -5.15625 2.484375 -4.9375 C 2.484375 -4.8125 2.5625 -4.8125 2.796875 -4.8125 L 3.5625 -4.8125 C 3.34375 -3.6875 2.859375 -0.984375 2.578125 0.28125 C 2.375 1.328125 2.203125 2.203125 1.609375 2.203125 C 1.5625 2.203125 1.21875 2.203125 1 1.96875 C 1.609375 1.921875 1.609375 1.40625 1.609375 1.390625 C 1.609375 1.140625 1.4375 1 1.203125 1 C 0.96875 1 0.609375 1.203125 0.609375 1.65625 C 0.609375 2.171875 1.140625 2.4375 1.609375 2.4375 C 2.828125 2.4375 3.328125 0.25 3.453125 -0.34375 C 3.671875 -1.265625 4.25 -4.453125 4.3125 -4.8125 Z M 5.328125 -4.8125 "/>
</g>
<g id="glyph-0-2">
<path d="M 4.078125 -0.6875 C 4.234375 -0.03125 4.8125 0.125 5.09375 0.125 C 5.46875 0.125 5.765625 -0.125 5.953125 -0.53125 C 6.15625 -0.96875 6.3125 -1.671875 6.3125 -1.703125 C 6.3125 -1.765625 6.265625 -1.8125 6.1875 -1.8125 C 6.078125 -1.8125 6.078125 -1.75 6.03125 -1.578125 C 5.8125 -0.75 5.59375 -0.125 5.109375 -0.125 C 4.75 -0.125 4.75 -0.515625 4.75 -0.671875 C 4.75 -0.9375 4.796875 -1.0625 4.90625 -1.5625 C 5 -1.890625 5.078125 -2.21875 5.15625 -2.546875 L 5.640625 -4.5 C 5.71875 -4.796875 5.71875 -4.8125 5.71875 -4.859375 C 5.71875 -5.03125 5.578125 -5.15625 5.40625 -5.15625 C 5.0625 -5.15625 4.96875 -4.859375 4.90625 -4.546875 C 4.78125 -4.09375 4.140625 -1.515625 4.046875 -1.09375 C 4.046875 -1.09375 3.578125 -0.125 2.703125 -0.125 C 2.078125 -0.125 1.953125 -0.65625 1.953125 -1.09375 C 1.953125 -1.78125 2.296875 -2.734375 2.609375 -3.53125 C 2.75 -3.921875 2.8125 -4.078125 2.8125 -4.3125 C 2.8125 -4.828125 2.4375 -5.265625 1.859375 -5.265625 C 0.765625 -5.265625 0.328125 -3.53125 0.328125 -3.4375 C 0.328125 -3.390625 0.375 -3.328125 0.453125 -3.328125 C 0.5625 -3.328125 0.578125 -3.375 0.625 -3.546875 C 0.90625 -4.578125 1.375 -5.03125 1.828125 -5.03125 C 1.953125 -5.03125 2.140625 -5.015625 2.140625 -4.640625 C 2.140625 -4.328125 2.015625 -3.984375 1.828125 -3.53125 C 1.296875 -2.109375 1.25 -1.65625 1.25 -1.296875 C 1.25 -0.078125 2.15625 0.125 2.65625 0.125 C 3.421875 0.125 3.84375 -0.40625 4.078125 -0.6875 Z M 4.078125 -0.6875 "/>
</g>
<g id="glyph-0-3">
<path d="M 3.484375 -2.71875 C 3.65625 -2.71875 3.859375 -2.71875 3.859375 -2.90625 C 3.859375 -3.0625 3.734375 -3.0625 3.53125 -3.0625 L 1.59375 -3.0625 C 1.890625 -4.140625 2.59375 -4.8125 3.65625 -4.8125 L 4 -4.8125 C 4.203125 -4.8125 4.390625 -4.8125 4.390625 -5 C 4.390625 -5.15625 4.25 -5.15625 4.046875 -5.15625 L 3.640625 -5.15625 C 2.15625 -5.15625 0.546875 -3.984375 0.546875 -2.109375 C 0.546875 -0.78125 1.453125 0.125 2.625 0.125 C 3.390625 0.125 4.140625 -0.359375 4.140625 -0.484375 C 4.140625 -0.546875 4.109375 -0.625 4.046875 -0.625 C 4 -0.625 3.984375 -0.609375 3.921875 -0.5625 C 3.46875 -0.265625 3.03125 -0.125 2.671875 -0.125 C 2.03125 -0.125 1.359375 -0.53125 1.359375 -1.703125 C 1.359375 -1.921875 1.390625 -2.234375 1.5 -2.71875 Z M 3.484375 -2.71875 "/>
</g>
<g id="glyph-1-0">
</g>
<g id="glyph-1-1">
<path d="M 8.0625 -8.25 C 8.21875 -8.3125 8.296875 -8.375 8.296875 -8.515625 C 8.296875 -8.640625 8.1875 -8.75 8.0625 -8.75 C 8 -8.75 7.890625 -8.703125 7.84375 -8.671875 L 1.234375 -5.5625 C 1.03125 -5.46875 0.984375 -5.375 0.984375 -5.28125 C 0.984375 -5.1875 1.046875 -5.109375 1.234375 -5.015625 L 7.84375 -1.90625 C 8 -1.828125 8.015625 -1.828125 8.0625 -1.828125 C 8.1875 -1.828125 8.296875 -1.9375 8.296875 -2.0625 C 8.296875 -2.21875 8.1875 -2.265625 8.0625 -2.328125 L 1.796875 -5.28125 Z M 8.625 0.3125 C 8.625 0.03125 8.53125 -0.078125 8.453125 -0.078125 C 8.296875 -0.078125 8.28125 0.21875 8.28125 0.28125 C 8.234375 1.3125 7.5 2.03125 6.640625 2.03125 C 5.875 2.03125 5.3125 1.53125 4.765625 1.046875 C 4.109375 0.46875 3.484375 -0.078125 2.65625 -0.078125 C 1.40625 -0.078125 0.671875 1.1875 0.671875 2.3125 C 0.671875 2.578125 0.734375 2.6875 0.84375 2.6875 C 0.96875 2.6875 1 2.46875 1 2.421875 C 1.0625 1.046875 2.015625 0.578125 2.65625 0.578125 C 3.421875 0.578125 3.984375 1.09375 4.515625 1.5625 C 5.171875 2.15625 5.796875 2.703125 6.640625 2.703125 C 7.890625 2.703125 8.625 1.421875 8.625 0.3125 Z M 8.625 0.3125 "/>
</g>
<g id="glyph-2-0">
</g>
<g id="glyph-2-1">
<path d="M 4.765625 -2.765625 L 8.0625 -2.765625 C 8.234375 -2.765625 8.453125 -2.765625 8.453125 -2.96875 C 8.453125 -3.203125 8.25 -3.203125 8.0625 -3.203125 L 4.765625 -3.203125 L 4.765625 -6.5 C 4.765625 -6.671875 4.765625 -6.890625 4.546875 -6.890625 C 4.328125 -6.890625 4.328125 -6.6875 4.328125 -6.5 L 4.328125 -3.203125 L 1.03125 -3.203125 C 0.859375 -3.203125 0.640625 -3.203125 0.640625 -2.984375 C 0.640625 -2.765625 0.84375 -2.765625 1.03125 -2.765625 L 4.328125 -2.765625 L 4.328125 0.53125 C 4.328125 0.703125 4.328125 0.921875 4.546875 0.921875 C 4.765625 0.921875 4.765625 0.71875 4.765625 0.53125 Z M 4.765625 -2.765625 "/>
</g>
</g>
</defs>
<g fill="rgb(0%, 0%, 0%)" fill-opacity="1">
<use xlink:href="#glyph-0-1" x="0.5" y="9.222"/>
</g>
<g fill="rgb(0%, 0%, 0%)" fill-opacity="1">
<use xlink:href="#glyph-1-1" x="10.867" y="9.222"/>
</g>
<g fill="rgb(0%, 0%, 0%)" fill-opacity="1">
<use xlink:href="#glyph-0-2" x="23.487" y="9.222"/>
</g>
<g fill="rgb(0%, 0%, 0%)" fill-opacity="1">
<use xlink:href="#glyph-2-1" x="32.806" y="9.222"/>
</g>
<g fill="rgb(0%, 0%, 0%)" fill-opacity="1">
<use xlink:href="#glyph-0-3" x="44.567" y="9.222"/>
</g>
</svg>
