<?xml version="1.0" encoding="UTF-8"?>
<svg xmlns="http://www.w3.org/2000/svg" xmlns:xlink="http://www.w3.org/1999/xlink" viewBox="0 0 34.395 9.637">
<defs>
<g>
<g id="glyph-0-0">
</g>
<g id="glyph-0-1">
<path d="M 8.921875 -8.3125 C 8.921875 -8.421875 8.84375 -8.421875 8.828125 -8.421875 C 8.796875 -8.421875 8.75 -8.421875 8.65625 -8.296875 L 7.828125 -7.296875 C 7.40625 -8.015625 6.75 -8.421875 5.859375 -8.421875 C 3.28125 -8.421875 0.59375 -5.796875 0.59375 -2.984375 C 0.59375 -0.984375 2 0.25 3.734375 0.25 C 4.703125 0.25 5.53125 -0.15625 6.234375 -0.734375 C 7.265625 -1.609375 7.578125 -2.765625 7.578125 -2.875 C 7.578125 -2.96875 7.484375 -2.96875 7.453125 -2.96875 C 7.34375 -2.96875 7.328125 -2.90625 7.296875 -2.859375 C 6.75 -0.984375 5.140625 -0.09375 3.9375 -0.09375 C 2.671875 -0.09375 1.578125 -0.90625 1.578125 -2.609375 C 1.578125 -2.984375 1.703125 -5.0625 3.046875 -6.640625 C 3.703125 -7.40625 4.828125 -8.0625 5.96875 -8.0625 C 7.28125 -8.0625 7.859375 -6.984375 7.859375 -5.765625 C 7.859375 -5.453125 7.828125 -5.1875 7.828125 -5.140625 C 7.828125 -5.03125 7.953125 -5.03125 7.984375 -5.03125 C 8.109375 -5.03125 8.125 -5.046875 8.171875 -5.265625 Z M 8.921875 -8.3125 "/>
</g>
<g id="glyph-1-0">
</g>
<g id="glyph-1-1">
<path d="M 6.546875 -2.75 C 6.75 -2.75 6.96875 -2.75 6.96875 -2.984375 C 6.96875 -3.234375 6.75 -3.234375 6.546875 -3.234375 L 1.484375 -3.234375 C 1.625 -4.828125 3 -5.96875 4.6875 -5.96875 L 6.546875 -5.96875 C 6.75 -5.96875 6.96875 -5.96875 6.96875 -6.21875 C 6.96875 -6.453125 6.75 -6.453125 6.546875 -6.453125 L 4.65625 -6.453125 C 2.625 -6.453125 0.984375 -4.90625 0.984375 -2.984375 C 0.984375 -1.078125 2.625 0.484375 4.65625 0.484375 L 6.546875 0.484375 C 6.75 0.484375 6.96875 0.484375 6.96875 0.234375 C 6.96875 0 6.75 0 6.546875 0 L 4.6875 0 C 3 0 1.625 -1.140625 1.484375 -2.75 Z M 6.546875 -2.75 "/>
</g>
<g id="glyph-1-2">
<path d="M 5.8125 -7.421875 L 7.796875 -7.421875 C 9.375 -7.421875 9.96875 -8.328125 9.96875 -8.484375 C 9.96875 -8.546875 9.921875 -8.578125 9.859375 -8.578125 C 9.734375 -8.578125 9.421875 -8.453125 9.125 -8.234375 C 9.03125 -8.15625 9 -8.15625 8.78125 -8.15625 L 3.546875 -8.15625 C 2.0625 -8.15625 0.40625 -6.890625 0.40625 -5.90625 C 0.40625 -5.828125 0.40625 -5.765625 0.5 -5.765625 C 0.78125 -5.765625 1.546875 -6.15625 1.5625 -6.4375 C 1.578125 -6.640625 1.609375 -6.875 1.84375 -7.1875 C 1.953125 -7.328125 2.0625 -7.421875 2.578125 -7.421875 L 4.953125 -7.421875 C 4.75 -7.296875 4.703125 -7.109375 4.6875 -7 L 3.328125 -1.578125 C 3.171875 -0.984375 2.921875 -0.234375 2.578125 0.53125 C 2.515625 0.6875 2.515625 0.703125 2.515625 0.734375 C 2.515625 0.796875 2.5625 0.8125 2.625 0.8125 C 2.859375 0.8125 3.4375 0.484375 3.625 0.234375 C 3.6875 0.125 4.21875 -1.09375 4.46875 -2.09375 Z M 5.8125 -7.421875 "/>
</g>
</g>
<clipPath id="clip-0">
<path clip-rule="nonzero" d="M 14 2 L 21 2 L 21 9.636719 L 14 9.636719 Z M 14 2 "/>
</clipPath>
<clipPath id="clip-1">
<path clip-rule="nonzero" d="M 24 0 L 34.394531 0 L 34.394531 9.636719 L 24 9.636719 Z M 24 0 "/>
</clipPath>
</defs>
<g fill="rgb(0%, 0%, 0%)" fill-opacity="1">
<use xlink:href="#glyph-0-1" x="0.5" y="8.67"/>
</g>
<g clip-path="url(#clip-0)">
<g fill="rgb(0%, 0%, 0%)" fill-opacity="1">
<use xlink:href="#glyph-1-1" x="13.054" y="8.67"/>
</g>
</g>
<g clip-path="url(#clip-1)">
<g fill="rgb(0%, 0%, 0%)" fill-opacity="1">
<use xlink:href="#glyph-1-2" x="24.348077" y="8.67"/>
</g>
</g>
</svg>
