<?xml version="1.0" encoding="UTF-8"?>
<svg xmlns="http://www.w3.org/2000/svg" xmlns:xlink="http://www.w3.org/1999/xlink" width="123.003" height="36.866" viewBox="0 0 123.003 36.866">
<defs>
<g>
<g id="glyph-0-0">
</g>
<g id="glyph-0-1">
<path d="M 4.078125 -0.6875 C 4.234375 -0.03125 4.8125 0.125 5.09375 0.125 C 5.46875 0.125 5.765625 -0.125 5.953125 -0.53125 C 6.15625 -0.96875 6.3125 -1.671875 6.3125 -1.703125 C 6.3125 -1.765625 6.265625 -1.8125 6.1875 -1.8125 C 6.078125 -1.8125 6.078125 -1.75 6.03125 -1.578125 C 5.8125 -0.75 5.59375 -0.125 5.109375 -0.125 C 4.75 -0.125 4.75 -0.515625 4.75 -0.671875 C 4.75 -0.9375 4.796875 -1.0625 4.90625 -1.5625 C 5 -1.890625 5.078125 -2.21875 5.15625 -2.546875 L 5.640625 -4.5 C 5.71875 -4.796875 5.71875 -4.8125 5.71875 -4.859375 C 5.71875 -5.03125 5.578125 -5.15625 5.40625 -5.15625 C 5.0625 -5.15625 4.96875 -4.859375 4.90625 -4.546875 C 4.78125 -4.09375 4.140625 -1.515625 4.046875 -1.09375 C 4.046875 -1.09375 3.578125 -0.125 2.703125 -0.125 C 2.078125 -0.125 1.953125 -0.65625 1.953125 -1.09375 C 1.953125 -1.78125 2.296875 -2.734375 2.609375 -3.53125 C 2.75 -3.921875 2.8125 -4.078125 2.8125 -4.3125 C 2.8125 -4.828125 2.4375 -5.265625 1.859375 -5.265625 C 0.765625 -5.265625 0.328125 -3.53125 0.328125 -3.4375 C 0.328125 -3.390625 0.375 -3.328125 0.453125 -3.328125 C 0.5625 -3.328125 0.578125 -3.375 0.625 -3.546875 C 0.90625 -4.578125 1.375 -5.03125 1.828125 -5.03125 C 1.953125 -5.03125 2.140625 -5.015625 2.140625 -4.640625 C 2.140625 -4.328125 2.015625 -3.984375 1.828125 -3.53125 C 1.296875 -2.109375 1.25 -1.65625 1.25 -1.296875 C 1.25 -0.078125 2.15625 0.125 2.65625 0.125 C 3.421875 0.125 3.84375 -0.40625 4.078125 -0.6875 Z M 4.078125 -0.6875 "/>
</g>
<g id="glyph-0-2">
<path d="M 4.109375 -0.734375 C 4.375 -0.015625 5.109375 0.125 5.5625 0.125 C 6.484375 0.125 7.015625 -0.671875 7.34375 -1.5 C 7.625 -2.1875 8.0625 -3.765625 8.0625 -4.46875 C 8.0625 -5.203125 7.703125 -5.265625 7.59375 -5.265625 C 7.296875 -5.265625 7.046875 -4.984375 7.046875 -4.75 C 7.046875 -4.609375 7.125 -4.515625 7.1875 -4.46875 C 7.296875 -4.359375 7.609375 -4.046875 7.609375 -3.421875 C 7.609375 -3.015625 7.265625 -1.890625 7.015625 -1.328125 C 6.6875 -0.59375 6.234375 -0.125 5.625 -0.125 C 4.953125 -0.125 4.734375 -0.625 4.734375 -1.171875 C 4.734375 -1.515625 4.84375 -1.9375 4.890625 -2.140625 L 5.390625 -4.140625 C 5.453125 -4.390625 5.5625 -4.8125 5.5625 -4.859375 C 5.5625 -5.03125 5.421875 -5.15625 5.234375 -5.15625 C 4.890625 -5.15625 4.8125 -4.859375 4.734375 -4.5625 C 4.609375 -4.09375 4.109375 -2.078125 4.0625 -1.8125 C 4.015625 -1.609375 4.015625 -1.484375 4.015625 -1.21875 C 4.015625 -0.9375 3.640625 -0.484375 3.625 -0.453125 C 3.484375 -0.328125 3.296875 -0.125 2.921875 -0.125 C 1.984375 -0.125 1.984375 -1.015625 1.984375 -1.21875 C 1.984375 -1.609375 2.0625 -2.125 2.609375 -3.546875 C 2.75 -3.921875 2.8125 -4.078125 2.8125 -4.3125 C 2.8125 -4.8125 2.453125 -5.265625 1.859375 -5.265625 C 0.765625 -5.265625 0.328125 -3.53125 0.328125 -3.4375 C 0.328125 -3.390625 0.375 -3.328125 0.453125 -3.328125 C 0.5625 -3.328125 0.578125 -3.375 0.625 -3.546875 C 0.921875 -4.609375 1.390625 -5.03125 1.828125 -5.03125 C 1.953125 -5.03125 2.140625 -5.015625 2.140625 -4.640625 C 2.140625 -4.578125 2.140625 -4.328125 1.9375 -3.796875 C 1.375 -2.3125 1.25 -1.8125 1.25 -1.359375 C 1.25 -0.109375 2.28125 0.125 2.890625 0.125 C 3.09375 0.125 3.640625 0.125 4.109375 -0.734375 Z M 4.109375 -0.734375 "/>
</g>
<g id="glyph-0-3">
<path d="M 8.921875 -8.3125 C 8.921875 -8.421875 8.84375 -8.421875 8.828125 -8.421875 C 8.796875 -8.421875 8.75 -8.421875 8.65625 -8.296875 L 7.828125 -7.296875 C 7.40625 -8.015625 6.75 -8.421875 5.859375 -8.421875 C 3.28125 -8.421875 0.59375 -5.796875 0.59375 -2.984375 C 0.59375 -0.984375 2 0.25 3.734375 0.25 C 4.703125 0.25 5.53125 -0.15625 6.234375 -0.734375 C 7.265625 -1.609375 7.578125 -2.765625 7.578125 -2.875 C 7.578125 -2.96875 7.484375 -2.96875 7.453125 -2.96875 C 7.34375 -2.96875 7.328125 -2.90625 7.296875 -2.859375 C 6.75 -0.984375 5.140625 -0.09375 3.9375 -0.09375 C 2.671875 -0.09375 1.578125 -0.90625 1.578125 -2.609375 C 1.578125 -2.984375 1.703125 -5.0625 3.046875 -6.640625 C 3.703125 -7.40625 4.828125 -8.0625 5.96875 -8.0625 C 7.28125 -8.0625 7.859375 -6.984375 7.859375 -5.765625 C 7.859375 -5.453125 7.828125 -5.1875 7.828125 -5.140625 C 7.828125 -5.03125 7.953125 -5.03125 7.984375 -5.03125 C 8.109375 -5.03125 8.125 -5.046875 8.171875 -5.265625 Z M 8.921875 -8.3125 "/>
</g>
<g id="glyph-0-4">
<path d="M 2.03125 -1.328125 C 1.609375 -0.625 1.203125 -0.375 0.640625 -0.34375 C 0.5 -0.328125 0.40625 -0.328125 0.40625 -0.125 C 0.40625 -0.046875 0.46875 0 0.546875 0 C 0.765625 0 1.296875 -0.03125 1.515625 -0.03125 C 1.859375 -0.03125 2.25 0 2.578125 0 C 2.65625 0 2.796875 0 2.796875 -0.234375 C 2.796875 -0.328125 2.703125 -0.34375 2.625 -0.34375 C 2.359375 -0.375 2.125 -0.46875 2.125 -0.75 C 2.125 -0.921875 2.203125 -1.046875 2.359375 -1.3125 L 3.265625 -2.828125 L 6.3125 -2.828125 C 6.328125 -2.71875 6.328125 -2.625 6.328125 -2.515625 C 6.375 -2.203125 6.515625 -0.953125 6.515625 -0.734375 C 6.515625 -0.375 5.90625 -0.34375 5.71875 -0.34375 C 5.578125 -0.34375 5.453125 -0.34375 5.453125 -0.125 C 5.453125 0 5.5625 0 5.625 0 C 5.828125 0 6.078125 -0.03125 6.28125 -0.03125 L 6.953125 -0.03125 C 7.6875 -0.03125 8.21875 0 8.21875 0 C 8.3125 0 8.4375 0 8.4375 -0.234375 C 8.4375 -0.34375 8.328125 -0.34375 8.15625 -0.34375 C 7.5 -0.34375 7.484375 -0.453125 7.453125 -0.8125 L 6.71875 -8.265625 C 6.6875 -8.515625 6.640625 -8.53125 6.515625 -8.53125 C 6.390625 -8.53125 6.328125 -8.515625 6.21875 -8.328125 Z M 3.46875 -3.171875 L 5.875 -7.1875 L 6.28125 -3.171875 Z M 3.46875 -3.171875 "/>
</g>
<g id="glyph-1-0">
</g>
<g id="glyph-1-1">
<path d="M 8.0625 -3.875 C 8.234375 -3.875 8.453125 -3.875 8.453125 -4.09375 C 8.453125 -4.3125 8.25 -4.3125 8.0625 -4.3125 L 1.03125 -4.3125 C 0.859375 -4.3125 0.640625 -4.3125 0.640625 -4.09375 C 0.640625 -3.875 0.84375 -3.875 1.03125 -3.875 Z M 8.0625 -1.65625 C 8.234375 -1.65625 8.453125 -1.65625 8.453125 -1.859375 C 8.453125 -2.09375 8.25 -2.09375 8.0625 -2.09375 L 1.03125 -2.09375 C 0.859375 -2.09375 0.640625 -2.09375 0.640625 -1.875 C 0.640625 -1.65625 0.84375 -1.65625 1.03125 -1.65625 Z M 8.0625 -1.65625 "/>
</g>
<g id="glyph-1-2">
<path d="M 5.359375 -3.828125 C 5.359375 -4.8125 5.296875 -5.78125 4.859375 -6.6875 C 4.375 -7.6875 3.515625 -7.953125 2.921875 -7.953125 C 2.234375 -7.953125 1.390625 -7.609375 0.9375 -6.609375 C 0.609375 -5.859375 0.484375 -5.109375 0.484375 -3.828125 C 0.484375 -2.671875 0.578125 -1.796875 1 -0.9375 C 1.46875 -0.03125 2.296875 0.25 2.921875 0.25 C 3.953125 0.25 4.546875 -0.375 4.90625 -1.0625 C 5.328125 -1.953125 5.359375 -3.125 5.359375 -3.828125 Z M 2.921875 0.015625 C 2.53125 0.015625 1.75 -0.203125 1.53125 -1.5 C 1.40625 -2.21875 1.40625 -3.125 1.40625 -3.96875 C 1.40625 -4.953125 1.40625 -5.828125 1.59375 -6.53125 C 1.796875 -7.34375 2.40625 -7.703125 2.921875 -7.703125 C 3.375 -7.703125 4.0625 -7.4375 4.296875 -6.40625 C 4.453125 -5.71875 4.453125 -4.78125 4.453125 -3.96875 C 4.453125 -3.171875 4.453125 -2.265625 4.3125 -1.53125 C 4.09375 -0.21875 3.328125 0.015625 2.921875 0.015625 Z M 2.921875 0.015625 "/>
</g>
<g id="glyph-2-0">
</g>
<g id="glyph-2-1">
<path d="M 5.390625 21.84375 C 5.390625 20.53125 4.484375 18.5 2.40625 17.453125 C 3.6875 16.765625 5.234375 15.359375 5.375 13.125 L 5.390625 13.046875 L 5.390625 4.765625 C 5.390625 3.796875 5.390625 3.578125 5.484375 3.125 C 5.703125 2.15625 6.28125 0.984375 7.796875 0.078125 C 7.890625 0.03125 7.90625 0.015625 7.90625 -0.203125 C 7.90625 -0.46875 7.890625 -0.484375 7.625 -0.484375 C 7.40625 -0.484375 7.390625 -0.484375 7.0625 -0.28125 C 4.390625 1.234375 4.234375 3.453125 4.234375 3.875 L 4.234375 12.375 C 4.234375 13.234375 4.234375 14.203125 3.609375 15.296875 C 3.0625 16.28125 2.421875 16.765625 1.90625 17.109375 C 1.734375 17.21875 1.71875 17.234375 1.71875 17.4375 C 1.71875 17.65625 1.734375 17.671875 1.828125 17.71875 C 2.84375 18.390625 3.9375 19.453125 4.203125 21.40625 C 4.234375 21.671875 4.234375 21.6875 4.234375 21.84375 L 4.234375 31.015625 C 4.234375 31.984375 4.828125 34 7.140625 35.21875 C 7.40625 35.375 7.4375 35.375 7.625 35.375 C 7.890625 35.375 7.90625 35.359375 7.90625 35.09375 C 7.90625 34.875 7.890625 34.875 7.84375 34.84375 C 7.328125 34.515625 5.765625 33.578125 5.4375 31.5 C 5.390625 31.1875 5.390625 31.15625 5.390625 31 Z M 5.390625 21.84375 "/>
</g>
<g id="glyph-3-0">
</g>
<g id="glyph-3-1">
<path d="M 3.390625 -4.953125 C 3.0625 -5.234375 2.671875 -5.328125 2.25 -5.328125 C 1.390625 -5.328125 0.390625 -5 0.390625 -3.84375 L 0.390625 -3.734375 C 0.84375 -1.734375 3.671875 -2.96875 3.671875 -1.203125 C 3.671875 -0.46875 3 -0.125 2.359375 -0.125 C 1.171875 -0.125 0.875 -1.09375 0.671875 -1.921875 C 0.640625 -2 0.609375 -2.0625 0.53125 -2.0625 C 0.421875 -2.0625 0.390625 -1.96875 0.390625 -1.890625 L 0.390625 -0.03125 C 0.390625 0.03125 0.421875 0.109375 0.515625 0.109375 C 0.71875 0.109375 0.890625 -0.40625 1.015625 -0.40625 L 1.03125 -0.40625 C 1.109375 -0.375 1.171875 -0.28125 1.25 -0.234375 C 1.5625 0.015625 1.953125 0.109375 2.359375 0.109375 C 3.234375 0.109375 4.21875 -0.328125 4.21875 -1.53125 C 4.21875 -2.234375 3.65625 -2.875 3 -3.078125 C 2.359375 -3.28125 0.9375 -3.234375 0.9375 -4.203125 C 0.9375 -4.875 1.65625 -5.109375 2.21875 -5.109375 C 2.90625 -5.109375 3.65625 -4.75 3.65625 -3.734375 C 3.65625 -3.625 3.671875 -3.53125 3.796875 -3.53125 C 3.890625 -3.53125 3.921875 -3.609375 3.921875 -3.6875 L 3.921875 -5.1875 C 3.921875 -5.25 3.890625 -5.328125 3.8125 -5.328125 C 3.65625 -5.328125 3.46875 -5.046875 3.390625 -4.953125 Z M 3.390625 -4.953125 "/>
</g>
<g id="glyph-3-2">
<path d="M 0.375 -5.140625 L 0.375 -4.796875 L 0.53125 -4.796875 C 1.046875 -4.796875 1.296875 -4.75 1.296875 -4.03125 L 1.296875 -1.640625 C 1.296875 -1.265625 1.296875 -0.890625 1.5 -0.5625 C 1.8125 -0.03125 2.46875 0.125 3.03125 0.125 C 3.671875 0.125 4.375 -0.296875 4.546875 -0.953125 L 4.5625 0.109375 L 6.234375 -0.015625 L 6.234375 -0.359375 L 6 -0.359375 C 5.65625 -0.359375 5.3125 -0.40625 5.3125 -0.9375 L 5.3125 -5.265625 L 3.640625 -5.140625 L 3.640625 -4.796875 L 3.78125 -4.796875 C 4.1875 -4.796875 4.546875 -4.765625 4.546875 -4.203125 L 4.546875 -1.828125 C 4.484375 -0.984375 4.015625 -0.140625 3.078125 -0.140625 C 2.640625 -0.140625 2.21875 -0.25 2.09375 -0.890625 C 2.0625 -1.109375 2.0625 -1.34375 2.0625 -1.578125 L 2.0625 -5.265625 Z M 0.375 -5.140625 "/>
</g>
<g id="glyph-3-3">
<path d="M 0.328125 -5.140625 L 0.328125 -4.796875 L 0.53125 -4.796875 C 0.890625 -4.796875 1.25 -4.75 1.25 -4.203125 L 1.25 -0.859375 C 1.25 -0.421875 1.015625 -0.359375 0.328125 -0.359375 L 0.328125 -0.015625 L 3.125 -0.015625 L 3.125 -0.359375 C 3 -0.359375 2.859375 -0.34375 2.71875 -0.34375 C 2.328125 -0.34375 2 -0.40625 2 -0.84375 L 2 -2.46875 C 2 -3.390625 2.140625 -4.703125 3.125 -5 C 3.21875 -5.015625 3.296875 -5.03125 3.390625 -5.03125 C 3.453125 -5.03125 3.5 -5.015625 3.5625 -5.015625 C 3.375 -4.9375 3.28125 -4.75 3.28125 -4.5625 C 3.28125 -4.296875 3.5 -4.09375 3.734375 -4.09375 C 4.046875 -4.09375 4.21875 -4.34375 4.21875 -4.578125 C 4.21875 -5.015625 3.796875 -5.265625 3.390625 -5.265625 C 2.765625 -5.265625 2.296875 -4.8125 2.0625 -4.296875 C 2.015625 -4.1875 1.953125 -4.0625 1.953125 -3.9375 L 1.9375 -5.265625 Z M 0.328125 -5.140625 "/>
</g>
<g id="glyph-4-0">
</g>
<g id="glyph-4-1">
<path d="M 4.796875 2.703125 C 4.859375 2.875 4.90625 2.984375 5.0625 2.984375 C 5.203125 2.984375 5.3125 2.875 5.3125 2.75 C 5.3125 2.71875 5.3125 2.703125 5.25 2.5625 L 1.15625 -8.671875 C 1.09375 -8.875 1.046875 -8.96875 0.890625 -8.96875 C 0.765625 -8.96875 0.65625 -8.859375 0.65625 -8.71875 C 0.65625 -8.703125 0.65625 -8.671875 0.71875 -8.53125 Z M 4.796875 2.703125 "/>
</g>
</g>
<clipPath id="clip-0">
<path clip-rule="nonzero" d="M 32 0 L 39 0 L 39 36.867188 L 32 36.867188 Z M 32 0 "/>
</clipPath>
</defs>
<g fill="rgb(0%, 0%, 0%)" fill-opacity="1">
<use xlink:href="#glyph-0-1" x="8.302" y="21.422"/>
</g>
<g fill="rgb(0%, 0%, 0%)" fill-opacity="1">
<use xlink:href="#glyph-1-1" x="18.285" y="21.422"/>
</g>
<g clip-path="url(#clip-0)">
<g fill="rgb(0%, 0%, 0%)" fill-opacity="1">
<use xlink:href="#glyph-2-1" x="30.711" y="0.978"/>
</g>
</g>
<g fill="rgb(0%, 0%, 0%)" fill-opacity="1">
<use xlink:href="#glyph-0-2" x="40.341" y="13.233"/>
</g>
<g fill="rgb(0%, 0%, 0%)" fill-opacity="1">
<use xlink:href="#glyph-3-1" x="64.635" y="13.233"/>
<use xlink:href="#glyph-3-2" x="69.250903" y="13.233"/>
<use xlink:href="#glyph-3-3" x="75.75214" y="13.233"/>
</g>
<g fill="rgb(0%, 0%, 0%)" fill-opacity="1">
<use xlink:href="#glyph-0-3" x="84.206" y="13.233"/>
</g>
<g fill="rgb(0%, 0%, 0%)" fill-opacity="1">
<use xlink:href="#glyph-1-2" x="40.341" y="30.567"/>
</g>
<g fill="rgb(0%, 0%, 0%)" fill-opacity="1">
<use xlink:href="#glyph-3-1" x="64.635" y="30.567"/>
<use xlink:href="#glyph-3-2" x="69.250903" y="30.567"/>
<use xlink:href="#glyph-3-3" x="75.75214" y="30.567"/>
</g>
<g fill="rgb(0%, 0%, 0%)" fill-opacity="1">
<use xlink:href="#glyph-0-4" x="84.206" y="30.567"/>
</g>
<g fill="rgb(0%, 0%, 0%)" fill-opacity="1">
<use xlink:href="#glyph-4-1" x="95.638" y="30.567"/>
</g>
<g fill="rgb(0%, 0%, 0%)" fill-opacity="1">
<use xlink:href="#glyph-0-3" x="104.272" y="30.567"/>
</g>
</svg>
