<?xml version="1.0" encoding="UTF-8"?>
<svg xmlns="http://www.w3.org/2000/svg" xmlns:xlink="http://www.w3.org/1999/xlink" viewBox="0 0 12.59 10.963">
<defs>
<g>
<g id="glyph-0-0">
</g>
<g id="glyph-0-1">
<path d="M 6.390625 -7.34375 C 6.484375 -7.703125 6.5 -7.8125 7.09375 -7.8125 C 7.28125 -7.8125 7.40625 -7.8125 7.40625 -8.03125 C 7.40625 -8.15625 7.296875 -8.15625 7.25 -8.15625 C 7.046875 -8.15625 6.8125 -8.140625 6.59375 -8.140625 L 5.9375 -8.140625 C 5.4375 -8.140625 4.90625 -8.15625 4.40625 -8.15625 C 4.296875 -8.15625 4.15625 -8.15625 4.15625 -7.953125 C 4.15625 -7.828125 4.25 -7.828125 4.25 -7.8125 L 4.546875 -7.8125 C 5.515625 -7.8125 5.515625 -7.71875 5.515625 -7.546875 C 5.515625 -7.53125 5.515625 -7.453125 5.46875 -7.25 L 4.09375 -1.796875 C 3.78125 -0.578125 2.96875 0.015625 2.40625 0.015625 C 2 0.015625 1.421875 -0.171875 1.28125 -0.8125 C 1.328125 -0.796875 1.390625 -0.78125 1.4375 -0.78125 C 1.828125 -0.78125 2.140625 -1.140625 2.140625 -1.484375 C 2.140625 -1.671875 2.015625 -1.921875 1.65625 -1.921875 C 1.453125 -1.921875 0.9375 -1.8125 0.9375 -1.03125 C 0.9375 -0.28125 1.5625 0.25 2.421875 0.25 C 3.515625 0.25 4.6875 -0.578125 4.96875 -1.703125 Z M 6.390625 -7.34375 "/>
</g>
<g id="glyph-1-0">
</g>
<g id="glyph-1-1">
<path d="M 2.328125 -5.296875 C 2.328125 -5.3125 2.359375 -5.40625 2.359375 -5.421875 C 2.359375 -5.453125 2.328125 -5.53125 2.234375 -5.53125 C 2.203125 -5.53125 1.953125 -5.5 1.765625 -5.484375 L 1.328125 -5.453125 C 1.140625 -5.4375 1.0625 -5.4375 1.0625 -5.296875 C 1.0625 -5.171875 1.171875 -5.171875 1.28125 -5.171875 C 1.65625 -5.171875 1.65625 -5.125 1.65625 -5.0625 C 1.65625 -5.03125 1.65625 -5.015625 1.625 -4.875 L 0.484375 -0.34375 C 0.453125 -0.21875 0.453125 -0.171875 0.453125 -0.171875 C 0.453125 -0.03125 0.5625 0.078125 0.71875 0.078125 C 0.984375 0.078125 1.046875 -0.171875 1.078125 -0.28125 C 1.15625 -0.625 1.375 -1.46875 1.453125 -1.796875 C 1.890625 -1.75 2.4375 -1.609375 2.4375 -1.140625 C 2.4375 -1.109375 2.4375 -1.0625 2.421875 -0.984375 C 2.390625 -0.890625 2.375 -0.765625 2.375 -0.734375 C 2.375 -0.265625 2.71875 0.078125 3.1875 0.078125 C 3.515625 0.078125 3.734375 -0.171875 3.828125 -0.3125 C 4.03125 -0.609375 4.15625 -1.09375 4.15625 -1.140625 C 4.15625 -1.21875 4.09375 -1.25 4.03125 -1.25 C 3.9375 -1.25 3.921875 -1.1875 3.890625 -1.046875 C 3.78125 -0.671875 3.578125 -0.140625 3.203125 -0.140625 C 3 -0.140625 2.953125 -0.3125 2.953125 -0.53125 C 2.953125 -0.640625 2.953125 -0.734375 3 -0.921875 C 3 -0.953125 3.03125 -1.078125 3.03125 -1.15625 C 3.03125 -1.8125 2.21875 -1.953125 1.8125 -2.015625 C 2.109375 -2.1875 2.375 -2.46875 2.46875 -2.5625 C 2.90625 -3 3.265625 -3.296875 3.65625 -3.296875 C 3.75 -3.296875 3.84375 -3.265625 3.90625 -3.1875 C 3.484375 -3.125 3.484375 -2.75 3.484375 -2.75 C 3.484375 -2.578125 3.625 -2.453125 3.796875 -2.453125 C 4.015625 -2.453125 4.25 -2.625 4.25 -2.953125 C 4.25 -3.234375 4.0625 -3.515625 3.65625 -3.515625 C 3.203125 -3.515625 2.78125 -3.15625 2.328125 -2.703125 C 1.859375 -2.25 1.671875 -2.171875 1.53125 -2.109375 Z M 2.328125 -5.296875 "/>
</g>
</g>
<clipPath id="clip-0">
<path clip-rule="nonzero" d="M 7 4 L 12 4 L 12 10.964844 L 7 10.964844 Z M 7 4 "/>
</clipPath>
</defs>
<g fill="rgb(0%, 0%, 0%)" fill-opacity="1">
<use xlink:href="#glyph-0-1" x="0.5" y="8.67"/>
</g>
<g clip-path="url(#clip-0)">
<g fill="rgb(0%, 0%, 0%)" fill-opacity="1">
<use xlink:href="#glyph-1-1" x="6.97" y="10.463"/>
</g>
</g>
</svg>
