<?xml version="1.0" encoding="UTF-8"?>
<svg xmlns="http://www.w3.org/2000/svg" xmlns:xlink="http://www.w3.org/1999/xlink" viewBox="0 0 163.192 12.955">
<defs>
<g>
<g id="glyph-0-0">
</g>
<g id="glyph-0-1">
<path d="M 2.03125 -1.328125 C 1.609375 -0.625 1.203125 -0.375 0.640625 -0.34375 C 0.5 -0.328125 0.40625 -0.328125 0.40625 -0.125 C 0.40625 -0.046875 0.46875 0 0.546875 0 C 0.765625 0 1.296875 -0.03125 1.515625 -0.03125 C 1.859375 -0.03125 2.25 0 2.578125 0 C 2.65625 0 2.796875 0 2.796875 -0.234375 C 2.796875 -0.328125 2.703125 -0.34375 2.625 -0.34375 C 2.359375 -0.375 2.125 -0.46875 2.125 -0.75 C 2.125 -0.921875 2.203125 -1.046875 2.359375 -1.3125 L 3.265625 -2.828125 L 6.3125 -2.828125 C 6.328125 -2.71875 6.328125 -2.625 6.328125 -2.515625 C 6.375 -2.203125 6.515625 -0.953125 6.515625 -0.734375 C 6.515625 -0.375 5.90625 -0.34375 5.71875 -0.34375 C 5.578125 -0.34375 5.453125 -0.34375 5.453125 -0.125 C 5.453125 0 5.5625 0 5.625 0 C 5.828125 0 6.078125 -0.03125 6.28125 -0.03125 L 6.953125 -0.03125 C 7.6875 -0.03125 8.21875 0 8.21875 0 C 8.3125 0 8.4375 0 8.4375 -0.234375 C 8.4375 -0.34375 8.328125 -0.34375 8.15625 -0.34375 C 7.5 -0.34375 7.484375 -0.453125 7.453125 -0.8125 L 6.71875 -8.265625 C 6.6875 -8.515625 6.640625 -8.53125 6.515625 -8.53125 C 6.390625 -8.53125 6.328125 -8.515625 6.21875 -8.328125 Z M 3.46875 -3.171875 L 5.875 -7.1875 L 6.28125 -3.171875 Z M 3.46875 -3.171875 "/>
</g>
<g id="glyph-0-2">
<path d="M 5.671875 -4.875 C 5.28125 -4.8125 5.140625 -4.515625 5.140625 -4.296875 C 5.140625 -4 5.359375 -3.90625 5.53125 -3.90625 C 5.890625 -3.90625 6.140625 -4.21875 6.140625 -4.546875 C 6.140625 -5.046875 5.5625 -5.265625 5.0625 -5.265625 C 4.34375 -5.265625 3.9375 -4.546875 3.828125 -4.328125 C 3.546875 -5.21875 2.8125 -5.265625 2.59375 -5.265625 C 1.375 -5.265625 0.734375 -3.703125 0.734375 -3.4375 C 0.734375 -3.390625 0.78125 -3.328125 0.859375 -3.328125 C 0.953125 -3.328125 0.984375 -3.40625 1 -3.453125 C 1.40625 -4.78125 2.21875 -5.03125 2.5625 -5.03125 C 3.09375 -5.03125 3.203125 -4.53125 3.203125 -4.25 C 3.203125 -3.984375 3.125 -3.703125 2.984375 -3.125 L 2.578125 -1.5 C 2.40625 -0.78125 2.0625 -0.125 1.421875 -0.125 C 1.359375 -0.125 1.0625 -0.125 0.8125 -0.28125 C 1.25 -0.359375 1.34375 -0.71875 1.34375 -0.859375 C 1.34375 -1.09375 1.15625 -1.25 0.9375 -1.25 C 0.640625 -1.25 0.328125 -0.984375 0.328125 -0.609375 C 0.328125 -0.109375 0.890625 0.125 1.40625 0.125 C 1.984375 0.125 2.390625 -0.328125 2.640625 -0.828125 C 2.828125 -0.125 3.4375 0.125 3.875 0.125 C 5.09375 0.125 5.734375 -1.453125 5.734375 -1.703125 C 5.734375 -1.765625 5.6875 -1.8125 5.625 -1.8125 C 5.515625 -1.8125 5.5 -1.75 5.46875 -1.65625 C 5.140625 -0.609375 4.453125 -0.125 3.90625 -0.125 C 3.484375 -0.125 3.265625 -0.4375 3.265625 -0.921875 C 3.265625 -1.1875 3.3125 -1.375 3.5 -2.15625 L 3.921875 -3.796875 C 4.09375 -4.5 4.5 -5.03125 5.0625 -5.03125 C 5.078125 -5.03125 5.421875 -5.03125 5.671875 -4.875 Z M 5.671875 -4.875 "/>
</g>
<g id="glyph-1-0">
</g>
<g id="glyph-1-1">
<path d="M 8.0625 -3.875 C 8.234375 -3.875 8.453125 -3.875 8.453125 -4.09375 C 8.453125 -4.3125 8.25 -4.3125 8.0625 -4.3125 L 1.03125 -4.3125 C 0.859375 -4.3125 0.640625 -4.3125 0.640625 -4.09375 C 0.640625 -3.875 0.84375 -3.875 1.03125 -3.875 Z M 8.0625 -1.65625 C 8.234375 -1.65625 8.453125 -1.65625 8.453125 -1.859375 C 8.453125 -2.09375 8.25 -2.09375 8.0625 -2.09375 L 1.03125 -2.09375 C 0.859375 -2.09375 0.640625 -2.09375 0.640625 -1.875 C 0.640625 -1.65625 0.84375 -1.65625 1.03125 -1.65625 Z M 8.0625 -1.65625 "/>
</g>
<g id="glyph-1-2">
<path d="M 7.90625 -1.859375 L 7.65625 -1.859375 C 7.59375 -1.546875 7.53125 -1.25 7.4375 -0.984375 C 7.375 -0.796875 7.34375 -0.703125 6.640625 -0.703125 L 5.703125 -0.703125 C 5.84375 -1.375 6.1875 -1.953125 6.6875 -2.6875 C 7.25 -3.5625 7.796875 -4.4375 7.796875 -5.421875 C 7.796875 -7.078125 6.21875 -8.421875 4.21875 -8.421875 C 2.21875 -8.421875 0.640625 -7.0625 0.640625 -5.421875 C 0.640625 -4.453125 1.1875 -3.578125 1.75 -2.71875 C 2.25 -1.9375 2.609375 -1.375 2.734375 -0.703125 L 1.796875 -0.703125 C 1.09375 -0.703125 1.0625 -0.796875 1 -0.984375 C 0.90625 -1.234375 0.84375 -1.578125 0.78125 -1.859375 L 0.53125 -1.859375 L 0.90625 0 L 2.765625 0 C 3.03125 0 3.046875 0 3.046875 -0.21875 C 3.046875 -1.0625 2.671875 -2.109375 2.421875 -2.71875 C 2.078125 -3.65625 1.75 -4.53125 1.75 -5.4375 C 1.75 -7.28125 3.03125 -8.171875 4.21875 -8.171875 C 5.40625 -8.171875 6.6875 -7.28125 6.6875 -5.4375 C 6.6875 -4.53125 6.34375 -3.640625 6.015625 -2.75 C 5.8125 -2.171875 5.390625 -1.078125 5.390625 -0.234375 C 5.390625 0 5.421875 0 5.6875 0 L 7.53125 0 Z M 7.90625 -1.859375 "/>
</g>
<g id="glyph-1-3">
<path d="M 2.203125 -4.578125 C 2.203125 -4.90625 1.921875 -5.15625 1.625 -5.15625 C 1.28125 -5.15625 1.046875 -4.875 1.046875 -4.578125 C 1.046875 -4.21875 1.34375 -4 1.609375 -4 C 1.9375 -4 2.203125 -4.25 2.203125 -4.578125 Z M 2.203125 -0.578125 C 2.203125 -0.90625 1.921875 -1.15625 1.625 -1.15625 C 1.28125 -1.15625 1.046875 -0.890625 1.046875 -0.578125 C 1.046875 -0.234375 1.34375 0 1.609375 0 C 1.9375 0 2.203125 -0.25 2.203125 -0.578125 Z M 2.203125 -0.578125 "/>
</g>
<g id="glyph-2-0">
</g>
<g id="glyph-2-1">
<path d="M 3.375 -7.375 C 3.375 -7.859375 3.6875 -8.625 5 -8.703125 C 5.0625 -8.71875 5.109375 -8.765625 5.109375 -8.828125 C 5.109375 -8.96875 5.015625 -8.96875 4.875 -8.96875 C 3.6875 -8.96875 2.59375 -8.359375 2.578125 -7.46875 L 2.578125 -4.75 C 2.578125 -4.28125 2.578125 -3.890625 2.109375 -3.5 C 1.6875 -3.15625 1.234375 -3.125 0.96875 -3.125 C 0.90625 -3.109375 0.859375 -3.0625 0.859375 -2.984375 C 0.859375 -2.875 0.9375 -2.875 1.046875 -2.859375 C 1.84375 -2.8125 2.421875 -2.375 2.546875 -1.796875 C 2.578125 -1.65625 2.578125 -1.640625 2.578125 -1.203125 L 2.578125 1.15625 C 2.578125 1.65625 2.578125 2.046875 3.15625 2.5 C 3.625 2.859375 4.40625 2.984375 4.875 2.984375 C 5.015625 2.984375 5.109375 2.984375 5.109375 2.859375 C 5.109375 2.734375 5.03125 2.734375 4.90625 2.71875 C 4.15625 2.671875 3.578125 2.296875 3.421875 1.6875 C 3.375 1.578125 3.375 1.546875 3.375 1.125 L 3.375 -1.390625 C 3.375 -1.9375 3.28125 -2.140625 2.90625 -2.515625 C 2.65625 -2.765625 2.3125 -2.890625 1.96875 -2.984375 C 2.953125 -3.265625 3.375 -3.8125 3.375 -4.5 Z M 3.375 -7.375 "/>
</g>
<g id="glyph-2-2">
<path d="M 6.546875 -2.75 C 6.75 -2.75 6.96875 -2.75 6.96875 -2.984375 C 6.96875 -3.234375 6.75 -3.234375 6.546875 -3.234375 L 1.484375 -3.234375 C 1.625 -4.828125 3 -5.96875 4.6875 -5.96875 L 6.546875 -5.96875 C 6.75 -5.96875 6.96875 -5.96875 6.96875 -6.21875 C 6.96875 -6.453125 6.75 -6.453125 6.546875 -6.453125 L 4.65625 -6.453125 C 2.625 -6.453125 0.984375 -4.90625 0.984375 -2.984375 C 0.984375 -1.078125 2.625 0.484375 4.65625 0.484375 L 6.546875 0.484375 C 6.75 0.484375 6.96875 0.484375 6.96875 0.234375 C 6.96875 0 6.75 0 6.546875 0 L 4.6875 0 C 3 0 1.625 -1.140625 1.484375 -2.75 Z M 6.546875 -2.75 "/>
</g>
<g id="glyph-2-3">
<path d="M 2.578125 1.40625 C 2.578125 1.875 2.265625 2.640625 0.96875 2.71875 C 0.90625 2.734375 0.859375 2.78125 0.859375 2.859375 C 0.859375 2.984375 0.984375 2.984375 1.09375 2.984375 C 2.265625 2.984375 3.375 2.40625 3.375 1.5 L 3.375 -1.234375 C 3.375 -1.703125 3.375 -2.078125 3.859375 -2.46875 C 4.28125 -2.828125 4.734375 -2.84375 5 -2.859375 C 5.0625 -2.875 5.109375 -2.921875 5.109375 -2.984375 C 5.109375 -3.109375 5.03125 -3.109375 4.90625 -3.125 C 4.125 -3.171875 3.546875 -3.59375 3.421875 -4.1875 C 3.375 -4.3125 3.375 -4.34375 3.375 -4.765625 L 3.375 -7.140625 C 3.375 -7.640625 3.375 -8.015625 2.8125 -8.46875 C 2.328125 -8.84375 1.5 -8.96875 1.09375 -8.96875 C 0.984375 -8.96875 0.859375 -8.96875 0.859375 -8.828125 C 0.859375 -8.71875 0.9375 -8.71875 1.046875 -8.703125 C 1.8125 -8.65625 2.390625 -8.265625 2.546875 -7.65625 C 2.578125 -7.546875 2.578125 -7.53125 2.578125 -7.09375 L 2.578125 -4.59375 C 2.578125 -4.046875 2.671875 -3.84375 3.0625 -3.453125 C 3.3125 -3.203125 3.65625 -3.078125 4 -2.984375 C 3.015625 -2.71875 2.578125 -2.15625 2.578125 -1.46875 Z M 2.578125 1.40625 "/>
</g>
<g id="glyph-3-0">
</g>
<g id="glyph-3-1">
<path d="M 4.3125 -4.453125 C 4.28125 -4.453125 4.25 -4.453125 4.21875 -4.453125 C 3.9375 -4.453125 3.734375 -4.234375 3.734375 -3.953125 C 3.734375 -3.65625 3.953125 -3.453125 4.21875 -3.453125 C 4.5 -3.453125 4.734375 -3.640625 4.734375 -3.96875 C 4.734375 -4.953125 3.65625 -5.328125 2.890625 -5.328125 C 1.453125 -5.328125 0.421875 -3.984375 0.421875 -2.59375 C 0.421875 -1.21875 1.453125 0.109375 2.921875 0.109375 C 3.734375 0.109375 4.4375 -0.328125 4.78125 -1.140625 C 4.8125 -1.21875 4.859375 -1.328125 4.859375 -1.421875 L 4.859375 -1.46875 C 4.84375 -1.515625 4.796875 -1.546875 4.75 -1.546875 C 4.5625 -1.546875 4.5625 -1.359375 4.53125 -1.25 C 4.296875 -0.609375 3.6875 -0.15625 3.03125 -0.15625 C 1.75 -0.15625 1.34375 -1.578125 1.34375 -2.5625 C 1.34375 -3.546875 1.65625 -5.0625 2.984375 -5.0625 C 3.46875 -5.0625 4.03125 -4.859375 4.3125 -4.453125 Z M 4.3125 -4.453125 "/>
</g>
<g id="glyph-3-2">
<path d="M 2.75 -5.328125 C 1.46875 -5.21875 0.34375 -4.09375 0.34375 -2.578125 C 0.34375 -1.21875 1.34375 0.109375 2.921875 0.109375 C 4.359375 0.109375 5.484375 -1.15625 5.484375 -2.5625 C 5.484375 -3.890625 4.5 -5.34375 2.90625 -5.34375 C 2.859375 -5.34375 2.796875 -5.328125 2.75 -5.328125 Z M 1.265625 -2.3125 C 1.25 -2.40625 1.25 -2.5 1.25 -2.59375 C 1.25 -3.421875 1.34375 -4.5 2.265625 -4.9375 C 2.46875 -5.03125 2.6875 -5.078125 2.90625 -5.078125 C 3.359375 -5.078125 3.796875 -4.875 4.09375 -4.515625 C 4.515625 -4.03125 4.5625 -3.359375 4.5625 -2.734375 C 4.5625 -2.0625 4.546875 -1.296875 4.09375 -0.734375 C 3.796875 -0.375 3.359375 -0.15625 2.90625 -0.15625 C 1.90625 -0.15625 1.40625 -1.046875 1.296875 -1.9375 C 1.28125 -2.0625 1.28125 -2.1875 1.265625 -2.3125 Z M 1.265625 -2.3125 "/>
</g>
<g id="glyph-3-3">
<path d="M 0.375 -5.140625 L 0.375 -4.796875 L 0.609375 -4.796875 C 0.953125 -4.796875 1.296875 -4.75 1.296875 -4.203125 L 1.296875 -0.859375 C 1.296875 -0.421875 1.0625 -0.359375 0.375 -0.359375 L 0.375 -0.015625 L 2.96875 -0.015625 L 2.96875 -0.359375 L 2.703125 -0.359375 C 2.359375 -0.359375 2.0625 -0.40625 2.0625 -0.84375 L 2.0625 -3.03125 C 2.0625 -3.859375 2.484375 -5.03125 3.65625 -5.03125 C 4.390625 -5.03125 4.546875 -4.328125 4.546875 -3.625 L 4.546875 -0.8125 C 4.546875 -0.390625 4.203125 -0.359375 3.84375 -0.359375 L 3.640625 -0.359375 L 3.640625 -0.015625 L 6.234375 -0.015625 L 6.234375 -0.359375 L 5.953125 -0.359375 C 5.625 -0.359375 5.3125 -0.375 5.3125 -0.828125 L 5.3125 -3.53125 C 5.3125 -3.921875 5.3125 -4.296875 5.109375 -4.625 C 4.84375 -5.109375 4.265625 -5.265625 3.75 -5.265625 C 3.171875 -5.265625 2.671875 -5.0625 2.265625 -4.5 C 2.15625 -4.34375 2.0625 -4.203125 2.015625 -4.046875 L 2.015625 -5.265625 Z M 0.375 -5.140625 "/>
</g>
<g id="glyph-3-4">
<path d="M 3.578125 -8.171875 L 3.578125 -7.828125 L 3.734375 -7.828125 C 4.203125 -7.828125 4.5 -7.8125 4.5 -7.09375 L 4.5 -4.515625 C 4.109375 -4.984375 3.59375 -5.265625 2.984375 -5.265625 C 1.53125 -5.265625 0.421875 -4 0.421875 -2.5625 C 0.421875 -1.296875 1.328125 0.109375 2.875 0.109375 C 3.53125 0.109375 3.984375 -0.171875 4.46875 -0.703125 L 4.46875 0.109375 L 6.15625 -0.015625 L 6.15625 -0.359375 L 5.96875 -0.359375 C 5.609375 -0.359375 5.25 -0.390625 5.25 -0.953125 L 5.25 -8.3125 Z M 1.34375 -2.296875 L 1.34375 -2.46875 C 1.34375 -3.34375 1.453125 -4.25 2.265625 -4.8125 C 2.515625 -4.953125 2.765625 -5.015625 3.03125 -5.015625 C 3.640625 -5.015625 4.484375 -4.546875 4.484375 -3.796875 C 4.484375 -3.640625 4.46875 -3.484375 4.46875 -3.328125 L 4.46875 -1.34375 C 4.46875 -0.671875 3.53125 -0.125 2.9375 -0.125 C 2.0625 -0.125 1.5 -0.96875 1.390625 -1.828125 C 1.359375 -1.984375 1.359375 -2.140625 1.34375 -2.296875 Z M 1.34375 -2.296875 "/>
</g>
<g id="glyph-3-5">
<path d="M 0.4375 -5.140625 L 0.4375 -4.796875 L 0.640625 -4.796875 C 1.015625 -4.796875 1.296875 -4.734375 1.296875 -4.203125 L 1.296875 -0.859375 C 1.296875 -0.421875 1.078125 -0.359375 0.390625 -0.359375 L 0.390625 -0.015625 L 2.875 -0.015625 L 2.875 -0.359375 L 2.703125 -0.359375 C 2.359375 -0.359375 2.0625 -0.375 2.0625 -0.78125 L 2.0625 -5.265625 Z M 1.40625 -7.9375 C 1.09375 -7.890625 0.921875 -7.625 0.921875 -7.375 C 0.921875 -7.125 1.109375 -6.796875 1.484375 -6.796875 C 1.859375 -6.796875 2.078125 -7.078125 2.078125 -7.359375 C 2.078125 -7.609375 1.890625 -7.953125 1.515625 -7.953125 C 1.484375 -7.953125 1.453125 -7.9375 1.40625 -7.9375 Z M 1.40625 -7.9375 "/>
</g>
<g id="glyph-3-6">
<path d="M 1.75 -7.359375 C 1.75 -6.59375 1.4375 -5.046875 0.21875 -5.046875 L 0.21875 -4.8125 L 1.234375 -4.8125 L 1.234375 -2.109375 C 1.234375 -1.9375 1.21875 -1.765625 1.21875 -1.609375 C 1.21875 -0.53125 1.765625 0.109375 2.765625 0.109375 C 3.6875 0.109375 3.890625 -0.921875 3.890625 -1.65625 L 3.890625 -2.171875 L 3.640625 -2.171875 C 3.640625 -2 3.640625 -1.8125 3.640625 -1.640625 C 3.640625 -1.125 3.546875 -0.15625 2.828125 -0.15625 C 2.140625 -0.15625 2.015625 -0.984375 2.015625 -1.5625 L 2.015625 -4.8125 L 3.6875 -4.8125 L 3.6875 -5.15625 L 2.015625 -5.15625 L 2.015625 -7.359375 Z M 1.75 -7.359375 "/>
</g>
<g id="glyph-3-7">
<path d="M 3.390625 -4.953125 C 3.0625 -5.234375 2.671875 -5.328125 2.25 -5.328125 C 1.390625 -5.328125 0.390625 -5 0.390625 -3.84375 L 0.390625 -3.734375 C 0.84375 -1.734375 3.671875 -2.96875 3.671875 -1.203125 C 3.671875 -0.46875 3 -0.125 2.359375 -0.125 C 1.171875 -0.125 0.875 -1.09375 0.671875 -1.921875 C 0.640625 -2 0.609375 -2.0625 0.53125 -2.0625 C 0.421875 -2.0625 0.390625 -1.96875 0.390625 -1.890625 L 0.390625 -0.03125 C 0.390625 0.03125 0.421875 0.109375 0.515625 0.109375 C 0.71875 0.109375 0.890625 -0.40625 1.015625 -0.40625 L 1.03125 -0.40625 C 1.109375 -0.375 1.171875 -0.28125 1.25 -0.234375 C 1.5625 0.015625 1.953125 0.109375 2.359375 0.109375 C 3.234375 0.109375 4.21875 -0.328125 4.21875 -1.53125 C 4.21875 -2.234375 3.65625 -2.875 3 -3.078125 C 2.359375 -3.28125 0.9375 -3.234375 0.9375 -4.203125 C 0.9375 -4.875 1.65625 -5.109375 2.21875 -5.109375 C 2.90625 -5.109375 3.65625 -4.75 3.65625 -3.734375 C 3.65625 -3.625 3.671875 -3.53125 3.796875 -3.53125 C 3.890625 -3.53125 3.921875 -3.609375 3.921875 -3.6875 L 3.921875 -5.1875 C 3.921875 -5.25 3.890625 -5.328125 3.8125 -5.328125 C 3.65625 -5.328125 3.46875 -5.046875 3.390625 -4.953125 Z M 3.390625 -4.953125 "/>
</g>
<g id="glyph-3-8">
<path d="M 0.375 -5.140625 L 0.375 -4.796875 L 0.53125 -4.796875 C 1.046875 -4.796875 1.296875 -4.75 1.296875 -4.03125 L 1.296875 -1.640625 C 1.296875 -1.265625 1.296875 -0.890625 1.5 -0.5625 C 1.8125 -0.03125 2.46875 0.125 3.03125 0.125 C 3.671875 0.125 4.375 -0.296875 4.546875 -0.953125 L 4.5625 0.109375 L 6.234375 -0.015625 L 6.234375 -0.359375 L 6 -0.359375 C 5.65625 -0.359375 5.3125 -0.40625 5.3125 -0.9375 L 5.3125 -5.265625 L 3.640625 -5.140625 L 3.640625 -4.796875 L 3.78125 -4.796875 C 4.1875 -4.796875 4.546875 -4.765625 4.546875 -4.203125 L 4.546875 -1.828125 C 4.484375 -0.984375 4.015625 -0.140625 3.078125 -0.140625 C 2.640625 -0.140625 2.21875 -0.25 2.09375 -0.890625 C 2.0625 -1.109375 2.0625 -1.34375 2.0625 -1.578125 L 2.0625 -5.265625 Z M 0.375 -5.140625 "/>
</g>
<g id="glyph-3-9">
<path d="M 0.328125 -5.140625 L 0.328125 -4.796875 L 0.53125 -4.796875 C 0.890625 -4.796875 1.25 -4.75 1.25 -4.203125 L 1.25 -0.859375 C 1.25 -0.421875 1.015625 -0.359375 0.328125 -0.359375 L 0.328125 -0.015625 L 3.125 -0.015625 L 3.125 -0.359375 C 3 -0.359375 2.859375 -0.34375 2.71875 -0.34375 C 2.328125 -0.34375 2 -0.40625 2 -0.84375 L 2 -2.46875 C 2 -3.390625 2.140625 -4.703125 3.125 -5 C 3.21875 -5.015625 3.296875 -5.03125 3.390625 -5.03125 C 3.453125 -5.03125 3.5 -5.015625 3.5625 -5.015625 C 3.375 -4.9375 3.28125 -4.75 3.28125 -4.5625 C 3.28125 -4.296875 3.5 -4.09375 3.734375 -4.09375 C 4.046875 -4.09375 4.21875 -4.34375 4.21875 -4.578125 C 4.21875 -5.015625 3.796875 -5.265625 3.390625 -5.265625 C 2.765625 -5.265625 2.296875 -4.8125 2.0625 -4.296875 C 2.015625 -4.1875 1.953125 -4.0625 1.953125 -3.9375 L 1.9375 -5.265625 Z M 0.328125 -5.140625 "/>
</g>
</g>
<clipPath id="clip-0">
<path clip-rule="nonzero" d="M 25 0 L 31 0 L 31 12.953125 L 25 12.953125 Z M 25 0 "/>
</clipPath>
<clipPath id="clip-1">
<path clip-rule="nonzero" d="M 157 0 L 162 0 L 162 12.953125 L 157 12.953125 Z M 157 0 "/>
</clipPath>
</defs>
<g fill="rgb(0%, 0%, 0%)" fill-opacity="1">
<use xlink:href="#glyph-0-1" x="0.5" y="9.466"/>
</g>
<g fill="rgb(0%, 0%, 0%)" fill-opacity="1">
<use xlink:href="#glyph-1-1" x="12.596" y="9.466"/>
</g>
<g clip-path="url(#clip-0)">
<g fill="rgb(0%, 0%, 0%)" fill-opacity="1">
<use xlink:href="#glyph-2-1" x="25.022" y="9.466"/>
</g>
</g>
<g fill="rgb(0%, 0%, 0%)" fill-opacity="1">
<use xlink:href="#glyph-0-2" x="30.999" y="9.466"/>
</g>
<g fill="rgb(0%, 0%, 0%)" fill-opacity="1">
<use xlink:href="#glyph-2-2" x="40.972" y="9.466"/>
</g>
<g fill="rgb(0%, 0%, 0%)" fill-opacity="1">
<use xlink:href="#glyph-1-2" x="52.263" y="9.466"/>
</g>
<g fill="rgb(0%, 0%, 0%)" fill-opacity="1">
<use xlink:href="#glyph-1-3" x="64.041263" y="9.466"/>
</g>
<g fill="rgb(0%, 0%, 0%)" fill-opacity="1">
<use xlink:href="#glyph-3-1" x="74.512" y="9.466"/>
<use xlink:href="#glyph-3-2" x="79.713708" y="9.466"/>
<use xlink:href="#glyph-3-3" x="85.565778" y="9.466"/>
<use xlink:href="#glyph-3-4" x="92.067016" y="9.466"/>
<use xlink:href="#glyph-3-5" x="98.568253" y="9.466"/>
<use xlink:href="#glyph-3-6" x="101.818872" y="9.466"/>
<use xlink:href="#glyph-3-5" x="106.370217" y="9.466"/>
<use xlink:href="#glyph-3-2" x="109.620836" y="9.466"/>
<use xlink:href="#glyph-3-3" x="115.472906" y="9.466"/>
<use xlink:href="#glyph-3-7" x="121.974144" y="9.466"/>
</g>
<g fill="rgb(0%, 0%, 0%)" fill-opacity="1">
<use xlink:href="#glyph-3-7" x="130.487442" y="9.466"/>
<use xlink:href="#glyph-3-8" x="135.103345" y="9.466"/>
<use xlink:href="#glyph-3-9" x="141.604582" y="9.466"/>
</g>
<g fill="rgb(0%, 0%, 0%)" fill-opacity="1">
<use xlink:href="#glyph-0-2" x="150.063" y="9.466"/>
</g>
<g clip-path="url(#clip-1)">
<g fill="rgb(0%, 0%, 0%)" fill-opacity="1">
<use xlink:href="#glyph-2-3" x="156.715" y="9.466"/>
</g>
</g>
</svg>
