<?xml version="1.0" encoding="UTF-8"?>
<svg xmlns="http://www.w3.org/2000/svg" xmlns:xlink="http://www.w3.org/1999/xlink" viewBox="0 0 147.395 10.795">
<defs>
<g>
<g id="glyph-0-0">
</g>
<g id="glyph-0-1">
<path d="M 2.03125 -1.328125 C 1.609375 -0.625 1.203125 -0.375 0.640625 -0.34375 C 0.5 -0.328125 0.40625 -0.328125 0.40625 -0.125 C 0.40625 -0.046875 0.46875 0 0.546875 0 C 0.765625 0 1.296875 -0.03125 1.515625 -0.03125 C 1.859375 -0.03125 2.25 0 2.578125 0 C 2.65625 0 2.796875 0 2.796875 -0.234375 C 2.796875 -0.328125 2.703125 -0.34375 2.625 -0.34375 C 2.359375 -0.375 2.125 -0.46875 2.125 -0.75 C 2.125 -0.921875 2.203125 -1.046875 2.359375 -1.3125 L 3.265625 -2.828125 L 6.3125 -2.828125 C 6.328125 -2.71875 6.328125 -2.625 6.328125 -2.515625 C 6.375 -2.203125 6.515625 -0.953125 6.515625 -0.734375 C 6.515625 -0.375 5.90625 -0.34375 5.71875 -0.34375 C 5.578125 -0.34375 5.453125 -0.34375 5.453125 -0.125 C 5.453125 0 5.5625 0 5.625 0 C 5.828125 0 6.078125 -0.03125 6.28125 -0.03125 L 6.953125 -0.03125 C 7.6875 -0.03125 8.21875 0 8.21875 0 C 8.3125 0 8.4375 0 8.4375 -0.234375 C 8.4375 -0.34375 8.328125 -0.34375 8.15625 -0.34375 C 7.5 -0.34375 7.484375 -0.453125 7.453125 -0.8125 L 6.71875 -8.265625 C 6.6875 -8.515625 6.640625 -8.53125 6.515625 -8.53125 C 6.390625 -8.53125 6.328125 -8.515625 6.21875 -8.328125 Z M 3.46875 -3.171875 L 5.875 -7.1875 L 6.28125 -3.171875 Z M 3.46875 -3.171875 "/>
</g>
<g id="glyph-0-2">
<path d="M 4.375 -7.34375 C 4.484375 -7.796875 4.53125 -7.8125 5 -7.8125 L 6.546875 -7.8125 C 7.90625 -7.8125 7.90625 -6.671875 7.90625 -6.5625 C 7.90625 -5.59375 6.9375 -4.359375 5.359375 -4.359375 L 3.640625 -4.359375 Z M 6.390625 -4.265625 C 7.703125 -4.5 8.875 -5.421875 8.875 -6.515625 C 8.875 -7.453125 8.0625 -8.15625 6.703125 -8.15625 L 2.875 -8.15625 C 2.640625 -8.15625 2.53125 -8.15625 2.53125 -7.9375 C 2.53125 -7.8125 2.640625 -7.8125 2.828125 -7.8125 C 3.546875 -7.8125 3.546875 -7.71875 3.546875 -7.59375 C 3.546875 -7.5625 3.546875 -7.5 3.5 -7.3125 L 1.890625 -0.890625 C 1.78125 -0.46875 1.75 -0.34375 0.921875 -0.34375 C 0.6875 -0.34375 0.578125 -0.34375 0.578125 -0.125 C 0.578125 0 0.640625 0 0.890625 0 L 4.984375 0 C 6.8125 0 8.21875 -1.390625 8.21875 -2.59375 C 8.21875 -3.578125 7.359375 -4.171875 6.390625 -4.265625 Z M 4.703125 -0.34375 L 3.078125 -0.34375 C 2.921875 -0.34375 2.890625 -0.34375 2.828125 -0.359375 C 2.6875 -0.375 2.671875 -0.390625 2.671875 -0.484375 C 2.671875 -0.578125 2.703125 -0.640625 2.71875 -0.75 L 3.5625 -4.125 L 5.8125 -4.125 C 7.21875 -4.125 7.21875 -2.8125 7.21875 -2.71875 C 7.21875 -1.5625 6.1875 -0.34375 4.703125 -0.34375 Z M 4.703125 -0.34375 "/>
</g>
<g id="glyph-1-0">
</g>
<g id="glyph-1-1">
<path d="M 8.0625 -3.875 C 8.234375 -3.875 8.453125 -3.875 8.453125 -4.09375 C 8.453125 -4.3125 8.25 -4.3125 8.0625 -4.3125 L 1.03125 -4.3125 C 0.859375 -4.3125 0.640625 -4.3125 0.640625 -4.09375 C 0.640625 -3.875 0.84375 -3.875 1.03125 -3.875 Z M 8.0625 -1.65625 C 8.234375 -1.65625 8.453125 -1.65625 8.453125 -1.859375 C 8.453125 -2.09375 8.25 -2.09375 8.0625 -2.09375 L 1.03125 -2.09375 C 0.859375 -2.09375 0.640625 -2.09375 0.640625 -1.875 C 0.640625 -1.65625 0.84375 -1.65625 1.03125 -1.65625 Z M 8.0625 -1.65625 "/>
</g>
<g id="glyph-2-0">
</g>
<g id="glyph-2-1">
<path d="M 3.03125 -4.390625 C 3.71875 -5.15625 4.078125 -6.03125 4.078125 -6.125 C 4.078125 -6.28125 3.9375 -6.28125 3.84375 -6.28125 C 3.65625 -6.28125 3.65625 -6.265625 3.546875 -6.03125 C 3.0625 -4.921875 2.171875 -3.828125 0.609375 -3.15625 C 0.4375 -3.078125 0.40625 -3.078125 0.40625 -2.984375 C 0.40625 -2.96875 0.40625 -2.9375 0.421875 -2.921875 C 0.4375 -2.890625 0.453125 -2.875 0.6875 -2.765625 C 2.015625 -2.21875 2.984375 -1.203125 3.59375 0.171875 C 3.640625 0.28125 3.6875 0.296875 3.84375 0.296875 C 3.9375 0.296875 4.078125 0.296875 4.078125 0.15625 C 4.078125 0.0625 3.71875 -0.8125 3.03125 -1.59375 L 8.90625 -1.59375 C 8.21875 -0.8125 7.859375 0.0625 7.859375 0.15625 C 7.859375 0.296875 8 0.296875 8.109375 0.296875 C 8.28125 0.296875 8.28125 0.28125 8.390625 0.046875 C 8.875 -1.046875 9.765625 -2.15625 11.328125 -2.828125 C 11.5 -2.890625 11.53125 -2.90625 11.53125 -2.984375 C 11.53125 -3.015625 11.53125 -3.03125 11.515625 -3.0625 C 11.5 -3.078125 11.484375 -3.09375 11.25 -3.203125 C 9.9375 -3.75 8.953125 -4.765625 8.34375 -6.15625 C 8.296875 -6.265625 8.25 -6.28125 8.109375 -6.28125 C 8 -6.28125 7.859375 -6.28125 7.859375 -6.125 C 7.859375 -6.03125 8.21875 -5.15625 8.90625 -4.390625 Z M 2.5625 -2.0625 C 2.21875 -2.421875 1.8125 -2.703125 1.3125 -2.984375 C 1.96875 -3.375 2.328125 -3.671875 2.5625 -3.90625 L 9.375 -3.90625 C 9.734375 -3.5625 10.140625 -3.28125 10.625 -2.984375 C 9.96875 -2.609375 9.609375 -2.3125 9.375 -2.0625 Z M 2.5625 -2.0625 "/>
</g>
<g id="glyph-2-2">
<path d="M 7.875 -7.125 C 8.078125 -7.125 8.296875 -7.125 8.296875 -7.359375 C 8.296875 -7.609375 8.078125 -7.609375 7.875 -7.609375 L 4.65625 -7.609375 C 2.609375 -7.609375 0.984375 -6.03125 0.984375 -4.140625 C 0.984375 -2.21875 2.640625 -0.6875 4.65625 -0.6875 L 7.875 -0.6875 C 8.078125 -0.6875 8.296875 -0.6875 8.296875 -0.921875 C 8.296875 -1.15625 8.078125 -1.15625 7.875 -1.15625 L 4.6875 -1.15625 C 2.796875 -1.15625 1.46875 -2.5625 1.46875 -4.140625 C 1.46875 -5.765625 2.828125 -7.125 4.6875 -7.125 Z M 1.65625 1.15625 C 1.453125 1.15625 1.234375 1.15625 1.234375 1.40625 C 1.234375 1.640625 1.453125 1.640625 1.65625 1.640625 L 7.875 1.640625 C 8.078125 1.640625 8.296875 1.640625 8.296875 1.40625 C 8.296875 1.15625 8.078125 1.15625 7.875 1.15625 Z M 1.65625 1.15625 "/>
</g>
<g id="glyph-3-0">
</g>
<g id="glyph-3-1">
<path d="M 1.265625 -2.78125 L 4.6875 -2.78125 C 4.8125 -2.78125 4.859375 -2.828125 4.859375 -2.953125 C 4.859375 -4.1875 4.203125 -5.328125 2.796875 -5.328125 C 1.359375 -5.328125 0.34375 -4.03125 0.34375 -2.640625 C 0.34375 -1.59375 0.90625 -0.53125 1.953125 -0.09375 C 2.21875 0.03125 2.515625 0.109375 2.828125 0.109375 L 2.859375 0.109375 C 3.734375 0.109375 4.578125 -0.421875 4.828125 -1.296875 C 4.84375 -1.34375 4.859375 -1.390625 4.859375 -1.4375 C 4.859375 -1.5 4.796875 -1.546875 4.734375 -1.546875 C 4.59375 -1.546875 4.53125 -1.234375 4.453125 -1.078125 C 4.140625 -0.53125 3.578125 -0.15625 2.9375 -0.15625 C 2.484375 -0.15625 2.078125 -0.40625 1.796875 -0.734375 C 1.3125 -1.3125 1.265625 -2.0625 1.265625 -2.78125 Z M 1.28125 -3.015625 C 1.28125 -3.921875 1.78125 -5.09375 2.765625 -5.09375 C 3.828125 -5.09375 4.109375 -3.859375 4.109375 -3.015625 Z M 1.28125 -3.015625 "/>
</g>
<g id="glyph-3-2">
<path d="M 1.75 -7.359375 C 1.75 -6.59375 1.4375 -5.046875 0.21875 -5.046875 L 0.21875 -4.8125 L 1.234375 -4.8125 L 1.234375 -2.109375 C 1.234375 -1.9375 1.21875 -1.765625 1.21875 -1.609375 C 1.21875 -0.53125 1.765625 0.109375 2.765625 0.109375 C 3.6875 0.109375 3.890625 -0.921875 3.890625 -1.65625 L 3.890625 -2.171875 L 3.640625 -2.171875 C 3.640625 -2 3.640625 -1.8125 3.640625 -1.640625 C 3.640625 -1.125 3.546875 -0.15625 2.828125 -0.15625 C 2.140625 -0.15625 2.015625 -0.984375 2.015625 -1.5625 L 2.015625 -4.8125 L 3.6875 -4.8125 L 3.6875 -5.15625 L 2.015625 -5.15625 L 2.015625 -7.359375 Z M 1.75 -7.359375 "/>
</g>
</g>
<clipPath id="clip-0">
<path clip-rule="nonzero" d="M 74 1 L 82 1 L 82 10.796875 L 74 10.796875 Z M 74 1 "/>
</clipPath>
<clipPath id="clip-1">
<path clip-rule="nonzero" d="M 126 1 L 134 1 L 134 10.796875 L 126 10.796875 Z M 126 1 "/>
</clipPath>
</defs>
<g fill="rgb(0%, 0%, 0%)" fill-opacity="1">
<use xlink:href="#glyph-0-1" x="0.5" y="8.669"/>
</g>
<g fill="rgb(0%, 0%, 0%)" fill-opacity="1">
<use xlink:href="#glyph-1-1" x="12.596" y="8.669"/>
</g>
<g fill="rgb(0%, 0%, 0%)" fill-opacity="1">
<use xlink:href="#glyph-0-2" x="25.022" y="8.669"/>
</g>
<g fill="rgb(0%, 0%, 0%)" fill-opacity="1">
<use xlink:href="#glyph-2-1" x="41.74" y="8.669"/>
</g>
<g fill="rgb(0%, 0%, 0%)" fill-opacity="1">
<use xlink:href="#glyph-0-1" x="60.917" y="8.669"/>
</g>
<g clip-path="url(#clip-0)">
<g fill="rgb(0%, 0%, 0%)" fill-opacity="1">
<use xlink:href="#glyph-2-2" x="73.013" y="8.669"/>
</g>
</g>
<g fill="rgb(0%, 0%, 0%)" fill-opacity="1">
<use xlink:href="#glyph-0-2" x="85.632" y="8.669"/>
</g>
<g fill="rgb(0%, 0%, 0%)" fill-opacity="1">
<use xlink:href="#glyph-3-1" x="99.03" y="8.669"/>
<use xlink:href="#glyph-3-2" x="104.231708" y="8.669"/>
</g>
<g fill="rgb(0%, 0%, 0%)" fill-opacity="1">
<use xlink:href="#glyph-0-2" x="112.684" y="8.669"/>
</g>
<g clip-path="url(#clip-1)">
<g fill="rgb(0%, 0%, 0%)" fill-opacity="1">
<use xlink:href="#glyph-2-2" x="125.501" y="8.669"/>
</g>
</g>
<g fill="rgb(0%, 0%, 0%)" fill-opacity="1">
<use xlink:href="#glyph-0-1" x="138.12" y="8.669"/>
</g>
</svg>
