<?xml version="1.0" encoding="UTF-8"?>
<svg xmlns="http://www.w3.org/2000/svg" xmlns:xlink="http://www.w3.org/1999/xlink" viewBox="0 0 106.874 12.955">
<defs>
<g>
<g id="glyph-0-0">
</g>
<g id="glyph-0-1">
<path d="M 4.90625 -6.078125 C 5.328125 -6.75 5.90625 -7.5625 6.8125 -7.5625 C 7.390625 -7.5625 7.546875 -7.25 7.578125 -6.625 C 7.609375 -5.984375 7.8125 -5.640625 8.25 -5.546875 C 7.796875 -5.171875 7.203125 -4.6875 7.203125 -4.140625 C 7.203125 -3.328125 8.359375 -2.4375 8.359375 -1.65625 C 8.359375 -1.078125 7.921875 -0.734375 7.40625 -0.734375 C 6.90625 -0.734375 6.640625 -0.890625 4.90625 -1.453125 Z M 4.75 -6.453125 C 4.484375 -7.265625 3.734375 -8.1875 2.875 -8.1875 C 1.75 -8.1875 0.96875 -7.453125 0.6875 -7.15625 C 0.34375 -6.828125 0.078125 -6.46875 0.078125 -5.984375 C 0.078125 -5.359375 0.5625 -4.921875 0.9375 -4.40625 C 1 -4.296875 1.09375 -4.203125 1.09375 -4.078125 C 1.09375 -3.6875 0.6875 -3.3125 0.328125 -3.109375 L 0.5 -2.96875 C 1.203125 -3.328125 1.96875 -3.8125 1.96875 -4.578125 C 1.96875 -5.3125 0.84375 -5.8125 0.84375 -6.59375 C 0.84375 -7.203125 1.359375 -7.4375 2.0625 -7.4375 C 3.265625 -7.4375 3.953125 -6.078125 3.953125 -4.734375 L 3.953125 -1.75 C 3.734375 -1.8125 3.53125 -1.84375 3.375 -1.84375 C 2.359375 -1.84375 1.8125 -0.875 1.40625 -0.0625 L 1.53125 0.1875 C 1.90625 -0.3125 2.328125 -0.953125 3 -0.953125 C 3.203125 -0.953125 3.5625 -0.875 3.953125 -0.75 C 3.953125 0.328125 3.890625 1.875 3.640625 2.484375 L 3.890625 2.625 C 4.265625 2.34375 4.953125 1.84375 5.03125 1.78125 C 4.9375 1.046875 4.90625 0.296875 4.90625 -0.4375 L 6.3125 0.0625 C 6.4375 0.09375 6.5625 0.125 6.6875 0.125 C 7.859375 0.125 8.984375 -1.28125 8.984375 -2.546875 C 8.984375 -3.4375 8.078125 -4.046875 8.078125 -4.765625 C 8.078125 -5.265625 9.015625 -5.921875 9.609375 -6.234375 L 9.546875 -6.4375 C 9.40625 -6.390625 9.25 -6.328125 9.109375 -6.328125 C 8.171875 -6.328125 9 -8.265625 7.640625 -8.265625 C 6.515625 -8.265625 5.328125 -7.3125 4.75 -6.453125 Z M 4.75 -6.453125 "/>
</g>
<g id="glyph-1-0">
</g>
<g id="glyph-1-1">
<path d="M 3.890625 2.90625 C 3.890625 2.875 3.890625 2.84375 3.6875 2.640625 C 2.484375 1.4375 1.8125 -0.53125 1.8125 -2.96875 C 1.8125 -5.296875 2.375 -7.296875 3.765625 -8.703125 C 3.890625 -8.8125 3.890625 -8.828125 3.890625 -8.875 C 3.890625 -8.9375 3.828125 -8.96875 3.78125 -8.96875 C 3.625 -8.96875 2.640625 -8.109375 2.0625 -6.9375 C 1.453125 -5.71875 1.171875 -4.453125 1.171875 -2.96875 C 1.171875 -1.90625 1.34375 -0.484375 1.953125 0.78125 C 2.671875 2.21875 3.640625 3 3.78125 3 C 3.828125 3 3.890625 2.96875 3.890625 2.90625 Z M 3.890625 2.90625 "/>
</g>
<g id="glyph-1-2">
<path d="M 3.375 -2.96875 C 3.375 -3.890625 3.25 -5.359375 2.578125 -6.75 C 1.875 -8.1875 0.890625 -8.96875 0.765625 -8.96875 C 0.71875 -8.96875 0.65625 -8.9375 0.65625 -8.875 C 0.65625 -8.828125 0.65625 -8.8125 0.859375 -8.609375 C 2.0625 -7.40625 2.71875 -5.421875 2.71875 -2.984375 C 2.71875 -0.671875 2.15625 1.328125 0.78125 2.734375 C 0.65625 2.84375 0.65625 2.875 0.65625 2.90625 C 0.65625 2.96875 0.71875 3 0.765625 3 C 0.921875 3 1.90625 2.140625 2.484375 0.96875 C 3.09375 -0.25 3.375 -1.546875 3.375 -2.96875 Z M 3.375 -2.96875 "/>
</g>
<g id="glyph-1-3">
<path d="M 8.0625 -3.875 C 8.234375 -3.875 8.453125 -3.875 8.453125 -4.09375 C 8.453125 -4.3125 8.25 -4.3125 8.0625 -4.3125 L 1.03125 -4.3125 C 0.859375 -4.3125 0.640625 -4.3125 0.640625 -4.09375 C 0.640625 -3.875 0.84375 -3.875 1.03125 -3.875 Z M 8.0625 -1.65625 C 8.234375 -1.65625 8.453125 -1.65625 8.453125 -1.859375 C 8.453125 -2.09375 8.25 -2.09375 8.0625 -2.09375 L 1.03125 -2.09375 C 0.859375 -2.09375 0.640625 -2.09375 0.640625 -1.875 C 0.640625 -1.65625 0.84375 -1.65625 1.03125 -1.65625 Z M 8.0625 -1.65625 "/>
</g>
<g id="glyph-1-4">
<path d="M 2.203125 -4.578125 C 2.203125 -4.90625 1.921875 -5.15625 1.625 -5.15625 C 1.28125 -5.15625 1.046875 -4.875 1.046875 -4.578125 C 1.046875 -4.21875 1.34375 -4 1.609375 -4 C 1.9375 -4 2.203125 -4.25 2.203125 -4.578125 Z M 2.203125 -0.578125 C 2.203125 -0.90625 1.921875 -1.15625 1.625 -1.15625 C 1.28125 -1.15625 1.046875 -0.890625 1.046875 -0.578125 C 1.046875 -0.234375 1.34375 0 1.609375 0 C 1.9375 0 2.203125 -0.25 2.203125 -0.578125 Z M 2.203125 -0.578125 "/>
</g>
<g id="glyph-2-0">
</g>
<g id="glyph-2-1">
<path d="M 2.03125 -1.328125 C 1.609375 -0.625 1.203125 -0.375 0.640625 -0.34375 C 0.5 -0.328125 0.40625 -0.328125 0.40625 -0.125 C 0.40625 -0.046875 0.46875 0 0.546875 0 C 0.765625 0 1.296875 -0.03125 1.515625 -0.03125 C 1.859375 -0.03125 2.25 0 2.578125 0 C 2.65625 0 2.796875 0 2.796875 -0.234375 C 2.796875 -0.328125 2.703125 -0.34375 2.625 -0.34375 C 2.359375 -0.375 2.125 -0.46875 2.125 -0.75 C 2.125 -0.921875 2.203125 -1.046875 2.359375 -1.3125 L 3.265625 -2.828125 L 6.3125 -2.828125 C 6.328125 -2.71875 6.328125 -2.625 6.328125 -2.515625 C 6.375 -2.203125 6.515625 -0.953125 6.515625 -0.734375 C 6.515625 -0.375 5.90625 -0.34375 5.71875 -0.34375 C 5.578125 -0.34375 5.453125 -0.34375 5.453125 -0.125 C 5.453125 0 5.5625 0 5.625 0 C 5.828125 0 6.078125 -0.03125 6.28125 -0.03125 L 6.953125 -0.03125 C 7.6875 -0.03125 8.21875 0 8.21875 0 C 8.3125 0 8.4375 0 8.4375 -0.234375 C 8.4375 -0.34375 8.328125 -0.34375 8.15625 -0.34375 C 7.5 -0.34375 7.484375 -0.453125 7.453125 -0.8125 L 6.71875 -8.265625 C 6.6875 -8.515625 6.640625 -8.53125 6.515625 -8.53125 C 6.390625 -8.53125 6.328125 -8.515625 6.21875 -8.328125 Z M 3.46875 -3.171875 L 5.875 -7.1875 L 6.28125 -3.171875 Z M 3.46875 -3.171875 "/>
</g>
<g id="glyph-2-2">
<path d="M 7.59375 -8.3125 C 7.59375 -8.421875 7.5 -8.421875 7.484375 -8.421875 C 7.4375 -8.421875 7.421875 -8.40625 7.28125 -8.21875 C 7.203125 -8.140625 6.71875 -7.515625 6.703125 -7.5 C 6.3125 -8.28125 5.515625 -8.421875 5.015625 -8.421875 C 3.5 -8.421875 2.125 -7.03125 2.125 -5.671875 C 2.125 -4.78125 2.671875 -4.25 3.25 -4.046875 C 3.375 -4 4.09375 -3.8125 4.453125 -3.734375 C 5.0625 -3.5625 5.21875 -3.515625 5.46875 -3.25 C 5.515625 -3.1875 5.75 -2.921875 5.75 -2.359375 C 5.75 -1.25 4.71875 -0.09375 3.53125 -0.09375 C 2.546875 -0.09375 1.453125 -0.515625 1.453125 -1.859375 C 1.453125 -2.078125 1.5 -2.359375 1.546875 -2.484375 C 1.546875 -2.515625 1.546875 -2.578125 1.546875 -2.609375 C 1.546875 -2.65625 1.53125 -2.71875 1.4375 -2.71875 C 1.328125 -2.71875 1.3125 -2.6875 1.265625 -2.484375 L 0.65625 -0.03125 C 0.65625 -0.03125 0.609375 0.125 0.609375 0.140625 C 0.609375 0.25 0.703125 0.25 0.734375 0.25 C 0.78125 0.25 0.78125 0.234375 0.9375 0.0625 L 1.484375 -0.65625 C 1.765625 -0.234375 2.390625 0.25 3.5 0.25 C 5.046875 0.25 6.453125 -1.25 6.453125 -2.734375 C 6.453125 -3.234375 6.328125 -3.6875 5.875 -4.125 C 5.625 -4.375 5.421875 -4.4375 4.3125 -4.71875 C 3.515625 -4.9375 3.40625 -4.96875 3.1875 -5.15625 C 2.984375 -5.359375 2.828125 -5.65625 2.828125 -6.0625 C 2.828125 -7.0625 3.84375 -8.09375 4.984375 -8.09375 C 6.15625 -8.09375 6.703125 -7.375 6.703125 -6.234375 C 6.703125 -5.921875 6.640625 -5.609375 6.640625 -5.5625 C 6.640625 -5.453125 6.734375 -5.453125 6.78125 -5.453125 C 6.890625 -5.453125 6.890625 -5.484375 6.9375 -5.671875 Z M 7.59375 -8.3125 "/>
</g>
<g id="glyph-3-0">
</g>
<g id="glyph-3-1">
<path d="M 3.375 -7.375 C 3.375 -7.859375 3.6875 -8.625 5 -8.703125 C 5.0625 -8.71875 5.109375 -8.765625 5.109375 -8.828125 C 5.109375 -8.96875 5.015625 -8.96875 4.875 -8.96875 C 3.6875 -8.96875 2.59375 -8.359375 2.578125 -7.46875 L 2.578125 -4.75 C 2.578125 -4.28125 2.578125 -3.890625 2.109375 -3.5 C 1.6875 -3.15625 1.234375 -3.125 0.96875 -3.125 C 0.90625 -3.109375 0.859375 -3.0625 0.859375 -2.984375 C 0.859375 -2.875 0.9375 -2.875 1.046875 -2.859375 C 1.84375 -2.8125 2.421875 -2.375 2.546875 -1.796875 C 2.578125 -1.65625 2.578125 -1.640625 2.578125 -1.203125 L 2.578125 1.15625 C 2.578125 1.65625 2.578125 2.046875 3.15625 2.5 C 3.625 2.859375 4.40625 2.984375 4.875 2.984375 C 5.015625 2.984375 5.109375 2.984375 5.109375 2.859375 C 5.109375 2.734375 5.03125 2.734375 4.90625 2.71875 C 4.15625 2.671875 3.578125 2.296875 3.421875 1.6875 C 3.375 1.578125 3.375 1.546875 3.375 1.125 L 3.375 -1.390625 C 3.375 -1.9375 3.28125 -2.140625 2.90625 -2.515625 C 2.65625 -2.765625 2.3125 -2.890625 1.96875 -2.984375 C 2.953125 -3.265625 3.375 -3.8125 3.375 -4.5 Z M 3.375 -7.375 "/>
</g>
<g id="glyph-3-2">
<path d="M 7.875 -7.125 C 8.078125 -7.125 8.296875 -7.125 8.296875 -7.359375 C 8.296875 -7.609375 8.078125 -7.609375 7.875 -7.609375 L 4.65625 -7.609375 C 2.609375 -7.609375 0.984375 -6.03125 0.984375 -4.140625 C 0.984375 -2.21875 2.640625 -0.6875 4.65625 -0.6875 L 7.875 -0.6875 C 8.078125 -0.6875 8.296875 -0.6875 8.296875 -0.921875 C 8.296875 -1.15625 8.078125 -1.15625 7.875 -1.15625 L 4.6875 -1.15625 C 2.796875 -1.15625 1.46875 -2.5625 1.46875 -4.140625 C 1.46875 -5.765625 2.828125 -7.125 4.6875 -7.125 Z M 1.65625 1.15625 C 1.453125 1.15625 1.234375 1.15625 1.234375 1.40625 C 1.234375 1.640625 1.453125 1.640625 1.65625 1.640625 L 7.875 1.640625 C 8.078125 1.640625 8.296875 1.640625 8.296875 1.40625 C 8.296875 1.15625 8.078125 1.15625 7.875 1.15625 Z M 1.65625 1.15625 "/>
</g>
<g id="glyph-3-3">
<path d="M 2.578125 1.40625 C 2.578125 1.875 2.265625 2.640625 0.96875 2.71875 C 0.90625 2.734375 0.859375 2.78125 0.859375 2.859375 C 0.859375 2.984375 0.984375 2.984375 1.09375 2.984375 C 2.265625 2.984375 3.375 2.40625 3.375 1.5 L 3.375 -1.234375 C 3.375 -1.703125 3.375 -2.078125 3.859375 -2.46875 C 4.28125 -2.828125 4.734375 -2.84375 5 -2.859375 C 5.0625 -2.875 5.109375 -2.921875 5.109375 -2.984375 C 5.109375 -3.109375 5.03125 -3.109375 4.90625 -3.125 C 4.125 -3.171875 3.546875 -3.59375 3.421875 -4.1875 C 3.375 -4.3125 3.375 -4.34375 3.375 -4.765625 L 3.375 -7.140625 C 3.375 -7.640625 3.375 -8.015625 2.8125 -8.46875 C 2.328125 -8.84375 1.5 -8.96875 1.09375 -8.96875 C 0.984375 -8.96875 0.859375 -8.96875 0.859375 -8.828125 C 0.859375 -8.71875 0.9375 -8.71875 1.046875 -8.703125 C 1.8125 -8.65625 2.390625 -8.265625 2.546875 -7.65625 C 2.578125 -7.546875 2.578125 -7.53125 2.578125 -7.09375 L 2.578125 -4.59375 C 2.578125 -4.046875 2.671875 -3.84375 3.0625 -3.453125 C 3.3125 -3.203125 3.65625 -3.078125 4 -2.984375 C 3.015625 -2.71875 2.578125 -2.15625 2.578125 -1.46875 Z M 2.578125 1.40625 "/>
</g>
</g>
<clipPath id="clip-0">
<path clip-rule="nonzero" d="M 0 1 L 11 1 L 11 12.953125 L 0 12.953125 Z M 0 1 "/>
</clipPath>
<clipPath id="clip-1">
<path clip-rule="nonzero" d="M 11 0 L 15 0 L 15 12.953125 L 11 12.953125 Z M 11 0 "/>
</clipPath>
<clipPath id="clip-2">
<path clip-rule="nonzero" d="M 24 0 L 28 0 L 28 12.953125 L 24 12.953125 Z M 24 0 "/>
</clipPath>
<clipPath id="clip-3">
<path clip-rule="nonzero" d="M 44 0 L 50 0 L 50 12.953125 L 44 12.953125 Z M 44 0 "/>
</clipPath>
<clipPath id="clip-4">
<path clip-rule="nonzero" d="M 101 0 L 106 0 L 106 12.953125 L 101 12.953125 Z M 101 0 "/>
</clipPath>
</defs>
<g clip-path="url(#clip-0)">
<g fill="rgb(0%, 0%, 0%)" fill-opacity="1">
<use xlink:href="#glyph-0-1" x="0.5" y="9.466"/>
</g>
</g>
<g clip-path="url(#clip-1)">
<g fill="rgb(0%, 0%, 0%)" fill-opacity="1">
<use xlink:href="#glyph-1-1" x="10.393" y="9.466"/>
</g>
</g>
<g fill="rgb(0%, 0%, 0%)" fill-opacity="1">
<use xlink:href="#glyph-2-1" x="14.946" y="9.466"/>
</g>
<g clip-path="url(#clip-2)">
<g fill="rgb(0%, 0%, 0%)" fill-opacity="1">
<use xlink:href="#glyph-1-2" x="23.721" y="9.466"/>
</g>
</g>
<g fill="rgb(0%, 0%, 0%)" fill-opacity="1">
<use xlink:href="#glyph-1-3" x="31.597086" y="9.466"/>
</g>
<g clip-path="url(#clip-3)">
<g fill="rgb(0%, 0%, 0%)" fill-opacity="1">
<use xlink:href="#glyph-3-1" x="44.02" y="9.466"/>
</g>
</g>
<g fill="rgb(0%, 0%, 0%)" fill-opacity="1">
<use xlink:href="#glyph-2-2" x="49.997" y="9.466"/>
</g>
<g fill="rgb(0%, 0%, 0%)" fill-opacity="1">
<use xlink:href="#glyph-1-4" x="61.213" y="9.466"/>
</g>
<g fill="rgb(0%, 0%, 0%)" fill-opacity="1">
<use xlink:href="#glyph-2-2" x="67.786" y="9.466"/>
</g>
<g fill="rgb(0%, 0%, 0%)" fill-opacity="1">
<use xlink:href="#glyph-3-2" x="79.002" y="9.466"/>
</g>
<g fill="rgb(0%, 0%, 0%)" fill-opacity="1">
<use xlink:href="#glyph-2-1" x="91.621" y="9.466"/>
</g>
<g clip-path="url(#clip-4)">
<g fill="rgb(0%, 0%, 0%)" fill-opacity="1">
<use xlink:href="#glyph-3-3" x="100.397" y="9.466"/>
</g>
</g>
</svg>
