<?xml version="1.0" encoding="UTF-8"?>
<svg xmlns="http://www.w3.org/2000/svg" xmlns:xlink="http://www.w3.org/1999/xlink" viewBox="0 0 32.474 10.229">
<defs>
<g>
<g id="glyph-0-0">
</g>
<g id="glyph-0-1">
<path d="M 6.3125 -3.234375 C 5.546875 -1.859375 5.421875 -0.84375 5.421875 -0.53125 C 5.421875 -0.03125 5.578125 0.015625 5.765625 0.015625 C 6.828125 0.015625 7.625 -0.875 7.625 -1.28125 C 7.625 -1.40625 7.53125 -1.421875 7.484375 -1.421875 C 7.390625 -1.421875 7.359375 -1.375 7.328125 -1.28125 C 7.203125 -1.046875 6.65625 -0.796875 5.84375 -0.78125 C 5.828125 -0.84375 5.796875 -0.921875 5.796875 -1 C 5.796875 -1.1875 6.078125 -2.3125 6.65625 -3.25 C 6.890625 -3.609375 6.90625 -3.625 7.28125 -3.875 C 7.734375 -4.1875 8.40625 -4.625 8.46875 -4.6875 C 8.46875 -4.703125 8.546875 -4.78125 8.546875 -4.90625 C 8.546875 -5.15625 8.28125 -5.21875 8.15625 -5.21875 C 7.875 -5.21875 7.65625 -5.0625 7.5 -4.953125 L 2.921875 -1.90625 C 3.28125 -2.5 3.8125 -3.734375 3.8125 -4.625 C 3.8125 -4.90625 3.8125 -5.15625 3.484375 -5.15625 C 2.40625 -5.15625 1.625 -4.25 1.625 -3.875 C 1.625 -3.796875 1.671875 -3.734375 1.765625 -3.734375 C 1.859375 -3.734375 1.890625 -3.796875 1.9375 -3.875 C 2.03125 -4.09375 2.59375 -4.359375 3.40625 -4.359375 C 3.4375 -4.296875 3.4375 -4.1875 3.4375 -4.140625 C 3.4375 -3.5 2.609375 -1.703125 2.265625 -1.46875 C 2.21875 -1.4375 2.21875 -1.421875 1.796875 -1.15625 L 1 -0.640625 C 0.796875 -0.484375 0.703125 -0.4375 0.703125 -0.25 C 0.703125 0.046875 1.046875 0.0625 1.09375 0.0625 C 1.375 0.0625 1.609375 -0.109375 1.75 -0.1875 Z M 6.3125 -3.234375 "/>
</g>
<g id="glyph-1-0">
</g>
<g id="glyph-1-1">
<path d="M 8.0625 -3.875 C 8.21875 -3.9375 8.296875 -4.03125 8.296875 -4.140625 C 8.296875 -4.25 8.25 -4.328125 8.0625 -4.40625 L 1.46875 -7.515625 C 1.296875 -7.609375 1.25 -7.609375 1.234375 -7.609375 C 1.09375 -7.609375 0.984375 -7.5 0.984375 -7.359375 C 0.984375 -7.21875 1.09375 -7.15625 1.21875 -7.09375 L 7.5 -4.140625 L 1.25 -1.1875 C 1 -1.09375 0.984375 -0.984375 0.984375 -0.921875 C 0.984375 -0.78125 1.09375 -0.6875 1.234375 -0.6875 C 1.265625 -0.6875 1.296875 -0.6875 1.453125 -0.765625 Z M 7.875 1.640625 C 8.078125 1.640625 8.296875 1.640625 8.296875 1.40625 C 8.296875 1.15625 8.046875 1.15625 7.859375 1.15625 L 1.421875 1.15625 C 1.25 1.15625 0.984375 1.15625 0.984375 1.40625 C 0.984375 1.640625 1.203125 1.640625 1.40625 1.640625 Z M 7.875 1.640625 "/>
</g>
<g id="glyph-2-0">
</g>
<g id="glyph-2-1">
<path d="M 6.078125 -4.5 C 6.234375 -4.5 6.625 -4.5 6.625 -4.890625 C 6.625 -5.15625 6.390625 -5.15625 6.1875 -5.15625 L 3.53125 -5.15625 C 1.75 -5.15625 0.453125 -3.15625 0.453125 -1.75 C 0.453125 -0.734375 1.109375 0.125 2.1875 0.125 C 3.59375 0.125 5.140625 -1.40625 5.140625 -3.1875 C 5.140625 -3.65625 5.03125 -4.109375 4.75 -4.5 Z M 2.203125 -0.125 C 1.59375 -0.125 1.140625 -0.578125 1.140625 -1.40625 C 1.140625 -2.125 1.578125 -4.5 3.328125 -4.5 C 3.84375 -4.5 4.421875 -4.25 4.421875 -3.328125 C 4.421875 -2.921875 4.234375 -1.90625 3.8125 -1.21875 C 3.375 -0.515625 2.734375 -0.125 2.203125 -0.125 Z M 2.203125 -0.125 "/>
</g>
</g>
</defs>
<g fill="rgb(0%, 0%, 0%)" fill-opacity="1">
<use xlink:href="#glyph-0-1" x="0.5" y="8.103"/>
</g>
<g fill="rgb(0%, 0%, 0%)" fill-opacity="1">
<use xlink:href="#glyph-1-1" x="12.272" y="8.103"/>
</g>
<g fill="rgb(0%, 0%, 0%)" fill-opacity="1">
<use xlink:href="#glyph-2-1" x="24.892" y="8.103"/>
</g>
</svg>
