<?xml version="1.0" encoding="UTF-8"?>
<svg xmlns="http://www.w3.org/2000/svg" xmlns:xlink="http://www.w3.org/1999/xlink" viewBox="0 0 10.298 10.245">
<defs>
<g>
<g id="glyph-0-0">
</g>
<g id="glyph-0-1">
<path d="M 8.0625 -7.09375 C 8.21875 -7.171875 8.296875 -7.234375 8.296875 -7.359375 C 8.296875 -7.5 8.1875 -7.609375 8.0625 -7.609375 C 8 -7.609375 7.890625 -7.546875 7.84375 -7.53125 L 1.234375 -4.40625 C 1.03125 -4.3125 0.984375 -4.234375 0.984375 -4.140625 C 0.984375 -4.015625 1.109375 -3.90625 1.234375 -3.90625 C 1.296875 -3.90625 1.34375 -3.9375 1.421875 -3.96875 Z M 7.84375 1.546875 C 8 1.640625 8.015625 1.640625 8.0625 1.640625 C 8.1875 1.640625 8.296875 1.53125 8.296875 1.40625 C 8.296875 1.25 8.1875 1.1875 8.0625 1.140625 L 1.796875 -1.8125 L 8.0625 -4.78125 C 8.21875 -4.859375 8.296875 -4.90625 8.296875 -5.046875 C 8.296875 -5.21875 8.140625 -5.28125 8.0625 -5.28125 C 8 -5.28125 7.890625 -5.234375 7.84375 -5.21875 L 1.234375 -2.09375 C 1.03125 -2 0.984375 -1.90625 0.984375 -1.8125 C 0.984375 -1.71875 1.046875 -1.640625 1.234375 -1.546875 Z M 7.84375 1.546875 "/>
</g>
</g>
</defs>
<g fill="rgb(0%, 0%, 0%)" fill-opacity="1">
<use xlink:href="#glyph-0-1" x="0.5" y="8.111"/>
</g>
</svg>
