<?xml version="1.0" encoding="UTF-8"?>
<svg xmlns="http://www.w3.org/2000/svg" xmlns:xlink="http://www.w3.org/1999/xlink" viewBox="0 0 56.584 12.047">
<defs>
<g>
<g id="glyph-0-0">
</g>
<g id="glyph-0-1">
<path d="M 3.140625 1.34375 C 2.828125 1.796875 2.359375 2.203125 1.765625 2.203125 C 1.625 2.203125 1.046875 2.171875 0.875 1.625 C 0.90625 1.640625 0.96875 1.640625 0.984375 1.640625 C 1.34375 1.640625 1.59375 1.328125 1.59375 1.046875 C 1.59375 0.78125 1.359375 0.6875 1.1875 0.6875 C 0.984375 0.6875 0.578125 0.828125 0.578125 1.40625 C 0.578125 2.015625 1.09375 2.4375 1.765625 2.4375 C 2.96875 2.4375 4.171875 1.34375 4.5 0.015625 L 5.671875 -4.65625 C 5.6875 -4.703125 5.71875 -4.78125 5.71875 -4.859375 C 5.71875 -5.03125 5.5625 -5.15625 5.390625 -5.15625 C 5.28125 -5.15625 5.03125 -5.109375 4.9375 -4.75 L 4.046875 -1.234375 C 4 -1.015625 4 -0.984375 3.890625 -0.859375 C 3.65625 -0.53125 3.265625 -0.125 2.6875 -0.125 C 2.015625 -0.125 1.953125 -0.78125 1.953125 -1.09375 C 1.953125 -1.78125 2.28125 -2.703125 2.609375 -3.5625 C 2.734375 -3.90625 2.8125 -4.078125 2.8125 -4.3125 C 2.8125 -4.8125 2.453125 -5.265625 1.859375 -5.265625 C 0.765625 -5.265625 0.328125 -3.53125 0.328125 -3.4375 C 0.328125 -3.390625 0.375 -3.328125 0.453125 -3.328125 C 0.5625 -3.328125 0.578125 -3.375 0.625 -3.546875 C 0.90625 -4.546875 1.359375 -5.03125 1.828125 -5.03125 C 1.9375 -5.03125 2.140625 -5.03125 2.140625 -4.640625 C 2.140625 -4.328125 2.015625 -3.984375 1.828125 -3.53125 C 1.25 -1.953125 1.25 -1.5625 1.25 -1.28125 C 1.25 -0.140625 2.0625 0.125 2.65625 0.125 C 3 0.125 3.4375 0.015625 3.84375 -0.4375 L 3.859375 -0.421875 C 3.6875 0.28125 3.5625 0.75 3.140625 1.34375 Z M 3.140625 1.34375 "/>
</g>
<g id="glyph-1-0">
</g>
<g id="glyph-1-1">
<path d="M 2.375 -4.96875 C 2.375 -5.140625 2.25 -5.28125 2.0625 -5.28125 C 1.859375 -5.28125 1.625 -5.078125 1.625 -4.84375 C 1.625 -4.671875 1.75 -4.546875 1.9375 -4.546875 C 2.140625 -4.546875 2.375 -4.734375 2.375 -4.96875 Z M 1.21875 -2.046875 L 0.78125 -0.953125 C 0.734375 -0.828125 0.703125 -0.734375 0.703125 -0.59375 C 0.703125 -0.203125 1 0.078125 1.421875 0.078125 C 2.203125 0.078125 2.53125 -1.03125 2.53125 -1.140625 C 2.53125 -1.21875 2.46875 -1.25 2.40625 -1.25 C 2.3125 -1.25 2.296875 -1.1875 2.265625 -1.109375 C 2.09375 -0.46875 1.765625 -0.140625 1.4375 -0.140625 C 1.34375 -0.140625 1.25 -0.1875 1.25 -0.390625 C 1.25 -0.59375 1.3125 -0.734375 1.40625 -0.984375 C 1.484375 -1.1875 1.5625 -1.40625 1.65625 -1.625 L 1.90625 -2.265625 C 1.96875 -2.453125 2.078125 -2.703125 2.078125 -2.84375 C 2.078125 -3.234375 1.75 -3.515625 1.34375 -3.515625 C 0.578125 -3.515625 0.234375 -2.40625 0.234375 -2.296875 C 0.234375 -2.21875 0.296875 -2.1875 0.359375 -2.1875 C 0.46875 -2.1875 0.46875 -2.234375 0.5 -2.3125 C 0.71875 -3.078125 1.078125 -3.296875 1.328125 -3.296875 C 1.4375 -3.296875 1.515625 -3.25 1.515625 -3.03125 C 1.515625 -2.953125 1.5 -2.84375 1.421875 -2.59375 Z M 1.21875 -2.046875 "/>
</g>
<g id="glyph-1-2">
<path d="M 3.296875 -4.96875 C 3.296875 -5.125 3.171875 -5.28125 2.984375 -5.28125 C 2.734375 -5.28125 2.53125 -5.046875 2.53125 -4.84375 C 2.53125 -4.6875 2.65625 -4.546875 2.84375 -4.546875 C 3.078125 -4.546875 3.296875 -4.765625 3.296875 -4.96875 Z M 1.625 0.390625 C 1.5 0.890625 1.109375 1.40625 0.625 1.40625 C 0.5 1.40625 0.375 1.375 0.359375 1.359375 C 0.609375 1.25 0.640625 1.03125 0.640625 0.953125 C 0.640625 0.765625 0.5 0.65625 0.328125 0.65625 C 0.109375 0.65625 -0.109375 0.859375 -0.109375 1.125 C -0.109375 1.421875 0.1875 1.625 0.640625 1.625 C 1.125 1.625 2 1.328125 2.234375 0.359375 L 2.953125 -2.484375 C 2.984375 -2.578125 3 -2.640625 3 -2.765625 C 3 -3.203125 2.640625 -3.515625 2.1875 -3.515625 C 1.34375 -3.515625 0.84375 -2.40625 0.84375 -2.296875 C 0.84375 -2.21875 0.90625 -2.1875 0.96875 -2.1875 C 1.046875 -2.1875 1.0625 -2.21875 1.109375 -2.328125 C 1.359375 -2.890625 1.765625 -3.296875 2.15625 -3.296875 C 2.328125 -3.296875 2.421875 -3.171875 2.421875 -2.921875 C 2.421875 -2.8125 2.40625 -2.6875 2.375 -2.578125 Z M 1.625 0.390625 "/>
</g>
<g id="glyph-2-0">
</g>
<g id="glyph-2-1">
<path d="M 7.875 -2.75 C 8.078125 -2.75 8.296875 -2.75 8.296875 -2.984375 C 8.296875 -3.234375 8.078125 -3.234375 7.875 -3.234375 L 1.40625 -3.234375 C 1.203125 -3.234375 0.984375 -3.234375 0.984375 -2.984375 C 0.984375 -2.75 1.203125 -2.75 1.40625 -2.75 Z M 7.875 -2.75 "/>
</g>
<g id="glyph-2-2">
<path d="M 8.0625 -3.875 C 8.21875 -3.9375 8.296875 -4.03125 8.296875 -4.140625 C 8.296875 -4.25 8.25 -4.328125 8.0625 -4.40625 L 1.46875 -7.515625 C 1.296875 -7.609375 1.25 -7.609375 1.234375 -7.609375 C 1.09375 -7.609375 0.984375 -7.5 0.984375 -7.359375 C 0.984375 -7.21875 1.09375 -7.15625 1.21875 -7.09375 L 7.5 -4.140625 L 1.25 -1.1875 C 1 -1.09375 0.984375 -0.984375 0.984375 -0.921875 C 0.984375 -0.78125 1.09375 -0.6875 1.234375 -0.6875 C 1.265625 -0.6875 1.296875 -0.6875 1.453125 -0.765625 Z M 7.875 1.640625 C 8.078125 1.640625 8.296875 1.640625 8.296875 1.40625 C 8.296875 1.15625 8.046875 1.15625 7.859375 1.15625 L 1.421875 1.15625 C 1.25 1.15625 0.984375 1.15625 0.984375 1.40625 C 0.984375 1.640625 1.203125 1.640625 1.40625 1.640625 Z M 7.875 1.640625 "/>
</g>
<g id="glyph-3-0">
</g>
<g id="glyph-3-1">
<path d="M 5.359375 -3.828125 C 5.359375 -4.8125 5.296875 -5.78125 4.859375 -6.6875 C 4.375 -7.6875 3.515625 -7.953125 2.921875 -7.953125 C 2.234375 -7.953125 1.390625 -7.609375 0.9375 -6.609375 C 0.609375 -5.859375 0.484375 -5.109375 0.484375 -3.828125 C 0.484375 -2.671875 0.578125 -1.796875 1 -0.9375 C 1.46875 -0.03125 2.296875 0.25 2.921875 0.25 C 3.953125 0.25 4.546875 -0.375 4.90625 -1.0625 C 5.328125 -1.953125 5.359375 -3.125 5.359375 -3.828125 Z M 2.921875 0.015625 C 2.53125 0.015625 1.75 -0.203125 1.53125 -1.5 C 1.40625 -2.21875 1.40625 -3.125 1.40625 -3.96875 C 1.40625 -4.953125 1.40625 -5.828125 1.59375 -6.53125 C 1.796875 -7.34375 2.40625 -7.703125 2.921875 -7.703125 C 3.375 -7.703125 4.0625 -7.4375 4.296875 -6.40625 C 4.453125 -5.71875 4.453125 -4.78125 4.453125 -3.96875 C 4.453125 -3.171875 4.453125 -2.265625 4.3125 -1.53125 C 4.09375 -0.21875 3.328125 0.015625 2.921875 0.015625 Z M 2.921875 0.015625 "/>
</g>
</g>
</defs>
<g fill="rgb(0%, 0%, 0%)" fill-opacity="1">
<use xlink:href="#glyph-0-1" x="0.5" y="8.204"/>
</g>
<g fill="rgb(0%, 0%, 0%)" fill-opacity="1">
<use xlink:href="#glyph-1-1" x="6.208" y="9.997"/>
</g>
<g fill="rgb(0%, 0%, 0%)" fill-opacity="1">
<use xlink:href="#glyph-2-1" x="12.246" y="8.204"/>
</g>
<g fill="rgb(0%, 0%, 0%)" fill-opacity="1">
<use xlink:href="#glyph-0-1" x="24.201" y="8.204"/>
</g>
<g fill="rgb(0%, 0%, 0%)" fill-opacity="1">
<use xlink:href="#glyph-1-2" x="29.908" y="9.997"/>
</g>
<g fill="rgb(0%, 0%, 0%)" fill-opacity="1">
<use xlink:href="#glyph-2-2" x="37.611" y="8.204"/>
</g>
<g fill="rgb(0%, 0%, 0%)" fill-opacity="1">
<use xlink:href="#glyph-3-1" x="50.231" y="8.204"/>
</g>
</svg>
