<?xml version="1.0" encoding="UTF-8"?>
<svg xmlns="http://www.w3.org/2000/svg" xmlns:xlink="http://www.w3.org/1999/xlink" viewBox="0 0 45.679 13.264">
<defs>
<g>
<g id="glyph-0-0">
</g>
<g id="glyph-0-1">
<path d="M 2.46875 -3.5 C 2.484375 -3.578125 2.78125 -4.171875 3.234375 -4.546875 C 3.53125 -4.84375 3.9375 -5.03125 4.40625 -5.03125 C 4.890625 -5.03125 5.0625 -4.671875 5.0625 -4.203125 C 5.0625 -3.515625 4.5625 -2.15625 4.328125 -1.5 C 4.21875 -1.21875 4.15625 -1.0625 4.15625 -0.84375 C 4.15625 -0.3125 4.53125 0.125 5.109375 0.125 C 6.21875 0.125 6.640625 -1.640625 6.640625 -1.703125 C 6.640625 -1.765625 6.59375 -1.8125 6.515625 -1.8125 C 6.40625 -1.8125 6.390625 -1.78125 6.328125 -1.578125 C 6.0625 -0.59375 5.609375 -0.125 5.140625 -0.125 C 5.015625 -0.125 4.828125 -0.125 4.828125 -0.515625 C 4.828125 -0.8125 4.953125 -1.171875 5.03125 -1.34375 C 5.265625 -2 5.765625 -3.328125 5.765625 -4.015625 C 5.765625 -4.734375 5.359375 -5.265625 4.453125 -5.265625 C 3.375 -5.265625 2.828125 -4.515625 2.609375 -4.21875 C 2.5625 -4.90625 2.078125 -5.265625 1.546875 -5.265625 C 1.171875 -5.265625 0.90625 -5.046875 0.703125 -4.640625 C 0.484375 -4.203125 0.328125 -3.484375 0.328125 -3.4375 C 0.328125 -3.390625 0.375 -3.328125 0.453125 -3.328125 C 0.546875 -3.328125 0.5625 -3.34375 0.640625 -3.625 C 0.828125 -4.34375 1.046875 -5.03125 1.515625 -5.03125 C 1.796875 -5.03125 1.890625 -4.84375 1.890625 -4.484375 C 1.890625 -4.21875 1.765625 -3.75 1.6875 -3.375 L 1.34375 -2.09375 C 1.296875 -1.859375 1.171875 -1.328125 1.109375 -1.109375 C 1.03125 -0.796875 0.890625 -0.234375 0.890625 -0.171875 C 0.890625 -0.015625 1.03125 0.125 1.203125 0.125 C 1.34375 0.125 1.515625 0.046875 1.609375 -0.125 C 1.640625 -0.1875 1.75 -0.609375 1.8125 -0.84375 L 2.0625 -1.921875 Z M 2.46875 -3.5 "/>
</g>
<g id="glyph-1-0">
</g>
<g id="glyph-1-1">
<path d="M 2.328125 -5.296875 C 2.328125 -5.3125 2.359375 -5.40625 2.359375 -5.421875 C 2.359375 -5.453125 2.328125 -5.53125 2.234375 -5.53125 C 2.203125 -5.53125 1.953125 -5.5 1.765625 -5.484375 L 1.328125 -5.453125 C 1.140625 -5.4375 1.0625 -5.4375 1.0625 -5.296875 C 1.0625 -5.171875 1.171875 -5.171875 1.28125 -5.171875 C 1.65625 -5.171875 1.65625 -5.125 1.65625 -5.0625 C 1.65625 -5.03125 1.65625 -5.015625 1.625 -4.875 L 0.484375 -0.34375 C 0.453125 -0.21875 0.453125 -0.171875 0.453125 -0.171875 C 0.453125 -0.03125 0.5625 0.078125 0.71875 0.078125 C 0.984375 0.078125 1.046875 -0.171875 1.078125 -0.28125 C 1.15625 -0.625 1.375 -1.46875 1.453125 -1.796875 C 1.890625 -1.75 2.4375 -1.609375 2.4375 -1.140625 C 2.4375 -1.109375 2.4375 -1.0625 2.421875 -0.984375 C 2.390625 -0.890625 2.375 -0.765625 2.375 -0.734375 C 2.375 -0.265625 2.71875 0.078125 3.1875 0.078125 C 3.515625 0.078125 3.734375 -0.171875 3.828125 -0.3125 C 4.03125 -0.609375 4.15625 -1.09375 4.15625 -1.140625 C 4.15625 -1.21875 4.09375 -1.25 4.03125 -1.25 C 3.9375 -1.25 3.921875 -1.1875 3.890625 -1.046875 C 3.78125 -0.671875 3.578125 -0.140625 3.203125 -0.140625 C 3 -0.140625 2.953125 -0.3125 2.953125 -0.53125 C 2.953125 -0.640625 2.953125 -0.734375 3 -0.921875 C 3 -0.953125 3.03125 -1.078125 3.03125 -1.15625 C 3.03125 -1.8125 2.21875 -1.953125 1.8125 -2.015625 C 2.109375 -2.1875 2.375 -2.46875 2.46875 -2.5625 C 2.90625 -3 3.265625 -3.296875 3.65625 -3.296875 C 3.75 -3.296875 3.84375 -3.265625 3.90625 -3.1875 C 3.484375 -3.125 3.484375 -2.75 3.484375 -2.75 C 3.484375 -2.578125 3.625 -2.453125 3.796875 -2.453125 C 4.015625 -2.453125 4.25 -2.625 4.25 -2.953125 C 4.25 -3.234375 4.0625 -3.515625 3.65625 -3.515625 C 3.203125 -3.515625 2.78125 -3.15625 2.328125 -2.703125 C 1.859375 -2.25 1.671875 -2.171875 1.53125 -2.109375 Z M 2.328125 -5.296875 "/>
</g>
<g id="glyph-2-0">
</g>
<g id="glyph-2-1">
<path d="M 8.0625 -3.875 C 8.234375 -3.875 8.453125 -3.875 8.453125 -4.09375 C 8.453125 -4.3125 8.25 -4.3125 8.0625 -4.3125 L 1.03125 -4.3125 C 0.859375 -4.3125 0.640625 -4.3125 0.640625 -4.09375 C 0.640625 -3.875 0.84375 -3.875 1.03125 -3.875 Z M 8.0625 -1.65625 C 8.234375 -1.65625 8.453125 -1.65625 8.453125 -1.859375 C 8.453125 -2.09375 8.25 -2.09375 8.0625 -2.09375 L 1.03125 -2.09375 C 0.859375 -2.09375 0.640625 -2.09375 0.640625 -1.875 C 0.640625 -1.65625 0.84375 -1.65625 1.03125 -1.65625 Z M 8.0625 -1.65625 "/>
</g>
<g id="glyph-2-2">
<path d="M 3.4375 -7.65625 C 3.4375 -7.9375 3.4375 -7.953125 3.203125 -7.953125 C 2.921875 -7.625 2.3125 -7.1875 1.09375 -7.1875 L 1.09375 -6.84375 C 1.359375 -6.84375 1.953125 -6.84375 2.625 -7.140625 L 2.625 -0.921875 C 2.625 -0.484375 2.578125 -0.34375 1.53125 -0.34375 L 1.15625 -0.34375 L 1.15625 0 C 1.484375 -0.03125 2.640625 -0.03125 3.03125 -0.03125 C 3.4375 -0.03125 4.578125 -0.03125 4.90625 0 L 4.90625 -0.34375 L 4.53125 -0.34375 C 3.484375 -0.34375 3.4375 -0.484375 3.4375 -0.921875 Z M 3.4375 -7.65625 "/>
</g>
<g id="glyph-2-3">
<path d="M 5.359375 -3.828125 C 5.359375 -4.8125 5.296875 -5.78125 4.859375 -6.6875 C 4.375 -7.6875 3.515625 -7.953125 2.921875 -7.953125 C 2.234375 -7.953125 1.390625 -7.609375 0.9375 -6.609375 C 0.609375 -5.859375 0.484375 -5.109375 0.484375 -3.828125 C 0.484375 -2.671875 0.578125 -1.796875 1 -0.9375 C 1.46875 -0.03125 2.296875 0.25 2.921875 0.25 C 3.953125 0.25 4.546875 -0.375 4.90625 -1.0625 C 5.328125 -1.953125 5.359375 -3.125 5.359375 -3.828125 Z M 2.921875 0.015625 C 2.53125 0.015625 1.75 -0.203125 1.53125 -1.5 C 1.40625 -2.21875 1.40625 -3.125 1.40625 -3.96875 C 1.40625 -4.953125 1.40625 -5.828125 1.59375 -6.53125 C 1.796875 -7.34375 2.40625 -7.703125 2.921875 -7.703125 C 3.375 -7.703125 4.0625 -7.4375 4.296875 -6.40625 C 4.453125 -5.71875 4.453125 -4.78125 4.453125 -3.96875 C 4.453125 -3.171875 4.453125 -2.265625 4.3125 -1.53125 C 4.09375 -0.21875 3.328125 0.015625 2.921875 0.015625 Z M 2.921875 0.015625 "/>
</g>
</g>
</defs>
<g fill="rgb(0%, 0%, 0%)" fill-opacity="1">
<use xlink:href="#glyph-0-1" x="0.5" y="10.971"/>
</g>
<g fill="rgb(0%, 0%, 0%)" fill-opacity="1">
<use xlink:href="#glyph-1-1" x="7.488" y="12.764"/>
</g>
<g fill="rgb(0%, 0%, 0%)" fill-opacity="1">
<use xlink:href="#glyph-2-1" x="15.928" y="10.971"/>
</g>
<g fill="rgb(0%, 0%, 0%)" fill-opacity="1">
<use xlink:href="#glyph-2-2" x="28.356626" y="10.971"/>
<use xlink:href="#glyph-2-3" x="34.209892" y="10.971"/>
</g>
<g fill="rgb(0%, 0%, 0%)" fill-opacity="1">
<use xlink:href="#glyph-1-1" x="40.06" y="6.035"/>
</g>
</svg>
