<?xml version="1.0" encoding="UTF-8"?>
<svg xmlns="http://www.w3.org/2000/svg" xmlns:xlink="http://www.w3.org/1999/xlink" viewBox="0 0 62.697 12.955">
<defs>
<g>
<g id="glyph-0-0">
</g>
<g id="glyph-0-1">
<path d="M 6.015625 -8 C 6.03125 -8.046875 6.046875 -8.109375 6.046875 -8.171875 C 6.046875 -8.296875 5.921875 -8.296875 5.90625 -8.296875 C 5.890625 -8.296875 5.3125 -8.25 5.25 -8.234375 C 5.046875 -8.21875 4.859375 -8.203125 4.65625 -8.1875 C 4.34375 -8.15625 4.265625 -8.15625 4.265625 -7.9375 C 4.265625 -7.8125 4.359375 -7.8125 4.53125 -7.8125 C 5.109375 -7.8125 5.125 -7.703125 5.125 -7.59375 C 5.125 -7.515625 5.109375 -7.421875 5.09375 -7.390625 L 4.359375 -4.484375 C 4.234375 -4.796875 3.90625 -5.265625 3.28125 -5.265625 C 1.9375 -5.265625 0.484375 -3.53125 0.484375 -1.75 C 0.484375 -0.578125 1.171875 0.125 1.984375 0.125 C 2.640625 0.125 3.203125 -0.390625 3.53125 -0.78125 C 3.65625 -0.078125 4.21875 0.125 4.578125 0.125 C 4.9375 0.125 5.21875 -0.09375 5.4375 -0.53125 C 5.625 -0.9375 5.796875 -1.65625 5.796875 -1.703125 C 5.796875 -1.765625 5.75 -1.8125 5.671875 -1.8125 C 5.5625 -1.8125 5.5625 -1.75 5.515625 -1.578125 C 5.328125 -0.875 5.109375 -0.125 4.609375 -0.125 C 4.265625 -0.125 4.25 -0.4375 4.25 -0.671875 C 4.25 -0.71875 4.25 -0.96875 4.328125 -1.296875 Z M 3.59375 -1.421875 C 3.53125 -1.21875 3.53125 -1.1875 3.375 -0.96875 C 3.109375 -0.640625 2.578125 -0.125 2.015625 -0.125 C 1.53125 -0.125 1.25 -0.5625 1.25 -1.265625 C 1.25 -1.921875 1.625 -3.265625 1.859375 -3.765625 C 2.265625 -4.609375 2.828125 -5.03125 3.28125 -5.03125 C 4.078125 -5.03125 4.234375 -4.046875 4.234375 -3.953125 C 4.234375 -3.9375 4.203125 -3.796875 4.1875 -3.765625 Z M 3.59375 -1.421875 "/>
</g>
<g id="glyph-0-2">
<path d="M 3.125 0.0625 L 1.859375 -0.4375 C 1.546875 -0.5625 0.84375 -0.84375 0.84375 -1.5625 C 0.84375 -2.59375 2.09375 -3.640625 2.34375 -3.640625 C 2.359375 -3.640625 2.46875 -3.609375 2.515625 -3.59375 C 2.828125 -3.5 3.140625 -3.5 3.359375 -3.5 C 3.734375 -3.5 4.4375 -3.5 4.4375 -3.84375 C 4.4375 -4.109375 4 -4.140625 3.484375 -4.140625 C 3.25 -4.140625 2.921875 -4.140625 2.5 -4 C 2.21875 -4.25 2.09375 -4.625 2.09375 -4.984375 C 2.09375 -5.640625 2.515625 -6.578125 3.46875 -7.015625 C 3.6875 -6.765625 3.96875 -6.765625 4.21875 -6.765625 C 4.515625 -6.765625 5.25 -6.765625 5.25 -7.109375 C 5.25 -7.40625 4.671875 -7.40625 4.296875 -7.40625 C 4.046875 -7.40625 3.875 -7.40625 3.53125 -7.34375 C 3.484375 -7.5 3.46875 -7.515625 3.46875 -7.78125 C 3.46875 -8 3.515625 -8.15625 3.515625 -8.203125 C 3.515625 -8.265625 3.453125 -8.3125 3.390625 -8.3125 C 3.203125 -8.3125 3.203125 -7.875 3.203125 -7.78125 C 3.203125 -7.609375 3.21875 -7.453125 3.28125 -7.296875 C 1.859375 -6.875 1.21875 -5.859375 1.21875 -5.078125 C 1.21875 -4.359375 1.703125 -3.96875 2.015625 -3.796875 C 0.78125 -3.125 0.265625 -1.90625 0.265625 -1.25 C 0.265625 -0.21875 1.203125 0.15625 1.640625 0.328125 L 2.71875 0.765625 C 3.015625 0.875 3.5 1.078125 3.578125 1.125 C 3.703125 1.203125 3.796875 1.34375 3.796875 1.546875 C 3.796875 1.796875 3.609375 2.203125 3.1875 2.203125 C 3.015625 2.203125 2.625 2.15625 2.1875 1.828125 C 2.109375 1.75 2.09375 1.75 2.046875 1.75 C 1.984375 1.75 1.921875 1.796875 1.921875 1.859375 C 1.921875 2 2.546875 2.4375 3.1875 2.4375 C 3.953125 2.4375 4.421875 1.703125 4.421875 1.1875 C 4.421875 0.8125 4.21875 0.515625 3.84375 0.34375 Z M 3.734375 -7.109375 C 3.9375 -7.171875 4.140625 -7.171875 4.296875 -7.171875 C 4.703125 -7.171875 4.734375 -7.15625 4.96875 -7.09375 C 4.828125 -7.046875 4.734375 -7 4.234375 -7 C 4 -7 3.859375 -7 3.734375 -7.109375 Z M 2.78125 -3.84375 C 3.078125 -3.90625 3.328125 -3.90625 3.484375 -3.90625 C 3.875 -3.90625 3.890625 -3.890625 4.15625 -3.84375 C 4.03125 -3.78125 3.921875 -3.734375 3.40625 -3.734375 C 3.125 -3.734375 3 -3.734375 2.78125 -3.84375 Z M 2.78125 -3.84375 "/>
</g>
<g id="glyph-0-3">
<path d="M 1.71875 -0.265625 C 2.015625 0.015625 2.46875 0.125 2.875 0.125 C 3.640625 0.125 4.15625 -0.390625 4.4375 -0.765625 C 4.546875 -0.125 5.0625 0.125 5.46875 0.125 C 5.828125 0.125 6.125 -0.09375 6.328125 -0.53125 C 6.53125 -0.9375 6.6875 -1.65625 6.6875 -1.703125 C 6.6875 -1.765625 6.640625 -1.8125 6.578125 -1.8125 C 6.46875 -1.8125 6.453125 -1.75 6.40625 -1.578125 C 6.234375 -0.875 6 -0.125 5.515625 -0.125 C 5.15625 -0.125 5.140625 -0.4375 5.140625 -0.671875 C 5.140625 -0.9375 5.25 -1.375 5.328125 -1.734375 L 5.671875 -3.03125 C 5.71875 -3.25 5.84375 -3.796875 5.90625 -4 C 5.96875 -4.296875 6.109375 -4.8125 6.109375 -4.859375 C 6.109375 -5.03125 5.96875 -5.15625 5.78125 -5.15625 C 5.671875 -5.15625 5.421875 -5.109375 5.328125 -4.75 L 4.5 -1.421875 C 4.4375 -1.1875 4.4375 -1.15625 4.28125 -0.96875 C 4.140625 -0.765625 3.671875 -0.125 2.921875 -0.125 C 2.25 -0.125 2.03125 -0.609375 2.03125 -1.171875 C 2.03125 -1.515625 2.140625 -1.9375 2.1875 -2.140625 L 2.71875 -4.296875 C 2.78125 -4.515625 2.875 -4.90625 2.875 -4.96875 C 2.875 -5.15625 2.71875 -5.265625 2.5625 -5.265625 C 2.46875 -5.265625 2.203125 -5.234375 2.109375 -4.859375 L 0.375 2.0625 C 0.359375 2.125 0.328125 2.203125 0.328125 2.265625 C 0.328125 2.453125 0.484375 2.5625 0.65625 2.5625 C 1 2.5625 1.078125 2.296875 1.15625 1.953125 Z M 1.71875 -0.265625 "/>
</g>
<g id="glyph-1-0">
</g>
<g id="glyph-1-1">
<path d="M 8.0625 -3.875 C 8.234375 -3.875 8.453125 -3.875 8.453125 -4.09375 C 8.453125 -4.3125 8.25 -4.3125 8.0625 -4.3125 L 1.03125 -4.3125 C 0.859375 -4.3125 0.640625 -4.3125 0.640625 -4.09375 C 0.640625 -3.875 0.84375 -3.875 1.03125 -3.875 Z M 8.0625 -1.65625 C 8.234375 -1.65625 8.453125 -1.65625 8.453125 -1.859375 C 8.453125 -2.09375 8.25 -2.09375 8.0625 -2.09375 L 1.03125 -2.09375 C 0.859375 -2.09375 0.640625 -2.09375 0.640625 -1.875 C 0.640625 -1.65625 0.84375 -1.65625 1.03125 -1.65625 Z M 8.0625 -1.65625 "/>
</g>
<g id="glyph-1-2">
<path d="M 3.890625 2.90625 C 3.890625 2.875 3.890625 2.84375 3.6875 2.640625 C 2.484375 1.4375 1.8125 -0.53125 1.8125 -2.96875 C 1.8125 -5.296875 2.375 -7.296875 3.765625 -8.703125 C 3.890625 -8.8125 3.890625 -8.828125 3.890625 -8.875 C 3.890625 -8.9375 3.828125 -8.96875 3.78125 -8.96875 C 3.625 -8.96875 2.640625 -8.109375 2.0625 -6.9375 C 1.453125 -5.71875 1.171875 -4.453125 1.171875 -2.96875 C 1.171875 -1.90625 1.34375 -0.484375 1.953125 0.78125 C 2.671875 2.21875 3.640625 3 3.78125 3 C 3.828125 3 3.890625 2.96875 3.890625 2.90625 Z M 3.890625 2.90625 "/>
</g>
<g id="glyph-1-3">
<path d="M 3.375 -2.96875 C 3.375 -3.890625 3.25 -5.359375 2.578125 -6.75 C 1.875 -8.1875 0.890625 -8.96875 0.765625 -8.96875 C 0.71875 -8.96875 0.65625 -8.9375 0.65625 -8.875 C 0.65625 -8.828125 0.65625 -8.8125 0.859375 -8.609375 C 2.0625 -7.40625 2.71875 -5.421875 2.71875 -2.984375 C 2.71875 -0.671875 2.15625 1.328125 0.78125 2.734375 C 0.65625 2.84375 0.65625 2.875 0.65625 2.90625 C 0.65625 2.96875 0.71875 3 0.765625 3 C 0.921875 3 1.90625 2.140625 2.484375 0.96875 C 3.09375 -0.25 3.375 -1.546875 3.375 -2.96875 Z M 3.375 -2.96875 "/>
</g>
<g id="glyph-2-0">
</g>
<g id="glyph-2-1">
<path d="M 3.09375 -4.828125 C 3.15625 -5.09375 3.171875 -5.171875 3.90625 -5.171875 C 4.140625 -5.171875 4.21875 -5.171875 4.21875 -5.328125 C 4.21875 -5.34375 4.203125 -5.4375 4.078125 -5.4375 C 3.90625 -5.4375 3.671875 -5.421875 3.5 -5.421875 L 2.9375 -5.421875 C 2.109375 -5.421875 1.90625 -5.4375 1.859375 -5.4375 C 1.828125 -5.4375 1.703125 -5.4375 1.703125 -5.296875 C 1.703125 -5.171875 1.796875 -5.171875 1.921875 -5.171875 C 2.1875 -5.171875 2.421875 -5.171875 2.421875 -5.046875 C 2.421875 -5.015625 2.421875 -5.015625 2.390625 -4.90625 L 1.328125 -0.625 C 1.25 -0.328125 1.234375 -0.265625 0.640625 -0.265625 C 0.5 -0.265625 0.390625 -0.265625 0.390625 -0.109375 C 0.390625 0 0.5 0 0.640625 0 L 4.484375 0 C 4.6875 0 4.6875 -0.015625 4.75 -0.15625 C 4.84375 -0.375 5.421875 -1.875 5.421875 -1.953125 C 5.421875 -2.03125 5.359375 -2.078125 5.296875 -2.078125 C 5.21875 -2.078125 5.203125 -2.015625 5.140625 -1.890625 C 4.859375 -1.15625 4.515625 -0.265625 3.078125 -0.265625 L 2.078125 -0.265625 C 2 -0.28125 1.96875 -0.28125 1.96875 -0.328125 C 1.96875 -0.390625 1.984375 -0.46875 2.015625 -0.515625 Z M 3.09375 -4.828125 "/>
</g>
</g>
<clipPath id="clip-0">
<path clip-rule="nonzero" d="M 28 1 L 41 1 L 41 12.953125 L 28 12.953125 Z M 28 1 "/>
</clipPath>
<clipPath id="clip-1">
<path clip-rule="nonzero" d="M 48 0 L 52 0 L 52 12.953125 L 48 12.953125 Z M 48 0 "/>
</clipPath>
<clipPath id="clip-2">
<path clip-rule="nonzero" d="M 58 0 L 62 0 L 62 12.953125 L 58 12.953125 Z M 58 0 "/>
</clipPath>
</defs>
<g fill="rgb(0%, 0%, 0%)" fill-opacity="1">
<use xlink:href="#glyph-0-1" x="0.5" y="9.466"/>
<use xlink:href="#glyph-0-2" x="6.582806" y="9.466"/>
</g>
<g fill="rgb(0%, 0%, 0%)" fill-opacity="1">
<use xlink:href="#glyph-1-1" x="15.594" y="9.466"/>
</g>
<g clip-path="url(#clip-0)">
<g fill="rgb(0%, 0%, 0%)" fill-opacity="1">
<use xlink:href="#glyph-0-1" x="28.019" y="9.466"/>
<use xlink:href="#glyph-0-3" x="34.101806" y="9.466"/>
</g>
</g>
<g fill="rgb(0%, 0%, 0%)" fill-opacity="1">
<use xlink:href="#glyph-2-1" x="41.145" y="11.259"/>
</g>
<g clip-path="url(#clip-1)">
<g fill="rgb(0%, 0%, 0%)" fill-opacity="1">
<use xlink:href="#glyph-1-2" x="47.402" y="9.466"/>
</g>
</g>
<g fill="rgb(0%, 0%, 0%)" fill-opacity="1">
<use xlink:href="#glyph-0-2" x="51.955" y="9.466"/>
</g>
<g clip-path="url(#clip-2)">
<g fill="rgb(0%, 0%, 0%)" fill-opacity="1">
<use xlink:href="#glyph-1-3" x="57.645" y="9.466"/>
</g>
</g>
</svg>
