<?xml version="1.0" encoding="UTF-8"?>
<svg xmlns="http://www.w3.org/2000/svg" xmlns:xlink="http://www.w3.org/1999/xlink" viewBox="0 0 31.632 11.56">
<defs>
<g>
<g id="glyph-0-0">
</g>
<g id="glyph-0-1">
<path d="M 4.515625 -1.453125 C 4.5 -2.046875 4.46875 -2.96875 4.015625 -4.046875 C 3.78125 -4.640625 3.375 -5.265625 2.5 -5.265625 C 1.03125 -5.265625 0.234375 -3.390625 0.234375 -3.078125 C 0.234375 -2.96875 0.3125 -2.96875 0.34375 -2.96875 C 0.453125 -2.96875 0.453125 -3 0.515625 -3.15625 C 0.765625 -3.890625 1.53125 -4.484375 2.359375 -4.484375 C 4.015625 -4.484375 4.25 -2.625 4.25 -1.453125 C 4.25 -0.6875 4.171875 -0.4375 4.09375 -0.203125 C 3.875 0.53125 3.484375 2.015625 3.484375 2.359375 C 3.484375 2.453125 3.515625 2.5625 3.609375 2.5625 C 3.796875 2.5625 3.890625 2.15625 4.03125 1.6875 C 4.3125 0.640625 4.390625 0.109375 4.453125 -0.375 C 4.484375 -0.65625 5.15625 -2.625 6.109375 -4.5 C 6.1875 -4.703125 6.359375 -5.015625 6.359375 -5.0625 C 6.359375 -5.0625 6.34375 -5.15625 6.234375 -5.15625 C 6.21875 -5.15625 6.15625 -5.15625 6.125 -5.109375 C 6.109375 -5.078125 5.6875 -4.265625 5.328125 -3.453125 C 5.15625 -3.046875 4.90625 -2.515625 4.515625 -1.453125 Z M 4.515625 -1.453125 "/>
</g>
<g id="glyph-1-0">
</g>
<g id="glyph-1-1">
<path d="M 6.546875 -2.75 C 6.75 -2.75 6.96875 -2.75 6.96875 -2.984375 C 6.96875 -3.234375 6.75 -3.234375 6.546875 -3.234375 L 1.484375 -3.234375 C 1.625 -4.828125 3 -5.96875 4.6875 -5.96875 L 6.546875 -5.96875 C 6.75 -5.96875 6.96875 -5.96875 6.96875 -6.21875 C 6.96875 -6.453125 6.75 -6.453125 6.546875 -6.453125 L 4.65625 -6.453125 C 2.625 -6.453125 0.984375 -4.90625 0.984375 -2.984375 C 0.984375 -1.078125 2.625 0.484375 4.65625 0.484375 L 6.546875 0.484375 C 6.75 0.484375 6.96875 0.484375 6.96875 0.234375 C 6.96875 0 6.75 0 6.546875 0 L 4.6875 0 C 3 0 1.625 -1.140625 1.484375 -2.75 Z M 6.546875 -2.75 "/>
</g>
<g id="glyph-2-0">
</g>
<g id="glyph-2-1">
<path d="M 4.9375 -4.96875 L 5.71875 -5.71875 C 7.015625 -7 7.734375 -7.703125 8.46875 -7.765625 C 8.578125 -7.78125 8.734375 -7.796875 8.734375 -7.96875 C 8.734375 -8.1875 8.5625 -8.1875 8.34375 -8.1875 L 5.828125 -8.1875 C 5.609375 -8.1875 5.421875 -8.1875 5.421875 -7.96875 C 5.421875 -7.796875 5.59375 -7.78125 5.671875 -7.765625 C 6 -7.71875 6.125 -7.4375 6.125 -7.171875 C 6.125 -6.84375 5.9375 -6.640625 5.828125 -6.53125 L 4.53125 -5.296875 C 4.25 -5.03125 3.578125 -4.34375 3.28125 -4.09375 L 3.28125 -7.09375 C 3.28125 -7.6875 3.328125 -7.765625 4.03125 -7.765625 C 4.140625 -7.765625 4.34375 -7.765625 4.34375 -7.96875 C 4.34375 -8.1875 4.15625 -8.1875 3.9375 -8.1875 L 0.6875 -8.1875 C 0.484375 -8.1875 0.28125 -8.1875 0.28125 -7.96875 C 0.28125 -7.765625 0.515625 -7.765625 0.609375 -7.765625 C 1.296875 -7.765625 1.34375 -7.671875 1.34375 -7.09375 L 1.34375 -1.09375 C 1.34375 -0.53125 1.296875 -0.421875 0.671875 -0.421875 C 0.484375 -0.421875 0.28125 -0.421875 0.28125 -0.21875 C 0.28125 0 0.484375 0 0.6875 0 L 3.9375 0 C 4.15625 0 4.34375 0 4.34375 -0.21875 C 4.34375 -0.421875 4.140625 -0.421875 4 -0.421875 C 3.328125 -0.421875 3.28125 -0.53125 3.28125 -1.09375 L 3.28125 -3.40625 L 3.625 -3.71875 L 5.734375 -1.1875 L 6.046875 -0.828125 C 6.1875 -0.65625 6.1875 -0.640625 6.234375 -0.484375 C 6.171875 -0.46875 6.140625 -0.4375 6.09375 -0.4375 C 5.8125 -0.375 5.734375 -0.375 5.734375 -0.21875 C 5.734375 0 5.921875 0 6.125 0 L 8.796875 0 C 9.015625 0 9.1875 0 9.1875 -0.21875 C 9.1875 -0.375 9.046875 -0.40625 8.96875 -0.421875 C 8.78125 -0.4375 8.734375 -0.484375 8.640625 -0.578125 C 8.53125 -0.6875 8.453125 -0.765625 8.390625 -0.84375 Z M 7.375 -7.765625 C 7 -7.5 6.984375 -7.5 6.546875 -7.109375 C 6.546875 -7.296875 6.546875 -7.515625 6.390625 -7.765625 Z M 1.65625 -0.421875 C 1.75 -0.640625 1.75 -0.9375 1.75 -1.078125 L 1.75 -7.109375 C 1.75 -7.25 1.75 -7.546875 1.65625 -7.765625 L 2.96875 -7.765625 C 2.875 -7.546875 2.875 -7.25 2.875 -7.109375 L 2.875 -1.078125 C 2.875 -0.9375 2.875 -0.640625 2.96875 -0.421875 Z M 4.640625 -4.703125 L 8.203125 -0.421875 L 6.65625 -0.421875 C 6.640625 -0.625 6.640625 -0.734375 6.328125 -1.125 C 6.078125 -1.453125 5.390625 -2.265625 5.109375 -2.578125 C 4.875 -2.875 4.046875 -3.875 3.9375 -4 Z M 4.640625 -4.703125 "/>
</g>
</g>
<clipPath id="clip-0">
<path clip-rule="nonzero" d="M 0 3 L 7 3 L 7 11.558594 L 0 11.558594 Z M 0 3 "/>
</clipPath>
<clipPath id="clip-1">
<path clip-rule="nonzero" d="M 22 0 L 31.632812 0 L 31.632812 9 L 22 9 Z M 22 0 "/>
</clipPath>
</defs>
<g clip-path="url(#clip-0)">
<g fill="rgb(0%, 0%, 0%)" fill-opacity="1">
<use xlink:href="#glyph-0-1" x="0.5" y="8.735"/>
</g>
</g>
<g fill="rgb(0%, 0%, 0%)" fill-opacity="1">
<use xlink:href="#glyph-1-1" x="10.543" y="8.735"/>
</g>
<g clip-path="url(#clip-1)">
<g fill="rgb(0%, 0%, 0%)" fill-opacity="1">
<use xlink:href="#glyph-2-1" x="21.834" y="8.735"/>
</g>
</g>
</svg>
