<?xml version="1.0" encoding="UTF-8"?>
<svg xmlns="http://www.w3.org/2000/svg" xmlns:xlink="http://www.w3.org/1999/xlink" viewBox="0 0 128.247 12.955">
<defs>
<g>
<g id="glyph-0-0">
</g>
<g id="glyph-0-1">
<path d="M 8.453125 -4.046875 C 8.453125 -6.53125 6.640625 -8.421875 4.546875 -8.421875 C 2.421875 -8.421875 0.640625 -6.5 0.640625 -4.046875 C 0.640625 -1.625 2.453125 0.25 4.546875 0.25 C 6.6875 0.25 8.453125 -1.65625 8.453125 -4.046875 Z M 4.546875 0 C 3.3125 0 1.703125 -1.125 1.703125 -4.0625 C 1.703125 -7.03125 3.328125 -8.171875 4.546875 -8.171875 C 5.828125 -8.171875 7.40625 -7 7.40625 -4.0625 C 7.40625 -1.078125 5.75 0 4.546875 0 Z M 6.734375 -4.90625 L 6.484375 -4.90625 L 6.484375 -4.5 L 2.625 -4.5 L 2.625 -4.90625 L 2.359375 -4.90625 L 2.359375 -3.28125 L 2.625 -3.28125 L 2.625 -3.6875 L 6.484375 -3.6875 L 6.484375 -3.28125 L 6.734375 -3.28125 Z M 6.734375 -4.90625 "/>
</g>
<g id="glyph-0-2">
<path d="M 8.0625 -3.875 C 8.234375 -3.875 8.453125 -3.875 8.453125 -4.09375 C 8.453125 -4.3125 8.25 -4.3125 8.0625 -4.3125 L 1.03125 -4.3125 C 0.859375 -4.3125 0.640625 -4.3125 0.640625 -4.09375 C 0.640625 -3.875 0.84375 -3.875 1.03125 -3.875 Z M 8.0625 -1.65625 C 8.234375 -1.65625 8.453125 -1.65625 8.453125 -1.859375 C 8.453125 -2.09375 8.25 -2.09375 8.0625 -2.09375 L 1.03125 -2.09375 C 0.859375 -2.09375 0.640625 -2.09375 0.640625 -1.875 C 0.640625 -1.65625 0.84375 -1.65625 1.03125 -1.65625 Z M 8.0625 -1.65625 "/>
</g>
<g id="glyph-0-3">
<path d="M 3.890625 2.90625 C 3.890625 2.875 3.890625 2.84375 3.6875 2.640625 C 2.484375 1.4375 1.8125 -0.53125 1.8125 -2.96875 C 1.8125 -5.296875 2.375 -7.296875 3.765625 -8.703125 C 3.890625 -8.8125 3.890625 -8.828125 3.890625 -8.875 C 3.890625 -8.9375 3.828125 -8.96875 3.78125 -8.96875 C 3.625 -8.96875 2.640625 -8.109375 2.0625 -6.9375 C 1.453125 -5.71875 1.171875 -4.453125 1.171875 -2.96875 C 1.171875 -1.90625 1.34375 -0.484375 1.953125 0.78125 C 2.671875 2.21875 3.640625 3 3.78125 3 C 3.828125 3 3.890625 2.96875 3.890625 2.90625 Z M 3.890625 2.90625 "/>
</g>
<g id="glyph-0-4">
<path d="M 3.375 -2.96875 C 3.375 -3.890625 3.25 -5.359375 2.578125 -6.75 C 1.875 -8.1875 0.890625 -8.96875 0.765625 -8.96875 C 0.71875 -8.96875 0.65625 -8.9375 0.65625 -8.875 C 0.65625 -8.828125 0.65625 -8.8125 0.859375 -8.609375 C 2.0625 -7.40625 2.71875 -5.421875 2.71875 -2.984375 C 2.71875 -0.671875 2.15625 1.328125 0.78125 2.734375 C 0.65625 2.84375 0.65625 2.875 0.65625 2.90625 C 0.65625 2.96875 0.71875 3 0.765625 3 C 0.921875 3 1.90625 2.140625 2.484375 0.96875 C 3.09375 -0.25 3.375 -1.546875 3.375 -2.96875 Z M 3.375 -2.96875 "/>
</g>
<g id="glyph-0-5">
<path d="M 7.90625 -1.859375 L 7.65625 -1.859375 C 7.59375 -1.546875 7.53125 -1.25 7.4375 -0.984375 C 7.375 -0.796875 7.34375 -0.703125 6.640625 -0.703125 L 5.703125 -0.703125 C 5.84375 -1.375 6.1875 -1.953125 6.6875 -2.6875 C 7.25 -3.5625 7.796875 -4.4375 7.796875 -5.421875 C 7.796875 -7.078125 6.21875 -8.421875 4.21875 -8.421875 C 2.21875 -8.421875 0.640625 -7.0625 0.640625 -5.421875 C 0.640625 -4.453125 1.1875 -3.578125 1.75 -2.71875 C 2.25 -1.9375 2.609375 -1.375 2.734375 -0.703125 L 1.796875 -0.703125 C 1.09375 -0.703125 1.0625 -0.796875 1 -0.984375 C 0.90625 -1.234375 0.84375 -1.578125 0.78125 -1.859375 L 0.53125 -1.859375 L 0.90625 0 L 2.765625 0 C 3.03125 0 3.046875 0 3.046875 -0.21875 C 3.046875 -1.0625 2.671875 -2.109375 2.421875 -2.71875 C 2.078125 -3.65625 1.75 -4.53125 1.75 -5.4375 C 1.75 -7.28125 3.03125 -8.171875 4.21875 -8.171875 C 5.40625 -8.171875 6.6875 -7.28125 6.6875 -5.4375 C 6.6875 -4.53125 6.34375 -3.640625 6.015625 -2.75 C 5.8125 -2.171875 5.390625 -1.078125 5.390625 -0.234375 C 5.390625 0 5.421875 0 5.6875 0 L 7.53125 0 Z M 7.90625 -1.859375 "/>
</g>
<g id="glyph-0-6">
<path d="M 2.203125 -4.578125 C 2.203125 -4.90625 1.921875 -5.15625 1.625 -5.15625 C 1.28125 -5.15625 1.046875 -4.875 1.046875 -4.578125 C 1.046875 -4.21875 1.34375 -4 1.609375 -4 C 1.9375 -4 2.203125 -4.25 2.203125 -4.578125 Z M 2.203125 -0.578125 C 2.203125 -0.90625 1.921875 -1.15625 1.625 -1.15625 C 1.28125 -1.15625 1.046875 -0.890625 1.046875 -0.578125 C 1.046875 -0.234375 1.34375 0 1.609375 0 C 1.9375 0 2.203125 -0.25 2.203125 -0.578125 Z M 2.203125 -0.578125 "/>
</g>
<g id="glyph-0-7">
<path d="M 4.3125 -8.28125 C 4.25 -8.515625 4.1875 -8.53125 4.046875 -8.53125 C 3.9375 -8.53125 3.875 -8.515625 3.8125 -8.3125 L 1.5 -1.140625 C 1.265625 -0.453125 0.78125 -0.359375 0.375 -0.34375 L 0.375 0 C 0.890625 -0.03125 0.90625 -0.03125 1.421875 -0.03125 C 1.75 -0.03125 2.328125 -0.03125 2.625 0 L 2.625 -0.34375 C 2.015625 -0.359375 1.796875 -0.6875 1.796875 -0.953125 C 1.796875 -1 1.796875 -1.046875 1.859375 -1.21875 L 3.71875 -6.96875 L 5.671875 -0.921875 C 5.734375 -0.75 5.734375 -0.734375 5.734375 -0.703125 C 5.734375 -0.34375 5.109375 -0.34375 4.8125 -0.34375 L 4.8125 0 C 5.09375 -0.03125 6.015625 -0.03125 6.34375 -0.03125 C 6.6875 -0.03125 7.4375 -0.03125 7.75 0 L 7.75 -0.34375 C 7.09375 -0.34375 6.875 -0.34375 6.734375 -0.796875 Z M 4.3125 -8.28125 "/>
</g>
<g id="glyph-1-0">
</g>
<g id="glyph-1-1">
<path d="M 3.375 -7.375 C 3.375 -7.859375 3.6875 -8.625 5 -8.703125 C 5.0625 -8.71875 5.109375 -8.765625 5.109375 -8.828125 C 5.109375 -8.96875 5.015625 -8.96875 4.875 -8.96875 C 3.6875 -8.96875 2.59375 -8.359375 2.578125 -7.46875 L 2.578125 -4.75 C 2.578125 -4.28125 2.578125 -3.890625 2.109375 -3.5 C 1.6875 -3.15625 1.234375 -3.125 0.96875 -3.125 C 0.90625 -3.109375 0.859375 -3.0625 0.859375 -2.984375 C 0.859375 -2.875 0.9375 -2.875 1.046875 -2.859375 C 1.84375 -2.8125 2.421875 -2.375 2.546875 -1.796875 C 2.578125 -1.65625 2.578125 -1.640625 2.578125 -1.203125 L 2.578125 1.15625 C 2.578125 1.65625 2.578125 2.046875 3.15625 2.5 C 3.625 2.859375 4.40625 2.984375 4.875 2.984375 C 5.015625 2.984375 5.109375 2.984375 5.109375 2.859375 C 5.109375 2.734375 5.03125 2.734375 4.90625 2.71875 C 4.15625 2.671875 3.578125 2.296875 3.421875 1.6875 C 3.375 1.578125 3.375 1.546875 3.375 1.125 L 3.375 -1.390625 C 3.375 -1.9375 3.28125 -2.140625 2.90625 -2.515625 C 2.65625 -2.765625 2.3125 -2.890625 1.96875 -2.984375 C 2.953125 -3.265625 3.375 -3.8125 3.375 -4.5 Z M 3.375 -7.375 "/>
</g>
<g id="glyph-1-2">
<path d="M 7.875 -7.125 C 8.078125 -7.125 8.296875 -7.125 8.296875 -7.359375 C 8.296875 -7.609375 8.078125 -7.609375 7.875 -7.609375 L 4.65625 -7.609375 C 2.609375 -7.609375 0.984375 -6.03125 0.984375 -4.140625 C 0.984375 -2.21875 2.640625 -0.6875 4.65625 -0.6875 L 7.875 -0.6875 C 8.078125 -0.6875 8.296875 -0.6875 8.296875 -0.921875 C 8.296875 -1.15625 8.078125 -1.15625 7.875 -1.15625 L 4.6875 -1.15625 C 2.796875 -1.15625 1.46875 -2.5625 1.46875 -4.140625 C 1.46875 -5.765625 2.828125 -7.125 4.6875 -7.125 Z M 1.65625 1.15625 C 1.453125 1.15625 1.234375 1.15625 1.234375 1.40625 C 1.234375 1.640625 1.453125 1.640625 1.65625 1.640625 L 7.875 1.640625 C 8.078125 1.640625 8.296875 1.640625 8.296875 1.40625 C 8.296875 1.15625 8.078125 1.15625 7.875 1.15625 Z M 1.65625 1.15625 "/>
</g>
<g id="glyph-1-3">
<path d="M 6.546875 -2.75 C 6.75 -2.75 6.96875 -2.75 6.96875 -2.984375 C 6.96875 -3.234375 6.75 -3.234375 6.546875 -3.234375 L 1.484375 -3.234375 C 1.625 -4.828125 3 -5.96875 4.6875 -5.96875 L 6.546875 -5.96875 C 6.75 -5.96875 6.96875 -5.96875 6.96875 -6.21875 C 6.96875 -6.453125 6.75 -6.453125 6.546875 -6.453125 L 4.65625 -6.453125 C 2.625 -6.453125 0.984375 -4.90625 0.984375 -2.984375 C 0.984375 -1.078125 2.625 0.484375 4.65625 0.484375 L 6.546875 0.484375 C 6.75 0.484375 6.96875 0.484375 6.96875 0.234375 C 6.96875 0 6.75 0 6.546875 0 L 4.6875 0 C 3 0 1.625 -1.140625 1.484375 -2.75 Z M 6.546875 -2.75 "/>
</g>
<g id="glyph-1-4">
<path d="M 2.578125 1.40625 C 2.578125 1.875 2.265625 2.640625 0.96875 2.71875 C 0.90625 2.734375 0.859375 2.78125 0.859375 2.859375 C 0.859375 2.984375 0.984375 2.984375 1.09375 2.984375 C 2.265625 2.984375 3.375 2.40625 3.375 1.5 L 3.375 -1.234375 C 3.375 -1.703125 3.375 -2.078125 3.859375 -2.46875 C 4.28125 -2.828125 4.734375 -2.84375 5 -2.859375 C 5.0625 -2.875 5.109375 -2.921875 5.109375 -2.984375 C 5.109375 -3.109375 5.03125 -3.109375 4.90625 -3.125 C 4.125 -3.171875 3.546875 -3.59375 3.421875 -4.1875 C 3.375 -4.3125 3.375 -4.34375 3.375 -4.765625 L 3.375 -7.140625 C 3.375 -7.640625 3.375 -8.015625 2.8125 -8.46875 C 2.328125 -8.84375 1.5 -8.96875 1.09375 -8.96875 C 0.984375 -8.96875 0.859375 -8.96875 0.859375 -8.828125 C 0.859375 -8.71875 0.9375 -8.71875 1.046875 -8.703125 C 1.8125 -8.65625 2.390625 -8.265625 2.546875 -7.65625 C 2.578125 -7.546875 2.578125 -7.53125 2.578125 -7.09375 L 2.578125 -4.59375 C 2.578125 -4.046875 2.671875 -3.84375 3.0625 -3.453125 C 3.3125 -3.203125 3.65625 -3.078125 4 -2.984375 C 3.015625 -2.71875 2.578125 -2.15625 2.578125 -1.46875 Z M 2.578125 1.40625 "/>
</g>
<g id="glyph-2-0">
</g>
<g id="glyph-2-1">
<path d="M 5.671875 -4.859375 L 4.546875 -7.46875 C 4.703125 -7.75 5.0625 -7.8125 5.21875 -7.8125 C 5.28125 -7.8125 5.421875 -7.828125 5.421875 -8.03125 C 5.421875 -8.15625 5.3125 -8.15625 5.234375 -8.15625 C 5.03125 -8.15625 4.796875 -8.140625 4.59375 -8.140625 L 3.890625 -8.140625 C 3.171875 -8.140625 2.640625 -8.15625 2.625 -8.15625 C 2.53125 -8.15625 2.421875 -8.15625 2.421875 -7.9375 C 2.421875 -7.8125 2.515625 -7.8125 2.671875 -7.8125 C 3.375 -7.8125 3.421875 -7.703125 3.53125 -7.40625 L 4.953125 -4.09375 L 2.359375 -1.3125 C 1.9375 -0.84375 1.421875 -0.390625 0.53125 -0.34375 C 0.390625 -0.328125 0.296875 -0.328125 0.296875 -0.125 C 0.296875 -0.078125 0.3125 0 0.4375 0 C 0.609375 0 0.78125 -0.03125 0.953125 -0.03125 L 1.515625 -0.03125 C 1.90625 -0.03125 2.3125 0 2.6875 0 C 2.765625 0 2.921875 0 2.921875 -0.21875 C 2.921875 -0.328125 2.828125 -0.34375 2.765625 -0.34375 C 2.515625 -0.375 2.359375 -0.5 2.359375 -0.6875 C 2.359375 -0.890625 2.515625 -1.046875 2.859375 -1.40625 L 3.921875 -2.5625 C 4.1875 -2.828125 4.8125 -3.53125 5.078125 -3.796875 L 6.328125 -0.84375 C 6.34375 -0.828125 6.390625 -0.703125 6.390625 -0.6875 C 6.390625 -0.578125 6.125 -0.375 5.75 -0.34375 C 5.671875 -0.34375 5.546875 -0.328125 5.546875 -0.125 C 5.546875 0 5.671875 0 5.71875 0 C 5.921875 0 6.171875 -0.03125 6.375 -0.03125 L 7.6875 -0.03125 C 7.90625 -0.03125 8.125 0 8.328125 0 C 8.421875 0 8.546875 0 8.546875 -0.234375 C 8.546875 -0.34375 8.421875 -0.34375 8.3125 -0.34375 C 7.609375 -0.359375 7.578125 -0.421875 7.375 -0.859375 L 5.796875 -4.5625 L 7.3125 -6.1875 C 7.4375 -6.3125 7.703125 -6.609375 7.8125 -6.734375 C 8.328125 -7.265625 8.8125 -7.75 9.78125 -7.8125 C 9.890625 -7.828125 10.015625 -7.828125 10.015625 -8.03125 C 10.015625 -8.15625 9.90625 -8.15625 9.859375 -8.15625 C 9.6875 -8.15625 9.515625 -8.140625 9.34375 -8.140625 L 8.796875 -8.140625 C 8.421875 -8.140625 8 -8.15625 7.625 -8.15625 C 7.546875 -8.15625 7.40625 -8.15625 7.40625 -7.953125 C 7.40625 -7.828125 7.484375 -7.8125 7.546875 -7.8125 C 7.75 -7.796875 7.953125 -7.703125 7.953125 -7.46875 L 7.9375 -7.453125 C 7.921875 -7.359375 7.90625 -7.25 7.765625 -7.09375 Z M 5.671875 -4.859375 "/>
</g>
<g id="glyph-2-2">
<path d="M 3.6875 -7.453125 C 3.390625 -8.296875 2.453125 -8.296875 2.296875 -8.296875 C 2.21875 -8.296875 2.09375 -8.296875 2.09375 -8.171875 C 2.09375 -8.078125 2.15625 -8.0625 2.21875 -8.0625 C 2.40625 -8.03125 2.546875 -8.015625 2.734375 -7.65625 C 2.859375 -7.4375 4.09375 -3.859375 4.09375 -3.84375 C 4.09375 -3.828125 4.078125 -3.8125 3.984375 -3.71875 L 0.875 -0.578125 C 0.734375 -0.4375 0.640625 -0.328125 0.640625 -0.171875 C 0.640625 -0.015625 0.78125 0.125 0.96875 0.125 C 1.015625 0.125 1.140625 0.109375 1.21875 0.03125 C 1.40625 -0.140625 3.125 -2.234375 4.203125 -3.53125 C 4.515625 -2.59375 4.90625 -1.5 5.265625 -0.484375 C 5.328125 -0.3125 5.390625 -0.140625 5.5625 0.015625 C 5.671875 0.125 5.703125 0.125 6.03125 0.125 L 6.265625 0.125 C 6.3125 0.125 6.390625 0.125 6.390625 0.03125 C 6.390625 -0.03125 6.390625 -0.03125 6.328125 -0.078125 C 6.234375 -0.21875 6.140625 -0.4375 6.09375 -0.578125 Z M 3.6875 -7.453125 "/>
</g>
</g>
<clipPath id="clip-0">
<path clip-rule="nonzero" d="M 26 0 L 31 0 L 31 12.953125 L 26 12.953125 Z M 26 0 "/>
</clipPath>
<clipPath id="clip-1">
<path clip-rule="nonzero" d="M 43 0 L 46 0 L 46 12.953125 L 43 12.953125 Z M 43 0 "/>
</clipPath>
<clipPath id="clip-2">
<path clip-rule="nonzero" d="M 54 0 L 57 0 L 57 12.953125 L 54 12.953125 Z M 54 0 "/>
</clipPath>
<clipPath id="clip-3">
<path clip-rule="nonzero" d="M 122 0 L 127 0 L 127 12.953125 L 122 12.953125 Z M 122 0 "/>
</clipPath>
</defs>
<g fill="rgb(0%, 0%, 0%)" fill-opacity="1">
<use xlink:href="#glyph-0-1" x="0.5" y="9.466"/>
</g>
<g fill="rgb(0%, 0%, 0%)" fill-opacity="1">
<use xlink:href="#glyph-0-2" x="12.928626" y="9.466"/>
</g>
<g clip-path="url(#clip-0)">
<g fill="rgb(0%, 0%, 0%)" fill-opacity="1">
<use xlink:href="#glyph-1-1" x="25.351" y="9.466"/>
</g>
</g>
<g fill="rgb(0%, 0%, 0%)" fill-opacity="1">
<use xlink:href="#glyph-2-1" x="31.329" y="9.466"/>
</g>
<g clip-path="url(#clip-1)">
<g fill="rgb(0%, 0%, 0%)" fill-opacity="1">
<use xlink:href="#glyph-0-3" x="41.984" y="9.466"/>
</g>
</g>
<g fill="rgb(0%, 0%, 0%)" fill-opacity="1">
<use xlink:href="#glyph-2-2" x="46.536" y="9.466"/>
</g>
<g clip-path="url(#clip-2)">
<g fill="rgb(0%, 0%, 0%)" fill-opacity="1">
<use xlink:href="#glyph-0-4" x="53.364" y="9.466"/>
</g>
</g>
<g fill="rgb(0%, 0%, 0%)" fill-opacity="1">
<use xlink:href="#glyph-1-2" x="61.238" y="9.466"/>
</g>
<g fill="rgb(0%, 0%, 0%)" fill-opacity="1">
<use xlink:href="#glyph-0-5" x="73.857" y="9.466"/>
</g>
<g fill="rgb(0%, 0%, 0%)" fill-opacity="1">
<use xlink:href="#glyph-0-6" x="85.635263" y="9.466"/>
</g>
<g fill="rgb(0%, 0%, 0%)" fill-opacity="1">
<use xlink:href="#glyph-2-2" x="92.205" y="9.466"/>
</g>
<g fill="rgb(0%, 0%, 0%)" fill-opacity="1">
<use xlink:href="#glyph-1-3" x="102.354" y="9.466"/>
</g>
<g fill="rgb(0%, 0%, 0%)" fill-opacity="1">
<use xlink:href="#glyph-0-7" x="113.645" y="9.466"/>
</g>
<g clip-path="url(#clip-3)">
<g fill="rgb(0%, 0%, 0%)" fill-opacity="1">
<use xlink:href="#glyph-1-4" x="121.77" y="9.466"/>
</g>
</g>
</svg>
