<?xml version="1.0" encoding="UTF-8"?>
<svg xmlns="http://www.w3.org/2000/svg" xmlns:xlink="http://www.w3.org/1999/xlink" viewBox="0 0 10.105 9.169">
<defs>
<g>
<g id="glyph-0-0">
</g>
<g id="glyph-0-1">
<path d="M 8.453125 -4.046875 C 8.453125 -6.53125 6.640625 -8.421875 4.546875 -8.421875 C 2.421875 -8.421875 0.640625 -6.5 0.640625 -4.046875 C 0.640625 -1.625 2.453125 0.25 4.546875 0.25 C 6.6875 0.25 8.453125 -1.65625 8.453125 -4.046875 Z M 4.546875 0 C 3.3125 0 1.703125 -1.125 1.703125 -4.0625 C 1.703125 -7.03125 3.328125 -8.171875 4.546875 -8.171875 C 5.828125 -8.171875 7.40625 -7 7.40625 -4.0625 C 7.40625 -1.078125 5.75 0 4.546875 0 Z M 6.734375 -4.90625 L 6.484375 -4.90625 L 6.484375 -4.5 L 2.625 -4.5 L 2.625 -4.90625 L 2.359375 -4.90625 L 2.359375 -3.28125 L 2.625 -3.28125 L 2.625 -3.6875 L 6.484375 -3.6875 L 6.484375 -3.28125 L 6.734375 -3.28125 Z M 6.734375 -4.90625 "/>
</g>
</g>
</defs>
<g fill="rgb(0%, 0%, 0%)" fill-opacity="1">
<use xlink:href="#glyph-0-1" x="0.5" y="8.669"/>
</g>
</svg>
