<?xml version="1.0" encoding="UTF-8"?>
<svg xmlns="http://www.w3.org/2000/svg" xmlns:xlink="http://www.w3.org/1999/xlink" viewBox="0 0 34.644 9.621">
<defs>
<g>
<g id="glyph-0-0">
</g>
<g id="glyph-0-1">
<path d="M 5.9375 -4.25 C 6.15625 -5.171875 6.1875 -5.671875 6.1875 -6.078125 C 6.1875 -6.90625 6 -8.421875 4.90625 -8.421875 C 3.9375 -8.421875 3.1875 -7.125 3.1875 -6.234375 C 3.1875 -5.0625 4.375 -4.484375 5.109375 -4.25 C 4.796875 -2.90625 4.546875 -2.21875 4.203125 -1.53125 C 3.703125 -0.5625 3.296875 -0.125 2.828125 -0.125 C 1.953125 -0.125 1.953125 -0.84375 1.953125 -1.078125 C 1.953125 -1.34375 2.015625 -1.640625 2.109375 -2.0625 C 2.171875 -2.359375 2.25 -2.625 2.328125 -2.96875 C 2.4375 -3.375 2.375 -3.125 2.46875 -3.546875 C 2.53125 -3.765625 2.59375 -4 2.59375 -4.203125 C 2.59375 -4.921875 2.046875 -5.265625 1.546875 -5.265625 C 1.203125 -5.265625 0.9375 -5.109375 0.703125 -4.65625 C 0.484375 -4.21875 0.328125 -3.484375 0.328125 -3.4375 C 0.328125 -3.390625 0.375 -3.328125 0.453125 -3.328125 C 0.546875 -3.328125 0.5625 -3.34375 0.640625 -3.625 C 0.8125 -4.328125 1.046875 -5.03125 1.515625 -5.03125 C 1.796875 -5.03125 1.890625 -4.84375 1.890625 -4.484375 C 1.890625 -4.21875 1.84375 -4.046875 1.75 -3.703125 C 1.703125 -3.4375 1.59375 -3.03125 1.546875 -2.828125 L 1.328125 -1.953125 C 1.234375 -1.546875 1.234375 -1.375 1.234375 -1.21875 C 1.234375 -1.046875 1.234375 -0.515625 1.65625 -0.171875 C 2.0625 0.109375 2.59375 0.125 2.78125 0.125 C 4.15625 0.125 5.40625 -2.15625 5.875 -4.015625 C 6.15625 -3.953125 6.375 -3.90625 6.4375 -3.90625 C 6.5 -3.90625 6.53125 -4 6.53125 -4.046875 C 6.53125 -4.125 6.453125 -4.140625 6.28125 -4.171875 Z M 5.171875 -4.484375 C 4.0625 -4.859375 3.453125 -5.453125 3.453125 -6.25 C 3.453125 -7.03125 4.09375 -8.171875 4.890625 -8.171875 C 5.46875 -8.171875 5.515625 -7.421875 5.515625 -6.75 C 5.515625 -6.0625 5.390625 -5.4375 5.171875 -4.484375 Z M 5.171875 -4.484375 "/>
</g>
<g id="glyph-0-2">
<path d="M 7.875 -2.71875 C 8.109375 -2.828125 8.109375 -2.90625 8.109375 -2.984375 C 8.109375 -3.0625 8.09375 -3.140625 7.875 -3.234375 L 1.40625 -6.21875 C 1.25 -6.28125 1.234375 -6.296875 1.203125 -6.296875 C 1.0625 -6.296875 0.984375 -6.1875 0.984375 -6.078125 C 0.984375 -5.9375 1.078125 -5.890625 1.234375 -5.828125 L 7.375 -2.984375 L 1.21875 -0.140625 C 0.984375 -0.03125 0.984375 0.046875 0.984375 0.125 C 0.984375 0.21875 1.0625 0.328125 1.203125 0.328125 C 1.234375 0.328125 1.25 0.328125 1.40625 0.25 Z M 7.875 -2.71875 "/>
</g>
<g id="glyph-1-0">
</g>
<g id="glyph-1-1">
<path d="M 5.359375 -3.828125 C 5.359375 -4.8125 5.296875 -5.78125 4.859375 -6.6875 C 4.375 -7.6875 3.515625 -7.953125 2.921875 -7.953125 C 2.234375 -7.953125 1.390625 -7.609375 0.9375 -6.609375 C 0.609375 -5.859375 0.484375 -5.109375 0.484375 -3.828125 C 0.484375 -2.671875 0.578125 -1.796875 1 -0.9375 C 1.46875 -0.03125 2.296875 0.25 2.921875 0.25 C 3.953125 0.25 4.546875 -0.375 4.90625 -1.0625 C 5.328125 -1.953125 5.359375 -3.125 5.359375 -3.828125 Z M 2.921875 0.015625 C 2.53125 0.015625 1.75 -0.203125 1.53125 -1.5 C 1.40625 -2.21875 1.40625 -3.125 1.40625 -3.96875 C 1.40625 -4.953125 1.40625 -5.828125 1.59375 -6.53125 C 1.796875 -7.34375 2.40625 -7.703125 2.921875 -7.703125 C 3.375 -7.703125 4.0625 -7.4375 4.296875 -6.40625 C 4.453125 -5.71875 4.453125 -4.78125 4.453125 -3.96875 C 4.453125 -3.171875 4.453125 -2.265625 4.3125 -1.53125 C 4.09375 -0.21875 3.328125 0.015625 2.921875 0.015625 Z M 2.921875 0.015625 "/>
</g>
</g>
<clipPath id="clip-0">
<path clip-rule="nonzero" d="M 14 2 L 22 2 L 22 9.621094 L 14 9.621094 Z M 14 2 "/>
</clipPath>
<clipPath id="clip-1">
<path clip-rule="nonzero" d="M 28 0 L 34 0 L 34 9.621094 L 28 9.621094 Z M 28 0 "/>
</clipPath>
</defs>
<g fill="rgb(0%, 0%, 0%)" fill-opacity="1">
<use xlink:href="#glyph-0-1" x="0.5" y="8.802"/>
</g>
<g clip-path="url(#clip-0)">
<g fill="rgb(0%, 0%, 0%)" fill-opacity="1">
<use xlink:href="#glyph-0-2" x="13.29326" y="8.802"/>
</g>
</g>
<g clip-path="url(#clip-1)">
<g fill="rgb(0%, 0%, 0%)" fill-opacity="1">
<use xlink:href="#glyph-1-1" x="28.291" y="8.802"/>
</g>
</g>
</svg>
