<?xml version="1.0" encoding="UTF-8"?>
<svg xmlns="http://www.w3.org/2000/svg" xmlns:xlink="http://www.w3.org/1999/xlink" viewBox="0 0 40.316 12.955">
<defs>
<g>
<g id="glyph-0-0">
</g>
<g id="glyph-0-1">
<path d="M 1.90625 -8.53125 C 1.90625 -8.75 1.90625 -8.96875 1.65625 -8.96875 C 1.421875 -8.96875 1.421875 -8.75 1.421875 -8.53125 L 1.421875 2.5625 C 1.421875 2.765625 1.421875 2.984375 1.65625 2.984375 C 1.90625 2.984375 1.90625 2.765625 1.90625 2.5625 Z M 1.90625 -8.53125 "/>
</g>
<g id="glyph-0-2">
<path d="M 8.0625 -7.09375 C 8.203125 -7.15625 8.296875 -7.21875 8.296875 -7.359375 C 8.296875 -7.5 8.203125 -7.609375 8.0625 -7.609375 C 8 -7.609375 7.890625 -7.546875 7.84375 -7.53125 L 1.234375 -4.40625 C 1.03125 -4.3125 0.984375 -4.234375 0.984375 -4.140625 C 0.984375 -4.03125 1.0625 -3.9375 1.234375 -3.875 L 7.84375 -0.765625 C 8 -0.6875 8.015625 -0.6875 8.0625 -0.6875 C 8.1875 -0.6875 8.296875 -0.78125 8.296875 -0.921875 C 8.296875 -1.03125 8.25 -1.09375 8.046875 -1.1875 L 1.796875 -4.140625 Z M 7.875 1.640625 C 8.078125 1.640625 8.296875 1.640625 8.296875 1.40625 C 8.296875 1.15625 8.046875 1.15625 7.859375 1.15625 L 1.421875 1.15625 C 1.25 1.15625 0.984375 1.15625 0.984375 1.40625 C 0.984375 1.640625 1.203125 1.640625 1.40625 1.640625 Z M 7.875 1.640625 "/>
</g>
<g id="glyph-1-0">
</g>
<g id="glyph-1-1">
<path d="M 3.359375 -8 C 3.375 -8.046875 3.390625 -8.109375 3.390625 -8.171875 C 3.390625 -8.296875 3.28125 -8.296875 3.25 -8.296875 C 3.234375 -8.296875 2.65625 -8.25 2.59375 -8.234375 C 2.390625 -8.21875 2.21875 -8.203125 2 -8.1875 C 1.703125 -8.15625 1.609375 -8.15625 1.609375 -7.9375 C 1.609375 -7.8125 1.703125 -7.8125 1.875 -7.8125 C 2.46875 -7.8125 2.46875 -7.703125 2.46875 -7.59375 C 2.46875 -7.515625 2.453125 -7.421875 2.4375 -7.390625 L 0.703125 -0.46875 C 0.65625 -0.28125 0.65625 -0.265625 0.65625 -0.1875 C 0.65625 0.078125 0.859375 0.125 0.984375 0.125 C 1.1875 0.125 1.34375 -0.03125 1.40625 -0.171875 L 1.9375 -2.328125 C 2 -2.59375 2.0625 -2.84375 2.125 -3.109375 C 2.265625 -3.609375 2.265625 -3.625 2.484375 -3.96875 C 2.71875 -4.3125 3.25 -5.03125 4.171875 -5.03125 C 4.65625 -5.03125 4.8125 -4.671875 4.8125 -4.203125 C 4.8125 -3.53125 4.34375 -2.21875 4.09375 -1.5 C 3.984375 -1.21875 3.921875 -1.0625 3.921875 -0.84375 C 3.921875 -0.3125 4.296875 0.125 4.859375 0.125 C 5.96875 0.125 6.390625 -1.640625 6.390625 -1.703125 C 6.390625 -1.765625 6.34375 -1.8125 6.28125 -1.8125 C 6.171875 -1.8125 6.15625 -1.78125 6.09375 -1.578125 C 5.828125 -0.625 5.375 -0.125 4.90625 -0.125 C 4.78125 -0.125 4.59375 -0.125 4.59375 -0.515625 C 4.59375 -0.828125 4.734375 -1.203125 4.78125 -1.34375 C 5 -1.90625 5.53125 -3.328125 5.53125 -4.015625 C 5.53125 -4.734375 5.109375 -5.265625 4.203125 -5.265625 C 3.53125 -5.265625 2.921875 -4.953125 2.4375 -4.328125 Z M 3.359375 -8 "/>
</g>
<g id="glyph-1-2">
<path d="M 2.234375 -5.15625 C 1.953125 -5.15625 1.546875 -5.15625 1 -4.5625 C 0.6875 -4.21875 0.3125 -3.578125 0.3125 -3.515625 C 0.3125 -3.4375 0.375 -3.421875 0.4375 -3.421875 C 0.53125 -3.421875 0.53125 -3.4375 0.59375 -3.53125 C 0.71875 -3.734375 0.9375 -4.046875 1.34375 -4.296875 C 1.671875 -4.5 1.796875 -4.5 2.5625 -4.5 C 2.21875 -4.046875 1.296875 -2.84375 1.296875 -1.21875 C 1.296875 -0.484375 1.546875 0.125 2.3125 0.125 C 3.34375 0.125 4.28125 -0.75 4.859375 -1.90625 L 4.875 -1.890625 C 4.859375 -1.78125 4.859375 -1.609375 4.859375 -1.453125 C 4.859375 -0.59375 5.125 0.125 6.0625 0.125 C 7.75 0.125 8.8125 -2.390625 8.8125 -3.609375 C 8.8125 -3.90625 8.765625 -4.21875 8.671875 -4.5 C 8.875 -4.5 9.203125 -4.5 9.28125 -4.53125 C 9.421875 -4.578125 9.53125 -4.71875 9.53125 -4.890625 C 9.53125 -5.15625 9.3125 -5.15625 9.09375 -5.15625 Z M 8.40625 -4.5 C 8.5 -4.234375 8.546875 -3.84375 8.546875 -3.609375 C 8.546875 -2.296875 7.484375 -0.53125 6.171875 -0.53125 C 5.53125 -0.53125 5.203125 -0.9375 5.203125 -1.890625 C 5.203125 -2.3125 5.28125 -2.828125 5.34375 -3.0625 C 5.421875 -3.359375 5.421875 -3.375 5.421875 -3.390625 C 5.421875 -3.4375 5.359375 -3.5 5.28125 -3.5 C 5.1875 -3.5 5.15625 -3.4375 5.140625 -3.375 C 4.53125 -1.265625 3.28125 -0.53125 2.421875 -0.53125 C 1.703125 -0.53125 1.609375 -1.234375 1.609375 -1.609375 C 1.609375 -2.125 1.78125 -3.171875 2.890625 -4.5 Z M 8.40625 -4.5 "/>
</g>
</g>
<clipPath id="clip-0">
<path clip-rule="nonzero" d="M 1 0 L 3 0 L 3 12.953125 L 1 12.953125 Z M 1 0 "/>
</clipPath>
<clipPath id="clip-1">
<path clip-rule="nonzero" d="M 11 0 L 13 0 L 13 12.953125 L 11 12.953125 Z M 11 0 "/>
</clipPath>
</defs>
<g clip-path="url(#clip-0)">
<g fill="rgb(0%, 0%, 0%)" fill-opacity="1">
<use xlink:href="#glyph-0-1" x="0.5" y="9.466"/>
</g>
</g>
<g fill="rgb(0%, 0%, 0%)" fill-opacity="1">
<use xlink:href="#glyph-1-1" x="3.821" y="9.466"/>
</g>
<g clip-path="url(#clip-1)">
<g fill="rgb(0%, 0%, 0%)" fill-opacity="1">
<use xlink:href="#glyph-0-1" x="10.559" y="9.466"/>
</g>
</g>
<g fill="rgb(0%, 0%, 0%)" fill-opacity="1">
<use xlink:href="#glyph-0-2" x="17.2037" y="9.466"/>
</g>
<g fill="rgb(0%, 0%, 0%)" fill-opacity="1">
<use xlink:href="#glyph-1-2" x="29.82" y="9.466"/>
</g>
</svg>
