<?xml version="1.0" encoding="UTF-8"?>
<svg xmlns="http://www.w3.org/2000/svg" xmlns:xlink="http://www.w3.org/1999/xlink" viewBox="0 0 32.054 9.637">
<defs>
<g>
<g id="glyph-0-0">
</g>
<g id="glyph-0-1">
<path d="M 4.078125 -0.6875 C 4.234375 -0.03125 4.8125 0.125 5.09375 0.125 C 5.46875 0.125 5.765625 -0.125 5.953125 -0.53125 C 6.15625 -0.96875 6.3125 -1.671875 6.3125 -1.703125 C 6.3125 -1.765625 6.265625 -1.8125 6.1875 -1.8125 C 6.078125 -1.8125 6.078125 -1.75 6.03125 -1.578125 C 5.8125 -0.75 5.59375 -0.125 5.109375 -0.125 C 4.75 -0.125 4.75 -0.515625 4.75 -0.671875 C 4.75 -0.9375 4.796875 -1.0625 4.90625 -1.5625 C 5 -1.890625 5.078125 -2.21875 5.15625 -2.546875 L 5.640625 -4.5 C 5.71875 -4.796875 5.71875 -4.8125 5.71875 -4.859375 C 5.71875 -5.03125 5.578125 -5.15625 5.40625 -5.15625 C 5.0625 -5.15625 4.96875 -4.859375 4.90625 -4.546875 C 4.78125 -4.09375 4.140625 -1.515625 4.046875 -1.09375 C 4.046875 -1.09375 3.578125 -0.125 2.703125 -0.125 C 2.078125 -0.125 1.953125 -0.65625 1.953125 -1.09375 C 1.953125 -1.78125 2.296875 -2.734375 2.609375 -3.53125 C 2.75 -3.921875 2.8125 -4.078125 2.8125 -4.3125 C 2.8125 -4.828125 2.4375 -5.265625 1.859375 -5.265625 C 0.765625 -5.265625 0.328125 -3.53125 0.328125 -3.4375 C 0.328125 -3.390625 0.375 -3.328125 0.453125 -3.328125 C 0.5625 -3.328125 0.578125 -3.375 0.625 -3.546875 C 0.90625 -4.578125 1.375 -5.03125 1.828125 -5.03125 C 1.953125 -5.03125 2.140625 -5.015625 2.140625 -4.640625 C 2.140625 -4.328125 2.015625 -3.984375 1.828125 -3.53125 C 1.296875 -2.109375 1.25 -1.65625 1.25 -1.296875 C 1.25 -0.078125 2.15625 0.125 2.65625 0.125 C 3.421875 0.125 3.84375 -0.40625 4.078125 -0.6875 Z M 4.078125 -0.6875 "/>
</g>
<g id="glyph-1-0">
</g>
<g id="glyph-1-1">
<path d="M 6.546875 -2.75 C 6.75 -2.75 6.96875 -2.75 6.96875 -2.984375 C 6.96875 -3.234375 6.75 -3.234375 6.546875 -3.234375 L 1.484375 -3.234375 C 1.625 -4.828125 3 -5.96875 4.6875 -5.96875 L 6.546875 -5.96875 C 6.75 -5.96875 6.96875 -5.96875 6.96875 -6.21875 C 6.96875 -6.453125 6.75 -6.453125 6.546875 -6.453125 L 4.65625 -6.453125 C 2.625 -6.453125 0.984375 -4.90625 0.984375 -2.984375 C 0.984375 -1.078125 2.625 0.484375 4.65625 0.484375 L 6.546875 0.484375 C 6.75 0.484375 6.96875 0.484375 6.96875 0.234375 C 6.96875 0 6.75 0 6.546875 0 L 4.6875 0 C 3 0 1.625 -1.140625 1.484375 -2.75 Z M 6.546875 -2.75 "/>
</g>
<g id="glyph-1-2">
<path d="M 9.921875 -7.703125 C 9.921875 -8.265625 9 -8.171875 8.625 -8.171875 L 4.125 -8.171875 C 3.53125 -8.171875 2.46875 -7.828125 2.265625 -7.1875 C 2.296875 -7.109375 2.3125 -7.09375 2.390625 -7.09375 C 2.65625 -7.09375 3.015625 -7.3125 3.171875 -7.5 C 3.546875 -7.5 3.90625 -7.515625 4.28125 -7.515625 L 5.015625 -7.515625 C 5.015625 -7.515625 4.96875 -7.296875 4.96875 -7.296875 C 4.5 -5.109375 3.796875 -3.25 3.28125 -2.078125 C 3.203125 -1.921875 2.5625 -0.4375 2.390625 -0.28125 C 1.859375 -0.28125 1.46875 -0.578125 1.25 -1.046875 C 1.21875 -1.109375 1.21875 -1.15625 1.140625 -1.15625 C 0.859375 -1.15625 0.203125 -0.78125 0.203125 -0.578125 C 0.203125 -0.546875 0.21875 -0.53125 0.234375 -0.5 C 0.4375 0.0625 0.984375 0.375 1.5625 0.375 C 2.171875 0.375 2.875 -0.0625 3.265625 -0.5 C 3.65625 -0.953125 4.453125 -2.921875 4.75 -3.640625 L 7.0625 -3.640625 C 7.046875 -3.625 7.046875 -3.609375 7.046875 -3.59375 C 7.046875 -3.546875 7.109375 -3.515625 7.15625 -3.515625 C 7.421875 -3.515625 8.109375 -3.84375 8.109375 -4.21875 C 8.109375 -4.296875 8.015625 -4.296875 7.875 -4.296875 L 5.015625 -4.296875 C 5.3125 -5.359375 5.71875 -6.421875 5.9375 -7.515625 L 7.515625 -7.515625 C 7.8125 -7.515625 8.65625 -7.578125 8.875 -7.3125 C 8.890625 -7.25 8.859375 -7.125 8.890625 -7.0625 C 8.921875 -7.046875 8.953125 -7.03125 8.984375 -7.03125 C 9.28125 -7.03125 9.921875 -7.390625 9.921875 -7.703125 Z M 9.921875 -7.703125 "/>
</g>
</g>
<clipPath id="clip-0">
<path clip-rule="nonzero" d="M 11 2 L 18 2 L 18 9.636719 L 11 9.636719 Z M 11 2 "/>
</clipPath>
<clipPath id="clip-1">
<path clip-rule="nonzero" d="M 21 0 L 32 0 L 32 9.636719 L 21 9.636719 Z M 21 0 "/>
</clipPath>
</defs>
<g fill="rgb(0%, 0%, 0%)" fill-opacity="1">
<use xlink:href="#glyph-0-1" x="0.5" y="8.67"/>
</g>
<g clip-path="url(#clip-0)">
<g fill="rgb(0%, 0%, 0%)" fill-opacity="1">
<use xlink:href="#glyph-1-1" x="10.483" y="8.67"/>
</g>
</g>
<g clip-path="url(#clip-1)">
<g fill="rgb(0%, 0%, 0%)" fill-opacity="1">
<use xlink:href="#glyph-1-2" x="21.777077" y="8.67"/>
</g>
</g>
</svg>
