<?xml version="1.0" encoding="UTF-8"?>
<svg xmlns="http://www.w3.org/2000/svg" xmlns:xlink="http://www.w3.org/1999/xlink" viewBox="0 0 276.467 13.353">
<defs>
<g>
<g id="glyph-0-0">
</g>
<g id="glyph-0-1">
<path d="M 5.71875 -6.59375 C 5.625 -7.484375 5.515625 -8.15625 4.671875 -8.15625 C 3.53125 -8.15625 2.765625 -7.34375 2.765625 -7.015625 C 2.765625 -6.9375 2.828125 -6.9375 2.890625 -6.9375 C 3.03125 -6.9375 3.546875 -7.09375 3.765625 -7.5 L 3.796875 -7.5 C 4.453125 -7.5 4.609375 -7.140625 4.71875 -5.90625 L 4.890625 -4.140625 C 4.453125 -3.90625 2.84375 -2.9375 1.984375 -2.34375 C 0.625 -1.375 0.59375 -1.015625 0.59375 -0.671875 C 0.59375 -0.265625 0.8125 0 1.171875 0 C 1.53125 0 2.078125 -0.390625 2.078125 -0.578125 C 2.078125 -0.640625 2.046875 -0.640625 2 -0.65625 C 1.90625 -0.671875 1.609375 -0.71875 1.609375 -1.1875 C 1.609375 -1.5 1.609375 -1.65625 2.875 -2.5 C 3.609375 -2.96875 4.296875 -3.359375 4.921875 -3.75 C 4.921875 -3.734375 5.109375 -1.9375 5.125 -1.734375 C 5.21875 -0.78125 5.3125 0 6.1875 0 C 7.328125 0 8.109375 -0.8125 8.109375 -1.140625 C 8.109375 -1.234375 8.046875 -1.234375 7.96875 -1.234375 C 7.859375 -1.234375 7.328125 -1.078125 7.09375 -0.671875 C 7.0625 -0.65625 7 -0.65625 6.984375 -0.65625 C 6.296875 -0.65625 6.234375 -1.40625 6.125 -2.421875 C 6.09375 -2.796875 6.0625 -3.109375 5.9375 -4.34375 C 9.65625 -6.578125 9.65625 -7 9.65625 -7.5 C 9.65625 -7.90625 9.4375 -8.15625 9.09375 -8.15625 C 8.71875 -8.15625 8.171875 -7.75 8.171875 -7.59375 C 8.171875 -7.515625 8.25 -7.5 8.265625 -7.5 C 8.359375 -7.5 8.640625 -7.453125 8.640625 -6.984375 C 8.640625 -6.6875 8.609375 -6.5 7.59375 -5.8125 C 7.234375 -5.5625 6.734375 -5.265625 5.90625 -4.75 Z M 5.71875 -6.59375 "/>
</g>
<g id="glyph-0-2">
<path d="M 3.375 -7.375 C 3.375 -7.859375 3.6875 -8.625 5 -8.703125 C 5.0625 -8.71875 5.109375 -8.765625 5.109375 -8.828125 C 5.109375 -8.96875 5.015625 -8.96875 4.875 -8.96875 C 3.6875 -8.96875 2.59375 -8.359375 2.578125 -7.46875 L 2.578125 -4.75 C 2.578125 -4.28125 2.578125 -3.890625 2.109375 -3.5 C 1.6875 -3.15625 1.234375 -3.125 0.96875 -3.125 C 0.90625 -3.109375 0.859375 -3.0625 0.859375 -2.984375 C 0.859375 -2.875 0.9375 -2.875 1.046875 -2.859375 C 1.84375 -2.8125 2.421875 -2.375 2.546875 -1.796875 C 2.578125 -1.65625 2.578125 -1.640625 2.578125 -1.203125 L 2.578125 1.15625 C 2.578125 1.65625 2.578125 2.046875 3.15625 2.5 C 3.625 2.859375 4.40625 2.984375 4.875 2.984375 C 5.015625 2.984375 5.109375 2.984375 5.109375 2.859375 C 5.109375 2.734375 5.03125 2.734375 4.90625 2.71875 C 4.15625 2.671875 3.578125 2.296875 3.421875 1.6875 C 3.375 1.578125 3.375 1.546875 3.375 1.125 L 3.375 -1.390625 C 3.375 -1.9375 3.28125 -2.140625 2.90625 -2.515625 C 2.65625 -2.765625 2.3125 -2.890625 1.96875 -2.984375 C 2.953125 -3.265625 3.375 -3.8125 3.375 -4.5 Z M 3.375 -7.375 "/>
</g>
<g id="glyph-0-3">
<path d="M 6.546875 -2.75 C 6.75 -2.75 6.96875 -2.75 6.96875 -2.984375 C 6.96875 -3.234375 6.75 -3.234375 6.546875 -3.234375 L 1.484375 -3.234375 C 1.625 -4.828125 3 -5.96875 4.6875 -5.96875 L 6.546875 -5.96875 C 6.75 -5.96875 6.96875 -5.96875 6.96875 -6.21875 C 6.96875 -6.453125 6.75 -6.453125 6.546875 -6.453125 L 4.65625 -6.453125 C 2.625 -6.453125 0.984375 -4.90625 0.984375 -2.984375 C 0.984375 -1.078125 2.625 0.484375 4.65625 0.484375 L 6.546875 0.484375 C 6.75 0.484375 6.96875 0.484375 6.96875 0.234375 C 6.96875 0 6.75 0 6.546875 0 L 4.6875 0 C 3 0 1.625 -1.140625 1.484375 -2.75 Z M 6.546875 -2.75 "/>
</g>
<g id="glyph-0-4">
<path d="M 2.875 -1.546875 C 3.03125 -2.515625 3.140625 -3.53125 3.140625 -4.546875 C 3.140625 -4.890625 3.140625 -6.234375 2.734375 -7.09375 C 2.265625 -8.03125 1.625 -8.15625 1.234375 -8.15625 C 0.828125 -8.15625 0.40625 -7.828125 0.40625 -7.65625 C 0.40625 -7.578125 0.46875 -7.578125 0.625 -7.5625 C 1.140625 -7.515625 1.65625 -7.265625 1.96875 -6.296875 C 2.21875 -5.546875 2.265625 -4.640625 2.265625 -4.125 C 2.265625 -2.3125 1.84375 -0.234375 1.765625 0.03125 C 1.734375 0.1875 1.71875 0.234375 1.71875 0.34375 C 1.71875 0.390625 1.71875 0.53125 1.8125 0.53125 C 1.859375 0.53125 1.875 0.53125 2.0625 0.296875 C 3.390625 -1.28125 4.71875 -3.09375 6.03125 -5.359375 C 6.484375 -6.1875 6.796875 -6.8125 6.84375 -6.890625 C 7.203125 -5.78125 7.609375 -4.140625 7.84375 -2.1875 C 7.90625 -1.546875 7.96875 -0.828125 7.984375 -0.1875 C 7.984375 -0.140625 8 0.40625 8.015625 0.4375 C 8.015625 0.484375 8.046875 0.53125 8.078125 0.53125 C 8.140625 0.53125 8.15625 0.53125 8.34375 0.3125 C 9.828125 -1.34375 12.390625 -4.828125 12.390625 -6.890625 C 12.390625 -7.859375 11.875 -8.15625 11.5 -8.15625 C 11.171875 -8.15625 11 -7.4375 11 -7.25 C 11 -7.09375 11.0625 -7.078125 11.140625 -7.0625 C 11.3125 -7.046875 11.859375 -6.953125 11.859375 -6.171875 C 11.859375 -4.8125 8.9375 -1.125 8.859375 -1.125 C 8.84375 -1.125 8.84375 -1.140625 8.828125 -1.40625 C 8.703125 -3.984375 8.015625 -6.71875 7.515625 -8.03125 C 7.484375 -8.109375 7.46875 -8.15625 7.34375 -8.15625 C 7.125 -8.15625 6.609375 -7.859375 6.609375 -7.65625 C 6.609375 -7.609375 6.65625 -7.5 6.6875 -7.4375 C 5.953125 -6.0625 4.875 -4.046875 2.890625 -1.546875 Z M 2.875 -1.546875 "/>
</g>
<g id="glyph-0-5">
<path d="M 6.59375 -7.84375 C 6.640625 -7.96875 6.640625 -8 6.640625 -8.0625 C 6.640625 -8.171875 6.546875 -8.296875 6.40625 -8.296875 C 6.25 -8.296875 6.1875 -8.15625 6.125 -8.015625 L 5.140625 -5.390625 L 1.5 -5.390625 L 0.515625 -8.015625 C 0.453125 -8.1875 0.390625 -8.296875 0.234375 -8.296875 C 0.125 -8.296875 0 -8.171875 0 -8.0625 C 0 -8.03125 0 -8.015625 0.078125 -7.84375 L 3.046875 -0.015625 C 3.109375 0.15625 3.171875 0.265625 3.328125 0.265625 C 3.484375 0.265625 3.53125 0.125 3.578125 0.015625 Z M 1.703125 -4.90625 L 4.953125 -4.90625 L 3.328125 -0.65625 Z M 1.703125 -4.90625 "/>
</g>
<g id="glyph-0-6">
<path d="M 2.578125 1.40625 C 2.578125 1.875 2.265625 2.640625 0.96875 2.71875 C 0.90625 2.734375 0.859375 2.78125 0.859375 2.859375 C 0.859375 2.984375 0.984375 2.984375 1.09375 2.984375 C 2.265625 2.984375 3.375 2.40625 3.375 1.5 L 3.375 -1.234375 C 3.375 -1.703125 3.375 -2.078125 3.859375 -2.46875 C 4.28125 -2.828125 4.734375 -2.84375 5 -2.859375 C 5.0625 -2.875 5.109375 -2.921875 5.109375 -2.984375 C 5.109375 -3.109375 5.03125 -3.109375 4.90625 -3.125 C 4.125 -3.171875 3.546875 -3.59375 3.421875 -4.1875 C 3.375 -4.3125 3.375 -4.34375 3.375 -4.765625 L 3.375 -7.140625 C 3.375 -7.640625 3.375 -8.015625 2.8125 -8.46875 C 2.328125 -8.84375 1.5 -8.96875 1.09375 -8.96875 C 0.984375 -8.96875 0.859375 -8.96875 0.859375 -8.828125 C 0.859375 -8.71875 0.9375 -8.71875 1.046875 -8.703125 C 1.8125 -8.65625 2.390625 -8.265625 2.546875 -7.65625 C 2.578125 -7.546875 2.578125 -7.53125 2.578125 -7.09375 L 2.578125 -4.59375 C 2.578125 -4.046875 2.671875 -3.84375 3.0625 -3.453125 C 3.3125 -3.203125 3.65625 -3.078125 4 -2.984375 C 3.015625 -2.71875 2.578125 -2.15625 2.578125 -1.46875 Z M 2.578125 1.40625 "/>
</g>
<g id="glyph-1-0">
</g>
<g id="glyph-1-1">
<path d="M 8.0625 -3.875 C 8.234375 -3.875 8.453125 -3.875 8.453125 -4.09375 C 8.453125 -4.3125 8.25 -4.3125 8.0625 -4.3125 L 1.03125 -4.3125 C 0.859375 -4.3125 0.640625 -4.3125 0.640625 -4.09375 C 0.640625 -3.875 0.84375 -3.875 1.03125 -3.875 Z M 8.0625 -1.65625 C 8.234375 -1.65625 8.453125 -1.65625 8.453125 -1.859375 C 8.453125 -2.09375 8.25 -2.09375 8.0625 -2.09375 L 1.03125 -2.09375 C 0.859375 -2.09375 0.640625 -2.09375 0.640625 -1.875 C 0.640625 -1.65625 0.84375 -1.65625 1.03125 -1.65625 Z M 8.0625 -1.65625 "/>
</g>
<g id="glyph-1-2">
<path d="M 2.203125 -4.578125 C 2.203125 -4.90625 1.921875 -5.15625 1.625 -5.15625 C 1.28125 -5.15625 1.046875 -4.875 1.046875 -4.578125 C 1.046875 -4.21875 1.34375 -4 1.609375 -4 C 1.9375 -4 2.203125 -4.25 2.203125 -4.578125 Z M 2.203125 -0.578125 C 2.203125 -0.90625 1.921875 -1.15625 1.625 -1.15625 C 1.28125 -1.15625 1.046875 -0.890625 1.046875 -0.578125 C 1.046875 -0.234375 1.34375 0 1.609375 0 C 1.9375 0 2.203125 -0.25 2.203125 -0.578125 Z M 2.203125 -0.578125 "/>
</g>
<g id="glyph-1-3">
<path d="M 3.890625 2.90625 C 3.890625 2.875 3.890625 2.84375 3.6875 2.640625 C 2.484375 1.4375 1.8125 -0.53125 1.8125 -2.96875 C 1.8125 -5.296875 2.375 -7.296875 3.765625 -8.703125 C 3.890625 -8.8125 3.890625 -8.828125 3.890625 -8.875 C 3.890625 -8.9375 3.828125 -8.96875 3.78125 -8.96875 C 3.625 -8.96875 2.640625 -8.109375 2.0625 -6.9375 C 1.453125 -5.71875 1.171875 -4.453125 1.171875 -2.96875 C 1.171875 -1.90625 1.34375 -0.484375 1.953125 0.78125 C 2.671875 2.21875 3.640625 3 3.78125 3 C 3.828125 3 3.890625 2.96875 3.890625 2.90625 Z M 3.890625 2.90625 "/>
</g>
<g id="glyph-1-4">
<path d="M 3.375 -2.96875 C 3.375 -3.890625 3.25 -5.359375 2.578125 -6.75 C 1.875 -8.1875 0.890625 -8.96875 0.765625 -8.96875 C 0.71875 -8.96875 0.65625 -8.9375 0.65625 -8.875 C 0.65625 -8.828125 0.65625 -8.8125 0.859375 -8.609375 C 2.0625 -7.40625 2.71875 -5.421875 2.71875 -2.984375 C 2.71875 -0.671875 2.15625 1.328125 0.78125 2.734375 C 0.65625 2.84375 0.65625 2.875 0.65625 2.90625 C 0.65625 2.96875 0.71875 3 0.765625 3 C 0.921875 3 1.90625 2.140625 2.484375 0.96875 C 3.09375 -0.25 3.375 -1.546875 3.375 -2.96875 Z M 3.375 -2.96875 "/>
</g>
<g id="glyph-1-5">
<path d="M 5.359375 -3.828125 C 5.359375 -4.8125 5.296875 -5.78125 4.859375 -6.6875 C 4.375 -7.6875 3.515625 -7.953125 2.921875 -7.953125 C 2.234375 -7.953125 1.390625 -7.609375 0.9375 -6.609375 C 0.609375 -5.859375 0.484375 -5.109375 0.484375 -3.828125 C 0.484375 -2.671875 0.578125 -1.796875 1 -0.9375 C 1.46875 -0.03125 2.296875 0.25 2.921875 0.25 C 3.953125 0.25 4.546875 -0.375 4.90625 -1.0625 C 5.328125 -1.953125 5.359375 -3.125 5.359375 -3.828125 Z M 2.921875 0.015625 C 2.53125 0.015625 1.75 -0.203125 1.53125 -1.5 C 1.40625 -2.21875 1.40625 -3.125 1.40625 -3.96875 C 1.40625 -4.953125 1.40625 -5.828125 1.59375 -6.53125 C 1.796875 -7.34375 2.40625 -7.703125 2.921875 -7.703125 C 3.375 -7.703125 4.0625 -7.4375 4.296875 -6.40625 C 4.453125 -5.71875 4.453125 -4.78125 4.453125 -3.96875 C 4.453125 -3.171875 4.453125 -2.265625 4.3125 -1.53125 C 4.09375 -0.21875 3.328125 0.015625 2.921875 0.015625 Z M 2.921875 0.015625 "/>
</g>
<g id="glyph-1-6">
<path d="M 3.4375 -7.65625 C 3.4375 -7.9375 3.4375 -7.953125 3.203125 -7.953125 C 2.921875 -7.625 2.3125 -7.1875 1.09375 -7.1875 L 1.09375 -6.84375 C 1.359375 -6.84375 1.953125 -6.84375 2.625 -7.140625 L 2.625 -0.921875 C 2.625 -0.484375 2.578125 -0.34375 1.53125 -0.34375 L 1.15625 -0.34375 L 1.15625 0 C 1.484375 -0.03125 2.640625 -0.03125 3.03125 -0.03125 C 3.4375 -0.03125 4.578125 -0.03125 4.90625 0 L 4.90625 -0.34375 L 4.53125 -0.34375 C 3.484375 -0.34375 3.4375 -0.484375 3.4375 -0.921875 Z M 3.4375 -7.65625 "/>
</g>
<g id="glyph-1-7">
<path d="M 5.265625 -2.015625 L 5 -2.015625 C 4.953125 -1.8125 4.859375 -1.140625 4.75 -0.953125 C 4.65625 -0.84375 3.984375 -0.84375 3.625 -0.84375 L 1.40625 -0.84375 C 1.734375 -1.125 2.46875 -1.890625 2.765625 -2.171875 C 4.59375 -3.84375 5.265625 -4.46875 5.265625 -5.65625 C 5.265625 -7.03125 4.171875 -7.953125 2.78125 -7.953125 C 1.40625 -7.953125 0.578125 -6.765625 0.578125 -5.734375 C 0.578125 -5.125 1.109375 -5.125 1.140625 -5.125 C 1.40625 -5.125 1.703125 -5.3125 1.703125 -5.6875 C 1.703125 -6.03125 1.484375 -6.25 1.140625 -6.25 C 1.046875 -6.25 1.015625 -6.25 0.984375 -6.234375 C 1.203125 -7.046875 1.859375 -7.609375 2.625 -7.609375 C 3.640625 -7.609375 4.265625 -6.75 4.265625 -5.65625 C 4.265625 -4.640625 3.6875 -3.75 3 -2.984375 L 0.578125 -0.28125 L 0.578125 0 L 4.953125 0 Z M 5.265625 -2.015625 "/>
</g>
<g id="glyph-2-0">
</g>
<g id="glyph-2-1">
<path d="M 4.078125 -0.6875 C 4.234375 -0.03125 4.8125 0.125 5.09375 0.125 C 5.46875 0.125 5.765625 -0.125 5.953125 -0.53125 C 6.15625 -0.96875 6.3125 -1.671875 6.3125 -1.703125 C 6.3125 -1.765625 6.265625 -1.8125 6.1875 -1.8125 C 6.078125 -1.8125 6.078125 -1.75 6.03125 -1.578125 C 5.8125 -0.75 5.59375 -0.125 5.109375 -0.125 C 4.75 -0.125 4.75 -0.515625 4.75 -0.671875 C 4.75 -0.9375 4.796875 -1.0625 4.90625 -1.5625 C 5 -1.890625 5.078125 -2.21875 5.15625 -2.546875 L 5.640625 -4.5 C 5.71875 -4.796875 5.71875 -4.8125 5.71875 -4.859375 C 5.71875 -5.03125 5.578125 -5.15625 5.40625 -5.15625 C 5.0625 -5.15625 4.96875 -4.859375 4.90625 -4.546875 C 4.78125 -4.09375 4.140625 -1.515625 4.046875 -1.09375 C 4.046875 -1.09375 3.578125 -0.125 2.703125 -0.125 C 2.078125 -0.125 1.953125 -0.65625 1.953125 -1.09375 C 1.953125 -1.78125 2.296875 -2.734375 2.609375 -3.53125 C 2.75 -3.921875 2.8125 -4.078125 2.8125 -4.3125 C 2.8125 -4.828125 2.4375 -5.265625 1.859375 -5.265625 C 0.765625 -5.265625 0.328125 -3.53125 0.328125 -3.4375 C 0.328125 -3.390625 0.375 -3.328125 0.453125 -3.328125 C 0.5625 -3.328125 0.578125 -3.375 0.625 -3.546875 C 0.90625 -4.578125 1.375 -5.03125 1.828125 -5.03125 C 1.953125 -5.03125 2.140625 -5.015625 2.140625 -4.640625 C 2.140625 -4.328125 2.015625 -3.984375 1.828125 -3.53125 C 1.296875 -2.109375 1.25 -1.65625 1.25 -1.296875 C 1.25 -0.078125 2.15625 0.125 2.65625 0.125 C 3.421875 0.125 3.84375 -0.40625 4.078125 -0.6875 Z M 4.078125 -0.6875 "/>
</g>
<g id="glyph-2-2">
<path d="M 4.046875 -1.515625 C 4 -1.328125 3.96875 -1.28125 3.8125 -1.09375 C 3.328125 -0.46875 2.828125 -0.234375 2.453125 -0.234375 C 2.0625 -0.234375 1.6875 -0.546875 1.6875 -1.375 C 1.6875 -2.015625 2.046875 -3.34375 2.3125 -3.890625 C 2.65625 -4.546875 3.1875 -5.03125 3.6875 -5.03125 C 4.484375 -5.03125 4.640625 -4.046875 4.640625 -3.984375 L 4.609375 -3.8125 Z M 4.78125 -4.484375 C 4.625 -4.828125 4.296875 -5.265625 3.6875 -5.265625 C 2.390625 -5.265625 0.90625 -3.640625 0.90625 -1.859375 C 0.90625 -0.609375 1.65625 0 2.421875 0 C 3.0625 0 3.625 -0.5 3.84375 -0.734375 L 3.578125 0.328125 C 3.40625 0.984375 3.328125 1.296875 2.90625 1.703125 C 2.421875 2.203125 1.953125 2.203125 1.703125 2.203125 C 1.34375 2.203125 1.046875 2.171875 0.734375 2.078125 C 1.125 1.96875 1.21875 1.640625 1.21875 1.5 C 1.21875 1.3125 1.078125 1.125 0.8125 1.125 C 0.53125 1.125 0.21875 1.359375 0.21875 1.75 C 0.21875 2.25 0.703125 2.4375 1.71875 2.4375 C 3.265625 2.4375 4.0625 1.453125 4.21875 0.796875 L 5.546875 -4.546875 C 5.578125 -4.703125 5.578125 -4.71875 5.578125 -4.75 C 5.578125 -4.90625 5.453125 -5.046875 5.265625 -5.046875 C 4.984375 -5.046875 4.8125 -4.8125 4.78125 -4.484375 Z M 4.78125 -4.484375 "/>
</g>
<g id="glyph-2-3">
<path d="M 2.40625 -4.8125 L 3.5 -4.8125 C 3.734375 -4.8125 3.84375 -4.8125 3.84375 -5.015625 C 3.84375 -5.15625 3.78125 -5.15625 3.53125 -5.15625 L 2.484375 -5.15625 L 2.921875 -6.890625 C 2.96875 -7.0625 2.96875 -7.09375 2.96875 -7.171875 C 2.96875 -7.359375 2.828125 -7.46875 2.671875 -7.46875 C 2.5625 -7.46875 2.296875 -7.4375 2.203125 -7.046875 L 1.734375 -5.15625 L 0.609375 -5.15625 C 0.375 -5.15625 0.265625 -5.15625 0.265625 -4.921875 C 0.265625 -4.8125 0.34375 -4.8125 0.578125 -4.8125 L 1.640625 -4.8125 L 0.84375 -1.65625 C 0.75 -1.234375 0.71875 -1.109375 0.71875 -0.953125 C 0.71875 -0.390625 1.109375 0.125 1.78125 0.125 C 2.984375 0.125 3.640625 -1.625 3.640625 -1.703125 C 3.640625 -1.78125 3.578125 -1.8125 3.515625 -1.8125 C 3.484375 -1.8125 3.4375 -1.8125 3.421875 -1.765625 C 3.40625 -1.75 3.390625 -1.75 3.3125 -1.546875 C 3.0625 -0.953125 2.515625 -0.125 1.8125 -0.125 C 1.453125 -0.125 1.4375 -0.421875 1.4375 -0.6875 C 1.4375 -0.6875 1.4375 -0.921875 1.46875 -1.0625 Z M 2.40625 -4.8125 "/>
</g>
<g id="glyph-2-4">
<path d="M 2.328125 0.046875 C 2.328125 -0.640625 2.109375 -1.15625 1.609375 -1.15625 C 1.234375 -1.15625 1.046875 -0.84375 1.046875 -0.578125 C 1.046875 -0.328125 1.21875 0 1.625 0 C 1.78125 0 1.90625 -0.046875 2.015625 -0.15625 C 2.046875 -0.171875 2.0625 -0.171875 2.0625 -0.171875 C 2.09375 -0.171875 2.09375 -0.015625 2.09375 0.046875 C 2.09375 0.4375 2.015625 1.21875 1.328125 2 C 1.1875 2.140625 1.1875 2.15625 1.1875 2.1875 C 1.1875 2.25 1.25 2.3125 1.3125 2.3125 C 1.40625 2.3125 2.328125 1.421875 2.328125 0.046875 Z M 2.328125 0.046875 "/>
</g>
<g id="glyph-2-5">
<path d="M 3.375 -1.703125 C 3.375 -1.765625 3.328125 -1.8125 3.265625 -1.8125 C 3.15625 -1.8125 3.140625 -1.78125 3.078125 -1.578125 C 2.765625 -0.484375 2.28125 -0.125 1.890625 -0.125 C 1.75 -0.125 1.578125 -0.15625 1.578125 -0.515625 C 1.578125 -0.84375 1.71875 -1.1875 1.859375 -1.546875 L 2.6875 -3.78125 C 2.71875 -3.875 2.8125 -4.09375 2.8125 -4.3125 C 2.8125 -4.8125 2.453125 -5.265625 1.859375 -5.265625 C 0.765625 -5.265625 0.328125 -3.53125 0.328125 -3.4375 C 0.328125 -3.390625 0.375 -3.328125 0.453125 -3.328125 C 0.5625 -3.328125 0.578125 -3.375 0.625 -3.546875 C 0.90625 -4.546875 1.359375 -5.03125 1.828125 -5.03125 C 1.9375 -5.03125 2.140625 -5.015625 2.140625 -4.640625 C 2.140625 -4.328125 1.984375 -3.9375 1.890625 -3.671875 L 1.046875 -1.453125 C 0.984375 -1.25 0.90625 -1.0625 0.90625 -0.84375 C 0.90625 -0.3125 1.28125 0.125 1.859375 0.125 C 2.953125 0.125 3.375 -1.625 3.375 -1.703125 Z M 3.28125 -7.453125 C 3.28125 -7.640625 3.140625 -7.859375 2.875 -7.859375 C 2.609375 -7.859375 2.296875 -7.59375 2.296875 -7.28125 C 2.296875 -6.984375 2.546875 -6.890625 2.6875 -6.890625 C 3.015625 -6.890625 3.28125 -7.203125 3.28125 -7.453125 Z M 3.28125 -7.453125 "/>
</g>
<g id="glyph-2-6">
<path d="M 2.203125 -0.578125 C 2.203125 -0.921875 1.90625 -1.15625 1.625 -1.15625 C 1.28125 -1.15625 1.046875 -0.875 1.046875 -0.578125 C 1.046875 -0.234375 1.328125 0 1.609375 0 C 1.953125 0 2.203125 -0.28125 2.203125 -0.578125 Z M 2.203125 -0.578125 "/>
</g>
<g id="glyph-2-7">
<path d="M 2.46875 -3.5 C 2.484375 -3.578125 2.78125 -4.171875 3.234375 -4.546875 C 3.53125 -4.84375 3.9375 -5.03125 4.40625 -5.03125 C 4.890625 -5.03125 5.0625 -4.671875 5.0625 -4.203125 C 5.0625 -4.125 5.0625 -3.890625 4.90625 -3.328125 L 4.609375 -2.09375 C 4.515625 -1.734375 4.296875 -0.84375 4.265625 -0.71875 C 4.21875 -0.53125 4.140625 -0.234375 4.140625 -0.171875 C 4.140625 -0.015625 4.28125 0.125 4.453125 0.125 C 4.8125 0.125 4.875 -0.15625 4.984375 -0.578125 L 5.703125 -3.4375 C 5.71875 -3.53125 6.34375 -5.03125 7.65625 -5.03125 C 8.140625 -5.03125 8.3125 -4.671875 8.3125 -4.203125 C 8.3125 -3.53125 7.84375 -2.21875 7.578125 -1.5 C 7.46875 -1.21875 7.40625 -1.0625 7.40625 -0.84375 C 7.40625 -0.3125 7.78125 0.125 8.359375 0.125 C 9.46875 0.125 9.890625 -1.640625 9.890625 -1.703125 C 9.890625 -1.765625 9.84375 -1.8125 9.765625 -1.8125 C 9.65625 -1.8125 9.640625 -1.78125 9.59375 -1.578125 C 9.3125 -0.625 8.875 -0.125 8.390625 -0.125 C 8.265625 -0.125 8.078125 -0.125 8.078125 -0.515625 C 8.078125 -0.828125 8.21875 -1.203125 8.265625 -1.34375 C 8.484375 -1.90625 9.03125 -3.328125 9.03125 -4.015625 C 9.03125 -4.734375 8.609375 -5.265625 7.703125 -5.265625 C 6.890625 -5.265625 6.25 -4.8125 5.765625 -4.109375 C 5.734375 -4.75 5.34375 -5.265625 4.453125 -5.265625 C 3.375 -5.265625 2.828125 -4.515625 2.609375 -4.21875 C 2.5625 -4.90625 2.078125 -5.265625 1.546875 -5.265625 C 1.203125 -5.265625 0.9375 -5.109375 0.703125 -4.65625 C 0.484375 -4.21875 0.328125 -3.484375 0.328125 -3.4375 C 0.328125 -3.390625 0.375 -3.328125 0.453125 -3.328125 C 0.546875 -3.328125 0.5625 -3.34375 0.640625 -3.625 C 0.8125 -4.328125 1.046875 -5.03125 1.515625 -5.03125 C 1.796875 -5.03125 1.890625 -4.84375 1.890625 -4.484375 C 1.890625 -4.21875 1.765625 -3.75 1.6875 -3.375 L 1.34375 -2.09375 C 1.296875 -1.859375 1.171875 -1.328125 1.109375 -1.109375 C 1.03125 -0.796875 0.890625 -0.234375 0.890625 -0.171875 C 0.890625 -0.015625 1.03125 0.125 1.203125 0.125 C 1.34375 0.125 1.515625 0.046875 1.609375 -0.125 C 1.640625 -0.1875 1.75 -0.609375 1.8125 -0.84375 L 2.0625 -1.921875 Z M 2.46875 -3.5 "/>
</g>
<g id="glyph-3-0">
</g>
<g id="glyph-3-1">
<path d="M 2.375 -4.96875 C 2.375 -5.140625 2.25 -5.28125 2.0625 -5.28125 C 1.859375 -5.28125 1.625 -5.078125 1.625 -4.84375 C 1.625 -4.671875 1.75 -4.546875 1.9375 -4.546875 C 2.140625 -4.546875 2.375 -4.734375 2.375 -4.96875 Z M 1.21875 -2.046875 L 0.78125 -0.953125 C 0.734375 -0.828125 0.703125 -0.734375 0.703125 -0.59375 C 0.703125 -0.203125 1 0.078125 1.421875 0.078125 C 2.203125 0.078125 2.53125 -1.03125 2.53125 -1.140625 C 2.53125 -1.21875 2.46875 -1.25 2.40625 -1.25 C 2.3125 -1.25 2.296875 -1.1875 2.265625 -1.109375 C 2.09375 -0.46875 1.765625 -0.140625 1.4375 -0.140625 C 1.34375 -0.140625 1.25 -0.1875 1.25 -0.390625 C 1.25 -0.59375 1.3125 -0.734375 1.40625 -0.984375 C 1.484375 -1.1875 1.5625 -1.40625 1.65625 -1.625 L 1.90625 -2.265625 C 1.96875 -2.453125 2.078125 -2.703125 2.078125 -2.84375 C 2.078125 -3.234375 1.75 -3.515625 1.34375 -3.515625 C 0.578125 -3.515625 0.234375 -2.40625 0.234375 -2.296875 C 0.234375 -2.21875 0.296875 -2.1875 0.359375 -2.1875 C 0.46875 -2.1875 0.46875 -2.234375 0.5 -2.3125 C 0.71875 -3.078125 1.078125 -3.296875 1.328125 -3.296875 C 1.4375 -3.296875 1.515625 -3.25 1.515625 -3.03125 C 1.515625 -2.953125 1.5 -2.84375 1.421875 -2.59375 Z M 1.21875 -2.046875 "/>
</g>
<g id="glyph-4-0">
</g>
<g id="glyph-4-1">
<path d="M 2.109375 -3.78125 C 2.15625 -3.875 2.1875 -3.9375 2.1875 -4.015625 C 2.1875 -4.28125 1.9375 -4.453125 1.71875 -4.453125 C 1.40625 -4.453125 1.3125 -4.171875 1.28125 -4.0625 L 0.265625 -0.625 C 0.234375 -0.53125 0.234375 -0.515625 0.234375 -0.5 C 0.234375 -0.4375 0.28125 -0.421875 0.359375 -0.390625 C 0.515625 -0.328125 0.53125 -0.328125 0.546875 -0.328125 C 0.5625 -0.328125 0.609375 -0.328125 0.671875 -0.46875 Z M 2.109375 -3.78125 "/>
</g>
</g>
</defs>
<g fill="rgb(0%, 0%, 0%)" fill-opacity="1">
<use xlink:href="#glyph-0-1" x="0.5" y="9.864"/>
</g>
<g fill="rgb(0%, 0%, 0%)" fill-opacity="1">
<use xlink:href="#glyph-1-1" x="14.099" y="9.864"/>
</g>
<g fill="rgb(0%, 0%, 0%)" fill-opacity="1">
<use xlink:href="#glyph-0-2" x="26.524" y="9.864"/>
</g>
<g fill="rgb(0%, 0%, 0%)" fill-opacity="1">
<use xlink:href="#glyph-2-1" x="32.502" y="9.864"/>
</g>
<g fill="rgb(0%, 0%, 0%)" fill-opacity="1">
<use xlink:href="#glyph-0-3" x="42.485" y="9.864"/>
</g>
<g fill="rgb(0%, 0%, 0%)" fill-opacity="1">
<use xlink:href="#glyph-0-4" x="53.779077" y="9.864"/>
</g>
<g fill="rgb(0%, 0%, 0%)" fill-opacity="1">
<use xlink:href="#glyph-1-2" x="69.889" y="9.864"/>
</g>
<g fill="rgb(0%, 0%, 0%)" fill-opacity="1">
<use xlink:href="#glyph-2-2" x="76.462" y="9.864"/>
</g>
<g fill="rgb(0%, 0%, 0%)" fill-opacity="1">
<use xlink:href="#glyph-3-1" x="82.067" y="11.657"/>
</g>
<g fill="rgb(0%, 0%, 0%)" fill-opacity="1">
<use xlink:href="#glyph-1-3" x="85.448" y="9.864"/>
</g>
<g fill="rgb(0%, 0%, 0%)" fill-opacity="1">
<use xlink:href="#glyph-2-3" x="90.001" y="9.864"/>
<use xlink:href="#glyph-2-4" x="94.228359" y="9.864"/>
</g>
<g fill="rgb(0%, 0%, 0%)" fill-opacity="1">
<use xlink:href="#glyph-2-1" x="99.476692" y="9.864"/>
</g>
<g fill="rgb(0%, 0%, 0%)" fill-opacity="1">
<use xlink:href="#glyph-1-3" x="106.134" y="9.864"/>
</g>
<g fill="rgb(0%, 0%, 0%)" fill-opacity="1">
<use xlink:href="#glyph-2-3" x="110.687" y="9.864"/>
</g>
<g fill="rgb(0%, 0%, 0%)" fill-opacity="1">
<use xlink:href="#glyph-1-4" x="114.914" y="9.864"/>
</g>
<g fill="rgb(0%, 0%, 0%)" fill-opacity="1">
<use xlink:href="#glyph-2-4" x="119.466" y="9.864"/>
</g>
<g fill="rgb(0%, 0%, 0%)" fill-opacity="1">
<use xlink:href="#glyph-2-1" x="124.714333" y="9.864"/>
</g>
<g fill="rgb(0%, 0%, 0%)" fill-opacity="1">
<use xlink:href="#glyph-4-1" x="131.373" y="4.928"/>
</g>
<g fill="rgb(0%, 0%, 0%)" fill-opacity="1">
<use xlink:href="#glyph-1-3" x="134.168" y="9.864"/>
</g>
<g fill="rgb(0%, 0%, 0%)" fill-opacity="1">
<use xlink:href="#glyph-2-3" x="138.72" y="9.864"/>
</g>
<g fill="rgb(0%, 0%, 0%)" fill-opacity="1">
<use xlink:href="#glyph-1-4" x="142.947" y="9.864"/>
<use xlink:href="#glyph-1-4" x="147.49954" y="9.864"/>
</g>
<g fill="rgb(0%, 0%, 0%)" fill-opacity="1">
<use xlink:href="#glyph-1-1" x="155.375626" y="9.864"/>
</g>
<g fill="rgb(0%, 0%, 0%)" fill-opacity="1">
<use xlink:href="#glyph-1-5" x="167.792297" y="9.864"/>
</g>
<g fill="rgb(0%, 0%, 0%)" fill-opacity="1">
<use xlink:href="#glyph-0-5" x="185.354" y="9.864"/>
</g>
<g fill="rgb(0%, 0%, 0%)" fill-opacity="1">
<use xlink:href="#glyph-2-5" x="191.996" y="9.864"/>
</g>
<g fill="rgb(0%, 0%, 0%)" fill-opacity="1">
<use xlink:href="#glyph-0-3" x="199.31" y="9.864"/>
</g>
<g fill="rgb(0%, 0%, 0%)" fill-opacity="1">
<use xlink:href="#glyph-0-2" x="210.604077" y="9.864"/>
</g>
<g fill="rgb(0%, 0%, 0%)" fill-opacity="1">
<use xlink:href="#glyph-1-6" x="216.579" y="9.864"/>
</g>
<g fill="rgb(0%, 0%, 0%)" fill-opacity="1">
<use xlink:href="#glyph-2-4" x="222.432" y="9.864"/>
</g>
<g fill="rgb(0%, 0%, 0%)" fill-opacity="1">
<use xlink:href="#glyph-1-7" x="227.676" y="9.864"/>
</g>
<g fill="rgb(0%, 0%, 0%)" fill-opacity="1">
<use xlink:href="#glyph-2-4" x="233.529" y="9.864"/>
</g>
<g fill="rgb(0%, 0%, 0%)" fill-opacity="1">
<use xlink:href="#glyph-2-6" x="238.777333" y="9.864"/>
<use xlink:href="#glyph-2-6" x="242.029147" y="9.864"/>
<use xlink:href="#glyph-2-6" x="245.280962" y="9.864"/>
<use xlink:href="#glyph-2-4" x="248.532776" y="9.864"/>
</g>
<g fill="rgb(0%, 0%, 0%)" fill-opacity="1">
<use xlink:href="#glyph-2-7" x="253.769154" y="9.864"/>
</g>
<g fill="rgb(0%, 0%, 0%)" fill-opacity="1">
<use xlink:href="#glyph-0-6" x="264.012" y="9.864"/>
<use xlink:href="#glyph-0-6" x="269.9896" y="9.864"/>
</g>
</svg>
