<?xml version="1.0" encoding="UTF-8"?>
<svg xmlns="http://www.w3.org/2000/svg" xmlns:xlink="http://www.w3.org/1999/xlink" viewBox="0 0 30.736 9.77">
<defs>
<g>
<g id="glyph-0-0">
</g>
<g id="glyph-0-1">
<path d="M 3.359375 -8 C 3.375 -8.046875 3.390625 -8.109375 3.390625 -8.171875 C 3.390625 -8.296875 3.28125 -8.296875 3.25 -8.296875 C 3.234375 -8.296875 2.8125 -8.265625 2.59375 -8.234375 C 2.390625 -8.21875 2.21875 -8.203125 2 -8.1875 C 1.703125 -8.15625 1.625 -8.15625 1.625 -7.9375 C 1.625 -7.8125 1.75 -7.8125 1.859375 -7.8125 C 2.46875 -7.8125 2.46875 -7.703125 2.46875 -7.59375 C 2.46875 -7.546875 2.46875 -7.515625 2.421875 -7.296875 L 0.703125 -0.46875 C 0.65625 -0.28125 0.65625 -0.265625 0.65625 -0.1875 C 0.65625 0.078125 0.859375 0.125 0.984375 0.125 C 1.3125 0.125 1.390625 -0.140625 1.484375 -0.515625 L 2.046875 -2.75 C 2.90625 -2.65625 3.421875 -2.296875 3.421875 -1.71875 C 3.421875 -1.65625 3.421875 -1.609375 3.375 -1.421875 C 3.328125 -1.25 3.328125 -1.09375 3.328125 -1.046875 C 3.328125 -0.34375 3.796875 0.125 4.40625 0.125 C 4.953125 0.125 5.234375 -0.375 5.328125 -0.546875 C 5.578125 -0.984375 5.734375 -1.65625 5.734375 -1.703125 C 5.734375 -1.765625 5.6875 -1.8125 5.625 -1.8125 C 5.515625 -1.8125 5.5 -1.765625 5.453125 -1.578125 C 5.28125 -0.953125 5.03125 -0.125 4.421875 -0.125 C 4.1875 -0.125 4.03125 -0.234375 4.03125 -0.6875 C 4.03125 -0.921875 4.078125 -1.1875 4.125 -1.359375 C 4.171875 -1.578125 4.171875 -1.59375 4.171875 -1.734375 C 4.171875 -2.4375 3.53125 -2.828125 2.4375 -2.96875 C 2.875 -3.234375 3.296875 -3.703125 3.46875 -3.890625 C 4.140625 -4.65625 4.609375 -5.03125 5.15625 -5.03125 C 5.4375 -5.03125 5.515625 -4.953125 5.59375 -4.890625 C 5.15625 -4.84375 4.984375 -4.53125 4.984375 -4.296875 C 4.984375 -4 5.21875 -3.90625 5.375 -3.90625 C 5.703125 -3.90625 5.984375 -4.1875 5.984375 -4.5625 C 5.984375 -4.90625 5.71875 -5.265625 5.171875 -5.265625 C 4.515625 -5.265625 3.984375 -4.8125 3.125 -3.84375 C 3.015625 -3.703125 2.5625 -3.25 2.125 -3.078125 Z M 3.359375 -8 "/>
</g>
<g id="glyph-1-0">
</g>
<g id="glyph-1-1">
<path d="M 6.546875 -2.75 C 6.75 -2.75 6.96875 -2.75 6.96875 -2.984375 C 6.96875 -3.234375 6.75 -3.234375 6.546875 -3.234375 L 1.484375 -3.234375 C 1.625 -4.828125 3 -5.96875 4.6875 -5.96875 L 6.546875 -5.96875 C 6.75 -5.96875 6.96875 -5.96875 6.96875 -6.21875 C 6.96875 -6.453125 6.75 -6.453125 6.546875 -6.453125 L 4.65625 -6.453125 C 2.625 -6.453125 0.984375 -4.90625 0.984375 -2.984375 C 0.984375 -1.078125 2.625 0.484375 4.65625 0.484375 L 6.546875 0.484375 C 6.75 0.484375 6.96875 0.484375 6.96875 0.234375 C 6.96875 0 6.75 0 6.546875 0 L 4.6875 0 C 3 0 1.625 -1.140625 1.484375 -2.75 Z M 6.546875 -2.75 "/>
</g>
<g id="glyph-2-0">
</g>
<g id="glyph-2-1">
<path d="M 1.34375 -7.109375 L 1.34375 -1.28125 C 1.34375 -0.640625 1.25 -0.4375 0.640625 -0.421875 C 0.5 -0.421875 0.296875 -0.40625 0.296875 -0.21875 C 0.296875 0 0.484375 0 0.703125 0 L 2.5625 0 C 2.765625 0 2.953125 0 2.953125 -0.21875 C 2.953125 -0.40625 2.765625 -0.421875 2.59375 -0.421875 C 1.9375 -0.4375 1.84375 -0.6875 1.84375 -1.296875 L 1.84375 -6.78125 L 7 0.046875 C 7.109375 0.1875 7.171875 0.234375 7.25 0.234375 C 7.453125 0.234375 7.453125 0.03125 7.453125 -0.171875 L 7.453125 -6.921875 C 7.453125 -7.59375 7.5625 -7.75 8.109375 -7.765625 C 8.1875 -7.765625 8.390625 -7.78125 8.390625 -7.96875 C 8.390625 -8.1875 8.21875 -8.1875 8 -8.1875 L 6.25 -8.1875 C 6.03125 -8.1875 5.84375 -8.1875 5.84375 -7.96875 C 5.84375 -7.765625 6.0625 -7.765625 6.1875 -7.765625 C 6.859375 -7.75 6.953125 -7.515625 6.953125 -6.890625 L 6.953125 -3.140625 L 3.34375 -8.015625 C 3.234375 -8.1875 3.1875 -8.1875 2.921875 -8.1875 L 0.84375 -8.1875 C 0.625 -8.1875 0.4375 -8.1875 0.4375 -7.96875 C 0.4375 -7.796875 0.625 -7.765625 0.6875 -7.765625 C 1.015625 -7.734375 1.25 -7.546875 1.359375 -7.40625 C 1.34375 -7.296875 1.34375 -7.28125 1.34375 -7.109375 Z M 7.046875 -0.609375 L 1.84375 -7.484375 C 1.71875 -7.625 1.71875 -7.65625 1.59375 -7.765625 L 3.015625 -7.765625 L 7.046875 -2.328125 Z M 7.046875 -0.609375 "/>
</g>
</g>
<clipPath id="clip-0">
<path clip-rule="nonzero" d="M 11 2 L 18 2 L 18 9.769531 L 11 9.769531 Z M 11 2 "/>
</clipPath>
<clipPath id="clip-1">
<path clip-rule="nonzero" d="M 21 0 L 30 0 L 30 9.769531 L 21 9.769531 Z M 21 0 "/>
</clipPath>
</defs>
<g fill="rgb(0%, 0%, 0%)" fill-opacity="1">
<use xlink:href="#glyph-0-1" x="0.5" y="8.803"/>
</g>
<g clip-path="url(#clip-0)">
<g fill="rgb(0%, 0%, 0%)" fill-opacity="1">
<use xlink:href="#glyph-1-1" x="10.31" y="8.803"/>
</g>
</g>
<g clip-path="url(#clip-1)">
<g fill="rgb(0%, 0%, 0%)" fill-opacity="1">
<use xlink:href="#glyph-2-1" x="21.601" y="8.803"/>
</g>
</g>
</svg>
