<?xml version="1.0" encoding="UTF-8"?>
<svg xmlns="http://www.w3.org/2000/svg" xmlns:xlink="http://www.w3.org/1999/xlink" viewBox="0 0 10.426 9.169">
<defs>
<g>
<g id="glyph-0-0">
</g>
<g id="glyph-0-1">
<path d="M 7.40625 -6.84375 C 7.8125 -7.484375 8.171875 -7.765625 8.78125 -7.8125 C 8.90625 -7.828125 9 -7.828125 9 -8.046875 C 9 -8.09375 8.984375 -8.15625 8.875 -8.15625 C 8.65625 -8.15625 8.140625 -8.140625 7.921875 -8.140625 C 7.578125 -8.140625 7.21875 -8.15625 6.890625 -8.15625 C 6.796875 -8.15625 6.671875 -8.15625 6.671875 -7.9375 C 6.671875 -7.828125 6.78125 -7.8125 6.828125 -7.8125 C 7.265625 -7.78125 7.3125 -7.5625 7.3125 -7.421875 C 7.3125 -7.25 7.140625 -6.96875 7.140625 -6.953125 L 3.375 -1 L 2.546875 -7.453125 C 2.546875 -7.796875 3.171875 -7.8125 3.296875 -7.8125 C 3.484375 -7.8125 3.578125 -7.8125 3.578125 -8.046875 C 3.578125 -8.15625 3.453125 -8.15625 3.421875 -8.15625 C 3.21875 -8.15625 2.96875 -8.140625 2.765625 -8.140625 L 2.109375 -8.140625 C 1.234375 -8.140625 0.875 -8.15625 0.859375 -8.15625 C 0.78125 -8.15625 0.640625 -8.15625 0.640625 -7.953125 C 0.640625 -7.8125 0.734375 -7.8125 0.921875 -7.8125 C 1.53125 -7.8125 1.5625 -7.703125 1.609375 -7.40625 L 2.5625 -0.03125 C 2.59375 0.21875 2.59375 0.25 2.765625 0.25 C 2.90625 0.25 2.96875 0.21875 3.078125 0.03125 Z M 7.40625 -6.84375 "/>
</g>
</g>
</defs>
<g fill="rgb(0%, 0%, 0%)" fill-opacity="1">
<use xlink:href="#glyph-0-1" x="0.5" y="8.669"/>
</g>
</svg>
