<?xml version="1.0" encoding="UTF-8"?>
<svg xmlns="http://www.w3.org/2000/svg" xmlns:xlink="http://www.w3.org/1999/xlink" viewBox="0 0 58.294 12.955">
<defs>
<g>
<g id="glyph-0-0">
</g>
<g id="glyph-0-1">
<path d="M 3.359375 -8 C 3.375 -8.046875 3.390625 -8.109375 3.390625 -8.171875 C 3.390625 -8.296875 3.28125 -8.296875 3.25 -8.296875 C 3.234375 -8.296875 2.8125 -8.265625 2.59375 -8.234375 C 2.390625 -8.21875 2.21875 -8.203125 2 -8.1875 C 1.703125 -8.15625 1.625 -8.15625 1.625 -7.9375 C 1.625 -7.8125 1.75 -7.8125 1.859375 -7.8125 C 2.46875 -7.8125 2.46875 -7.703125 2.46875 -7.59375 C 2.46875 -7.546875 2.46875 -7.515625 2.421875 -7.296875 L 0.703125 -0.46875 C 0.65625 -0.28125 0.65625 -0.265625 0.65625 -0.1875 C 0.65625 0.078125 0.859375 0.125 0.984375 0.125 C 1.3125 0.125 1.390625 -0.140625 1.484375 -0.515625 L 2.046875 -2.75 C 2.90625 -2.65625 3.421875 -2.296875 3.421875 -1.71875 C 3.421875 -1.65625 3.421875 -1.609375 3.375 -1.421875 C 3.328125 -1.25 3.328125 -1.09375 3.328125 -1.046875 C 3.328125 -0.34375 3.796875 0.125 4.40625 0.125 C 4.953125 0.125 5.234375 -0.375 5.328125 -0.546875 C 5.578125 -0.984375 5.734375 -1.65625 5.734375 -1.703125 C 5.734375 -1.765625 5.6875 -1.8125 5.625 -1.8125 C 5.515625 -1.8125 5.5 -1.765625 5.453125 -1.578125 C 5.28125 -0.953125 5.03125 -0.125 4.421875 -0.125 C 4.1875 -0.125 4.03125 -0.234375 4.03125 -0.6875 C 4.03125 -0.921875 4.078125 -1.1875 4.125 -1.359375 C 4.171875 -1.578125 4.171875 -1.59375 4.171875 -1.734375 C 4.171875 -2.4375 3.53125 -2.828125 2.4375 -2.96875 C 2.875 -3.234375 3.296875 -3.703125 3.46875 -3.890625 C 4.140625 -4.65625 4.609375 -5.03125 5.15625 -5.03125 C 5.4375 -5.03125 5.515625 -4.953125 5.59375 -4.890625 C 5.15625 -4.84375 4.984375 -4.53125 4.984375 -4.296875 C 4.984375 -4 5.21875 -3.90625 5.375 -3.90625 C 5.703125 -3.90625 5.984375 -4.1875 5.984375 -4.5625 C 5.984375 -4.90625 5.71875 -5.265625 5.171875 -5.265625 C 4.515625 -5.265625 3.984375 -4.8125 3.125 -3.84375 C 3.015625 -3.703125 2.5625 -3.25 2.125 -3.078125 Z M 3.359375 -8 "/>
</g>
<g id="glyph-0-2">
<path d="M 2.328125 0.046875 C 2.328125 -0.640625 2.109375 -1.15625 1.609375 -1.15625 C 1.234375 -1.15625 1.046875 -0.84375 1.046875 -0.578125 C 1.046875 -0.328125 1.21875 0 1.625 0 C 1.78125 0 1.90625 -0.046875 2.015625 -0.15625 C 2.046875 -0.171875 2.0625 -0.171875 2.0625 -0.171875 C 2.09375 -0.171875 2.09375 -0.015625 2.09375 0.046875 C 2.09375 0.4375 2.015625 1.21875 1.328125 2 C 1.1875 2.140625 1.1875 2.15625 1.1875 2.1875 C 1.1875 2.25 1.25 2.3125 1.3125 2.3125 C 1.40625 2.3125 2.328125 1.421875 2.328125 0.046875 Z M 2.328125 0.046875 "/>
</g>
<g id="glyph-0-3">
<path d="M 8.84375 -6.90625 C 8.984375 -7.421875 9.171875 -7.78125 10.078125 -7.8125 C 10.109375 -7.8125 10.25 -7.828125 10.25 -8.03125 C 10.25 -8.15625 10.140625 -8.15625 10.09375 -8.15625 C 9.859375 -8.15625 9.25 -8.140625 9.015625 -8.140625 L 8.4375 -8.140625 C 8.265625 -8.140625 8.0625 -8.15625 7.890625 -8.15625 C 7.8125 -8.15625 7.671875 -8.15625 7.671875 -7.9375 C 7.671875 -7.8125 7.765625 -7.8125 7.859375 -7.8125 C 8.578125 -7.796875 8.625 -7.515625 8.625 -7.296875 C 8.625 -7.203125 8.609375 -7.15625 8.578125 -7 L 7.21875 -1.609375 L 4.65625 -7.953125 C 4.578125 -8.15625 4.5625 -8.15625 4.296875 -8.15625 L 2.84375 -8.15625 C 2.609375 -8.15625 2.5 -8.15625 2.5 -7.9375 C 2.5 -7.8125 2.578125 -7.8125 2.8125 -7.8125 C 2.875 -7.8125 3.578125 -7.8125 3.578125 -7.703125 C 3.578125 -7.6875 3.546875 -7.59375 3.53125 -7.546875 L 1.953125 -1.21875 C 1.8125 -0.640625 1.515625 -0.375 0.734375 -0.34375 C 0.671875 -0.34375 0.546875 -0.328125 0.546875 -0.125 C 0.546875 0 0.671875 0 0.703125 0 C 0.9375 0 1.546875 -0.03125 1.796875 -0.03125 L 2.359375 -0.03125 C 2.53125 -0.03125 2.734375 0 2.90625 0 C 2.984375 0 3.125 0 3.125 -0.234375 C 3.125 -0.328125 3 -0.34375 2.953125 -0.34375 C 2.5625 -0.359375 2.171875 -0.4375 2.171875 -0.859375 C 2.171875 -0.953125 2.203125 -1.0625 2.21875 -1.15625 L 3.84375 -7.546875 C 3.90625 -7.4375 3.90625 -7.40625 3.953125 -7.296875 L 6.796875 -0.21875 C 6.859375 -0.078125 6.890625 0 7 0 C 7.109375 0 7.125 -0.03125 7.171875 -0.234375 Z M 8.84375 -6.90625 "/>
</g>
<g id="glyph-1-0">
</g>
<g id="glyph-1-1">
<path d="M 6.546875 -2.75 C 6.75 -2.75 6.96875 -2.75 6.96875 -2.984375 C 6.96875 -3.234375 6.75 -3.234375 6.546875 -3.234375 L 1.484375 -3.234375 C 1.625 -4.828125 3 -5.96875 4.6875 -5.96875 L 6.546875 -5.96875 C 6.75 -5.96875 6.96875 -5.96875 6.96875 -6.21875 C 6.96875 -6.453125 6.75 -6.453125 6.546875 -6.453125 L 4.65625 -6.453125 C 2.625 -6.453125 0.984375 -4.90625 0.984375 -2.984375 C 0.984375 -1.078125 2.625 0.484375 4.65625 0.484375 L 6.546875 0.484375 C 6.75 0.484375 6.96875 0.484375 6.96875 0.234375 C 6.96875 0 6.75 0 6.546875 0 L 4.6875 0 C 3 0 1.625 -1.140625 1.484375 -2.75 Z M 6.546875 -2.75 "/>
</g>
<g id="glyph-2-0">
</g>
<g id="glyph-2-1">
<path d="M 7.125 -7.75 C 7.234375 -7.90625 7.234375 -7.9375 7.234375 -7.96875 C 7.234375 -8.1875 7.046875 -8.1875 6.84375 -8.1875 L 1.359375 -8.1875 C 0.984375 -8.1875 0.984375 -8.15625 0.9375 -7.84375 L 0.765625 -6.234375 L 0.734375 -6.078125 C 0.734375 -5.90625 0.875 -5.84375 0.953125 -5.84375 C 1.0625 -5.84375 1.140625 -5.921875 1.15625 -6.03125 C 1.203125 -6.3125 1.3125 -6.84375 2.046875 -7.296875 C 2.71875 -7.734375 3.5625 -7.765625 3.96875 -7.765625 L 4.9375 -7.765625 L 0.4375 -0.4375 C 0.328125 -0.28125 0.328125 -0.25 0.328125 -0.21875 C 0.328125 0 0.53125 0 0.734375 0 L 6.875 0 C 7.234375 0 7.234375 -0.03125 7.28125 -0.328125 L 7.609375 -2.6875 C 7.609375 -2.828125 7.5 -2.90625 7.40625 -2.90625 C 7.21875 -2.90625 7.203125 -2.78125 7.15625 -2.546875 C 6.953125 -1.5625 6.03125 -0.421875 4.328125 -0.421875 L 2.625 -0.421875 Z M 1.34375 -7.765625 L 1.984375 -7.765625 L 1.984375 -7.75 C 1.65625 -7.578125 1.4375 -7.359375 1.296875 -7.234375 Z M 5.421875 -7.765625 L 6.640625 -7.765625 L 2.140625 -0.421875 L 0.921875 -0.421875 Z M 6.0625 -0.4375 C 6.390625 -0.625 6.703125 -0.890625 6.984375 -1.21875 C 6.953125 -0.984375 6.9375 -0.84375 6.875 -0.421875 L 6.0625 -0.421875 Z M 6.0625 -0.4375 "/>
</g>
<g id="glyph-3-0">
</g>
<g id="glyph-3-1">
<path d="M 2.984375 2.984375 L 2.984375 2.546875 L 1.828125 2.546875 L 1.828125 -8.515625 L 2.984375 -8.515625 L 2.984375 -8.96875 L 1.390625 -8.96875 L 1.390625 2.984375 Z M 2.984375 2.984375 "/>
</g>
<g id="glyph-3-2">
<path d="M 5.265625 -2.015625 L 5 -2.015625 C 4.953125 -1.8125 4.859375 -1.140625 4.75 -0.953125 C 4.65625 -0.84375 3.984375 -0.84375 3.625 -0.84375 L 1.40625 -0.84375 C 1.734375 -1.125 2.46875 -1.890625 2.765625 -2.171875 C 4.59375 -3.84375 5.265625 -4.46875 5.265625 -5.65625 C 5.265625 -7.03125 4.171875 -7.953125 2.78125 -7.953125 C 1.40625 -7.953125 0.578125 -6.765625 0.578125 -5.734375 C 0.578125 -5.125 1.109375 -5.125 1.140625 -5.125 C 1.40625 -5.125 1.703125 -5.3125 1.703125 -5.6875 C 1.703125 -6.03125 1.484375 -6.25 1.140625 -6.25 C 1.046875 -6.25 1.015625 -6.25 0.984375 -6.234375 C 1.203125 -7.046875 1.859375 -7.609375 2.625 -7.609375 C 3.640625 -7.609375 4.265625 -6.75 4.265625 -5.65625 C 4.265625 -4.640625 3.6875 -3.75 3 -2.984375 L 0.578125 -0.28125 L 0.578125 0 L 4.953125 0 Z M 5.265625 -2.015625 "/>
</g>
<g id="glyph-3-3">
<path d="M 1.859375 -8.96875 L 0.25 -8.96875 L 0.25 -8.515625 L 1.40625 -8.515625 L 1.40625 2.546875 L 0.25 2.546875 L 0.25 2.984375 L 1.859375 2.984375 Z M 1.859375 -8.96875 "/>
</g>
</g>
<clipPath id="clip-0">
<path clip-rule="nonzero" d="M 30 0 L 39 0 L 39 12.953125 L 30 12.953125 Z M 30 0 "/>
</clipPath>
<clipPath id="clip-1">
<path clip-rule="nonzero" d="M 54 0 L 57 0 L 57 12.953125 L 54 12.953125 Z M 54 0 "/>
</clipPath>
</defs>
<g fill="rgb(0%, 0%, 0%)" fill-opacity="1">
<use xlink:href="#glyph-0-1" x="0.5" y="9.466"/>
</g>
<g fill="rgb(0%, 0%, 0%)" fill-opacity="1">
<use xlink:href="#glyph-1-1" x="10.31" y="9.466"/>
</g>
<g fill="rgb(0%, 0%, 0%)" fill-opacity="1">
<use xlink:href="#glyph-2-1" x="21.601" y="9.466"/>
</g>
<g clip-path="url(#clip-0)">
<g fill="rgb(0%, 0%, 0%)" fill-opacity="1">
<use xlink:href="#glyph-3-1" x="29.571" y="9.466"/>
<use xlink:href="#glyph-3-2" x="32.822814" y="9.466"/>
</g>
</g>
<g fill="rgb(0%, 0%, 0%)" fill-opacity="1">
<use xlink:href="#glyph-0-2" x="38.676" y="9.466"/>
</g>
<g fill="rgb(0%, 0%, 0%)" fill-opacity="1">
<use xlink:href="#glyph-0-3" x="43.924333" y="9.466"/>
</g>
<g clip-path="url(#clip-1)">
<g fill="rgb(0%, 0%, 0%)" fill-opacity="1">
<use xlink:href="#glyph-3-3" x="54.543" y="9.466"/>
</g>
</g>
</svg>
