<?xml version="1.0" encoding="UTF-8"?>
<svg xmlns="http://www.w3.org/2000/svg" xmlns:xlink="http://www.w3.org/1999/xlink" viewBox="0 0 43.664 11.56">
<defs>
<g>
<g id="glyph-0-0">
</g>
<g id="glyph-0-1">
<path d="M 5.671875 -4.875 C 5.28125 -4.8125 5.140625 -4.515625 5.140625 -4.296875 C 5.140625 -4 5.359375 -3.90625 5.53125 -3.90625 C 5.890625 -3.90625 6.140625 -4.21875 6.140625 -4.546875 C 6.140625 -5.046875 5.5625 -5.265625 5.0625 -5.265625 C 4.34375 -5.265625 3.9375 -4.546875 3.828125 -4.328125 C 3.546875 -5.21875 2.8125 -5.265625 2.59375 -5.265625 C 1.375 -5.265625 0.734375 -3.703125 0.734375 -3.4375 C 0.734375 -3.390625 0.78125 -3.328125 0.859375 -3.328125 C 0.953125 -3.328125 0.984375 -3.40625 1 -3.453125 C 1.40625 -4.78125 2.21875 -5.03125 2.5625 -5.03125 C 3.09375 -5.03125 3.203125 -4.53125 3.203125 -4.25 C 3.203125 -3.984375 3.125 -3.703125 2.984375 -3.125 L 2.578125 -1.5 C 2.40625 -0.78125 2.0625 -0.125 1.421875 -0.125 C 1.359375 -0.125 1.0625 -0.125 0.8125 -0.28125 C 1.25 -0.359375 1.34375 -0.71875 1.34375 -0.859375 C 1.34375 -1.09375 1.15625 -1.25 0.9375 -1.25 C 0.640625 -1.25 0.328125 -0.984375 0.328125 -0.609375 C 0.328125 -0.109375 0.890625 0.125 1.40625 0.125 C 1.984375 0.125 2.390625 -0.328125 2.640625 -0.828125 C 2.828125 -0.125 3.4375 0.125 3.875 0.125 C 5.09375 0.125 5.734375 -1.453125 5.734375 -1.703125 C 5.734375 -1.765625 5.6875 -1.8125 5.625 -1.8125 C 5.515625 -1.8125 5.5 -1.75 5.46875 -1.65625 C 5.140625 -0.609375 4.453125 -0.125 3.90625 -0.125 C 3.484375 -0.125 3.265625 -0.4375 3.265625 -0.921875 C 3.265625 -1.1875 3.3125 -1.375 3.5 -2.15625 L 3.921875 -3.796875 C 4.09375 -4.5 4.5 -5.03125 5.0625 -5.03125 C 5.078125 -5.03125 5.421875 -5.03125 5.671875 -4.875 Z M 5.671875 -4.875 "/>
</g>
<g id="glyph-0-2">
<path d="M 2.328125 0.046875 C 2.328125 -0.640625 2.109375 -1.15625 1.609375 -1.15625 C 1.234375 -1.15625 1.046875 -0.84375 1.046875 -0.578125 C 1.046875 -0.328125 1.21875 0 1.625 0 C 1.78125 0 1.90625 -0.046875 2.015625 -0.15625 C 2.046875 -0.171875 2.0625 -0.171875 2.0625 -0.171875 C 2.09375 -0.171875 2.09375 -0.015625 2.09375 0.046875 C 2.09375 0.4375 2.015625 1.21875 1.328125 2 C 1.1875 2.140625 1.1875 2.15625 1.1875 2.1875 C 1.1875 2.25 1.25 2.3125 1.3125 2.3125 C 1.40625 2.3125 2.328125 1.421875 2.328125 0.046875 Z M 2.328125 0.046875 "/>
</g>
<g id="glyph-0-3">
<path d="M 5.53125 -3.03125 C 5.53125 -4.1875 4.875 -5.265625 3.609375 -5.265625 C 2.046875 -5.265625 0.484375 -3.5625 0.484375 -1.859375 C 0.484375 -0.828125 1.125 0.125 2.34375 0.125 C 3.078125 0.125 3.96875 -0.171875 4.8125 -0.890625 C 4.984375 -0.21875 5.359375 0.125 5.875 0.125 C 6.515625 0.125 6.84375 -0.546875 6.84375 -0.703125 C 6.84375 -0.8125 6.75 -0.8125 6.71875 -0.8125 C 6.625 -0.8125 6.609375 -0.78125 6.578125 -0.6875 C 6.46875 -0.375 6.1875 -0.125 5.90625 -0.125 C 5.53125 -0.125 5.53125 -0.890625 5.53125 -1.609375 C 6.75 -3.078125 7.046875 -4.578125 7.046875 -4.59375 C 7.046875 -4.703125 6.9375 -4.703125 6.90625 -4.703125 C 6.796875 -4.703125 6.796875 -4.65625 6.734375 -4.453125 C 6.59375 -3.921875 6.28125 -2.984375 5.53125 -2.015625 Z M 4.78125 -1.171875 C 3.734375 -0.234375 2.78125 -0.125 2.359375 -0.125 C 1.515625 -0.125 1.28125 -0.875 1.28125 -1.4375 C 1.28125 -1.953125 1.546875 -3.171875 1.90625 -3.828125 C 2.40625 -4.65625 3.078125 -5.03125 3.609375 -5.03125 C 4.765625 -5.03125 4.765625 -3.515625 4.765625 -2.515625 C 4.765625 -2.21875 4.75 -1.90625 4.75 -1.609375 C 4.75 -1.359375 4.765625 -1.296875 4.78125 -1.171875 Z M 4.78125 -1.171875 "/>
</g>
<g id="glyph-1-0">
</g>
<g id="glyph-1-1">
<path d="M 6.546875 -2.75 C 6.75 -2.75 6.96875 -2.75 6.96875 -2.984375 C 6.96875 -3.234375 6.75 -3.234375 6.546875 -3.234375 L 1.484375 -3.234375 C 1.625 -4.828125 3 -5.96875 4.6875 -5.96875 L 6.546875 -5.96875 C 6.75 -5.96875 6.96875 -5.96875 6.96875 -6.21875 C 6.96875 -6.453125 6.75 -6.453125 6.546875 -6.453125 L 4.65625 -6.453125 C 2.625 -6.453125 0.984375 -4.90625 0.984375 -2.984375 C 0.984375 -1.078125 2.625 0.484375 4.65625 0.484375 L 6.546875 0.484375 C 6.75 0.484375 6.96875 0.484375 6.96875 0.234375 C 6.96875 0 6.75 0 6.546875 0 L 4.6875 0 C 3 0 1.625 -1.140625 1.484375 -2.75 Z M 6.546875 -2.75 "/>
</g>
<g id="glyph-2-0">
</g>
<g id="glyph-2-1">
<path d="M 3.203125 -3.75 L 3.640625 -3.75 L 5.421875 -0.984375 C 5.546875 -0.78125 5.828125 -0.328125 5.96875 -0.140625 C 6.046875 0 6.078125 0 6.359375 0 L 8.015625 0 C 8.21875 0 8.40625 0 8.40625 -0.21875 C 8.40625 -0.3125 8.328125 -0.390625 8.21875 -0.421875 C 7.78125 -0.515625 7.203125 -1.296875 6.90625 -1.6875 C 6.828125 -1.8125 6.234375 -2.59375 5.421875 -3.890625 C 6.484375 -4.078125 7.515625 -4.53125 7.515625 -5.953125 C 7.515625 -7.609375 5.765625 -8.1875 4.34375 -8.1875 L 0.59375 -8.1875 C 0.375 -8.1875 0.1875 -8.1875 0.1875 -7.96875 C 0.1875 -7.765625 0.421875 -7.765625 0.515625 -7.765625 C 1.1875 -7.765625 1.25 -7.6875 1.25 -7.09375 L 1.25 -1.09375 C 1.25 -0.5 1.1875 -0.421875 0.515625 -0.421875 C 0.421875 -0.421875 0.1875 -0.421875 0.1875 -0.21875 C 0.1875 0 0.375 0 0.59375 0 L 3.875 0 C 4.09375 0 4.265625 0 4.265625 -0.21875 C 4.265625 -0.421875 4.0625 -0.421875 3.9375 -0.421875 C 3.25 -0.421875 3.203125 -0.515625 3.203125 -1.09375 Z M 5.515625 -4.34375 C 5.84375 -4.78125 5.875 -5.421875 5.875 -5.9375 C 5.875 -6.515625 5.8125 -7.140625 5.421875 -7.640625 C 5.921875 -7.53125 7.09375 -7.15625 7.09375 -5.953125 C 7.09375 -5.171875 6.734375 -4.5625 5.515625 -4.34375 Z M 3.203125 -7.125 C 3.203125 -7.375 3.203125 -7.765625 3.9375 -7.765625 C 4.953125 -7.765625 5.46875 -7.34375 5.46875 -5.9375 C 5.46875 -4.40625 5.09375 -4.171875 3.203125 -4.171875 Z M 1.578125 -0.421875 C 1.671875 -0.640625 1.671875 -0.96875 1.671875 -1.078125 L 1.671875 -7.109375 C 1.671875 -7.234375 1.671875 -7.546875 1.578125 -7.765625 L 2.9375 -7.765625 C 2.78125 -7.578125 2.78125 -7.34375 2.78125 -7.15625 L 2.78125 -1.078125 C 2.78125 -0.953125 2.78125 -0.640625 2.875 -0.421875 Z M 4.125 -3.75 C 4.203125 -3.765625 4.25 -3.78125 4.34375 -3.78125 C 4.53125 -3.78125 4.796875 -3.796875 4.96875 -3.828125 C 5.15625 -3.53125 6.4375 -1.40625 7.4375 -0.421875 L 6.28125 -0.421875 Z M 4.125 -3.75 "/>
</g>
</g>
<clipPath id="clip-0">
<path clip-rule="nonzero" d="M 0 3 L 10 3 L 10 11.558594 L 0 11.558594 Z M 0 3 "/>
</clipPath>
</defs>
<g clip-path="url(#clip-0)">
<g fill="rgb(0%, 0%, 0%)" fill-opacity="1">
<use xlink:href="#glyph-0-1" x="0.5" y="8.735"/>
<use xlink:href="#glyph-0-2" x="7.151873" y="8.735"/>
</g>
</g>
<g fill="rgb(0%, 0%, 0%)" fill-opacity="1">
<use xlink:href="#glyph-0-3" x="12.400206" y="8.735"/>
</g>
<g fill="rgb(0%, 0%, 0%)" fill-opacity="1">
<use xlink:href="#glyph-1-1" x="23.239" y="8.735"/>
</g>
<g fill="rgb(0%, 0%, 0%)" fill-opacity="1">
<use xlink:href="#glyph-2-1" x="34.53" y="8.735"/>
</g>
</svg>
