<?xml version="1.0" encoding="UTF-8"?>
<svg xmlns="http://www.w3.org/2000/svg" xmlns:xlink="http://www.w3.org/1999/xlink" viewBox="0 0 45.546 11.494">
<defs>
<g>
<g id="glyph-0-0">
</g>
<g id="glyph-0-1">
<path d="M 4.65625 -1.578125 C 6.46875 -1.734375 7.796875 -2.84375 7.796875 -4.078125 C 7.796875 -5.359375 6.4375 -6.4375 4.65625 -6.59375 L 4.65625 -7.25 C 4.65625 -7.671875 4.671875 -7.8125 5.71875 -7.8125 L 6.078125 -7.8125 L 6.078125 -8.15625 C 5.75 -8.140625 4.59375 -8.140625 4.203125 -8.140625 C 3.796875 -8.140625 2.640625 -8.140625 2.3125 -8.15625 L 2.3125 -7.8125 L 2.671875 -7.8125 C 3.71875 -7.8125 3.734375 -7.671875 3.734375 -7.25 L 3.734375 -6.578125 C 1.890625 -6.40625 0.640625 -5.265625 0.640625 -4.09375 C 0.640625 -2.859375 1.921875 -1.75 3.734375 -1.59375 L 3.734375 -0.921875 C 3.734375 -0.484375 3.71875 -0.34375 2.671875 -0.34375 L 2.3125 -0.34375 L 2.3125 0 C 2.640625 -0.03125 3.796875 -0.03125 4.203125 -0.03125 C 4.59375 -0.03125 5.75 -0.03125 6.078125 0 L 6.078125 -0.34375 L 5.71875 -0.34375 C 4.671875 -0.34375 4.65625 -0.484375 4.65625 -0.921875 Z M 3.734375 -1.84375 C 2.4375 -2.015625 1.734375 -2.765625 1.734375 -4.078125 C 1.734375 -5.390625 2.421875 -6.15625 3.734375 -6.328125 Z M 4.65625 -6.328125 C 6.046875 -6.15625 6.703125 -5.359375 6.703125 -4.09375 C 6.703125 -2.84375 6.09375 -2.015625 4.65625 -1.828125 Z M 4.65625 -6.328125 "/>
</g>
<g id="glyph-0-2">
<path d="M 8.0625 -3.875 C 8.234375 -3.875 8.453125 -3.875 8.453125 -4.09375 C 8.453125 -4.3125 8.25 -4.3125 8.0625 -4.3125 L 1.03125 -4.3125 C 0.859375 -4.3125 0.640625 -4.3125 0.640625 -4.09375 C 0.640625 -3.875 0.84375 -3.875 1.03125 -3.875 Z M 8.0625 -1.65625 C 8.234375 -1.65625 8.453125 -1.65625 8.453125 -1.859375 C 8.453125 -2.09375 8.25 -2.09375 8.0625 -2.09375 L 1.03125 -2.09375 C 0.859375 -2.09375 0.640625 -2.09375 0.640625 -1.875 C 0.640625 -1.65625 0.84375 -1.65625 1.03125 -1.65625 Z M 8.0625 -1.65625 "/>
</g>
<g id="glyph-1-0">
</g>
<g id="glyph-1-1">
<path d="M 10.796875 -6.84375 C 11.0625 -7.296875 11.328125 -7.75 12.046875 -7.8125 C 12.15625 -7.828125 12.265625 -7.84375 12.265625 -8.03125 C 12.265625 -8.15625 12.15625 -8.15625 12.125 -8.15625 C 12.09375 -8.15625 12.015625 -8.140625 11.21875 -8.140625 C 10.859375 -8.140625 10.5 -8.15625 10.140625 -8.15625 C 10.078125 -8.15625 9.9375 -8.15625 9.9375 -7.9375 C 9.9375 -7.828125 10.03125 -7.8125 10.09375 -7.8125 C 10.34375 -7.8125 10.71875 -7.734375 10.71875 -7.359375 C 10.71875 -7.203125 10.671875 -7.125 10.546875 -6.921875 L 7.296875 -1.203125 L 6.859375 -7.4375 C 6.859375 -7.578125 7 -7.8125 7.65625 -7.8125 C 7.8125 -7.8125 7.9375 -7.8125 7.9375 -8.046875 C 7.9375 -8.15625 7.8125 -8.15625 7.75 -8.15625 C 7.34375 -8.15625 6.890625 -8.140625 6.46875 -8.140625 L 5.84375 -8.140625 C 5.671875 -8.140625 5.453125 -8.15625 5.265625 -8.15625 C 5.203125 -8.15625 5.0625 -8.15625 5.0625 -7.9375 C 5.0625 -7.8125 5.140625 -7.8125 5.34375 -7.8125 C 5.890625 -7.8125 5.890625 -7.8125 5.9375 -7.078125 L 5.96875 -6.640625 L 2.875 -1.203125 L 2.4375 -7.375 C 2.4375 -7.5 2.4375 -7.8125 3.25 -7.8125 C 3.375 -7.8125 3.515625 -7.8125 3.515625 -8.03125 C 3.515625 -8.15625 3.40625 -8.15625 3.328125 -8.15625 C 2.921875 -8.15625 2.46875 -8.140625 2.046875 -8.140625 L 1.421875 -8.140625 C 1.25 -8.140625 1.03125 -8.15625 0.84375 -8.15625 C 0.78125 -8.15625 0.640625 -8.15625 0.640625 -7.9375 C 0.640625 -7.8125 0.734375 -7.8125 0.890625 -7.8125 C 1.453125 -7.8125 1.46875 -7.75 1.5 -7.359375 L 2.015625 -0.03125 C 2.03125 0.171875 2.046875 0.25 2.1875 0.25 C 2.3125 0.25 2.328125 0.203125 2.4375 0.03125 L 6 -6.203125 L 6.4375 -0.03125 C 6.453125 0.171875 6.46875 0.25 6.609375 0.25 C 6.734375 0.25 6.765625 0.1875 6.859375 0.03125 Z M 10.796875 -6.84375 "/>
</g>
<g id="glyph-1-2">
<path d="M 3.59375 -0.53125 C 3.390625 -0.53125 3.21875 -0.53125 3.21875 -0.578125 C 3.21875 -0.609375 3.421875 -1.734375 3.484375 -2 C 3.875 -3.53125 4.78125 -4.625 5.828125 -4.625 C 6.59375 -4.625 6.953125 -4.046875 6.953125 -3.375 C 6.953125 -2.015625 5.421875 -0.53125 3.59375 -0.53125 Z M 3.078125 0.09375 C 3.15625 0.109375 3.28125 0.125 3.484375 0.125 C 5.453125 0.125 7.25 -1.765625 7.25 -3.65625 C 7.25 -4.390625 6.9375 -5.265625 5.921875 -5.265625 C 4.203125 -5.265625 3.484375 -2.84375 2.8125 -0.59375 C 1.4375 -0.859375 0.859375 -1.59375 0.859375 -2.390625 C 0.859375 -2.71875 1.109375 -4 1.8125 -4.859375 C 1.9375 -5.015625 1.9375 -5.03125 1.9375 -5.0625 C 1.9375 -5.15625 1.84375 -5.15625 1.8125 -5.15625 C 1.5 -5.15625 0.578125 -3.40625 0.578125 -2.265625 C 0.578125 -0.9375 1.640625 -0.203125 2.609375 0.015625 L 1.984375 2.03125 C 1.921875 2.21875 1.921875 2.234375 1.921875 2.28125 C 1.921875 2.5625 2.21875 2.578125 2.234375 2.578125 C 2.359375 2.578125 2.5625 2.53125 2.671875 2.296875 C 2.703125 2.1875 3.03125 0.328125 3.078125 0.09375 Z M 3.078125 0.09375 "/>
</g>
</g>
<clipPath id="clip-0">
<path clip-rule="nonzero" d="M 37 3 L 45 3 L 45 11.492188 L 37 11.492188 Z M 37 3 "/>
</clipPath>
</defs>
<g fill="rgb(0%, 0%, 0%)" fill-opacity="1">
<use xlink:href="#glyph-0-1" x="0.5" y="8.669"/>
</g>
<g fill="rgb(0%, 0%, 0%)" fill-opacity="1">
<use xlink:href="#glyph-1-1" x="8.954" y="8.669"/>
</g>
<g fill="rgb(0%, 0%, 0%)" fill-opacity="1">
<use xlink:href="#glyph-0-2" x="24.952" y="8.669"/>
</g>
<g clip-path="url(#clip-0)">
<g fill="rgb(0%, 0%, 0%)" fill-opacity="1">
<use xlink:href="#glyph-1-2" x="37.378" y="8.669"/>
</g>
</g>
</svg>
