<?xml version="1.0" encoding="UTF-8"?>
<svg xmlns="http://www.w3.org/2000/svg" xmlns:xlink="http://www.w3.org/1999/xlink" viewBox="0 0 31.499 12.291">
<defs>
<g>
<g id="glyph-0-0">
</g>
<g id="glyph-0-1">
<path d="M 2.03125 -1.328125 C 1.609375 -0.625 1.203125 -0.375 0.640625 -0.34375 C 0.5 -0.328125 0.40625 -0.328125 0.40625 -0.125 C 0.40625 -0.046875 0.46875 0 0.546875 0 C 0.765625 0 1.296875 -0.03125 1.515625 -0.03125 C 1.859375 -0.03125 2.25 0 2.578125 0 C 2.65625 0 2.796875 0 2.796875 -0.234375 C 2.796875 -0.328125 2.703125 -0.34375 2.625 -0.34375 C 2.359375 -0.375 2.125 -0.46875 2.125 -0.75 C 2.125 -0.921875 2.203125 -1.046875 2.359375 -1.3125 L 3.265625 -2.828125 L 6.3125 -2.828125 C 6.328125 -2.71875 6.328125 -2.625 6.328125 -2.515625 C 6.375 -2.203125 6.515625 -0.953125 6.515625 -0.734375 C 6.515625 -0.375 5.90625 -0.34375 5.71875 -0.34375 C 5.578125 -0.34375 5.453125 -0.34375 5.453125 -0.125 C 5.453125 0 5.5625 0 5.625 0 C 5.828125 0 6.078125 -0.03125 6.28125 -0.03125 L 6.953125 -0.03125 C 7.6875 -0.03125 8.21875 0 8.21875 0 C 8.3125 0 8.4375 0 8.4375 -0.234375 C 8.4375 -0.34375 8.328125 -0.34375 8.15625 -0.34375 C 7.5 -0.34375 7.484375 -0.453125 7.453125 -0.8125 L 6.71875 -8.265625 C 6.6875 -8.515625 6.640625 -8.53125 6.515625 -8.53125 C 6.390625 -8.53125 6.328125 -8.515625 6.21875 -8.328125 Z M 3.46875 -3.171875 L 5.875 -7.1875 L 6.28125 -3.171875 Z M 3.46875 -3.171875 "/>
</g>
<g id="glyph-1-0">
</g>
<g id="glyph-1-1">
<path d="M 7.53125 -8.09375 C 7.625 -8.265625 7.625 -8.28125 7.625 -8.3125 C 7.625 -8.40625 7.546875 -8.5625 7.390625 -8.5625 C 7.25 -8.5625 7.203125 -8.484375 7.125 -8.3125 L 1.75 2.109375 C 1.65625 2.28125 1.65625 2.3125 1.65625 2.34375 C 1.65625 2.4375 1.75 2.578125 1.90625 2.578125 C 2.046875 2.578125 2.078125 2.515625 2.15625 2.34375 Z M 7.53125 -8.09375 "/>
</g>
<g id="glyph-1-2">
<path d="M 4.640625 -8.984375 C 4.640625 -9.125 4.546875 -9.234375 4.40625 -9.234375 C 4.21875 -9.234375 4.1875 -9.09375 4.109375 -8.84375 C 3.96875 -8.359375 4.09375 -8.78125 3.953125 -8.3125 C 3.8125 -8.375 3.4375 -8.5625 2.984375 -8.5625 C 2.3125 -8.5625 1.53125 -8.203125 1.09375 -7.28125 C 0.625 -6.3125 0.5625 -5.234375 0.5625 -4.125 C 0.5625 -3.375 0.5625 -1.21875 1.609375 -0.28125 C 1.328125 0.640625 1.328125 0.65625 1.328125 0.6875 C 1.328125 0.828125 1.421875 0.9375 1.5625 0.9375 C 1.75 0.9375 1.78125 0.8125 1.859375 0.546875 C 2 0.078125 1.875 0.484375 2.015625 0.015625 C 2.296875 0.171875 2.65625 0.265625 2.96875 0.265625 C 4.3125 0.265625 4.84375 -0.859375 5.0625 -1.4375 C 5.359375 -2.265625 5.40625 -3.265625 5.40625 -4.125 C 5.40625 -5.015625 5.40625 -7 4.359375 -7.984375 Z M 1.75 -0.84375 C 1.359375 -1.65625 1.359375 -3.125 1.359375 -4.265625 C 1.359375 -5.234375 1.359375 -6.0625 1.53125 -6.828125 C 1.75 -7.9375 2.453125 -8.296875 2.984375 -8.296875 C 3.234375 -8.296875 3.53125 -8.21875 3.84375 -7.953125 Z M 4.203125 -7.484375 C 4.609375 -6.796875 4.609375 -5.40625 4.609375 -4.265625 C 4.609375 -3.390625 4.609375 -2.515625 4.453125 -1.703125 C 4.25 -0.453125 3.609375 0 2.96875 0 C 2.703125 0 2.421875 -0.09375 2.125 -0.34375 Z M 4.203125 -7.484375 "/>
</g>
<g id="glyph-2-0">
</g>
<g id="glyph-2-1">
<path d="M 8.0625 -3.875 C 8.234375 -3.875 8.453125 -3.875 8.453125 -4.09375 C 8.453125 -4.3125 8.25 -4.3125 8.0625 -4.3125 L 1.03125 -4.3125 C 0.859375 -4.3125 0.640625 -4.3125 0.640625 -4.09375 C 0.640625 -3.875 0.84375 -3.875 1.03125 -3.875 Z M 8.0625 -1.65625 C 8.234375 -1.65625 8.453125 -1.65625 8.453125 -1.859375 C 8.453125 -2.09375 8.25 -2.09375 8.0625 -2.09375 L 1.03125 -2.09375 C 0.859375 -2.09375 0.640625 -2.09375 0.640625 -1.875 C 0.640625 -1.65625 0.84375 -1.65625 1.03125 -1.65625 Z M 8.0625 -1.65625 "/>
</g>
</g>
<clipPath id="clip-0">
<path clip-rule="nonzero" d="M 14 0 L 21 0 L 21 12.289062 L 14 12.289062 Z M 14 0 "/>
</clipPath>
</defs>
<g fill="rgb(0%, 0%, 0%)" fill-opacity="1">
<use xlink:href="#glyph-0-1" x="0.5" y="9.466"/>
</g>
<g clip-path="url(#clip-0)">
<g fill="rgb(0%, 0%, 0%)" fill-opacity="1">
<use xlink:href="#glyph-1-1" x="12.596" y="9.466"/>
</g>
</g>
<g fill="rgb(0%, 0%, 0%)" fill-opacity="1">
<use xlink:href="#glyph-2-1" x="12.596" y="9.466"/>
</g>
<g fill="rgb(0%, 0%, 0%)" fill-opacity="1">
<use xlink:href="#glyph-1-2" x="25.022" y="9.466"/>
</g>
</svg>
