<?xml version="1.0" encoding="UTF-8"?>
<svg xmlns="http://www.w3.org/2000/svg" xmlns:xlink="http://www.w3.org/1999/xlink" viewBox="0 0 87.573 12.955">
<defs>
<g>
<g id="glyph-0-0">
</g>
<g id="glyph-0-1">
<path d="M 1.71875 -0.265625 C 2.015625 0.015625 2.46875 0.125 2.875 0.125 C 3.640625 0.125 4.15625 -0.390625 4.4375 -0.765625 C 4.546875 -0.125 5.0625 0.125 5.46875 0.125 C 5.828125 0.125 6.125 -0.09375 6.328125 -0.53125 C 6.53125 -0.9375 6.6875 -1.65625 6.6875 -1.703125 C 6.6875 -1.765625 6.640625 -1.8125 6.578125 -1.8125 C 6.46875 -1.8125 6.453125 -1.75 6.40625 -1.578125 C 6.234375 -0.875 6 -0.125 5.515625 -0.125 C 5.15625 -0.125 5.140625 -0.4375 5.140625 -0.671875 C 5.140625 -0.9375 5.25 -1.375 5.328125 -1.734375 L 5.671875 -3.03125 C 5.71875 -3.25 5.84375 -3.796875 5.90625 -4 C 5.96875 -4.296875 6.109375 -4.8125 6.109375 -4.859375 C 6.109375 -5.03125 5.96875 -5.15625 5.78125 -5.15625 C 5.671875 -5.15625 5.421875 -5.109375 5.328125 -4.75 L 4.5 -1.421875 C 4.4375 -1.1875 4.4375 -1.15625 4.28125 -0.96875 C 4.140625 -0.765625 3.671875 -0.125 2.921875 -0.125 C 2.25 -0.125 2.03125 -0.609375 2.03125 -1.171875 C 2.03125 -1.515625 2.140625 -1.9375 2.1875 -2.140625 L 2.71875 -4.296875 C 2.78125 -4.515625 2.875 -4.90625 2.875 -4.96875 C 2.875 -5.15625 2.71875 -5.265625 2.5625 -5.265625 C 2.46875 -5.265625 2.203125 -5.234375 2.109375 -4.859375 L 0.375 2.0625 C 0.359375 2.125 0.328125 2.203125 0.328125 2.265625 C 0.328125 2.453125 0.484375 2.5625 0.65625 2.5625 C 1 2.5625 1.078125 2.296875 1.15625 1.953125 Z M 1.71875 -0.265625 "/>
</g>
<g id="glyph-0-2">
<path d="M 2.03125 -1.328125 C 1.609375 -0.625 1.203125 -0.375 0.640625 -0.34375 C 0.5 -0.328125 0.40625 -0.328125 0.40625 -0.125 C 0.40625 -0.046875 0.46875 0 0.546875 0 C 0.765625 0 1.296875 -0.03125 1.515625 -0.03125 C 1.859375 -0.03125 2.25 0 2.578125 0 C 2.65625 0 2.796875 0 2.796875 -0.234375 C 2.796875 -0.328125 2.703125 -0.34375 2.625 -0.34375 C 2.359375 -0.375 2.125 -0.46875 2.125 -0.75 C 2.125 -0.921875 2.203125 -1.046875 2.359375 -1.3125 L 3.265625 -2.828125 L 6.3125 -2.828125 C 6.328125 -2.71875 6.328125 -2.625 6.328125 -2.515625 C 6.375 -2.203125 6.515625 -0.953125 6.515625 -0.734375 C 6.515625 -0.375 5.90625 -0.34375 5.71875 -0.34375 C 5.578125 -0.34375 5.453125 -0.34375 5.453125 -0.125 C 5.453125 0 5.5625 0 5.625 0 C 5.828125 0 6.078125 -0.03125 6.28125 -0.03125 L 6.953125 -0.03125 C 7.6875 -0.03125 8.21875 0 8.21875 0 C 8.3125 0 8.4375 0 8.4375 -0.234375 C 8.4375 -0.34375 8.328125 -0.34375 8.15625 -0.34375 C 7.5 -0.34375 7.484375 -0.453125 7.453125 -0.8125 L 6.71875 -8.265625 C 6.6875 -8.515625 6.640625 -8.53125 6.515625 -8.53125 C 6.390625 -8.53125 6.328125 -8.515625 6.21875 -8.328125 Z M 3.46875 -3.171875 L 5.875 -7.1875 L 6.28125 -3.171875 Z M 3.46875 -3.171875 "/>
</g>
<g id="glyph-0-3">
<path d="M 4.375 -7.34375 C 4.484375 -7.796875 4.53125 -7.8125 5 -7.8125 L 6.546875 -7.8125 C 7.90625 -7.8125 7.90625 -6.671875 7.90625 -6.5625 C 7.90625 -5.59375 6.9375 -4.359375 5.359375 -4.359375 L 3.640625 -4.359375 Z M 6.390625 -4.265625 C 7.703125 -4.5 8.875 -5.421875 8.875 -6.515625 C 8.875 -7.453125 8.0625 -8.15625 6.703125 -8.15625 L 2.875 -8.15625 C 2.640625 -8.15625 2.53125 -8.15625 2.53125 -7.9375 C 2.53125 -7.8125 2.640625 -7.8125 2.828125 -7.8125 C 3.546875 -7.8125 3.546875 -7.71875 3.546875 -7.59375 C 3.546875 -7.5625 3.546875 -7.5 3.5 -7.3125 L 1.890625 -0.890625 C 1.78125 -0.46875 1.75 -0.34375 0.921875 -0.34375 C 0.6875 -0.34375 0.578125 -0.34375 0.578125 -0.125 C 0.578125 0 0.640625 0 0.890625 0 L 4.984375 0 C 6.8125 0 8.21875 -1.390625 8.21875 -2.59375 C 8.21875 -3.578125 7.359375 -4.171875 6.390625 -4.265625 Z M 4.703125 -0.34375 L 3.078125 -0.34375 C 2.921875 -0.34375 2.890625 -0.34375 2.828125 -0.359375 C 2.6875 -0.375 2.671875 -0.390625 2.671875 -0.484375 C 2.671875 -0.578125 2.703125 -0.640625 2.71875 -0.75 L 3.5625 -4.125 L 5.8125 -4.125 C 7.21875 -4.125 7.21875 -2.8125 7.21875 -2.71875 C 7.21875 -1.5625 6.1875 -0.34375 4.703125 -0.34375 Z M 4.703125 -0.34375 "/>
</g>
<g id="glyph-1-0">
</g>
<g id="glyph-1-1">
<path d="M 3.890625 2.90625 C 3.890625 2.875 3.890625 2.84375 3.6875 2.640625 C 2.484375 1.4375 1.8125 -0.53125 1.8125 -2.96875 C 1.8125 -5.296875 2.375 -7.296875 3.765625 -8.703125 C 3.890625 -8.8125 3.890625 -8.828125 3.890625 -8.875 C 3.890625 -8.9375 3.828125 -8.96875 3.78125 -8.96875 C 3.625 -8.96875 2.640625 -8.109375 2.0625 -6.9375 C 1.453125 -5.71875 1.171875 -4.453125 1.171875 -2.96875 C 1.171875 -1.90625 1.34375 -0.484375 1.953125 0.78125 C 2.671875 2.21875 3.640625 3 3.78125 3 C 3.828125 3 3.890625 2.96875 3.890625 2.90625 Z M 3.890625 2.90625 "/>
</g>
<g id="glyph-1-2">
<path d="M 3.375 -2.96875 C 3.375 -3.890625 3.25 -5.359375 2.578125 -6.75 C 1.875 -8.1875 0.890625 -8.96875 0.765625 -8.96875 C 0.71875 -8.96875 0.65625 -8.9375 0.65625 -8.875 C 0.65625 -8.828125 0.65625 -8.8125 0.859375 -8.609375 C 2.0625 -7.40625 2.71875 -5.421875 2.71875 -2.984375 C 2.71875 -0.671875 2.15625 1.328125 0.78125 2.734375 C 0.65625 2.84375 0.65625 2.875 0.65625 2.90625 C 0.65625 2.96875 0.71875 3 0.765625 3 C 0.921875 3 1.90625 2.140625 2.484375 0.96875 C 3.09375 -0.25 3.375 -1.546875 3.375 -2.96875 Z M 3.375 -2.96875 "/>
</g>
<g id="glyph-2-0">
</g>
<g id="glyph-2-1">
<path d="M 4.796875 2.703125 C 4.859375 2.875 4.90625 2.984375 5.0625 2.984375 C 5.203125 2.984375 5.3125 2.875 5.3125 2.75 C 5.3125 2.71875 5.3125 2.703125 5.25 2.5625 L 1.15625 -8.671875 C 1.09375 -8.875 1.046875 -8.96875 0.890625 -8.96875 C 0.765625 -8.96875 0.65625 -8.859375 0.65625 -8.71875 C 0.65625 -8.703125 0.65625 -8.671875 0.71875 -8.53125 Z M 4.796875 2.703125 "/>
</g>
<g id="glyph-2-2">
<path d="M 8.0625 -7.09375 C 8.203125 -7.15625 8.296875 -7.21875 8.296875 -7.359375 C 8.296875 -7.5 8.203125 -7.609375 8.0625 -7.609375 C 8 -7.609375 7.890625 -7.546875 7.84375 -7.53125 L 1.234375 -4.40625 C 1.03125 -4.3125 0.984375 -4.234375 0.984375 -4.140625 C 0.984375 -4.03125 1.0625 -3.9375 1.234375 -3.875 L 7.84375 -0.765625 C 8 -0.6875 8.015625 -0.6875 8.0625 -0.6875 C 8.1875 -0.6875 8.296875 -0.78125 8.296875 -0.921875 C 8.296875 -1.03125 8.25 -1.09375 8.046875 -1.1875 L 1.796875 -4.140625 Z M 7.875 1.640625 C 8.078125 1.640625 8.296875 1.640625 8.296875 1.40625 C 8.296875 1.15625 8.046875 1.15625 7.859375 1.15625 L 1.421875 1.15625 C 1.25 1.15625 0.984375 1.15625 0.984375 1.40625 C 0.984375 1.640625 1.203125 1.640625 1.40625 1.640625 Z M 7.875 1.640625 "/>
</g>
</g>
<clipPath id="clip-0">
<path clip-rule="nonzero" d="M 0 4 L 8 4 L 8 12.953125 L 0 12.953125 Z M 0 4 "/>
</clipPath>
<clipPath id="clip-1">
<path clip-rule="nonzero" d="M 8 0 L 12 0 L 12 12.953125 L 8 12.953125 Z M 8 0 "/>
</clipPath>
<clipPath id="clip-2">
<path clip-rule="nonzero" d="M 24 0 L 29 0 L 29 12.953125 L 24 12.953125 Z M 24 0 "/>
</clipPath>
<clipPath id="clip-3">
<path clip-rule="nonzero" d="M 42 0 L 46 0 L 46 12.953125 L 42 12.953125 Z M 42 0 "/>
</clipPath>
<clipPath id="clip-4">
<path clip-rule="nonzero" d="M 62 4 L 69 4 L 69 12.953125 L 62 12.953125 Z M 62 4 "/>
</clipPath>
<clipPath id="clip-5">
<path clip-rule="nonzero" d="M 70 0 L 74 0 L 74 12.953125 L 70 12.953125 Z M 70 0 "/>
</clipPath>
<clipPath id="clip-6">
<path clip-rule="nonzero" d="M 83 0 L 86 0 L 86 12.953125 L 83 12.953125 Z M 83 0 "/>
</clipPath>
</defs>
<g clip-path="url(#clip-0)">
<g fill="rgb(0%, 0%, 0%)" fill-opacity="1">
<use xlink:href="#glyph-0-1" x="0.5" y="9.466"/>
</g>
</g>
<g clip-path="url(#clip-1)">
<g fill="rgb(0%, 0%, 0%)" fill-opacity="1">
<use xlink:href="#glyph-1-1" x="7.543" y="9.466"/>
</g>
</g>
<g fill="rgb(0%, 0%, 0%)" fill-opacity="1">
<use xlink:href="#glyph-0-2" x="12.095" y="9.466"/>
</g>
<g clip-path="url(#clip-2)">
<g fill="rgb(0%, 0%, 0%)" fill-opacity="1">
<use xlink:href="#glyph-2-1" x="23.527" y="9.466"/>
</g>
</g>
<g fill="rgb(0%, 0%, 0%)" fill-opacity="1">
<use xlink:href="#glyph-0-3" x="32.162" y="9.466"/>
</g>
<g clip-path="url(#clip-3)">
<g fill="rgb(0%, 0%, 0%)" fill-opacity="1">
<use xlink:href="#glyph-1-2" x="41.658" y="9.466"/>
</g>
</g>
<g fill="rgb(0%, 0%, 0%)" fill-opacity="1">
<use xlink:href="#glyph-2-2" x="49.531" y="9.466"/>
</g>
<g clip-path="url(#clip-4)">
<g fill="rgb(0%, 0%, 0%)" fill-opacity="1">
<use xlink:href="#glyph-0-1" x="62.15" y="9.466"/>
</g>
</g>
<g clip-path="url(#clip-5)">
<g fill="rgb(0%, 0%, 0%)" fill-opacity="1">
<use xlink:href="#glyph-1-1" x="69.193" y="9.466"/>
</g>
</g>
<g fill="rgb(0%, 0%, 0%)" fill-opacity="1">
<use xlink:href="#glyph-0-2" x="73.746" y="9.466"/>
</g>
<g clip-path="url(#clip-6)">
<g fill="rgb(0%, 0%, 0%)" fill-opacity="1">
<use xlink:href="#glyph-1-2" x="82.521" y="9.466"/>
</g>
</g>
</svg>
