<?xml version="1.0" encoding="UTF-8"?>
<svg xmlns="http://www.w3.org/2000/svg" xmlns:xlink="http://www.w3.org/1999/xlink" viewBox="0 0 68.997 9.169">
<defs>
<g>
<g id="glyph-0-0">
</g>
<g id="glyph-0-1">
<path d="M 2.03125 -1.328125 C 1.609375 -0.625 1.203125 -0.375 0.640625 -0.34375 C 0.5 -0.328125 0.40625 -0.328125 0.40625 -0.125 C 0.40625 -0.046875 0.46875 0 0.546875 0 C 0.765625 0 1.296875 -0.03125 1.515625 -0.03125 C 1.859375 -0.03125 2.25 0 2.578125 0 C 2.65625 0 2.796875 0 2.796875 -0.234375 C 2.796875 -0.328125 2.703125 -0.34375 2.625 -0.34375 C 2.359375 -0.375 2.125 -0.46875 2.125 -0.75 C 2.125 -0.921875 2.203125 -1.046875 2.359375 -1.3125 L 3.265625 -2.828125 L 6.3125 -2.828125 C 6.328125 -2.71875 6.328125 -2.625 6.328125 -2.515625 C 6.375 -2.203125 6.515625 -0.953125 6.515625 -0.734375 C 6.515625 -0.375 5.90625 -0.34375 5.71875 -0.34375 C 5.578125 -0.34375 5.453125 -0.34375 5.453125 -0.125 C 5.453125 0 5.5625 0 5.625 0 C 5.828125 0 6.078125 -0.03125 6.28125 -0.03125 L 6.953125 -0.03125 C 7.6875 -0.03125 8.21875 0 8.21875 0 C 8.3125 0 8.4375 0 8.4375 -0.234375 C 8.4375 -0.34375 8.328125 -0.34375 8.15625 -0.34375 C 7.5 -0.34375 7.484375 -0.453125 7.453125 -0.8125 L 6.71875 -8.265625 C 6.6875 -8.515625 6.640625 -8.53125 6.515625 -8.53125 C 6.390625 -8.53125 6.328125 -8.515625 6.21875 -8.328125 Z M 3.46875 -3.171875 L 5.875 -7.1875 L 6.28125 -3.171875 Z M 3.46875 -3.171875 "/>
</g>
<g id="glyph-0-2">
<path d="M 4.390625 -7.25 C 4.5 -7.703125 4.53125 -7.8125 5.578125 -7.8125 C 5.90625 -7.8125 5.984375 -7.8125 5.984375 -8.046875 C 5.984375 -8.15625 5.859375 -8.15625 5.8125 -8.15625 C 5.5625 -8.15625 5.296875 -8.140625 5.0625 -8.140625 L 3.453125 -8.140625 C 3.234375 -8.140625 2.96875 -8.15625 2.734375 -8.15625 C 2.640625 -8.15625 2.515625 -8.15625 2.515625 -7.9375 C 2.515625 -7.8125 2.625 -7.8125 2.796875 -7.8125 C 3.53125 -7.8125 3.53125 -7.71875 3.53125 -7.59375 C 3.53125 -7.5625 3.53125 -7.5 3.484375 -7.3125 L 1.859375 -0.890625 C 1.75 -0.46875 1.734375 -0.34375 0.890625 -0.34375 C 0.671875 -0.34375 0.546875 -0.34375 0.546875 -0.125 C 0.546875 0 0.625 0 0.859375 0 L 6.21875 0 C 6.484375 0 6.484375 -0.015625 6.578125 -0.234375 L 7.5 -2.765625 C 7.515625 -2.828125 7.546875 -2.90625 7.546875 -2.9375 C 7.546875 -3.015625 7.484375 -3.0625 7.421875 -3.0625 C 7.40625 -3.0625 7.34375 -3.0625 7.328125 -3.015625 C 7.296875 -3 7.296875 -2.96875 7.203125 -2.75 C 6.828125 -1.703125 6.28125 -0.34375 4.265625 -0.34375 L 3.125 -0.34375 C 2.953125 -0.34375 2.921875 -0.34375 2.859375 -0.359375 C 2.71875 -0.375 2.71875 -0.390625 2.71875 -0.484375 C 2.71875 -0.578125 2.734375 -0.640625 2.765625 -0.75 Z M 4.390625 -7.25 "/>
</g>
<g id="glyph-0-3">
<path d="M 8.921875 -8.3125 C 8.921875 -8.421875 8.84375 -8.421875 8.828125 -8.421875 C 8.796875 -8.421875 8.75 -8.421875 8.65625 -8.296875 L 7.828125 -7.296875 C 7.40625 -8.015625 6.75 -8.421875 5.859375 -8.421875 C 3.28125 -8.421875 0.59375 -5.796875 0.59375 -2.984375 C 0.59375 -0.984375 2 0.25 3.734375 0.25 C 4.703125 0.25 5.53125 -0.15625 6.234375 -0.734375 C 7.265625 -1.609375 7.578125 -2.765625 7.578125 -2.875 C 7.578125 -2.96875 7.484375 -2.96875 7.453125 -2.96875 C 7.34375 -2.96875 7.328125 -2.90625 7.296875 -2.859375 C 6.75 -0.984375 5.140625 -0.09375 3.9375 -0.09375 C 2.671875 -0.09375 1.578125 -0.90625 1.578125 -2.609375 C 1.578125 -2.984375 1.703125 -5.0625 3.046875 -6.640625 C 3.703125 -7.40625 4.828125 -8.0625 5.96875 -8.0625 C 7.28125 -8.0625 7.859375 -6.984375 7.859375 -5.765625 C 7.859375 -5.453125 7.828125 -5.1875 7.828125 -5.140625 C 7.828125 -5.03125 7.953125 -5.03125 7.984375 -5.03125 C 8.109375 -5.03125 8.125 -5.046875 8.171875 -5.265625 Z M 8.921875 -8.3125 "/>
</g>
<g id="glyph-0-4">
<path d="M 4.40625 -7.34375 C 4.5 -7.796875 4.546875 -7.8125 5.015625 -7.8125 L 5.875 -7.8125 C 6.90625 -7.8125 7.671875 -7.5 7.671875 -6.578125 C 7.671875 -5.96875 7.359375 -4.203125 4.953125 -4.203125 L 3.609375 -4.203125 Z M 6.0625 -4.0625 C 7.546875 -4.390625 8.703125 -5.34375 8.703125 -6.375 C 8.703125 -7.296875 7.75 -8.15625 6.09375 -8.15625 L 2.859375 -8.15625 C 2.625 -8.15625 2.515625 -8.15625 2.515625 -7.9375 C 2.515625 -7.8125 2.59375 -7.8125 2.828125 -7.8125 C 3.53125 -7.8125 3.53125 -7.71875 3.53125 -7.59375 C 3.53125 -7.5625 3.53125 -7.5 3.484375 -7.3125 L 1.875 -0.890625 C 1.765625 -0.46875 1.75 -0.34375 0.921875 -0.34375 C 0.640625 -0.34375 0.5625 -0.34375 0.5625 -0.125 C 0.5625 0 0.6875 0 0.734375 0 C 0.9375 0 1.1875 -0.03125 1.421875 -0.03125 L 2.828125 -0.03125 C 3.046875 -0.03125 3.296875 0 3.515625 0 C 3.609375 0 3.734375 0 3.734375 -0.234375 C 3.734375 -0.34375 3.640625 -0.34375 3.453125 -0.34375 C 2.71875 -0.34375 2.71875 -0.4375 2.71875 -0.5625 C 2.71875 -0.578125 2.71875 -0.65625 2.75 -0.75 L 3.546875 -3.96875 L 4.984375 -3.96875 C 6.125 -3.96875 6.328125 -3.25 6.328125 -2.859375 C 6.328125 -2.671875 6.21875 -2.21875 6.125 -1.90625 C 6 -1.34375 5.96875 -1.21875 5.96875 -0.984375 C 5.96875 -0.140625 6.65625 0.25 7.453125 0.25 C 8.421875 0.25 8.84375 -0.9375 8.84375 -1.09375 C 8.84375 -1.1875 8.78125 -1.21875 8.71875 -1.21875 C 8.625 -1.21875 8.59375 -1.140625 8.578125 -1.046875 C 8.28125 -0.203125 7.796875 0.015625 7.5 0.015625 C 7.203125 0.015625 7 -0.125 7 -0.65625 C 7 -0.9375 7.140625 -2.03125 7.15625 -2.09375 C 7.21875 -2.53125 7.21875 -2.578125 7.21875 -2.671875 C 7.21875 -3.546875 6.515625 -3.921875 6.0625 -4.0625 Z M 6.0625 -4.0625 "/>
</g>
<g id="glyph-1-0">
</g>
<g id="glyph-1-1">
<path d="M 8.0625 -3.875 C 8.234375 -3.875 8.453125 -3.875 8.453125 -4.09375 C 8.453125 -4.3125 8.25 -4.3125 8.0625 -4.3125 L 1.03125 -4.3125 C 0.859375 -4.3125 0.640625 -4.3125 0.640625 -4.09375 C 0.640625 -3.875 0.84375 -3.875 1.03125 -3.875 Z M 8.0625 -1.65625 C 8.234375 -1.65625 8.453125 -1.65625 8.453125 -1.859375 C 8.453125 -2.09375 8.25 -2.09375 8.0625 -2.09375 L 1.03125 -2.09375 C 0.859375 -2.09375 0.640625 -2.09375 0.640625 -1.875 C 0.640625 -1.65625 0.84375 -1.65625 1.03125 -1.65625 Z M 8.0625 -1.65625 "/>
</g>
<g id="glyph-2-0">
</g>
<g id="glyph-2-1">
<path d="M 2.296875 -2.984375 C 2.296875 -3.328125 2.015625 -3.625 1.65625 -3.625 C 1.3125 -3.625 1.03125 -3.328125 1.03125 -2.984375 C 1.03125 -2.640625 1.3125 -2.359375 1.65625 -2.359375 C 2.015625 -2.359375 2.296875 -2.640625 2.296875 -2.984375 Z M 2.296875 -2.984375 "/>
</g>
</g>
<clipPath id="clip-0">
<path clip-rule="nonzero" d="M 60 0 L 68.996094 0 L 68.996094 9 L 60 9 Z M 60 0 "/>
</clipPath>
</defs>
<g fill="rgb(0%, 0%, 0%)" fill-opacity="1">
<use xlink:href="#glyph-0-1" x="0.5" y="8.669"/>
</g>
<g fill="rgb(0%, 0%, 0%)" fill-opacity="1">
<use xlink:href="#glyph-1-1" x="12.596" y="8.669"/>
</g>
<g fill="rgb(0%, 0%, 0%)" fill-opacity="1">
<use xlink:href="#glyph-0-2" x="25.022" y="8.669"/>
</g>
<g fill="rgb(0%, 0%, 0%)" fill-opacity="1">
<use xlink:href="#glyph-2-1" x="35.643" y="8.669"/>
</g>
<g fill="rgb(0%, 0%, 0%)" fill-opacity="1">
<use xlink:href="#glyph-0-3" x="41.62" y="8.669"/>
</g>
<g fill="rgb(0%, 0%, 0%)" fill-opacity="1">
<use xlink:href="#glyph-2-1" x="53.511" y="8.669"/>
</g>
<g clip-path="url(#clip-0)">
<g fill="rgb(0%, 0%, 0%)" fill-opacity="1">
<use xlink:href="#glyph-0-4" x="59.488" y="8.669"/>
</g>
</g>
</svg>
