<?xml version="1.0" encoding="UTF-8"?>
<svg xmlns="http://www.w3.org/2000/svg" xmlns:xlink="http://www.w3.org/1999/xlink" viewBox="0 0 94.824 11.793">
<defs>
<g>
<g id="glyph-0-0">
</g>
<g id="glyph-0-1">
<path d="M 7.90625 -1.859375 L 7.65625 -1.859375 C 7.59375 -1.546875 7.53125 -1.25 7.4375 -0.984375 C 7.375 -0.796875 7.34375 -0.703125 6.640625 -0.703125 L 5.703125 -0.703125 C 5.84375 -1.375 6.1875 -1.953125 6.6875 -2.6875 C 7.25 -3.5625 7.796875 -4.4375 7.796875 -5.421875 C 7.796875 -7.078125 6.21875 -8.421875 4.21875 -8.421875 C 2.21875 -8.421875 0.640625 -7.0625 0.640625 -5.421875 C 0.640625 -4.453125 1.1875 -3.578125 1.75 -2.71875 C 2.25 -1.9375 2.609375 -1.375 2.734375 -0.703125 L 1.796875 -0.703125 C 1.09375 -0.703125 1.0625 -0.796875 1 -0.984375 C 0.90625 -1.234375 0.84375 -1.578125 0.78125 -1.859375 L 0.53125 -1.859375 L 0.90625 0 L 2.765625 0 C 3.03125 0 3.046875 0 3.046875 -0.21875 C 3.046875 -1.0625 2.671875 -2.109375 2.421875 -2.71875 C 2.078125 -3.65625 1.75 -4.53125 1.75 -5.4375 C 1.75 -7.28125 3.03125 -8.171875 4.21875 -8.171875 C 5.40625 -8.171875 6.6875 -7.28125 6.6875 -5.4375 C 6.6875 -4.53125 6.34375 -3.640625 6.015625 -2.75 C 5.8125 -2.171875 5.390625 -1.078125 5.390625 -0.234375 C 5.390625 0 5.421875 0 5.6875 0 L 7.53125 0 Z M 7.90625 -1.859375 "/>
</g>
<g id="glyph-1-0">
</g>
<g id="glyph-1-1">
<path d="M 1.59375 -1.3125 C 1.625 -1.421875 1.703125 -1.734375 1.71875 -1.84375 C 1.828125 -2.28125 1.828125 -2.28125 2.015625 -2.546875 C 2.28125 -2.9375 2.65625 -3.296875 3.1875 -3.296875 C 3.46875 -3.296875 3.640625 -3.125 3.640625 -2.75 C 3.640625 -2.3125 3.3125 -1.40625 3.15625 -1.015625 C 3.046875 -0.75 3.046875 -0.703125 3.046875 -0.59375 C 3.046875 -0.140625 3.421875 0.078125 3.765625 0.078125 C 4.546875 0.078125 4.875 -1.03125 4.875 -1.140625 C 4.875 -1.21875 4.8125 -1.25 4.75 -1.25 C 4.65625 -1.25 4.640625 -1.1875 4.625 -1.109375 C 4.4375 -0.453125 4.09375 -0.140625 3.796875 -0.140625 C 3.671875 -0.140625 3.609375 -0.21875 3.609375 -0.40625 C 3.609375 -0.59375 3.671875 -0.765625 3.75 -0.96875 C 3.859375 -1.265625 4.21875 -2.1875 4.21875 -2.625 C 4.21875 -3.234375 3.796875 -3.515625 3.234375 -3.515625 C 2.578125 -3.515625 2.171875 -3.125 1.9375 -2.828125 C 1.875 -3.265625 1.53125 -3.515625 1.125 -3.515625 C 0.84375 -3.515625 0.640625 -3.328125 0.515625 -3.078125 C 0.3125 -2.703125 0.234375 -2.3125 0.234375 -2.296875 C 0.234375 -2.21875 0.296875 -2.1875 0.359375 -2.1875 C 0.46875 -2.1875 0.46875 -2.21875 0.53125 -2.4375 C 0.625 -2.828125 0.765625 -3.296875 1.09375 -3.296875 C 1.3125 -3.296875 1.359375 -3.09375 1.359375 -2.921875 C 1.359375 -2.765625 1.3125 -2.625 1.25 -2.359375 C 1.234375 -2.296875 1.109375 -1.828125 1.078125 -1.71875 L 0.78125 -0.515625 C 0.75 -0.390625 0.703125 -0.203125 0.703125 -0.171875 C 0.703125 0.015625 0.859375 0.078125 0.96875 0.078125 C 1.109375 0.078125 1.234375 -0.015625 1.28125 -0.109375 C 1.3125 -0.15625 1.375 -0.4375 1.40625 -0.59375 Z M 1.59375 -1.3125 "/>
</g>
<g id="glyph-2-0">
</g>
<g id="glyph-2-1">
<path d="M 3.46875 -1.8125 L 5.8125 -1.8125 C 5.921875 -1.8125 6.109375 -1.8125 6.109375 -1.984375 C 6.109375 -2.171875 5.921875 -2.171875 5.8125 -2.171875 L 3.46875 -2.171875 L 3.46875 -4.53125 C 3.46875 -4.640625 3.46875 -4.8125 3.296875 -4.8125 C 3.109375 -4.8125 3.109375 -4.640625 3.109375 -4.53125 L 3.109375 -2.171875 L 0.75 -2.171875 C 0.640625 -2.171875 0.46875 -2.171875 0.46875 -1.984375 C 0.46875 -1.8125 0.640625 -1.8125 0.75 -1.8125 L 3.109375 -1.8125 L 3.109375 0.546875 C 3.109375 0.65625 3.109375 0.828125 3.296875 0.828125 C 3.46875 0.828125 3.46875 0.65625 3.46875 0.546875 Z M 3.46875 -1.8125 "/>
</g>
<g id="glyph-2-2">
<path d="M 2.5 -5.078125 C 2.5 -5.296875 2.484375 -5.296875 2.265625 -5.296875 C 1.9375 -4.984375 1.515625 -4.796875 0.765625 -4.796875 L 0.765625 -4.53125 C 0.984375 -4.53125 1.40625 -4.53125 1.875 -4.734375 L 1.875 -0.65625 C 1.875 -0.359375 1.84375 -0.265625 1.09375 -0.265625 L 0.8125 -0.265625 L 0.8125 0 C 1.140625 -0.03125 1.828125 -0.03125 2.1875 -0.03125 C 2.546875 -0.03125 3.234375 -0.03125 3.5625 0 L 3.5625 -0.265625 L 3.28125 -0.265625 C 2.53125 -0.265625 2.5 -0.359375 2.5 -0.65625 Z M 2.5 -5.078125 "/>
</g>
<g id="glyph-3-0">
</g>
<g id="glyph-3-1">
<path d="M 7.875 -7.125 C 8.078125 -7.125 8.296875 -7.125 8.296875 -7.359375 C 8.296875 -7.609375 8.078125 -7.609375 7.875 -7.609375 L 4.65625 -7.609375 C 2.609375 -7.609375 0.984375 -6.03125 0.984375 -4.140625 C 0.984375 -2.21875 2.640625 -0.6875 4.65625 -0.6875 L 7.875 -0.6875 C 8.078125 -0.6875 8.296875 -0.6875 8.296875 -0.921875 C 8.296875 -1.15625 8.078125 -1.15625 7.875 -1.15625 L 4.6875 -1.15625 C 2.796875 -1.15625 1.46875 -2.5625 1.46875 -4.140625 C 1.46875 -5.765625 2.828125 -7.125 4.6875 -7.125 Z M 1.65625 1.15625 C 1.453125 1.15625 1.234375 1.15625 1.234375 1.40625 C 1.234375 1.640625 1.453125 1.640625 1.65625 1.640625 L 7.875 1.640625 C 8.078125 1.640625 8.296875 1.640625 8.296875 1.40625 C 8.296875 1.15625 8.078125 1.15625 7.875 1.15625 Z M 1.65625 1.15625 "/>
</g>
<g id="glyph-4-0">
</g>
<g id="glyph-4-1">
<path d="M 2.203125 -0.578125 C 2.203125 -0.921875 1.90625 -1.15625 1.625 -1.15625 C 1.28125 -1.15625 1.046875 -0.875 1.046875 -0.578125 C 1.046875 -0.234375 1.328125 0 1.609375 0 C 1.953125 0 2.203125 -0.28125 2.203125 -0.578125 Z M 2.203125 -0.578125 "/>
</g>
</g>
<clipPath id="clip-0">
<path clip-rule="nonzero" d="M 14 5 L 25 5 L 25 11.792969 L 14 11.792969 Z M 14 5 "/>
</clipPath>
</defs>
<g fill="rgb(0%, 0%, 0%)" fill-opacity="1">
<use xlink:href="#glyph-0-1" x="0.5" y="8.669"/>
</g>
<g fill="rgb(0%, 0%, 0%)" fill-opacity="1">
<use xlink:href="#glyph-1-1" x="8.954" y="10.463"/>
</g>
<g clip-path="url(#clip-0)">
<g fill="rgb(0%, 0%, 0%)" fill-opacity="1">
<use xlink:href="#glyph-2-1" x="14.093" y="10.463"/>
<use xlink:href="#glyph-2-2" x="20.679491" y="10.463"/>
</g>
</g>
<g fill="rgb(0%, 0%, 0%)" fill-opacity="1">
<use xlink:href="#glyph-3-1" x="28.732" y="8.669"/>
</g>
<g fill="rgb(0%, 0%, 0%)" fill-opacity="1">
<use xlink:href="#glyph-0-1" x="41.351" y="8.669"/>
</g>
<g fill="rgb(0%, 0%, 0%)" fill-opacity="1">
<use xlink:href="#glyph-1-1" x="49.806" y="10.463"/>
</g>
<g fill="rgb(0%, 0%, 0%)" fill-opacity="1">
<use xlink:href="#glyph-3-1" x="58.763" y="8.669"/>
</g>
<g fill="rgb(0%, 0%, 0%)" fill-opacity="1">
<use xlink:href="#glyph-4-1" x="71.382" y="8.669"/>
<use xlink:href="#glyph-4-1" x="74.633814" y="8.669"/>
<use xlink:href="#glyph-4-1" x="77.885629" y="8.669"/>
</g>
<g fill="rgb(0%, 0%, 0%)" fill-opacity="1">
<use xlink:href="#glyph-0-1" x="81.137" y="8.669"/>
</g>
<g fill="rgb(0%, 0%, 0%)" fill-opacity="1">
<use xlink:href="#glyph-2-2" x="89.592" y="10.463"/>
</g>
</svg>
