<?xml version="1.0" encoding="UTF-8"?>
<svg xmlns="http://www.w3.org/2000/svg" xmlns:xlink="http://www.w3.org/1999/xlink" viewBox="0 0 29.065 10.464">
<defs>
<g>
<g id="glyph-0-0">
</g>
<g id="glyph-0-1">
<path d="M 3.109375 -5.21875 C 1.578125 -4.84375 0.484375 -3.25 0.484375 -1.859375 C 0.484375 -0.578125 1.34375 0.140625 2.296875 0.140625 C 3.703125 0.140625 4.65625 -1.796875 4.65625 -3.375 C 4.65625 -4.453125 4.15625 -5.109375 3.859375 -5.515625 C 3.421875 -6.078125 2.703125 -7 2.703125 -7.5625 C 2.703125 -7.765625 2.859375 -8.125 3.375 -8.125 C 3.75 -8.125 3.984375 -8 4.34375 -7.796875 C 4.453125 -7.71875 4.71875 -7.5625 4.875 -7.5625 C 5.125 -7.5625 5.3125 -7.8125 5.3125 -8.015625 C 5.3125 -8.234375 5.125 -8.265625 4.703125 -8.359375 C 4.140625 -8.484375 3.984375 -8.484375 3.78125 -8.484375 C 3.578125 -8.484375 2.40625 -8.484375 2.40625 -7.265625 C 2.40625 -6.6875 2.703125 -6 3.109375 -5.21875 Z M 3.234375 -4.984375 C 3.6875 -4.046875 3.875 -3.6875 3.875 -2.90625 C 3.875 -1.96875 3.375 -0.09375 2.3125 -0.09375 C 1.84375 -0.09375 1.171875 -0.40625 1.171875 -1.515625 C 1.171875 -2.296875 1.609375 -4.546875 3.234375 -4.984375 Z M 3.234375 -4.984375 "/>
</g>
<g id="glyph-1-0">
</g>
<g id="glyph-1-1">
<path d="M 6.546875 -2.75 C 6.75 -2.75 6.96875 -2.75 6.96875 -2.984375 C 6.96875 -3.234375 6.75 -3.234375 6.546875 -3.234375 L 1.484375 -3.234375 C 1.625 -4.828125 3 -5.96875 4.6875 -5.96875 L 6.546875 -5.96875 C 6.75 -5.96875 6.96875 -5.96875 6.96875 -6.21875 C 6.96875 -6.453125 6.75 -6.453125 6.546875 -6.453125 L 4.65625 -6.453125 C 2.625 -6.453125 0.984375 -4.90625 0.984375 -2.984375 C 0.984375 -1.078125 2.625 0.484375 4.65625 0.484375 L 6.546875 0.484375 C 6.75 0.484375 6.96875 0.484375 6.96875 0.234375 C 6.96875 0 6.75 0 6.546875 0 L 4.6875 0 C 3 0 1.625 -1.140625 1.484375 -2.75 Z M 6.546875 -2.75 "/>
</g>
<g id="glyph-1-2">
<path d="M 5.21875 -1.90625 C 4.890625 -0.8125 4.578125 -0.265625 4.453125 -0.078125 C 4 0.734375 3.734375 0.765625 3.328125 0.765625 C 3.125 0.765625 2.28125 0.734375 1.578125 0.25 C 1.046875 0.28125 0.625 0.6875 0.625 0.828125 C 0.625 0.9375 1.4375 1.421875 2.546875 1.421875 C 3.40625 1.421875 4.8125 0.96875 5.71875 -0.984375 C 6.03125 -1.65625 6.234375 -2.328125 6.265625 -2.46875 C 6.5 -3.296875 6.75 -4.25 6.75 -4.296875 C 6.75 -4.375 6.734375 -4.40625 6.625 -4.40625 C 6.515625 -4.40625 6.3125 -4.34375 6.0625 -4.1875 C 5.78125 -4 5.765625 -3.9375 5.6875 -3.640625 C 5.5625 -3.234375 4.859375 -1.46875 3.375 -1.46875 C 2.21875 -1.46875 1.546875 -2.421875 1.546875 -3.765625 C 1.546875 -4.6875 1.90625 -5.921875 2.609375 -6.75 C 2.921875 -7.140625 3.515625 -7.765625 4.859375 -7.765625 C 5.09375 -7.765625 5.4375 -7.734375 5.734375 -7.640625 C 5.875 -7.609375 6.171875 -7.5 6.171875 -7.125 C 6.171875 -6.71875 5.546875 -5.953125 5.5 -5.875 C 5.453125 -5.828125 5.421875 -5.78125 5.421875 -5.734375 C 5.421875 -5.65625 5.46875 -5.65625 5.546875 -5.65625 C 5.890625 -5.65625 6.28125 -5.96875 6.609375 -6.421875 C 6.703125 -6.546875 7.1875 -7.21875 7.1875 -7.625 C 7.1875 -8.109375 6.8125 -8.234375 6.671875 -8.28125 C 6.234375 -8.421875 5.828125 -8.421875 5.65625 -8.421875 C 2.953125 -8.421875 0.53125 -6.0625 0.53125 -3.25 C 0.53125 -2.046875 1.0625 -0.8125 2.609375 -0.8125 C 3.5 -0.8125 4.421875 -1.265625 5.21875 -1.90625 Z M 5.21875 -1.90625 "/>
</g>
</g>
<clipPath id="clip-0">
<path clip-rule="nonzero" d="M 21 0 L 28 0 L 28 10.464844 L 21 10.464844 Z M 21 0 "/>
</clipPath>
</defs>
<g fill="rgb(0%, 0%, 0%)" fill-opacity="1">
<use xlink:href="#glyph-0-1" x="0.5" y="8.802"/>
</g>
<g fill="rgb(0%, 0%, 0%)" fill-opacity="1">
<use xlink:href="#glyph-1-1" x="9.454" y="8.802"/>
</g>
<g clip-path="url(#clip-0)">
<g fill="rgb(0%, 0%, 0%)" fill-opacity="1">
<use xlink:href="#glyph-1-2" x="20.748077" y="8.802"/>
</g>
</g>
</svg>
