<?xml version="1.0" encoding="UTF-8"?>
<svg xmlns="http://www.w3.org/2000/svg" xmlns:xlink="http://www.w3.org/1999/xlink" viewBox="0 0 29.403 10.332">
<defs>
<g>
<g id="glyph-0-0">
</g>
<g id="glyph-0-1">
<path d="M 1.515625 -0.96875 C 2.03125 -1.546875 2.453125 -1.921875 3.046875 -2.46875 C 3.765625 -3.078125 4.078125 -3.375 4.25 -3.5625 C 5.078125 -4.390625 5.5 -5.078125 5.5 -5.171875 C 5.5 -5.265625 5.40625 -5.265625 5.375 -5.265625 C 5.296875 -5.265625 5.265625 -5.21875 5.21875 -5.140625 C 4.90625 -4.625 4.625 -4.375 4.3125 -4.375 C 4.0625 -4.375 3.9375 -4.484375 3.703125 -4.765625 C 3.453125 -5.0625 3.25 -5.265625 2.90625 -5.265625 C 2.03125 -5.265625 1.5 -4.1875 1.5 -3.9375 C 1.5 -3.890625 1.515625 -3.828125 1.625 -3.828125 C 1.71875 -3.828125 1.734375 -3.875 1.765625 -3.953125 C 1.96875 -4.4375 2.546875 -4.515625 2.765625 -4.515625 C 3.03125 -4.515625 3.265625 -4.4375 3.515625 -4.328125 C 3.96875 -4.140625 4.15625 -4.140625 4.28125 -4.140625 C 4.359375 -4.140625 4.40625 -4.140625 4.46875 -4.140625 C 4.078125 -3.6875 3.4375 -3.109375 2.890625 -2.625 L 1.6875 -1.5 C 0.953125 -0.765625 0.515625 -0.0625 0.515625 0.03125 C 0.515625 0.09375 0.578125 0.125 0.640625 0.125 C 0.71875 0.125 0.734375 0.109375 0.8125 -0.03125 C 1 -0.328125 1.390625 -0.78125 1.828125 -0.78125 C 2.078125 -0.78125 2.203125 -0.6875 2.4375 -0.390625 C 2.671875 -0.125 2.875 0.125 3.25 0.125 C 4.421875 0.125 5.09375 -1.40625 5.09375 -1.671875 C 5.09375 -1.71875 5.078125 -1.796875 4.953125 -1.796875 C 4.859375 -1.796875 4.859375 -1.75 4.8125 -1.625 C 4.546875 -0.921875 3.84375 -0.640625 3.375 -0.640625 C 3.125 -0.640625 2.890625 -0.71875 2.640625 -0.828125 C 2.15625 -1.015625 2.03125 -1.015625 1.875 -1.015625 C 1.75 -1.015625 1.625 -1.015625 1.515625 -0.96875 Z M 1.515625 -0.96875 "/>
</g>
<g id="glyph-1-0">
</g>
<g id="glyph-1-1">
<path d="M 6.546875 -2.75 C 6.75 -2.75 6.96875 -2.75 6.96875 -2.984375 C 6.96875 -3.234375 6.75 -3.234375 6.546875 -3.234375 L 1.484375 -3.234375 C 1.625 -4.828125 3 -5.96875 4.6875 -5.96875 L 6.546875 -5.96875 C 6.75 -5.96875 6.96875 -5.96875 6.96875 -6.21875 C 6.96875 -6.453125 6.75 -6.453125 6.546875 -6.453125 L 4.65625 -6.453125 C 2.625 -6.453125 0.984375 -4.90625 0.984375 -2.984375 C 0.984375 -1.078125 2.625 0.484375 4.65625 0.484375 L 6.546875 0.484375 C 6.75 0.484375 6.96875 0.484375 6.96875 0.234375 C 6.96875 0 6.75 0 6.546875 0 L 4.6875 0 C 3 0 1.625 -1.140625 1.484375 -2.75 Z M 6.546875 -2.75 "/>
</g>
<g id="glyph-1-2">
<path d="M 5.21875 -1.90625 C 4.890625 -0.8125 4.578125 -0.265625 4.453125 -0.078125 C 4 0.734375 3.734375 0.765625 3.328125 0.765625 C 3.125 0.765625 2.28125 0.734375 1.578125 0.25 C 1.046875 0.28125 0.625 0.6875 0.625 0.828125 C 0.625 0.9375 1.4375 1.421875 2.546875 1.421875 C 3.40625 1.421875 4.8125 0.96875 5.71875 -0.984375 C 6.03125 -1.65625 6.234375 -2.328125 6.265625 -2.46875 C 6.5 -3.296875 6.75 -4.25 6.75 -4.296875 C 6.75 -4.375 6.734375 -4.40625 6.625 -4.40625 C 6.515625 -4.40625 6.3125 -4.34375 6.0625 -4.1875 C 5.78125 -4 5.765625 -3.9375 5.6875 -3.640625 C 5.5625 -3.234375 4.859375 -1.46875 3.375 -1.46875 C 2.21875 -1.46875 1.546875 -2.421875 1.546875 -3.765625 C 1.546875 -4.6875 1.90625 -5.921875 2.609375 -6.75 C 2.921875 -7.140625 3.515625 -7.765625 4.859375 -7.765625 C 5.09375 -7.765625 5.4375 -7.734375 5.734375 -7.640625 C 5.875 -7.609375 6.171875 -7.5 6.171875 -7.125 C 6.171875 -6.71875 5.546875 -5.953125 5.5 -5.875 C 5.453125 -5.828125 5.421875 -5.78125 5.421875 -5.734375 C 5.421875 -5.65625 5.46875 -5.65625 5.546875 -5.65625 C 5.890625 -5.65625 6.28125 -5.96875 6.609375 -6.421875 C 6.703125 -6.546875 7.1875 -7.21875 7.1875 -7.625 C 7.1875 -8.109375 6.8125 -8.234375 6.671875 -8.28125 C 6.234375 -8.421875 5.828125 -8.421875 5.65625 -8.421875 C 2.953125 -8.421875 0.53125 -6.0625 0.53125 -3.25 C 0.53125 -2.046875 1.0625 -0.8125 2.609375 -0.8125 C 3.5 -0.8125 4.421875 -1.265625 5.21875 -1.90625 Z M 5.21875 -1.90625 "/>
</g>
</g>
<clipPath id="clip-0">
<path clip-rule="nonzero" d="M 21 0 L 29 0 L 29 10.332031 L 21 10.332031 Z M 21 0 "/>
</clipPath>
</defs>
<g fill="rgb(0%, 0%, 0%)" fill-opacity="1">
<use xlink:href="#glyph-0-1" x="0.5" y="8.67"/>
</g>
<g fill="rgb(0%, 0%, 0%)" fill-opacity="1">
<use xlink:href="#glyph-1-1" x="9.791" y="8.67"/>
</g>
<g clip-path="url(#clip-0)">
<g fill="rgb(0%, 0%, 0%)" fill-opacity="1">
<use xlink:href="#glyph-1-2" x="21.085077" y="8.67"/>
</g>
</g>
</svg>
