<?xml version="1.0" encoding="UTF-8"?>
<svg xmlns="http://www.w3.org/2000/svg" xmlns:xlink="http://www.w3.org/1999/xlink" viewBox="0 0 117.183 10.332">
<defs>
<g>
<g id="glyph-0-0">
</g>
<g id="glyph-0-1">
<path d="M 4.15625 -8.15625 C 2.46875 -8.15625 1.1875 -7.34375 0.703125 -6.796875 C 0.28125 -6.3125 0.25 -5.96875 0.25 -5.9375 C 0.25 -5.875 0.296875 -5.84375 0.375 -5.84375 C 0.5625 -5.84375 0.84375 -6.015625 0.9375 -6.078125 C 1.1875 -6.234375 1.21875 -6.3125 1.296875 -6.53125 C 1.453125 -7.015625 1.796875 -7.4375 3.296875 -7.5 C 3.078125 -4.8125 2.359375 -2.203125 1.359375 0.296875 C 1.296875 0.484375 1.296875 0.5 1.296875 0.515625 C 1.296875 0.546875 1.328125 0.59375 1.40625 0.59375 C 1.609375 0.59375 2.171875 0.328125 2.3125 0.03125 C 2.921875 -1.4375 3.90625 -4.1875 4.265625 -7.5 L 4.890625 -7.5 C 6.34375 -7.5 7.75 -6.9375 7.75 -5.75 C 7.75 -4.859375 6.890625 -3.171875 4.5625 -3.109375 C 4.3125 -3.09375 4.1875 -3.09375 3.84375 -2.875 C 3.640625 -2.734375 3.53125 -2.609375 3.53125 -2.53125 C 3.53125 -2.453125 3.609375 -2.453125 3.765625 -2.453125 C 5.9375 -2.453125 8.765625 -4.296875 8.765625 -6.265625 C 8.765625 -7.625 7.140625 -8.15625 5.765625 -8.15625 Z M 4.15625 -8.15625 "/>
</g>
<g id="glyph-0-2">
<path d="M 2.296875 -2.984375 C 2.296875 -3.328125 2.015625 -3.625 1.65625 -3.625 C 1.3125 -3.625 1.03125 -3.328125 1.03125 -2.984375 C 1.03125 -2.640625 1.3125 -2.359375 1.65625 -2.359375 C 2.015625 -2.359375 2.296875 -2.640625 2.296875 -2.984375 Z M 2.296875 -2.984375 "/>
</g>
<g id="glyph-0-3">
<path d="M 2.671875 -0.328125 C 2.4375 -0.328125 2.3125 -0.328125 2.015625 -0.15625 C 1.90625 -0.09375 1.625 0.09375 1.625 0.234375 C 1.625 0.328125 1.6875 0.328125 1.75 0.328125 C 2.546875 0.359375 3.03125 0.46875 4.234375 0.890625 C 5.0625 1.1875 5.90625 1.484375 6.84375 1.484375 C 8.25 1.484375 9.40625 0.25 9.40625 -0.234375 C 9.40625 -0.296875 9.359375 -0.328125 9.296875 -0.328125 C 9.1875 -0.328125 8.921875 -0.234375 8.734375 -0.109375 C 8.46875 0.078125 8.4375 0.15625 8.375 0.3125 C 8.21875 0.78125 7.953125 0.828125 7.640625 0.828125 C 6.84375 0.828125 6.3125 0.640625 4.59375 0.046875 C 6.65625 -0.53125 9.265625 -2.609375 9.265625 -5.484375 C 9.265625 -7.109375 8.375 -8.421875 6.625 -8.421875 C 4.1875 -8.421875 1.34375 -5.921875 1.34375 -3.4375 C 1.34375 -2.171875 2.109375 -1.21875 3.4375 -1.21875 C 4.640625 -1.21875 6 -2.015625 6 -2.296875 C 6 -2.359375 5.921875 -2.359375 5.875 -2.359375 C 5.703125 -2.359375 5.5 -2.25 5.328125 -2.15625 C 4.84375 -1.890625 4.34375 -1.875 4.21875 -1.875 C 3.140625 -1.875 2.359375 -2.71875 2.359375 -3.9375 C 2.359375 -5.4375 3.71875 -7.765625 5.828125 -7.765625 C 7.34375 -7.765625 8.25 -6.578125 8.25 -4.984375 C 8.25 -3.796875 7.75 -2.453125 6.625 -1.453125 C 5.84375 -0.734375 4.96875 -0.328125 3.015625 -0.328125 Z M 2.671875 -0.328125 "/>
</g>
<g id="glyph-0-4">
<path d="M 7.875 -2.75 C 8.078125 -2.75 8.296875 -2.75 8.296875 -2.984375 C 8.296875 -3.234375 8.078125 -3.234375 7.875 -3.234375 L 1.40625 -3.234375 C 1.203125 -3.234375 0.984375 -3.234375 0.984375 -2.984375 C 0.984375 -2.75 1.203125 -2.75 1.40625 -2.75 Z M 7.875 -2.75 "/>
</g>
<g id="glyph-1-0">
</g>
<g id="glyph-1-1">
<path d="M 8.0625 -3.875 C 8.234375 -3.875 8.453125 -3.875 8.453125 -4.09375 C 8.453125 -4.3125 8.25 -4.3125 8.0625 -4.3125 L 1.03125 -4.3125 C 0.859375 -4.3125 0.640625 -4.3125 0.640625 -4.09375 C 0.640625 -3.875 0.84375 -3.875 1.03125 -3.875 Z M 8.0625 -1.65625 C 8.234375 -1.65625 8.453125 -1.65625 8.453125 -1.859375 C 8.453125 -2.09375 8.25 -2.09375 8.0625 -2.09375 L 1.03125 -2.09375 C 0.859375 -2.09375 0.640625 -2.09375 0.640625 -1.875 C 0.640625 -1.65625 0.84375 -1.65625 1.03125 -1.65625 Z M 8.0625 -1.65625 "/>
</g>
<g id="glyph-1-2">
<path d="M 5.359375 -3.828125 C 5.359375 -4.8125 5.296875 -5.78125 4.859375 -6.6875 C 4.375 -7.6875 3.515625 -7.953125 2.921875 -7.953125 C 2.234375 -7.953125 1.390625 -7.609375 0.9375 -6.609375 C 0.609375 -5.859375 0.484375 -5.109375 0.484375 -3.828125 C 0.484375 -2.671875 0.578125 -1.796875 1 -0.9375 C 1.46875 -0.03125 2.296875 0.25 2.921875 0.25 C 3.953125 0.25 4.546875 -0.375 4.90625 -1.0625 C 5.328125 -1.953125 5.359375 -3.125 5.359375 -3.828125 Z M 2.921875 0.015625 C 2.53125 0.015625 1.75 -0.203125 1.53125 -1.5 C 1.40625 -2.21875 1.40625 -3.125 1.40625 -3.96875 C 1.40625 -4.953125 1.40625 -5.828125 1.59375 -6.53125 C 1.796875 -7.34375 2.40625 -7.703125 2.921875 -7.703125 C 3.375 -7.703125 4.0625 -7.4375 4.296875 -6.40625 C 4.453125 -5.71875 4.453125 -4.78125 4.453125 -3.96875 C 4.453125 -3.171875 4.453125 -2.265625 4.3125 -1.53125 C 4.09375 -0.21875 3.328125 0.015625 2.921875 0.015625 Z M 2.921875 0.015625 "/>
</g>
</g>
<clipPath id="clip-0">
<path clip-rule="nonzero" d="M 19 0 L 28 0 L 28 10.332031 L 19 10.332031 Z M 19 0 "/>
</clipPath>
</defs>
<g fill="rgb(0%, 0%, 0%)" fill-opacity="1">
<use xlink:href="#glyph-0-1" x="0.5" y="8.67"/>
</g>
<g fill="rgb(0%, 0%, 0%)" fill-opacity="1">
<use xlink:href="#glyph-0-2" x="12.450418" y="8.67"/>
</g>
<g clip-path="url(#clip-0)">
<g fill="rgb(0%, 0%, 0%)" fill-opacity="1">
<use xlink:href="#glyph-0-3" x="18.437582" y="8.67"/>
</g>
</g>
<g fill="rgb(0%, 0%, 0%)" fill-opacity="1">
<use xlink:href="#glyph-1-1" x="31.517" y="8.67"/>
</g>
<g fill="rgb(0%, 0%, 0%)" fill-opacity="1">
<use xlink:href="#glyph-0-1" x="43.942" y="8.67"/>
</g>
<g fill="rgb(0%, 0%, 0%)" fill-opacity="1">
<use xlink:href="#glyph-0-2" x="55.892418" y="8.67"/>
</g>
<g fill="rgb(0%, 0%, 0%)" fill-opacity="1">
<use xlink:href="#glyph-0-1" x="61.879582" y="8.67"/>
</g>
<g fill="rgb(0%, 0%, 0%)" fill-opacity="1">
<use xlink:href="#glyph-0-4" x="73.83" y="8.67"/>
</g>
<g fill="rgb(0%, 0%, 0%)" fill-opacity="1">
<use xlink:href="#glyph-0-1" x="85.782809" y="8.67"/>
</g>
<g fill="rgb(0%, 0%, 0%)" fill-opacity="1">
<use xlink:href="#glyph-1-1" x="98.405" y="8.67"/>
</g>
<g fill="rgb(0%, 0%, 0%)" fill-opacity="1">
<use xlink:href="#glyph-1-2" x="110.833626" y="8.67"/>
</g>
</svg>
