<?xml version="1.0" encoding="UTF-8"?>
<svg xmlns="http://www.w3.org/2000/svg" xmlns:xlink="http://www.w3.org/1999/xlink" viewBox="0 0 16.939 10.963">
<defs>
<g>
<g id="glyph-0-0">
</g>
<g id="glyph-0-1">
<path d="M 6.046875 -2.75 C 5.625 -1.078125 4.25 -0.09375 3.125 -0.09375 C 2.265625 -0.09375 1.671875 -0.671875 1.671875 -1.65625 C 1.671875 -1.703125 1.671875 -2.0625 1.8125 -2.59375 L 2.96875 -7.296875 C 3.078125 -7.703125 3.109375 -7.8125 3.953125 -7.8125 C 4.171875 -7.8125 4.296875 -7.8125 4.296875 -8.03125 C 4.296875 -8.15625 4.1875 -8.15625 4.109375 -8.15625 C 3.890625 -8.15625 3.640625 -8.140625 3.421875 -8.140625 L 2.015625 -8.140625 C 1.78125 -8.140625 1.53125 -8.15625 1.296875 -8.15625 C 1.21875 -8.15625 1.078125 -8.15625 1.078125 -7.9375 C 1.078125 -7.8125 1.15625 -7.8125 1.390625 -7.8125 C 2.109375 -7.8125 2.109375 -7.71875 2.109375 -7.59375 C 2.109375 -7.515625 2.015625 -7.171875 1.953125 -6.96875 L 0.921875 -2.78125 C 0.890625 -2.65625 0.8125 -2.328125 0.8125 -2.015625 C 0.8125 -0.6875 1.75 0.25 3.0625 0.25 C 4.265625 0.25 5.609375 -0.703125 6.21875 -2.21875 C 6.296875 -2.421875 6.40625 -2.84375 6.484375 -3.171875 C 6.59375 -3.59375 6.84375 -4.65625 6.9375 -4.953125 L 7.390625 -6.75 C 7.546875 -7.375 7.640625 -7.765625 8.6875 -7.8125 C 8.78125 -7.828125 8.828125 -7.921875 8.828125 -8.03125 C 8.828125 -8.15625 8.71875 -8.15625 8.671875 -8.15625 C 8.515625 -8.15625 8.296875 -8.140625 8.125 -8.140625 L 7.5625 -8.140625 C 6.828125 -8.140625 6.4375 -8.15625 6.4375 -8.15625 C 6.359375 -8.15625 6.21875 -8.15625 6.21875 -7.9375 C 6.21875 -7.8125 6.3125 -7.8125 6.390625 -7.8125 C 7.109375 -7.796875 7.15625 -7.515625 7.15625 -7.296875 C 7.15625 -7.203125 7.15625 -7.15625 7.109375 -7 Z M 6.046875 -2.75 "/>
</g>
<g id="glyph-1-0">
</g>
<g id="glyph-1-1">
<path d="M 1.59375 -1.3125 C 1.625 -1.421875 1.703125 -1.734375 1.71875 -1.84375 C 1.75 -1.921875 1.796875 -2.125 1.8125 -2.203125 C 1.828125 -2.234375 2.09375 -2.75 2.4375 -3.015625 C 2.703125 -3.234375 2.96875 -3.296875 3.203125 -3.296875 C 3.484375 -3.296875 3.65625 -3.109375 3.65625 -2.75 C 3.65625 -2.5625 3.609375 -2.375 3.515625 -2.015625 C 3.453125 -1.8125 3.328125 -1.28125 3.28125 -1.0625 L 3.15625 -0.578125 C 3.109375 -0.453125 3.0625 -0.203125 3.0625 -0.171875 C 3.0625 0.015625 3.21875 0.078125 3.3125 0.078125 C 3.453125 0.078125 3.578125 -0.015625 3.640625 -0.109375 C 3.65625 -0.15625 3.71875 -0.4375 3.765625 -0.59375 L 3.9375 -1.3125 C 3.96875 -1.421875 4.046875 -1.734375 4.078125 -1.84375 C 4.1875 -2.28125 4.1875 -2.28125 4.359375 -2.546875 C 4.625 -2.9375 5 -3.296875 5.53125 -3.296875 C 5.828125 -3.296875 6 -3.125 6 -2.75 C 6 -2.3125 5.65625 -1.390625 5.5 -1.015625 C 5.421875 -0.8125 5.40625 -0.75 5.40625 -0.59375 C 5.40625 -0.140625 5.78125 0.078125 6.125 0.078125 C 6.90625 0.078125 7.234375 -1.03125 7.234375 -1.140625 C 7.234375 -1.21875 7.15625 -1.25 7.109375 -1.25 C 7.015625 -1.25 7 -1.1875 6.96875 -1.109375 C 6.78125 -0.453125 6.453125 -0.140625 6.140625 -0.140625 C 6.015625 -0.140625 5.953125 -0.21875 5.953125 -0.40625 C 5.953125 -0.59375 6.015625 -0.765625 6.09375 -0.96875 C 6.21875 -1.265625 6.5625 -2.1875 6.5625 -2.625 C 6.5625 -3.234375 6.15625 -3.515625 5.578125 -3.515625 C 5.03125 -3.515625 4.578125 -3.234375 4.21875 -2.734375 C 4.15625 -3.375 3.640625 -3.515625 3.234375 -3.515625 C 2.859375 -3.515625 2.375 -3.390625 1.9375 -2.8125 C 1.875 -3.296875 1.5 -3.515625 1.125 -3.515625 C 0.84375 -3.515625 0.640625 -3.34375 0.515625 -3.078125 C 0.3125 -2.703125 0.234375 -2.3125 0.234375 -2.296875 C 0.234375 -2.21875 0.296875 -2.1875 0.359375 -2.1875 C 0.46875 -2.1875 0.46875 -2.21875 0.53125 -2.4375 C 0.625 -2.828125 0.765625 -3.296875 1.09375 -3.296875 C 1.3125 -3.296875 1.359375 -3.09375 1.359375 -2.921875 C 1.359375 -2.765625 1.3125 -2.625 1.25 -2.359375 C 1.234375 -2.296875 1.109375 -1.828125 1.078125 -1.71875 L 0.78125 -0.515625 C 0.75 -0.390625 0.703125 -0.203125 0.703125 -0.171875 C 0.703125 0.015625 0.859375 0.078125 0.96875 0.078125 C 1.109375 0.078125 1.234375 -0.015625 1.28125 -0.109375 C 1.3125 -0.15625 1.375 -0.4375 1.40625 -0.59375 Z M 1.59375 -1.3125 "/>
</g>
</g>
<clipPath id="clip-0">
<path clip-rule="nonzero" d="M 8 6 L 16 6 L 16 10.964844 L 8 10.964844 Z M 8 6 "/>
</clipPath>
</defs>
<g fill="rgb(0%, 0%, 0%)" fill-opacity="1">
<use xlink:href="#glyph-0-1" x="0.5" y="8.67"/>
</g>
<g clip-path="url(#clip-0)">
<g fill="rgb(0%, 0%, 0%)" fill-opacity="1">
<use xlink:href="#glyph-1-1" x="8.45" y="10.463"/>
</g>
</g>
</svg>
