<?xml version="1.0" encoding="UTF-8"?>
<svg xmlns="http://www.w3.org/2000/svg" xmlns:xlink="http://www.w3.org/1999/xlink" viewBox="0 0 103.005 20.195">
<defs>
<g>
<g id="glyph-0-0">
</g>
<g id="glyph-0-1">
<path d="M 1.875 -0.890625 C 1.765625 -0.46875 1.75 -0.34375 0.90625 -0.34375 C 0.6875 -0.34375 0.5625 -0.34375 0.5625 -0.125 C 0.5625 0 0.640625 0 0.875 0 L 4.65625 0 C 7.078125 0 9.4375 -2.5 9.4375 -5.15625 C 9.4375 -6.890625 8.40625 -8.15625 6.6875 -8.15625 L 2.859375 -8.15625 C 2.625 -8.15625 2.515625 -8.15625 2.515625 -7.9375 C 2.515625 -7.8125 2.625 -7.8125 2.8125 -7.8125 C 3.53125 -7.8125 3.53125 -7.71875 3.53125 -7.59375 C 3.53125 -7.5625 3.53125 -7.5 3.484375 -7.3125 Z M 4.40625 -7.34375 C 4.5 -7.796875 4.546875 -7.8125 5.015625 -7.8125 L 6.328125 -7.8125 C 7.453125 -7.8125 8.484375 -7.203125 8.484375 -5.5625 C 8.484375 -4.953125 8.25 -2.875 7.09375 -1.5625 C 6.75 -1.171875 5.84375 -0.34375 4.46875 -0.34375 L 3.109375 -0.34375 C 2.9375 -0.34375 2.921875 -0.34375 2.84375 -0.359375 C 2.71875 -0.375 2.703125 -0.390625 2.703125 -0.484375 C 2.703125 -0.578125 2.71875 -0.640625 2.75 -0.75 Z M 4.40625 -7.34375 "/>
</g>
<g id="glyph-0-2">
<path d="M 3.140625 1.34375 C 2.828125 1.796875 2.359375 2.203125 1.765625 2.203125 C 1.625 2.203125 1.046875 2.171875 0.875 1.625 C 0.90625 1.640625 0.96875 1.640625 0.984375 1.640625 C 1.34375 1.640625 1.59375 1.328125 1.59375 1.046875 C 1.59375 0.78125 1.359375 0.6875 1.1875 0.6875 C 0.984375 0.6875 0.578125 0.828125 0.578125 1.40625 C 0.578125 2.015625 1.09375 2.4375 1.765625 2.4375 C 2.96875 2.4375 4.171875 1.34375 4.5 0.015625 L 5.671875 -4.65625 C 5.6875 -4.703125 5.71875 -4.78125 5.71875 -4.859375 C 5.71875 -5.03125 5.5625 -5.15625 5.390625 -5.15625 C 5.28125 -5.15625 5.03125 -5.109375 4.9375 -4.75 L 4.046875 -1.234375 C 4 -1.015625 4 -0.984375 3.890625 -0.859375 C 3.65625 -0.53125 3.265625 -0.125 2.6875 -0.125 C 2.015625 -0.125 1.953125 -0.78125 1.953125 -1.09375 C 1.953125 -1.78125 2.28125 -2.703125 2.609375 -3.5625 C 2.734375 -3.90625 2.8125 -4.078125 2.8125 -4.3125 C 2.8125 -4.8125 2.453125 -5.265625 1.859375 -5.265625 C 0.765625 -5.265625 0.328125 -3.53125 0.328125 -3.4375 C 0.328125 -3.390625 0.375 -3.328125 0.453125 -3.328125 C 0.5625 -3.328125 0.578125 -3.375 0.625 -3.546875 C 0.90625 -4.546875 1.359375 -5.03125 1.828125 -5.03125 C 1.9375 -5.03125 2.140625 -5.03125 2.140625 -4.640625 C 2.140625 -4.328125 2.015625 -3.984375 1.828125 -3.53125 C 1.25 -1.953125 1.25 -1.5625 1.25 -1.28125 C 1.25 -0.140625 2.0625 0.125 2.65625 0.125 C 3 0.125 3.4375 0.015625 3.84375 -0.4375 L 3.859375 -0.421875 C 3.6875 0.28125 3.5625 0.75 3.140625 1.34375 Z M 3.140625 1.34375 "/>
</g>
<g id="glyph-0-3">
<path d="M 4.515625 -1.453125 C 4.5 -2.046875 4.46875 -2.96875 4.015625 -4.046875 C 3.78125 -4.640625 3.375 -5.265625 2.5 -5.265625 C 1.03125 -5.265625 0.234375 -3.390625 0.234375 -3.078125 C 0.234375 -2.96875 0.3125 -2.96875 0.34375 -2.96875 C 0.453125 -2.96875 0.453125 -3 0.515625 -3.15625 C 0.765625 -3.890625 1.53125 -4.484375 2.359375 -4.484375 C 4.015625 -4.484375 4.25 -2.625 4.25 -1.453125 C 4.25 -0.6875 4.171875 -0.4375 4.09375 -0.203125 C 3.875 0.53125 3.484375 2.015625 3.484375 2.359375 C 3.484375 2.453125 3.515625 2.5625 3.609375 2.5625 C 3.796875 2.5625 3.890625 2.15625 4.03125 1.6875 C 4.3125 0.640625 4.390625 0.109375 4.453125 -0.375 C 4.484375 -0.65625 5.15625 -2.625 6.109375 -4.5 C 6.1875 -4.703125 6.359375 -5.015625 6.359375 -5.0625 C 6.359375 -5.0625 6.34375 -5.15625 6.234375 -5.15625 C 6.21875 -5.15625 6.15625 -5.15625 6.125 -5.109375 C 6.109375 -5.078125 5.6875 -4.265625 5.328125 -3.453125 C 5.15625 -3.046875 4.90625 -2.515625 4.515625 -1.453125 Z M 4.515625 -1.453125 "/>
</g>
<g id="glyph-0-4">
<path d="M 5.671875 -4.875 C 5.28125 -4.8125 5.140625 -4.515625 5.140625 -4.296875 C 5.140625 -4 5.359375 -3.90625 5.53125 -3.90625 C 5.890625 -3.90625 6.140625 -4.21875 6.140625 -4.546875 C 6.140625 -5.046875 5.5625 -5.265625 5.0625 -5.265625 C 4.34375 -5.265625 3.9375 -4.546875 3.828125 -4.328125 C 3.546875 -5.21875 2.8125 -5.265625 2.59375 -5.265625 C 1.375 -5.265625 0.734375 -3.703125 0.734375 -3.4375 C 0.734375 -3.390625 0.78125 -3.328125 0.859375 -3.328125 C 0.953125 -3.328125 0.984375 -3.40625 1 -3.453125 C 1.40625 -4.78125 2.21875 -5.03125 2.5625 -5.03125 C 3.09375 -5.03125 3.203125 -4.53125 3.203125 -4.25 C 3.203125 -3.984375 3.125 -3.703125 2.984375 -3.125 L 2.578125 -1.5 C 2.40625 -0.78125 2.0625 -0.125 1.421875 -0.125 C 1.359375 -0.125 1.0625 -0.125 0.8125 -0.28125 C 1.25 -0.359375 1.34375 -0.71875 1.34375 -0.859375 C 1.34375 -1.09375 1.15625 -1.25 0.9375 -1.25 C 0.640625 -1.25 0.328125 -0.984375 0.328125 -0.609375 C 0.328125 -0.109375 0.890625 0.125 1.40625 0.125 C 1.984375 0.125 2.390625 -0.328125 2.640625 -0.828125 C 2.828125 -0.125 3.4375 0.125 3.875 0.125 C 5.09375 0.125 5.734375 -1.453125 5.734375 -1.703125 C 5.734375 -1.765625 5.6875 -1.8125 5.625 -1.8125 C 5.515625 -1.8125 5.5 -1.75 5.46875 -1.65625 C 5.140625 -0.609375 4.453125 -0.125 3.90625 -0.125 C 3.484375 -0.125 3.265625 -0.4375 3.265625 -0.921875 C 3.265625 -1.1875 3.3125 -1.375 3.5 -2.15625 L 3.921875 -3.796875 C 4.09375 -4.5 4.5 -5.03125 5.0625 -5.03125 C 5.078125 -5.03125 5.421875 -5.03125 5.671875 -4.875 Z M 5.671875 -4.875 "/>
</g>
<g id="glyph-1-0">
</g>
<g id="glyph-1-1">
<path d="M 8.0625 -3.875 C 8.234375 -3.875 8.453125 -3.875 8.453125 -4.09375 C 8.453125 -4.3125 8.25 -4.3125 8.0625 -4.3125 L 1.03125 -4.3125 C 0.859375 -4.3125 0.640625 -4.3125 0.640625 -4.09375 C 0.640625 -3.875 0.84375 -3.875 1.03125 -3.875 Z M 8.0625 -1.65625 C 8.234375 -1.65625 8.453125 -1.65625 8.453125 -1.859375 C 8.453125 -2.09375 8.25 -2.09375 8.0625 -2.09375 L 1.03125 -2.09375 C 0.859375 -2.09375 0.640625 -2.09375 0.640625 -1.875 C 0.640625 -1.65625 0.84375 -1.65625 1.03125 -1.65625 Z M 8.0625 -1.65625 "/>
</g>
<g id="glyph-1-2">
<path d="M 8.578125 -2.90625 C 8.578125 -4.015625 8.578125 -4.34375 8.296875 -4.734375 C 7.953125 -5.203125 7.390625 -5.265625 6.984375 -5.265625 C 5.984375 -5.265625 5.484375 -4.546875 5.296875 -4.09375 C 5.125 -5.015625 4.484375 -5.265625 3.734375 -5.265625 C 2.5625 -5.265625 2.109375 -4.28125 2.015625 -4.046875 L 2.015625 -5.265625 L 0.375 -5.140625 L 0.375 -4.796875 C 1.1875 -4.796875 1.296875 -4.703125 1.296875 -4.125 L 1.296875 -0.890625 C 1.296875 -0.34375 1.15625 -0.34375 0.375 -0.34375 L 0.375 0 C 0.6875 -0.03125 1.34375 -0.03125 1.671875 -0.03125 C 2.015625 -0.03125 2.671875 -0.03125 2.96875 0 L 2.96875 -0.34375 C 2.21875 -0.34375 2.0625 -0.34375 2.0625 -0.890625 L 2.0625 -3.109375 C 2.0625 -4.359375 2.890625 -5.03125 3.640625 -5.03125 C 4.375 -5.03125 4.546875 -4.421875 4.546875 -3.6875 L 4.546875 -0.890625 C 4.546875 -0.34375 4.40625 -0.34375 3.640625 -0.34375 L 3.640625 0 C 3.9375 -0.03125 4.59375 -0.03125 4.921875 -0.03125 C 5.265625 -0.03125 5.921875 -0.03125 6.234375 0 L 6.234375 -0.34375 C 5.46875 -0.34375 5.3125 -0.34375 5.3125 -0.890625 L 5.3125 -3.109375 C 5.3125 -4.359375 6.140625 -5.03125 6.890625 -5.03125 C 7.625 -5.03125 7.796875 -4.421875 7.796875 -3.6875 L 7.796875 -0.890625 C 7.796875 -0.34375 7.65625 -0.34375 6.890625 -0.34375 L 6.890625 0 C 7.203125 -0.03125 7.84375 -0.03125 8.171875 -0.03125 C 8.515625 -0.03125 9.171875 -0.03125 9.484375 0 L 9.484375 -0.34375 C 8.875 -0.34375 8.578125 -0.34375 8.578125 -0.703125 Z M 8.578125 -2.90625 "/>
</g>
<g id="glyph-1-3">
<path d="M 2.078125 -7.359375 C 2.078125 -7.671875 1.828125 -7.953125 1.5 -7.953125 C 1.1875 -7.953125 0.921875 -7.703125 0.921875 -7.375 C 0.921875 -7.015625 1.203125 -6.796875 1.5 -6.796875 C 1.859375 -6.796875 2.078125 -7.09375 2.078125 -7.359375 Z M 0.4375 -5.140625 L 0.4375 -4.796875 C 1.1875 -4.796875 1.296875 -4.71875 1.296875 -4.140625 L 1.296875 -0.890625 C 1.296875 -0.34375 1.171875 -0.34375 0.390625 -0.34375 L 0.390625 0 C 0.734375 -0.03125 1.296875 -0.03125 1.65625 -0.03125 C 1.78125 -0.03125 2.46875 -0.03125 2.875 0 L 2.875 -0.34375 C 2.109375 -0.34375 2.0625 -0.40625 2.0625 -0.875 L 2.0625 -5.265625 Z M 0.4375 -5.140625 "/>
</g>
<g id="glyph-1-4">
<path d="M 5.3125 -2.90625 C 5.3125 -4.015625 5.3125 -4.34375 5.046875 -4.734375 C 4.703125 -5.203125 4.140625 -5.265625 3.734375 -5.265625 C 2.5625 -5.265625 2.109375 -4.28125 2.015625 -4.046875 L 2.015625 -5.265625 L 0.375 -5.140625 L 0.375 -4.796875 C 1.1875 -4.796875 1.296875 -4.703125 1.296875 -4.125 L 1.296875 -0.890625 C 1.296875 -0.34375 1.15625 -0.34375 0.375 -0.34375 L 0.375 0 C 0.6875 -0.03125 1.34375 -0.03125 1.671875 -0.03125 C 2.015625 -0.03125 2.671875 -0.03125 2.96875 0 L 2.96875 -0.34375 C 2.21875 -0.34375 2.0625 -0.34375 2.0625 -0.890625 L 2.0625 -3.109375 C 2.0625 -4.359375 2.890625 -5.03125 3.640625 -5.03125 C 4.375 -5.03125 4.546875 -4.421875 4.546875 -3.6875 L 4.546875 -0.890625 C 4.546875 -0.34375 4.40625 -0.34375 3.640625 -0.34375 L 3.640625 0 C 3.9375 -0.03125 4.59375 -0.03125 4.921875 -0.03125 C 5.265625 -0.03125 5.921875 -0.03125 6.234375 0 L 6.234375 -0.34375 C 5.625 -0.34375 5.328125 -0.34375 5.3125 -0.703125 Z M 5.3125 -2.90625 "/>
</g>
<g id="glyph-2-0">
</g>
<g id="glyph-2-1">
<path d="M 3.265625 -1.28125 C 3.171875 -2.265625 2.765625 -2.90625 2.765625 -2.921875 C 2.59375 -3.1875 2.296875 -3.515625 1.765625 -3.515625 C 0.734375 -3.515625 0.140625 -2.359375 0.140625 -2.078125 C 0.140625 -2.015625 0.203125 -1.984375 0.265625 -1.984375 C 0.34375 -1.984375 0.359375 -2.015625 0.390625 -2.078125 C 0.625 -2.78125 1.421875 -2.890625 1.65625 -2.890625 C 2.9375 -2.890625 3.03125 -1.5 3.03125 -0.84375 C 3.03125 -0.390625 3.015625 -0.328125 2.953125 -0.140625 C 2.78125 0.421875 2.546875 1.3125 2.546875 1.53125 C 2.546875 1.546875 2.546875 1.71875 2.671875 1.71875 C 2.765625 1.71875 2.84375 1.59375 2.90625 1.390625 C 3.125 0.65625 3.203125 0.125 3.25 -0.234375 C 3.28125 -0.390625 3.71875 -1.734375 4.46875 -3.125 C 4.5625 -3.296875 4.5625 -3.3125 4.5625 -3.34375 C 4.5625 -3.34375 4.5625 -3.4375 4.4375 -3.4375 C 4.40625 -3.4375 4.375 -3.421875 4.34375 -3.40625 C 4.3125 -3.375 3.6875 -2.203125 3.296875 -1.109375 Z M 3.265625 -1.28125 "/>
</g>
<g id="glyph-3-0">
</g>
<g id="glyph-3-1">
<path d="M 4.625 -1.8125 C 4.75 -1.8125 4.9375 -1.8125 4.9375 -1.984375 C 4.9375 -2.171875 4.75 -2.171875 4.625 -2.171875 L 1.078125 -2.171875 C 1.171875 -3.28125 2.109375 -4.125 3.3125 -4.125 L 4.625 -4.125 C 4.75 -4.125 4.9375 -4.125 4.9375 -4.3125 C 4.9375 -4.5 4.75 -4.5 4.625 -4.5 L 3.296875 -4.5 C 1.859375 -4.5 0.703125 -3.375 0.703125 -1.984375 C 0.703125 -0.59375 1.859375 0.515625 3.296875 0.515625 L 4.625 0.515625 C 4.75 0.515625 4.9375 0.515625 4.9375 0.328125 C 4.9375 0.140625 4.75 0.140625 4.625 0.140625 L 3.3125 0.140625 C 2.109375 0.140625 1.171875 -0.703125 1.078125 -1.8125 Z M 4.625 -1.8125 "/>
</g>
<g id="glyph-4-0">
</g>
<g id="glyph-4-1">
<path d="M 5.234375 -5.34375 C 5.234375 -5.484375 5.234375 -5.609375 5.09375 -5.609375 C 5.09375 -5.609375 4.96875 -5.609375 4.953125 -5.46875 C 4.9375 -5.25 4.75 -5.25 4.6875 -5.25 C 4.421875 -5.25 4.140625 -5.359375 3.96875 -5.4375 C 3.5625 -5.609375 3.234375 -5.609375 3.09375 -5.609375 C 1.765625 -5.609375 0.296875 -4.765625 0.296875 -2.734375 C 0.296875 -0.703125 1.734375 0.15625 3.109375 0.15625 C 3.53125 0.15625 4.109375 0.0625 4.6875 -0.28125 C 5.046875 -0.515625 5.453125 -0.921875 5.453125 -1.03125 C 5.453125 -1.140625 5.34375 -1.1875 5.296875 -1.1875 C 5.234375 -1.1875 5.203125 -1.15625 5.125 -1.078125 C 4.65625 -0.546875 3.953125 -0.234375 3.25 -0.234375 C 2.015625 -0.234375 1.703125 -1.484375 1.703125 -2.71875 C 1.703125 -4.28125 2.265625 -5.328125 3.125 -5.328125 C 3.71875 -5.328125 4.671875 -4.75 4.953125 -3.90625 C 4.96875 -3.828125 5 -3.75 5.09375 -3.75 C 5.234375 -3.75 5.234375 -3.875 5.234375 -4.015625 Z M 4.953125 -4.53125 C 4.859375 -4.65625 4.75 -4.765625 4.5625 -4.96875 C 4.59375 -4.96875 4.65625 -4.96875 4.703125 -4.96875 C 4.796875 -4.96875 4.890625 -4.984375 4.953125 -5.015625 Z M 2.125 -5.140625 C 1.9375 -4.96875 1.421875 -4.28125 1.421875 -2.71875 C 1.421875 -1.921875 1.53125 -0.828125 2.25 -0.25 C 0.953125 -0.671875 0.578125 -1.75 0.578125 -2.71875 C 0.578125 -4.1875 1.375 -4.90625 2.125 -5.15625 Z M 2.125 -5.140625 "/>
</g>
<g id="glyph-5-0">
</g>
<g id="glyph-5-1">
<path d="M 2.0625 -8.5625 C 2.0625 -8.75 2.0625 -8.96875 1.8125 -8.96875 C 1.578125 -8.96875 1.578125 -8.703125 1.578125 -8.515625 L 1.578125 2.546875 C 1.578125 2.734375 1.578125 2.984375 1.8125 2.984375 C 2.0625 2.984375 2.0625 2.765625 2.0625 2.578125 Z M 4.390625 -8.515625 C 4.390625 -8.71875 4.390625 -8.96875 4.140625 -8.96875 C 3.90625 -8.96875 3.90625 -8.75 3.90625 -8.5625 L 3.90625 2.578125 C 3.90625 2.765625 3.90625 2.984375 4.140625 2.984375 C 4.390625 2.984375 4.390625 2.71875 4.390625 2.546875 Z M 4.390625 -8.515625 "/>
</g>
<g id="glyph-5-2">
<path d="M 7.875 -2.75 C 8.078125 -2.75 8.296875 -2.75 8.296875 -2.984375 C 8.296875 -3.234375 8.078125 -3.234375 7.875 -3.234375 L 1.40625 -3.234375 C 1.203125 -3.234375 0.984375 -3.234375 0.984375 -2.984375 C 0.984375 -2.75 1.203125 -2.75 1.40625 -2.75 Z M 7.875 -2.75 "/>
</g>
<g id="glyph-5-3">
<path d="M 2.296875 -2.984375 C 2.296875 -3.328125 2.015625 -3.625 1.65625 -3.625 C 1.3125 -3.625 1.03125 -3.328125 1.03125 -2.984375 C 1.03125 -2.640625 1.3125 -2.359375 1.65625 -2.359375 C 2.015625 -2.359375 2.296875 -2.640625 2.296875 -2.984375 Z M 2.296875 -2.984375 "/>
</g>
</g>
</defs>
<g fill="rgb(0%, 0%, 0%)" fill-opacity="1">
<use xlink:href="#glyph-0-1" x="0.5" y="9.467"/>
</g>
<g fill="rgb(0%, 0%, 0%)" fill-opacity="1">
<use xlink:href="#glyph-1-1" x="13.865" y="9.467"/>
</g>
<g fill="rgb(0%, 0%, 0%)" fill-opacity="1">
<use xlink:href="#glyph-1-2" x="26.293626" y="9.467"/>
<use xlink:href="#glyph-1-3" x="36.049069" y="9.467"/>
<use xlink:href="#glyph-1-4" x="39.300884" y="9.467"/>
</g>
<g fill="rgb(0%, 0%, 0%)" fill-opacity="1">
<use xlink:href="#glyph-2-1" x="27.929" y="16.95"/>
</g>
<g fill="rgb(0%, 0%, 0%)" fill-opacity="1">
<use xlink:href="#glyph-3-1" x="32.761" y="16.95"/>
</g>
<g fill="rgb(0%, 0%, 0%)" fill-opacity="1">
<use xlink:href="#glyph-4-1" x="38.407" y="16.95"/>
</g>
<g fill="rgb(0%, 0%, 0%)" fill-opacity="1">
<use xlink:href="#glyph-5-1" x="47.793" y="9.467"/>
</g>
<g fill="rgb(0%, 0%, 0%)" fill-opacity="1">
<use xlink:href="#glyph-0-2" x="53.771" y="9.467"/>
</g>
<g fill="rgb(0%, 0%, 0%)" fill-opacity="1">
<use xlink:href="#glyph-5-2" x="62.564" y="9.467"/>
</g>
<g fill="rgb(0%, 0%, 0%)" fill-opacity="1">
<use xlink:href="#glyph-0-3" x="74.519" y="9.467"/>
</g>
<g fill="rgb(0%, 0%, 0%)" fill-opacity="1">
<use xlink:href="#glyph-5-3" x="83.898" y="9.467"/>
</g>
<g fill="rgb(0%, 0%, 0%)" fill-opacity="1">
<use xlink:href="#glyph-0-4" x="89.876" y="9.467"/>
</g>
<g fill="rgb(0%, 0%, 0%)" fill-opacity="1">
<use xlink:href="#glyph-5-1" x="96.528" y="9.467"/>
</g>
</svg>
