<?xml version="1.0" encoding="UTF-8"?>
<svg xmlns="http://www.w3.org/2000/svg" xmlns:xlink="http://www.w3.org/1999/xlink" viewBox="0 0 53.942 12.955">
<defs>
<g>
<g id="glyph-0-0">
</g>
<g id="glyph-0-1">
<path d="M 5.8125 -7.421875 L 7.796875 -7.421875 C 9.375 -7.421875 9.96875 -8.328125 9.96875 -8.484375 C 9.96875 -8.546875 9.921875 -8.578125 9.859375 -8.578125 C 9.734375 -8.578125 9.421875 -8.453125 9.125 -8.234375 C 9.03125 -8.15625 9 -8.15625 8.78125 -8.15625 L 3.546875 -8.15625 C 2.0625 -8.15625 0.40625 -6.890625 0.40625 -5.90625 C 0.40625 -5.828125 0.40625 -5.765625 0.5 -5.765625 C 0.78125 -5.765625 1.546875 -6.15625 1.5625 -6.4375 C 1.578125 -6.640625 1.609375 -6.875 1.84375 -7.1875 C 1.953125 -7.328125 2.0625 -7.421875 2.578125 -7.421875 L 4.953125 -7.421875 C 4.75 -7.296875 4.703125 -7.109375 4.6875 -7 L 3.328125 -1.578125 C 3.171875 -0.984375 2.921875 -0.234375 2.578125 0.53125 C 2.515625 0.6875 2.515625 0.703125 2.515625 0.734375 C 2.515625 0.796875 2.5625 0.8125 2.625 0.8125 C 2.859375 0.8125 3.4375 0.484375 3.625 0.234375 C 3.6875 0.125 4.21875 -1.09375 4.46875 -2.09375 Z M 5.8125 -7.421875 "/>
</g>
<g id="glyph-0-2">
<path d="M 7.875 -7.125 C 8.078125 -7.125 8.296875 -7.125 8.296875 -7.359375 C 8.296875 -7.609375 8.078125 -7.609375 7.875 -7.609375 L 4.65625 -7.609375 C 2.609375 -7.609375 0.984375 -6.03125 0.984375 -4.140625 C 0.984375 -2.21875 2.640625 -0.6875 4.65625 -0.6875 L 7.875 -0.6875 C 8.078125 -0.6875 8.296875 -0.6875 8.296875 -0.921875 C 8.296875 -1.15625 8.078125 -1.15625 7.875 -1.15625 L 4.6875 -1.15625 C 2.796875 -1.15625 1.46875 -2.5625 1.46875 -4.140625 C 1.46875 -5.765625 2.828125 -7.125 4.6875 -7.125 Z M 1.65625 1.15625 C 1.453125 1.15625 1.234375 1.15625 1.234375 1.40625 C 1.234375 1.640625 1.453125 1.640625 1.65625 1.640625 L 7.875 1.640625 C 8.078125 1.640625 8.296875 1.640625 8.296875 1.40625 C 8.296875 1.15625 8.078125 1.15625 7.875 1.15625 Z M 1.65625 1.15625 "/>
</g>
<g id="glyph-1-0">
</g>
<g id="glyph-1-1">
<path d="M 4.90625 -6.078125 C 5.328125 -6.75 5.90625 -7.5625 6.8125 -7.5625 C 7.390625 -7.5625 7.546875 -7.25 7.578125 -6.625 C 7.609375 -5.984375 7.8125 -5.640625 8.25 -5.546875 C 7.796875 -5.171875 7.203125 -4.6875 7.203125 -4.140625 C 7.203125 -3.328125 8.359375 -2.4375 8.359375 -1.65625 C 8.359375 -1.078125 7.921875 -0.734375 7.40625 -0.734375 C 6.90625 -0.734375 6.640625 -0.890625 4.90625 -1.453125 Z M 4.75 -6.453125 C 4.484375 -7.265625 3.734375 -8.1875 2.875 -8.1875 C 1.75 -8.1875 0.96875 -7.453125 0.6875 -7.15625 C 0.34375 -6.828125 0.078125 -6.46875 0.078125 -5.984375 C 0.078125 -5.359375 0.5625 -4.921875 0.9375 -4.40625 C 1 -4.296875 1.09375 -4.203125 1.09375 -4.078125 C 1.09375 -3.6875 0.6875 -3.3125 0.328125 -3.109375 L 0.5 -2.96875 C 1.203125 -3.328125 1.96875 -3.8125 1.96875 -4.578125 C 1.96875 -5.3125 0.84375 -5.8125 0.84375 -6.59375 C 0.84375 -7.203125 1.359375 -7.4375 2.0625 -7.4375 C 3.265625 -7.4375 3.953125 -6.078125 3.953125 -4.734375 L 3.953125 -1.75 C 3.734375 -1.8125 3.53125 -1.84375 3.375 -1.84375 C 2.359375 -1.84375 1.8125 -0.875 1.40625 -0.0625 L 1.53125 0.1875 C 1.90625 -0.3125 2.328125 -0.953125 3 -0.953125 C 3.203125 -0.953125 3.5625 -0.875 3.953125 -0.75 C 3.953125 0.328125 3.890625 1.875 3.640625 2.484375 L 3.890625 2.625 C 4.265625 2.34375 4.953125 1.84375 5.03125 1.78125 C 4.9375 1.046875 4.90625 0.296875 4.90625 -0.4375 L 6.3125 0.0625 C 6.4375 0.09375 6.5625 0.125 6.6875 0.125 C 7.859375 0.125 8.984375 -1.28125 8.984375 -2.546875 C 8.984375 -3.4375 8.078125 -4.046875 8.078125 -4.765625 C 8.078125 -5.265625 9.015625 -5.921875 9.609375 -6.234375 L 9.546875 -6.4375 C 9.40625 -6.390625 9.25 -6.328125 9.109375 -6.328125 C 8.171875 -6.328125 9 -8.265625 7.640625 -8.265625 C 6.515625 -8.265625 5.328125 -7.3125 4.75 -6.453125 Z M 4.75 -6.453125 "/>
</g>
<g id="glyph-2-0">
</g>
<g id="glyph-2-1">
<path d="M 3.890625 2.90625 C 3.890625 2.875 3.890625 2.84375 3.6875 2.640625 C 2.484375 1.4375 1.8125 -0.53125 1.8125 -2.96875 C 1.8125 -5.296875 2.375 -7.296875 3.765625 -8.703125 C 3.890625 -8.8125 3.890625 -8.828125 3.890625 -8.875 C 3.890625 -8.9375 3.828125 -8.96875 3.78125 -8.96875 C 3.625 -8.96875 2.640625 -8.109375 2.0625 -6.9375 C 1.453125 -5.71875 1.171875 -4.453125 1.171875 -2.96875 C 1.171875 -1.90625 1.34375 -0.484375 1.953125 0.78125 C 2.671875 2.21875 3.640625 3 3.78125 3 C 3.828125 3 3.890625 2.96875 3.890625 2.90625 Z M 3.890625 2.90625 "/>
</g>
<g id="glyph-2-2">
<path d="M 7.90625 -1.859375 L 7.65625 -1.859375 C 7.59375 -1.546875 7.53125 -1.25 7.4375 -0.984375 C 7.375 -0.796875 7.34375 -0.703125 6.640625 -0.703125 L 5.703125 -0.703125 C 5.84375 -1.375 6.1875 -1.953125 6.6875 -2.6875 C 7.25 -3.5625 7.796875 -4.4375 7.796875 -5.421875 C 7.796875 -7.078125 6.21875 -8.421875 4.21875 -8.421875 C 2.21875 -8.421875 0.640625 -7.0625 0.640625 -5.421875 C 0.640625 -4.453125 1.1875 -3.578125 1.75 -2.71875 C 2.25 -1.9375 2.609375 -1.375 2.734375 -0.703125 L 1.796875 -0.703125 C 1.09375 -0.703125 1.0625 -0.796875 1 -0.984375 C 0.90625 -1.234375 0.84375 -1.578125 0.78125 -1.859375 L 0.53125 -1.859375 L 0.90625 0 L 2.765625 0 C 3.03125 0 3.046875 0 3.046875 -0.21875 C 3.046875 -1.0625 2.671875 -2.109375 2.421875 -2.71875 C 2.078125 -3.65625 1.75 -4.53125 1.75 -5.4375 C 1.75 -7.28125 3.03125 -8.171875 4.21875 -8.171875 C 5.40625 -8.171875 6.6875 -7.28125 6.6875 -5.4375 C 6.6875 -4.53125 6.34375 -3.640625 6.015625 -2.75 C 5.8125 -2.171875 5.390625 -1.078125 5.390625 -0.234375 C 5.390625 0 5.421875 0 5.6875 0 L 7.53125 0 Z M 7.90625 -1.859375 "/>
</g>
<g id="glyph-2-3">
<path d="M 3.375 -2.96875 C 3.375 -3.890625 3.25 -5.359375 2.578125 -6.75 C 1.875 -8.1875 0.890625 -8.96875 0.765625 -8.96875 C 0.71875 -8.96875 0.65625 -8.9375 0.65625 -8.875 C 0.65625 -8.828125 0.65625 -8.8125 0.859375 -8.609375 C 2.0625 -7.40625 2.71875 -5.421875 2.71875 -2.984375 C 2.71875 -0.671875 2.15625 1.328125 0.78125 2.734375 C 0.65625 2.84375 0.65625 2.875 0.65625 2.90625 C 0.65625 2.96875 0.71875 3 0.765625 3 C 0.921875 3 1.90625 2.140625 2.484375 0.96875 C 3.09375 -0.25 3.375 -1.546875 3.375 -2.96875 Z M 3.375 -2.96875 "/>
</g>
</g>
<clipPath id="clip-0">
<path clip-rule="nonzero" d="M 26 1 L 36 1 L 36 12.953125 L 26 12.953125 Z M 26 1 "/>
</clipPath>
<clipPath id="clip-1">
<path clip-rule="nonzero" d="M 37 0 L 53 0 L 53 12.953125 L 37 12.953125 Z M 37 0 "/>
</clipPath>
</defs>
<g fill="rgb(0%, 0%, 0%)" fill-opacity="1">
<use xlink:href="#glyph-0-1" x="0.5" y="9.466"/>
</g>
<g fill="rgb(0%, 0%, 0%)" fill-opacity="1">
<use xlink:href="#glyph-0-2" x="13.370968" y="9.466"/>
</g>
<g clip-path="url(#clip-0)">
<g fill="rgb(0%, 0%, 0%)" fill-opacity="1">
<use xlink:href="#glyph-1-1" x="25.99" y="9.466"/>
</g>
</g>
<g clip-path="url(#clip-1)">
<g fill="rgb(0%, 0%, 0%)" fill-opacity="1">
<use xlink:href="#glyph-2-1" x="35.883" y="9.466"/>
<use xlink:href="#glyph-2-2" x="40.43554" y="9.466"/>
<use xlink:href="#glyph-2-3" x="48.890258" y="9.466"/>
</g>
</g>
</svg>
