<?xml version="1.0" encoding="UTF-8"?>
<svg xmlns="http://www.w3.org/2000/svg" xmlns:xlink="http://www.w3.org/1999/xlink" viewBox="0 0 54.894 12.955">
<defs>
<g>
<g id="glyph-0-0">
</g>
<g id="glyph-0-1">
<path d="M 3.546875 -3.890625 L 4.703125 -3.890625 C 5.609375 -3.890625 5.671875 -3.6875 5.671875 -3.34375 C 5.671875 -3.1875 5.65625 -3.03125 5.59375 -2.765625 C 5.5625 -2.71875 5.5625 -2.65625 5.5625 -2.625 C 5.5625 -2.546875 5.609375 -2.5 5.6875 -2.5 C 5.78125 -2.5 5.796875 -2.546875 5.84375 -2.734375 L 6.53125 -5.515625 C 6.53125 -5.5625 6.5 -5.640625 6.421875 -5.640625 C 6.3125 -5.640625 6.296875 -5.59375 6.25 -5.390625 C 6 -4.5 5.765625 -4.25 4.71875 -4.25 L 3.640625 -4.25 L 4.40625 -7.34375 C 4.515625 -7.75 4.546875 -7.796875 5.03125 -7.796875 L 6.640625 -7.796875 C 8.125 -7.796875 8.34375 -7.34375 8.34375 -6.5 C 8.34375 -6.4375 8.34375 -6.171875 8.3125 -5.859375 C 8.296875 -5.8125 8.265625 -5.65625 8.265625 -5.609375 C 8.265625 -5.515625 8.328125 -5.46875 8.40625 -5.46875 C 8.484375 -5.46875 8.53125 -5.515625 8.5625 -5.734375 L 8.8125 -7.828125 C 8.8125 -7.859375 8.828125 -7.984375 8.828125 -8.015625 C 8.828125 -8.140625 8.71875 -8.140625 8.515625 -8.140625 L 2.84375 -8.140625 C 2.625 -8.140625 2.5 -8.140625 2.5 -7.921875 C 2.5 -7.796875 2.578125 -7.796875 2.78125 -7.796875 C 3.53125 -7.796875 3.53125 -7.703125 3.53125 -7.578125 C 3.53125 -7.515625 3.515625 -7.46875 3.484375 -7.34375 L 1.859375 -0.890625 C 1.75 -0.46875 1.734375 -0.34375 0.890625 -0.34375 C 0.671875 -0.34375 0.546875 -0.34375 0.546875 -0.125 C 0.546875 0 0.65625 0 0.734375 0 C 0.953125 0 1.1875 -0.03125 1.421875 -0.03125 L 2.96875 -0.03125 C 3.234375 -0.03125 3.53125 0 3.796875 0 C 3.890625 0 4.046875 0 4.046875 -0.21875 C 4.046875 -0.34375 3.96875 -0.34375 3.703125 -0.34375 C 2.765625 -0.34375 2.734375 -0.4375 2.734375 -0.609375 C 2.734375 -0.671875 2.765625 -0.765625 2.78125 -0.84375 Z M 3.546875 -3.890625 "/>
</g>
<g id="glyph-0-2">
<path d="M 6.046875 -2.75 C 5.625 -1.078125 4.25 -0.09375 3.125 -0.09375 C 2.265625 -0.09375 1.671875 -0.671875 1.671875 -1.65625 C 1.671875 -1.703125 1.671875 -2.0625 1.8125 -2.59375 L 2.96875 -7.296875 C 3.078125 -7.703125 3.109375 -7.8125 3.953125 -7.8125 C 4.171875 -7.8125 4.296875 -7.8125 4.296875 -8.03125 C 4.296875 -8.15625 4.1875 -8.15625 4.109375 -8.15625 C 3.890625 -8.15625 3.640625 -8.140625 3.421875 -8.140625 L 2.015625 -8.140625 C 1.78125 -8.140625 1.53125 -8.15625 1.296875 -8.15625 C 1.21875 -8.15625 1.078125 -8.15625 1.078125 -7.9375 C 1.078125 -7.8125 1.15625 -7.8125 1.390625 -7.8125 C 2.109375 -7.8125 2.109375 -7.71875 2.109375 -7.59375 C 2.109375 -7.515625 2.015625 -7.171875 1.953125 -6.96875 L 0.921875 -2.78125 C 0.890625 -2.65625 0.8125 -2.328125 0.8125 -2.015625 C 0.8125 -0.6875 1.75 0.25 3.0625 0.25 C 4.265625 0.25 5.609375 -0.703125 6.21875 -2.21875 C 6.296875 -2.421875 6.40625 -2.84375 6.484375 -3.171875 C 6.59375 -3.59375 6.84375 -4.65625 6.9375 -4.953125 L 7.390625 -6.75 C 7.546875 -7.375 7.640625 -7.765625 8.6875 -7.8125 C 8.78125 -7.828125 8.828125 -7.921875 8.828125 -8.03125 C 8.828125 -8.15625 8.71875 -8.15625 8.671875 -8.15625 C 8.515625 -8.15625 8.296875 -8.140625 8.125 -8.140625 L 7.5625 -8.140625 C 6.828125 -8.140625 6.4375 -8.15625 6.4375 -8.15625 C 6.359375 -8.15625 6.21875 -8.15625 6.21875 -7.9375 C 6.21875 -7.8125 6.3125 -7.8125 6.390625 -7.8125 C 7.109375 -7.796875 7.15625 -7.515625 7.15625 -7.296875 C 7.15625 -7.203125 7.15625 -7.15625 7.109375 -7 Z M 6.046875 -2.75 "/>
</g>
<g id="glyph-1-0">
</g>
<g id="glyph-1-1">
<path d="M 8.0625 -3.875 C 8.234375 -3.875 8.453125 -3.875 8.453125 -4.09375 C 8.453125 -4.3125 8.25 -4.3125 8.0625 -4.3125 L 1.03125 -4.3125 C 0.859375 -4.3125 0.640625 -4.3125 0.640625 -4.09375 C 0.640625 -3.875 0.84375 -3.875 1.03125 -3.875 Z M 8.0625 -1.65625 C 8.234375 -1.65625 8.453125 -1.65625 8.453125 -1.859375 C 8.453125 -2.09375 8.25 -2.09375 8.0625 -2.09375 L 1.03125 -2.09375 C 0.859375 -2.09375 0.640625 -2.09375 0.640625 -1.875 C 0.640625 -1.65625 0.84375 -1.65625 1.03125 -1.65625 Z M 8.0625 -1.65625 "/>
</g>
<g id="glyph-1-2">
<path d="M 7.90625 -1.859375 L 7.65625 -1.859375 C 7.59375 -1.546875 7.53125 -1.25 7.4375 -0.984375 C 7.375 -0.796875 7.34375 -0.703125 6.640625 -0.703125 L 5.703125 -0.703125 C 5.84375 -1.375 6.1875 -1.953125 6.6875 -2.6875 C 7.25 -3.5625 7.796875 -4.4375 7.796875 -5.421875 C 7.796875 -7.078125 6.21875 -8.421875 4.21875 -8.421875 C 2.21875 -8.421875 0.640625 -7.0625 0.640625 -5.421875 C 0.640625 -4.453125 1.1875 -3.578125 1.75 -2.71875 C 2.25 -1.9375 2.609375 -1.375 2.734375 -0.703125 L 1.796875 -0.703125 C 1.09375 -0.703125 1.0625 -0.796875 1 -0.984375 C 0.90625 -1.234375 0.84375 -1.578125 0.78125 -1.859375 L 0.53125 -1.859375 L 0.90625 0 L 2.765625 0 C 3.03125 0 3.046875 0 3.046875 -0.21875 C 3.046875 -1.0625 2.671875 -2.109375 2.421875 -2.71875 C 2.078125 -3.65625 1.75 -4.53125 1.75 -5.4375 C 1.75 -7.28125 3.03125 -8.171875 4.21875 -8.171875 C 5.40625 -8.171875 6.6875 -7.28125 6.6875 -5.4375 C 6.6875 -4.53125 6.34375 -3.640625 6.015625 -2.75 C 5.8125 -2.171875 5.390625 -1.078125 5.390625 -0.234375 C 5.390625 0 5.421875 0 5.6875 0 L 7.53125 0 Z M 7.90625 -1.859375 "/>
</g>
<g id="glyph-2-0">
</g>
<g id="glyph-2-1">
<path d="M 4.796875 2.703125 C 4.859375 2.875 4.90625 2.984375 5.0625 2.984375 C 5.203125 2.984375 5.3125 2.875 5.3125 2.75 C 5.3125 2.71875 5.3125 2.703125 5.25 2.5625 L 1.15625 -8.671875 C 1.09375 -8.875 1.046875 -8.96875 0.890625 -8.96875 C 0.765625 -8.96875 0.65625 -8.859375 0.65625 -8.71875 C 0.65625 -8.703125 0.65625 -8.671875 0.71875 -8.53125 Z M 4.796875 2.703125 "/>
</g>
</g>
<clipPath id="clip-0">
<path clip-rule="nonzero" d="M 37 0 L 42 0 L 42 12.953125 L 37 12.953125 Z M 37 0 "/>
</clipPath>
<clipPath id="clip-1">
<path clip-rule="nonzero" d="M 46 1 L 54.894531 1 L 54.894531 10 L 46 10 Z M 46 1 "/>
</clipPath>
</defs>
<g fill="rgb(0%, 0%, 0%)" fill-opacity="1">
<use xlink:href="#glyph-0-1" x="0.5" y="9.466"/>
</g>
<g fill="rgb(0%, 0%, 0%)" fill-opacity="1">
<use xlink:href="#glyph-1-1" x="13.024" y="9.466"/>
</g>
<g fill="rgb(0%, 0%, 0%)" fill-opacity="1">
<use xlink:href="#glyph-1-2" x="25.452626" y="9.466"/>
</g>
<g clip-path="url(#clip-0)">
<g fill="rgb(0%, 0%, 0%)" fill-opacity="1">
<use xlink:href="#glyph-2-1" x="36.561" y="9.466"/>
</g>
</g>
<g clip-path="url(#clip-1)">
<g fill="rgb(0%, 0%, 0%)" fill-opacity="1">
<use xlink:href="#glyph-0-2" x="45.195" y="9.466"/>
</g>
</g>
</svg>
