<?xml version="1.0" encoding="UTF-8"?>
<svg xmlns="http://www.w3.org/2000/svg" xmlns:xlink="http://www.w3.org/1999/xlink" viewBox="0 0 31.801 12.955">
<defs>
<g>
<g id="glyph-0-0">
</g>
<g id="glyph-0-1">
<path d="M 3.890625 2.90625 C 3.890625 2.875 3.890625 2.84375 3.6875 2.640625 C 2.484375 1.4375 1.8125 -0.53125 1.8125 -2.96875 C 1.8125 -5.296875 2.375 -7.296875 3.765625 -8.703125 C 3.890625 -8.8125 3.890625 -8.828125 3.890625 -8.875 C 3.890625 -8.9375 3.828125 -8.96875 3.78125 -8.96875 C 3.625 -8.96875 2.640625 -8.109375 2.0625 -6.9375 C 1.453125 -5.71875 1.171875 -4.453125 1.171875 -2.96875 C 1.171875 -1.90625 1.34375 -0.484375 1.953125 0.78125 C 2.671875 2.21875 3.640625 3 3.78125 3 C 3.828125 3 3.890625 2.96875 3.890625 2.90625 Z M 3.890625 2.90625 "/>
</g>
<g id="glyph-0-2">
<path d="M 7.90625 -1.859375 L 7.65625 -1.859375 C 7.59375 -1.546875 7.53125 -1.25 7.4375 -0.984375 C 7.375 -0.796875 7.34375 -0.703125 6.640625 -0.703125 L 5.703125 -0.703125 C 5.84375 -1.375 6.1875 -1.953125 6.6875 -2.6875 C 7.25 -3.5625 7.796875 -4.4375 7.796875 -5.421875 C 7.796875 -7.078125 6.21875 -8.421875 4.21875 -8.421875 C 2.21875 -8.421875 0.640625 -7.0625 0.640625 -5.421875 C 0.640625 -4.453125 1.1875 -3.578125 1.75 -2.71875 C 2.25 -1.9375 2.609375 -1.375 2.734375 -0.703125 L 1.796875 -0.703125 C 1.09375 -0.703125 1.0625 -0.796875 1 -0.984375 C 0.90625 -1.234375 0.84375 -1.578125 0.78125 -1.859375 L 0.53125 -1.859375 L 0.90625 0 L 2.765625 0 C 3.03125 0 3.046875 0 3.046875 -0.21875 C 3.046875 -1.0625 2.671875 -2.109375 2.421875 -2.71875 C 2.078125 -3.65625 1.75 -4.53125 1.75 -5.4375 C 1.75 -7.28125 3.03125 -8.171875 4.21875 -8.171875 C 5.40625 -8.171875 6.6875 -7.28125 6.6875 -5.4375 C 6.6875 -4.53125 6.34375 -3.640625 6.015625 -2.75 C 5.8125 -2.171875 5.390625 -1.078125 5.390625 -0.234375 C 5.390625 0 5.421875 0 5.6875 0 L 7.53125 0 Z M 7.90625 -1.859375 "/>
</g>
<g id="glyph-0-3">
<path d="M 3.375 -2.96875 C 3.375 -3.890625 3.25 -5.359375 2.578125 -6.75 C 1.875 -8.1875 0.890625 -8.96875 0.765625 -8.96875 C 0.71875 -8.96875 0.65625 -8.9375 0.65625 -8.875 C 0.65625 -8.828125 0.65625 -8.8125 0.859375 -8.609375 C 2.0625 -7.40625 2.71875 -5.421875 2.71875 -2.984375 C 2.71875 -0.671875 2.15625 1.328125 0.78125 2.734375 C 0.65625 2.84375 0.65625 2.875 0.65625 2.90625 C 0.65625 2.96875 0.71875 3 0.765625 3 C 0.921875 3 1.90625 2.140625 2.484375 0.96875 C 3.09375 -0.25 3.375 -1.546875 3.375 -2.96875 Z M 3.375 -2.96875 "/>
</g>
<g id="glyph-1-0">
</g>
<g id="glyph-1-1">
<path d="M 2.328125 0.046875 C 2.328125 -0.640625 2.109375 -1.15625 1.609375 -1.15625 C 1.234375 -1.15625 1.046875 -0.84375 1.046875 -0.578125 C 1.046875 -0.328125 1.21875 0 1.625 0 C 1.78125 0 1.90625 -0.046875 2.015625 -0.15625 C 2.046875 -0.171875 2.0625 -0.171875 2.0625 -0.171875 C 2.09375 -0.171875 2.09375 -0.015625 2.09375 0.046875 C 2.09375 0.4375 2.015625 1.21875 1.328125 2 C 1.1875 2.140625 1.1875 2.15625 1.1875 2.1875 C 1.1875 2.25 1.25 2.3125 1.3125 2.3125 C 1.40625 2.3125 2.328125 1.421875 2.328125 0.046875 Z M 2.328125 0.046875 "/>
</g>
<g id="glyph-2-0">
</g>
<g id="glyph-2-1">
<path d="M 7.25 -1.59375 C 6.828125 -1.15625 6.234375 -0.6875 5.671875 -0.6875 C 5.203125 -0.6875 4.546875 -0.984375 4.03125 -1.234375 C 4.59375 -1.703125 5.421875 -2.390625 5.421875 -3.046875 C 5.421875 -3.984375 4.015625 -4.828125 4.015625 -5.53125 C 4.015625 -6.1875 4.546875 -6.765625 4.90625 -7.046875 C 5.34375 -6.9375 5.96875 -6.875 6.4375 -6.875 C 6.71875 -6.875 7 -6.90625 7.25 -7.0625 L 8.078125 -8.140625 L 8.078125 -8.40625 C 7.75 -8.03125 7.3125 -7.75 6.8125 -7.75 C 5.734375 -7.75 4.546875 -8.203125 3.375 -8.203125 C 2.578125 -8.203125 1.859375 -7.96875 1.265625 -7.421875 C 0.78125 -6.96875 0.28125 -6.21875 0.28125 -5.5625 C 0.28125 -5.078125 0.515625 -4.6875 0.890625 -4.390625 L 1.65625 -5.15625 C 1.234375 -5.3125 0.890625 -5.703125 0.890625 -6.171875 C 0.890625 -7.171875 1.890625 -7.453125 2.671875 -7.453125 C 3.328125 -7.453125 3.96875 -7.34375 4.59375 -7.125 C 3.9375 -6.5 3.328125 -5.71875 3.125 -4.828125 C 3.265625 -4.046875 4.59375 -3.140625 4.59375 -2.46875 C 4.59375 -2.015625 4.109375 -1.578125 3.6875 -1.34375 C 3.484375 -1.40625 3.265625 -1.40625 3.03125 -1.40625 C 2.921875 -1.40625 2.796875 -1.40625 2.671875 -1.40625 C 2.15625 -0.984375 1.671875 -0.53125 1.21875 -0.0625 L 1.34375 0.125 C 1.75 -0.1875 2.3125 -0.578125 2.8125 -0.578125 C 3.6875 -0.578125 4.421875 0.203125 5.359375 0.328125 C 6.125 -0.046875 6.796875 -0.71875 7.390625 -1.40625 Z M 7.25 -1.59375 "/>
</g>
</g>
<clipPath id="clip-0">
<path clip-rule="nonzero" d="M 1 0 L 13 0 L 13 12.953125 L 1 12.953125 Z M 1 0 "/>
</clipPath>
<clipPath id="clip-1">
<path clip-rule="nonzero" d="M 27 0 L 31 0 L 31 12.953125 L 27 12.953125 Z M 27 0 "/>
</clipPath>
</defs>
<g clip-path="url(#clip-0)">
<g fill="rgb(0%, 0%, 0%)" fill-opacity="1">
<use xlink:href="#glyph-0-1" x="0.5" y="9.466"/>
<use xlink:href="#glyph-0-2" x="5.05254" y="9.466"/>
</g>
</g>
<g fill="rgb(0%, 0%, 0%)" fill-opacity="1">
<use xlink:href="#glyph-1-1" x="13.507" y="9.466"/>
</g>
<g fill="rgb(0%, 0%, 0%)" fill-opacity="1">
<use xlink:href="#glyph-2-1" x="18.751" y="9.466"/>
</g>
<g clip-path="url(#clip-1)">
<g fill="rgb(0%, 0%, 0%)" fill-opacity="1">
<use xlink:href="#glyph-0-3" x="26.749" y="9.466"/>
</g>
</g>
</svg>
