<?xml version="1.0" encoding="UTF-8"?>
<svg xmlns="http://www.w3.org/2000/svg" xmlns:xlink="http://www.w3.org/1999/xlink" viewBox="0 0 48.214 20.128">
<defs>
<g>
<g id="glyph-0-0">
</g>
<g id="glyph-0-1">
<path d="M 6.046875 -2.75 C 5.625 -1.078125 4.25 -0.09375 3.125 -0.09375 C 2.265625 -0.09375 1.671875 -0.671875 1.671875 -1.65625 C 1.671875 -1.703125 1.671875 -2.0625 1.8125 -2.59375 L 2.96875 -7.296875 C 3.078125 -7.703125 3.109375 -7.8125 3.953125 -7.8125 C 4.171875 -7.8125 4.296875 -7.8125 4.296875 -8.03125 C 4.296875 -8.15625 4.1875 -8.15625 4.109375 -8.15625 C 3.890625 -8.15625 3.640625 -8.140625 3.421875 -8.140625 L 2.015625 -8.140625 C 1.78125 -8.140625 1.53125 -8.15625 1.296875 -8.15625 C 1.21875 -8.15625 1.078125 -8.15625 1.078125 -7.9375 C 1.078125 -7.8125 1.15625 -7.8125 1.390625 -7.8125 C 2.109375 -7.8125 2.109375 -7.71875 2.109375 -7.59375 C 2.109375 -7.515625 2.015625 -7.171875 1.953125 -6.96875 L 0.921875 -2.78125 C 0.890625 -2.65625 0.8125 -2.328125 0.8125 -2.015625 C 0.8125 -0.6875 1.75 0.25 3.0625 0.25 C 4.265625 0.25 5.609375 -0.703125 6.21875 -2.21875 C 6.296875 -2.421875 6.40625 -2.84375 6.484375 -3.171875 C 6.59375 -3.59375 6.84375 -4.65625 6.9375 -4.953125 L 7.390625 -6.75 C 7.546875 -7.375 7.640625 -7.765625 8.6875 -7.8125 C 8.78125 -7.828125 8.828125 -7.921875 8.828125 -8.03125 C 8.828125 -8.15625 8.71875 -8.15625 8.671875 -8.15625 C 8.515625 -8.15625 8.296875 -8.140625 8.125 -8.140625 L 7.5625 -8.140625 C 6.828125 -8.140625 6.4375 -8.15625 6.4375 -8.15625 C 6.359375 -8.15625 6.21875 -8.15625 6.21875 -7.9375 C 6.21875 -7.8125 6.3125 -7.8125 6.390625 -7.8125 C 7.109375 -7.796875 7.15625 -7.515625 7.15625 -7.296875 C 7.15625 -7.203125 7.15625 -7.15625 7.109375 -7 Z M 6.046875 -2.75 "/>
</g>
<g id="glyph-1-0">
</g>
<g id="glyph-1-1">
<path d="M 8.0625 -3.875 C 8.234375 -3.875 8.453125 -3.875 8.453125 -4.09375 C 8.453125 -4.3125 8.25 -4.3125 8.0625 -4.3125 L 1.03125 -4.3125 C 0.859375 -4.3125 0.640625 -4.3125 0.640625 -4.09375 C 0.640625 -3.875 0.84375 -3.875 1.03125 -3.875 Z M 8.0625 -1.65625 C 8.234375 -1.65625 8.453125 -1.65625 8.453125 -1.859375 C 8.453125 -2.09375 8.25 -2.09375 8.0625 -2.09375 L 1.03125 -2.09375 C 0.859375 -2.09375 0.640625 -2.09375 0.640625 -1.875 C 0.640625 -1.65625 0.84375 -1.65625 1.03125 -1.65625 Z M 8.0625 -1.65625 "/>
</g>
<g id="glyph-2-0">
</g>
<g id="glyph-2-1">
<path d="M 11.609375 10.96875 C 11.609375 13.703125 9.296875 15.75 6.640625 15.75 C 3.96875 15.75 1.65625 13.703125 1.65625 10.96875 L 1.65625 0.65625 C 1.65625 0.5 1.65625 0 1.171875 0 C 0.671875 0 0.671875 0.484375 0.671875 0.65625 L 0.671875 11.03125 C 0.671875 14.109375 3.28125 16.734375 6.640625 16.734375 C 9.984375 16.734375 12.59375 14.109375 12.59375 11.03125 L 12.59375 0.65625 C 12.59375 0.5 12.59375 0 12.109375 0 C 11.609375 0 11.609375 0.484375 11.609375 0.65625 Z M 11.609375 10.96875 "/>
</g>
<g id="glyph-3-0">
</g>
<g id="glyph-3-1">
<path d="M 5.921875 -1.875 C 5.921875 -1.953125 5.875 -1.953125 5.8125 -1.953125 C 5.609375 -1.953125 5.3125 -1.78125 5.3125 -1.78125 C 5.0625 -1.625 5.015625 -1.546875 4.875 -1.34375 C 4.5 -0.78125 3.984375 -0.375 3.203125 -0.375 C 2.125 -0.375 1.15625 -1.140625 1.15625 -2.9375 C 1.15625 -4.015625 1.59375 -5.4375 2.21875 -6.390625 C 2.75 -7.140625 3.390625 -7.765625 4.625 -7.765625 C 5.078125 -7.765625 5.359375 -7.609375 5.359375 -7.15625 C 5.359375 -6.734375 4.921875 -5.890625 4.78125 -5.65625 C 4.703125 -5.515625 4.703125 -5.5 4.703125 -5.46875 C 4.703125 -5.390625 4.765625 -5.390625 4.84375 -5.390625 C 5.078125 -5.390625 5.515625 -5.65625 5.671875 -5.84375 C 5.6875 -5.890625 6.390625 -7.0625 6.390625 -7.671875 C 6.390625 -8.328125 5.84375 -8.421875 5.421875 -8.421875 C 3.6875 -8.421875 2.265625 -7.296875 1.703125 -6.625 C 0.28125 -4.90625 0.140625 -3.046875 0.140625 -2.421875 C 0.140625 -0.6875 1.03125 0.28125 2.421875 0.28125 C 4.34375 0.28125 5.921875 -1.578125 5.921875 -1.875 Z M 5.921875 -1.875 "/>
</g>
</g>
</defs>
<g fill="rgb(0%, 0%, 0%)" fill-opacity="1">
<use xlink:href="#glyph-0-1" x="0.5" y="13.053"/>
</g>
<g fill="rgb(0%, 0%, 0%)" fill-opacity="1">
<use xlink:href="#glyph-1-1" x="13.02" y="13.053"/>
</g>
<g fill="rgb(0%, 0%, 0%)" fill-opacity="1">
<use xlink:href="#glyph-2-1" x="25.445" y="1.695"/>
</g>
<g fill="rgb(0%, 0%, 0%)" fill-opacity="1">
<use xlink:href="#glyph-3-1" x="40.721" y="13.053"/>
</g>
</svg>
