<?xml version="1.0" encoding="UTF-8"?>
<svg xmlns="http://www.w3.org/2000/svg" xmlns:xlink="http://www.w3.org/1999/xlink" viewBox="0 0 8.998 9.266">
<defs>
<g>
<g id="glyph-0-0">
</g>
<g id="glyph-0-1">
<path d="M 7.25 -1.59375 C 6.828125 -1.15625 6.234375 -0.6875 5.671875 -0.6875 C 5.203125 -0.6875 4.546875 -0.984375 4.03125 -1.234375 C 4.59375 -1.703125 5.421875 -2.390625 5.421875 -3.046875 C 5.421875 -3.984375 4.015625 -4.828125 4.015625 -5.53125 C 4.015625 -6.1875 4.546875 -6.765625 4.90625 -7.046875 C 5.34375 -6.9375 5.96875 -6.875 6.4375 -6.875 C 6.71875 -6.875 7 -6.90625 7.25 -7.0625 L 8.078125 -8.140625 L 8.078125 -8.40625 C 7.75 -8.03125 7.3125 -7.75 6.8125 -7.75 C 5.734375 -7.75 4.546875 -8.203125 3.375 -8.203125 C 2.578125 -8.203125 1.859375 -7.96875 1.265625 -7.421875 C 0.78125 -6.96875 0.28125 -6.21875 0.28125 -5.5625 C 0.28125 -5.078125 0.515625 -4.6875 0.890625 -4.390625 L 1.65625 -5.15625 C 1.234375 -5.3125 0.890625 -5.703125 0.890625 -6.171875 C 0.890625 -7.171875 1.890625 -7.453125 2.671875 -7.453125 C 3.328125 -7.453125 3.96875 -7.34375 4.59375 -7.125 C 3.9375 -6.5 3.328125 -5.71875 3.125 -4.828125 C 3.265625 -4.046875 4.59375 -3.140625 4.59375 -2.46875 C 4.59375 -2.015625 4.109375 -1.578125 3.6875 -1.34375 C 3.484375 -1.40625 3.265625 -1.40625 3.03125 -1.40625 C 2.921875 -1.40625 2.796875 -1.40625 2.671875 -1.40625 C 2.15625 -0.984375 1.671875 -0.53125 1.21875 -0.0625 L 1.34375 0.125 C 1.75 -0.1875 2.3125 -0.578125 2.8125 -0.578125 C 3.6875 -0.578125 4.421875 0.203125 5.359375 0.328125 C 6.125 -0.046875 6.796875 -0.71875 7.390625 -1.40625 Z M 7.25 -1.59375 "/>
</g>
</g>
<clipPath id="clip-0">
<path clip-rule="nonzero" d="M 0 0 L 8.996094 0 L 8.996094 9.265625 L 0 9.265625 Z M 0 0 "/>
</clipPath>
</defs>
<g clip-path="url(#clip-0)">
<g fill="rgb(0%, 0%, 0%)" fill-opacity="1">
<use xlink:href="#glyph-0-1" x="0.5" y="8.766"/>
</g>
</g>
</svg>
