<?xml version="1.0" encoding="UTF-8"?>
<svg xmlns="http://www.w3.org/2000/svg" xmlns:xlink="http://www.w3.org/1999/xlink" viewBox="0 0 31.715 9.77">
<defs>
<g>
<g id="glyph-0-0">
</g>
<g id="glyph-0-1">
<path d="M 3.359375 -8 C 3.375 -8.046875 3.390625 -8.109375 3.390625 -8.171875 C 3.390625 -8.296875 3.28125 -8.296875 3.25 -8.296875 C 3.234375 -8.296875 2.8125 -8.265625 2.59375 -8.234375 C 2.390625 -8.21875 2.21875 -8.203125 2 -8.1875 C 1.703125 -8.15625 1.625 -8.15625 1.625 -7.9375 C 1.625 -7.8125 1.75 -7.8125 1.859375 -7.8125 C 2.46875 -7.8125 2.46875 -7.703125 2.46875 -7.59375 C 2.46875 -7.546875 2.46875 -7.515625 2.421875 -7.296875 L 0.703125 -0.46875 C 0.65625 -0.28125 0.65625 -0.265625 0.65625 -0.1875 C 0.65625 0.078125 0.859375 0.125 0.984375 0.125 C 1.3125 0.125 1.390625 -0.140625 1.484375 -0.515625 L 2.046875 -2.75 C 2.90625 -2.65625 3.421875 -2.296875 3.421875 -1.71875 C 3.421875 -1.65625 3.421875 -1.609375 3.375 -1.421875 C 3.328125 -1.25 3.328125 -1.09375 3.328125 -1.046875 C 3.328125 -0.34375 3.796875 0.125 4.40625 0.125 C 4.953125 0.125 5.234375 -0.375 5.328125 -0.546875 C 5.578125 -0.984375 5.734375 -1.65625 5.734375 -1.703125 C 5.734375 -1.765625 5.6875 -1.8125 5.625 -1.8125 C 5.515625 -1.8125 5.5 -1.765625 5.453125 -1.578125 C 5.28125 -0.953125 5.03125 -0.125 4.421875 -0.125 C 4.1875 -0.125 4.03125 -0.234375 4.03125 -0.6875 C 4.03125 -0.921875 4.078125 -1.1875 4.125 -1.359375 C 4.171875 -1.578125 4.171875 -1.59375 4.171875 -1.734375 C 4.171875 -2.4375 3.53125 -2.828125 2.4375 -2.96875 C 2.875 -3.234375 3.296875 -3.703125 3.46875 -3.890625 C 4.140625 -4.65625 4.609375 -5.03125 5.15625 -5.03125 C 5.4375 -5.03125 5.515625 -4.953125 5.59375 -4.890625 C 5.15625 -4.84375 4.984375 -4.53125 4.984375 -4.296875 C 4.984375 -4 5.21875 -3.90625 5.375 -3.90625 C 5.703125 -3.90625 5.984375 -4.1875 5.984375 -4.5625 C 5.984375 -4.90625 5.71875 -5.265625 5.171875 -5.265625 C 4.515625 -5.265625 3.984375 -4.8125 3.125 -3.84375 C 3.015625 -3.703125 2.5625 -3.25 2.125 -3.078125 Z M 3.359375 -8 "/>
</g>
<g id="glyph-1-0">
</g>
<g id="glyph-1-1">
<path d="M 6.546875 -2.75 C 6.75 -2.75 6.96875 -2.75 6.96875 -2.984375 C 6.96875 -3.234375 6.75 -3.234375 6.546875 -3.234375 L 1.484375 -3.234375 C 1.625 -4.828125 3 -5.96875 4.6875 -5.96875 L 6.546875 -5.96875 C 6.75 -5.96875 6.96875 -5.96875 6.96875 -6.21875 C 6.96875 -6.453125 6.75 -6.453125 6.546875 -6.453125 L 4.65625 -6.453125 C 2.625 -6.453125 0.984375 -4.90625 0.984375 -2.984375 C 0.984375 -1.078125 2.625 0.484375 4.65625 0.484375 L 6.546875 0.484375 C 6.75 0.484375 6.96875 0.484375 6.96875 0.234375 C 6.96875 0 6.75 0 6.546875 0 L 4.6875 0 C 3 0 1.625 -1.140625 1.484375 -2.75 Z M 6.546875 -2.75 "/>
</g>
<g id="glyph-1-2">
<path d="M 5.59375 -4.203125 C 6.078125 -4.1875 6.296875 -4.140625 6.375 -4.078125 C 6.390625 -4.0625 6.390625 -4.015625 6.40625 -4 C 6.40625 -3.875 6.5 -3.875 6.5625 -3.875 C 6.75 -3.875 7.125 -4.078125 7.125 -4.328125 C 7.125 -4.625 6.625 -4.6875 6.34375 -4.703125 C 6.328125 -4.703125 6.15625 -4.703125 6.15625 -4.71875 C 6.15625 -4.75 6.34375 -4.921875 6.4375 -5.03125 C 7.578125 -6.171875 9.171875 -7.953125 9.171875 -8.078125 C 9.171875 -8.109375 9.15625 -8.15625 9.078125 -8.15625 C 8.984375 -8.15625 8.671875 -8.09375 8.328125 -7.828125 C 8.109375 -7.828125 7.8125 -7.828125 7.125 -7.953125 C 6.46875 -8.078125 6.03125 -8.15625 5.5625 -8.15625 C 4.8125 -8.15625 4.09375 -7.890625 3.453125 -7.5 C 2.375 -6.828125 2.28125 -6.125 2.28125 -6.125 C 2.28125 -6.078125 2.296875 -6.03125 2.390625 -6.03125 C 2.625 -6.03125 3.328125 -6.375 3.4375 -6.6875 C 3.59375 -7.15625 3.75 -7.421875 4.5625 -7.421875 C 4.671875 -7.421875 5.015625 -7.421875 5.71875 -7.296875 C 6.328125 -7.1875 6.8125 -7.09375 7.25 -7.09375 C 7.390625 -7.09375 7.53125 -7.09375 7.65625 -7.125 C 7.03125 -6.390625 6.484375 -5.765625 5.4375 -4.703125 L 4.25 -4.703125 C 3.609375 -4.703125 3.5 -4.34375 3.5 -4.296875 C 3.5 -4.203125 3.609375 -4.203125 3.8125 -4.203125 L 4.90625 -4.203125 C 4.8125 -4.09375 4.25 -3.53125 2.703125 -2.140625 C 2.671875 -2.109375 1.8125 -1.34375 0.828125 -0.5 C 0.671875 -0.375 0.4375 -0.171875 0.4375 -0.078125 C 0.4375 -0.046875 0.453125 0 0.53125 0 C 0.6875 0 0.9375 -0.125 1.09375 -0.21875 C 1.3125 -0.328125 1.515625 -0.328125 1.703125 -0.328125 C 2.25 -0.328125 3.03125 -0.234375 3.578125 -0.171875 C 4.140625 -0.09375 4.953125 0 5.53125 0 C 6.40625 0 7.109375 -0.484375 7.5 -0.84375 C 8.21875 -1.484375 8.4375 -2.328125 8.4375 -2.40625 C 8.4375 -2.46875 8.390625 -2.484375 8.328125 -2.484375 C 8.109375 -2.484375 7.390625 -2.140625 7.28125 -1.796875 C 7.203125 -1.5625 7.09375 -1.15625 6.71875 -0.734375 C 6.359375 -0.734375 5.9375 -0.734375 4.84375 -0.890625 C 4.25 -0.953125 3.34375 -1.078125 2.71875 -1.078125 C 2.640625 -1.078125 2.359375 -1.078125 2.125 -1.03125 Z M 5.59375 -4.203125 "/>
</g>
</g>
<clipPath id="clip-0">
<path clip-rule="nonzero" d="M 11 2 L 18 2 L 18 9.769531 L 11 9.769531 Z M 11 2 "/>
</clipPath>
</defs>
<g fill="rgb(0%, 0%, 0%)" fill-opacity="1">
<use xlink:href="#glyph-0-1" x="0.5" y="8.803"/>
</g>
<g clip-path="url(#clip-0)">
<g fill="rgb(0%, 0%, 0%)" fill-opacity="1">
<use xlink:href="#glyph-1-1" x="10.31" y="8.803"/>
</g>
</g>
<g fill="rgb(0%, 0%, 0%)" fill-opacity="1">
<use xlink:href="#glyph-1-2" x="21.604077" y="8.803"/>
</g>
</svg>
