<?xml version="1.0" encoding="UTF-8"?>
<svg xmlns="http://www.w3.org/2000/svg" xmlns:xlink="http://www.w3.org/1999/xlink" viewBox="0 0 32.657 10.795">
<defs>
<g>
<g id="glyph-0-0">
</g>
<g id="glyph-0-1">
<path d="M 4.40625 -7.28125 C 4.5 -7.703125 4.53125 -7.8125 5.40625 -7.8125 C 5.671875 -7.8125 5.765625 -7.8125 5.765625 -8.046875 C 5.765625 -8.15625 5.625 -8.15625 5.59375 -8.15625 C 5.375 -8.15625 5.109375 -8.140625 4.90625 -8.140625 L 3.4375 -8.140625 C 3.1875 -8.140625 2.921875 -8.15625 2.671875 -8.15625 C 2.578125 -8.15625 2.453125 -8.15625 2.453125 -7.9375 C 2.453125 -7.8125 2.546875 -7.8125 2.78125 -7.8125 C 3.53125 -7.8125 3.53125 -7.71875 3.53125 -7.59375 C 3.53125 -7.5 3.5 -7.4375 3.484375 -7.328125 L 1.859375 -0.890625 C 1.75 -0.46875 1.734375 -0.34375 0.859375 -0.34375 C 0.59375 -0.34375 0.484375 -0.34375 0.484375 -0.125 C 0.484375 0 0.609375 0 0.671875 0 C 0.890625 0 1.140625 -0.03125 1.359375 -0.03125 L 2.828125 -0.03125 C 3.078125 -0.03125 3.328125 0 3.578125 0 C 3.671875 0 3.8125 0 3.8125 -0.21875 C 3.8125 -0.34375 3.734375 -0.34375 3.484375 -0.34375 C 2.734375 -0.34375 2.734375 -0.4375 2.734375 -0.578125 C 2.734375 -0.609375 2.734375 -0.671875 2.78125 -0.859375 Z M 4.40625 -7.28125 "/>
</g>
<g id="glyph-1-0">
</g>
<g id="glyph-1-1">
<path d="M 7.875 -7.125 C 8.078125 -7.125 8.296875 -7.125 8.296875 -7.359375 C 8.296875 -7.609375 8.078125 -7.609375 7.875 -7.609375 L 4.65625 -7.609375 C 2.609375 -7.609375 0.984375 -6.03125 0.984375 -4.140625 C 0.984375 -2.21875 2.640625 -0.6875 4.65625 -0.6875 L 7.875 -0.6875 C 8.078125 -0.6875 8.296875 -0.6875 8.296875 -0.921875 C 8.296875 -1.15625 8.078125 -1.15625 7.875 -1.15625 L 4.6875 -1.15625 C 2.796875 -1.15625 1.46875 -2.5625 1.46875 -4.140625 C 1.46875 -5.765625 2.828125 -7.125 4.6875 -7.125 Z M 1.65625 1.15625 C 1.453125 1.15625 1.234375 1.15625 1.234375 1.40625 C 1.234375 1.640625 1.453125 1.640625 1.65625 1.640625 L 7.875 1.640625 C 8.078125 1.640625 8.296875 1.640625 8.296875 1.40625 C 8.296875 1.15625 8.078125 1.15625 7.875 1.15625 Z M 1.65625 1.15625 "/>
</g>
<g id="glyph-1-2">
<path d="M 5.59375 -4.203125 C 6.078125 -4.1875 6.296875 -4.140625 6.375 -4.078125 C 6.390625 -4.0625 6.390625 -4.015625 6.40625 -4 C 6.40625 -3.875 6.5 -3.875 6.5625 -3.875 C 6.75 -3.875 7.125 -4.078125 7.125 -4.328125 C 7.125 -4.625 6.625 -4.6875 6.34375 -4.703125 C 6.328125 -4.703125 6.15625 -4.703125 6.15625 -4.71875 C 6.15625 -4.75 6.34375 -4.921875 6.4375 -5.03125 C 7.578125 -6.171875 9.171875 -7.953125 9.171875 -8.078125 C 9.171875 -8.109375 9.15625 -8.15625 9.078125 -8.15625 C 8.984375 -8.15625 8.671875 -8.09375 8.328125 -7.828125 C 8.109375 -7.828125 7.8125 -7.828125 7.125 -7.953125 C 6.46875 -8.078125 6.03125 -8.15625 5.5625 -8.15625 C 4.8125 -8.15625 4.09375 -7.890625 3.453125 -7.5 C 2.375 -6.828125 2.28125 -6.125 2.28125 -6.125 C 2.28125 -6.078125 2.296875 -6.03125 2.390625 -6.03125 C 2.625 -6.03125 3.328125 -6.375 3.4375 -6.6875 C 3.59375 -7.15625 3.75 -7.421875 4.5625 -7.421875 C 4.671875 -7.421875 5.015625 -7.421875 5.71875 -7.296875 C 6.328125 -7.1875 6.8125 -7.09375 7.25 -7.09375 C 7.390625 -7.09375 7.53125 -7.09375 7.65625 -7.125 C 7.03125 -6.390625 6.484375 -5.765625 5.4375 -4.703125 L 4.25 -4.703125 C 3.609375 -4.703125 3.5 -4.34375 3.5 -4.296875 C 3.5 -4.203125 3.609375 -4.203125 3.8125 -4.203125 L 4.90625 -4.203125 C 4.8125 -4.09375 4.25 -3.53125 2.703125 -2.140625 C 2.671875 -2.109375 1.8125 -1.34375 0.828125 -0.5 C 0.671875 -0.375 0.4375 -0.171875 0.4375 -0.078125 C 0.4375 -0.046875 0.453125 0 0.53125 0 C 0.6875 0 0.9375 -0.125 1.09375 -0.21875 C 1.3125 -0.328125 1.515625 -0.328125 1.703125 -0.328125 C 2.25 -0.328125 3.03125 -0.234375 3.578125 -0.171875 C 4.140625 -0.09375 4.953125 0 5.53125 0 C 6.40625 0 7.109375 -0.484375 7.5 -0.84375 C 8.21875 -1.484375 8.4375 -2.328125 8.4375 -2.40625 C 8.4375 -2.46875 8.390625 -2.484375 8.328125 -2.484375 C 8.109375 -2.484375 7.390625 -2.140625 7.28125 -1.796875 C 7.203125 -1.5625 7.09375 -1.15625 6.71875 -0.734375 C 6.359375 -0.734375 5.9375 -0.734375 4.84375 -0.890625 C 4.25 -0.953125 3.34375 -1.078125 2.71875 -1.078125 C 2.640625 -1.078125 2.359375 -1.078125 2.125 -1.03125 Z M 5.59375 -4.203125 "/>
</g>
</g>
<clipPath id="clip-0">
<path clip-rule="nonzero" d="M 10 1 L 19 1 L 19 10.796875 L 10 10.796875 Z M 10 1 "/>
</clipPath>
</defs>
<g fill="rgb(0%, 0%, 0%)" fill-opacity="1">
<use xlink:href="#glyph-0-1" x="0.5" y="8.669"/>
</g>
<g clip-path="url(#clip-0)">
<g fill="rgb(0%, 0%, 0%)" fill-opacity="1">
<use xlink:href="#glyph-1-1" x="9.924" y="8.669"/>
</g>
</g>
<g fill="rgb(0%, 0%, 0%)" fill-opacity="1">
<use xlink:href="#glyph-1-2" x="22.5463" y="8.669"/>
</g>
</svg>
