<?xml version="1.0" encoding="UTF-8"?>
<svg xmlns="http://www.w3.org/2000/svg" xmlns:xlink="http://www.w3.org/1999/xlink" viewBox="0 0 64.489 12.955">
<defs>
<g>
<g id="glyph-0-0">
</g>
<g id="glyph-0-1">
<path d="M 3.375 -7.375 C 3.375 -7.859375 3.6875 -8.625 5 -8.703125 C 5.0625 -8.71875 5.109375 -8.765625 5.109375 -8.828125 C 5.109375 -8.96875 5.015625 -8.96875 4.875 -8.96875 C 3.6875 -8.96875 2.59375 -8.359375 2.578125 -7.46875 L 2.578125 -4.75 C 2.578125 -4.28125 2.578125 -3.890625 2.109375 -3.5 C 1.6875 -3.15625 1.234375 -3.125 0.96875 -3.125 C 0.90625 -3.109375 0.859375 -3.0625 0.859375 -2.984375 C 0.859375 -2.875 0.9375 -2.875 1.046875 -2.859375 C 1.84375 -2.8125 2.421875 -2.375 2.546875 -1.796875 C 2.578125 -1.65625 2.578125 -1.640625 2.578125 -1.203125 L 2.578125 1.15625 C 2.578125 1.65625 2.578125 2.046875 3.15625 2.5 C 3.625 2.859375 4.40625 2.984375 4.875 2.984375 C 5.015625 2.984375 5.109375 2.984375 5.109375 2.859375 C 5.109375 2.734375 5.03125 2.734375 4.90625 2.71875 C 4.15625 2.671875 3.578125 2.296875 3.421875 1.6875 C 3.375 1.578125 3.375 1.546875 3.375 1.125 L 3.375 -1.390625 C 3.375 -1.9375 3.28125 -2.140625 2.90625 -2.515625 C 2.65625 -2.765625 2.3125 -2.890625 1.96875 -2.984375 C 2.953125 -3.265625 3.375 -3.8125 3.375 -4.5 Z M 3.375 -7.375 "/>
</g>
<g id="glyph-0-2">
<path d="M 6.546875 -2.75 C 6.75 -2.75 6.96875 -2.75 6.96875 -2.984375 C 6.96875 -3.234375 6.75 -3.234375 6.546875 -3.234375 L 1.484375 -3.234375 C 1.625 -4.828125 3 -5.96875 4.6875 -5.96875 L 6.546875 -5.96875 C 6.75 -5.96875 6.96875 -5.96875 6.96875 -6.21875 C 6.96875 -6.453125 6.75 -6.453125 6.546875 -6.453125 L 4.65625 -6.453125 C 2.625 -6.453125 0.984375 -4.90625 0.984375 -2.984375 C 0.984375 -1.078125 2.625 0.484375 4.65625 0.484375 L 6.546875 0.484375 C 6.75 0.484375 6.96875 0.484375 6.96875 0.234375 C 6.96875 0 6.75 0 6.546875 0 L 4.6875 0 C 3 0 1.625 -1.140625 1.484375 -2.75 Z M 6.546875 -2.75 "/>
</g>
<g id="glyph-0-3">
<path d="M 2.578125 1.40625 C 2.578125 1.875 2.265625 2.640625 0.96875 2.71875 C 0.90625 2.734375 0.859375 2.78125 0.859375 2.859375 C 0.859375 2.984375 0.984375 2.984375 1.09375 2.984375 C 2.265625 2.984375 3.375 2.40625 3.375 1.5 L 3.375 -1.234375 C 3.375 -1.703125 3.375 -2.078125 3.859375 -2.46875 C 4.28125 -2.828125 4.734375 -2.84375 5 -2.859375 C 5.0625 -2.875 5.109375 -2.921875 5.109375 -2.984375 C 5.109375 -3.109375 5.03125 -3.109375 4.90625 -3.125 C 4.125 -3.171875 3.546875 -3.59375 3.421875 -4.1875 C 3.375 -4.3125 3.375 -4.34375 3.375 -4.765625 L 3.375 -7.140625 C 3.375 -7.640625 3.375 -8.015625 2.8125 -8.46875 C 2.328125 -8.84375 1.5 -8.96875 1.09375 -8.96875 C 0.984375 -8.96875 0.859375 -8.96875 0.859375 -8.828125 C 0.859375 -8.71875 0.9375 -8.71875 1.046875 -8.703125 C 1.8125 -8.65625 2.390625 -8.265625 2.546875 -7.65625 C 2.578125 -7.546875 2.578125 -7.53125 2.578125 -7.09375 L 2.578125 -4.59375 C 2.578125 -4.046875 2.671875 -3.84375 3.0625 -3.453125 C 3.3125 -3.203125 3.65625 -3.078125 4 -2.984375 C 3.015625 -2.71875 2.578125 -2.15625 2.578125 -1.46875 Z M 2.578125 1.40625 "/>
</g>
<g id="glyph-1-0">
</g>
<g id="glyph-1-1">
<path d="M 5.328125 -4.8125 C 5.5625 -4.8125 5.671875 -4.8125 5.671875 -5.03125 C 5.671875 -5.15625 5.5625 -5.15625 5.359375 -5.15625 L 4.390625 -5.15625 C 4.609375 -6.390625 4.78125 -7.234375 4.875 -7.609375 C 4.953125 -7.90625 5.203125 -8.171875 5.515625 -8.171875 C 5.765625 -8.171875 6.015625 -8.0625 6.125 -7.953125 C 5.671875 -7.90625 5.515625 -7.5625 5.515625 -7.359375 C 5.515625 -7.125 5.703125 -6.984375 5.921875 -6.984375 C 6.171875 -6.984375 6.53125 -7.1875 6.53125 -7.640625 C 6.53125 -8.140625 6.03125 -8.421875 5.5 -8.421875 C 4.984375 -8.421875 4.484375 -8.03125 4.25 -7.5625 C 4.03125 -7.140625 3.90625 -6.71875 3.640625 -5.15625 L 2.828125 -5.15625 C 2.609375 -5.15625 2.484375 -5.15625 2.484375 -4.9375 C 2.484375 -4.8125 2.5625 -4.8125 2.796875 -4.8125 L 3.5625 -4.8125 C 3.34375 -3.6875 2.859375 -0.984375 2.578125 0.28125 C 2.375 1.328125 2.203125 2.203125 1.609375 2.203125 C 1.5625 2.203125 1.21875 2.203125 1 1.96875 C 1.609375 1.921875 1.609375 1.40625 1.609375 1.390625 C 1.609375 1.140625 1.4375 1 1.203125 1 C 0.96875 1 0.609375 1.203125 0.609375 1.65625 C 0.609375 2.171875 1.140625 2.4375 1.609375 2.4375 C 2.828125 2.4375 3.328125 0.25 3.453125 -0.34375 C 3.671875 -1.265625 4.25 -4.453125 4.3125 -4.8125 Z M 5.328125 -4.8125 "/>
</g>
<g id="glyph-1-2">
<path d="M 2.46875 -3.5 C 2.484375 -3.578125 2.78125 -4.171875 3.234375 -4.546875 C 3.53125 -4.84375 3.9375 -5.03125 4.40625 -5.03125 C 4.890625 -5.03125 5.0625 -4.671875 5.0625 -4.203125 C 5.0625 -3.515625 4.5625 -2.15625 4.328125 -1.5 C 4.21875 -1.21875 4.15625 -1.0625 4.15625 -0.84375 C 4.15625 -0.3125 4.53125 0.125 5.109375 0.125 C 6.21875 0.125 6.640625 -1.640625 6.640625 -1.703125 C 6.640625 -1.765625 6.59375 -1.8125 6.515625 -1.8125 C 6.40625 -1.8125 6.390625 -1.78125 6.328125 -1.578125 C 6.0625 -0.59375 5.609375 -0.125 5.140625 -0.125 C 5.015625 -0.125 4.828125 -0.125 4.828125 -0.515625 C 4.828125 -0.8125 4.953125 -1.171875 5.03125 -1.34375 C 5.265625 -2 5.765625 -3.328125 5.765625 -4.015625 C 5.765625 -4.734375 5.359375 -5.265625 4.453125 -5.265625 C 3.375 -5.265625 2.828125 -4.515625 2.609375 -4.21875 C 2.5625 -4.90625 2.078125 -5.265625 1.546875 -5.265625 C 1.171875 -5.265625 0.90625 -5.046875 0.703125 -4.640625 C 0.484375 -4.203125 0.328125 -3.484375 0.328125 -3.4375 C 0.328125 -3.390625 0.375 -3.328125 0.453125 -3.328125 C 0.546875 -3.328125 0.5625 -3.34375 0.640625 -3.625 C 0.828125 -4.34375 1.046875 -5.03125 1.515625 -5.03125 C 1.796875 -5.03125 1.890625 -4.84375 1.890625 -4.484375 C 1.890625 -4.21875 1.765625 -3.75 1.6875 -3.375 L 1.34375 -2.09375 C 1.296875 -1.859375 1.171875 -1.328125 1.109375 -1.109375 C 1.03125 -0.796875 0.890625 -0.234375 0.890625 -0.171875 C 0.890625 -0.015625 1.03125 0.125 1.203125 0.125 C 1.34375 0.125 1.515625 0.046875 1.609375 -0.125 C 1.640625 -0.1875 1.75 -0.609375 1.8125 -0.84375 L 2.0625 -1.921875 Z M 2.46875 -3.5 "/>
</g>
<g id="glyph-2-0">
</g>
<g id="glyph-2-1">
<path d="M 1.59375 -1.3125 C 1.625 -1.421875 1.703125 -1.734375 1.71875 -1.84375 C 1.828125 -2.28125 1.828125 -2.28125 2.015625 -2.546875 C 2.28125 -2.9375 2.65625 -3.296875 3.1875 -3.296875 C 3.46875 -3.296875 3.640625 -3.125 3.640625 -2.75 C 3.640625 -2.3125 3.3125 -1.40625 3.15625 -1.015625 C 3.046875 -0.75 3.046875 -0.703125 3.046875 -0.59375 C 3.046875 -0.140625 3.421875 0.078125 3.765625 0.078125 C 4.546875 0.078125 4.875 -1.03125 4.875 -1.140625 C 4.875 -1.21875 4.8125 -1.25 4.75 -1.25 C 4.65625 -1.25 4.640625 -1.1875 4.625 -1.109375 C 4.4375 -0.453125 4.09375 -0.140625 3.796875 -0.140625 C 3.671875 -0.140625 3.609375 -0.21875 3.609375 -0.40625 C 3.609375 -0.59375 3.671875 -0.765625 3.75 -0.96875 C 3.859375 -1.265625 4.21875 -2.1875 4.21875 -2.625 C 4.21875 -3.234375 3.796875 -3.515625 3.234375 -3.515625 C 2.578125 -3.515625 2.171875 -3.125 1.9375 -2.828125 C 1.875 -3.265625 1.53125 -3.515625 1.125 -3.515625 C 0.84375 -3.515625 0.640625 -3.328125 0.515625 -3.078125 C 0.3125 -2.703125 0.234375 -2.3125 0.234375 -2.296875 C 0.234375 -2.21875 0.296875 -2.1875 0.359375 -2.1875 C 0.46875 -2.1875 0.46875 -2.21875 0.53125 -2.4375 C 0.625 -2.828125 0.765625 -3.296875 1.09375 -3.296875 C 1.3125 -3.296875 1.359375 -3.09375 1.359375 -2.921875 C 1.359375 -2.765625 1.3125 -2.625 1.25 -2.359375 C 1.234375 -2.296875 1.109375 -1.828125 1.078125 -1.71875 L 0.78125 -0.515625 C 0.75 -0.390625 0.703125 -0.203125 0.703125 -0.171875 C 0.703125 0.015625 0.859375 0.078125 0.96875 0.078125 C 1.109375 0.078125 1.234375 -0.015625 1.28125 -0.109375 C 1.3125 -0.15625 1.375 -0.4375 1.40625 -0.59375 Z M 1.59375 -1.3125 "/>
</g>
<g id="glyph-3-0">
</g>
<g id="glyph-3-1">
<path d="M 2.203125 -4.578125 C 2.203125 -4.90625 1.921875 -5.15625 1.625 -5.15625 C 1.28125 -5.15625 1.046875 -4.875 1.046875 -4.578125 C 1.046875 -4.21875 1.34375 -4 1.609375 -4 C 1.9375 -4 2.203125 -4.25 2.203125 -4.578125 Z M 2.203125 -0.578125 C 2.203125 -0.90625 1.921875 -1.15625 1.625 -1.15625 C 1.28125 -1.15625 1.046875 -0.890625 1.046875 -0.578125 C 1.046875 -0.234375 1.34375 0 1.609375 0 C 1.9375 0 2.203125 -0.25 2.203125 -0.578125 Z M 2.203125 -0.578125 "/>
</g>
<g id="glyph-4-0">
</g>
<g id="glyph-4-1">
<path d="M 1.34375 -7.109375 L 1.34375 -1.28125 C 1.34375 -0.640625 1.25 -0.4375 0.640625 -0.421875 C 0.5 -0.421875 0.296875 -0.40625 0.296875 -0.21875 C 0.296875 0 0.484375 0 0.703125 0 L 2.5625 0 C 2.765625 0 2.953125 0 2.953125 -0.21875 C 2.953125 -0.40625 2.765625 -0.421875 2.59375 -0.421875 C 1.9375 -0.4375 1.84375 -0.6875 1.84375 -1.296875 L 1.84375 -6.78125 L 7 0.046875 C 7.109375 0.1875 7.171875 0.234375 7.25 0.234375 C 7.453125 0.234375 7.453125 0.03125 7.453125 -0.171875 L 7.453125 -6.921875 C 7.453125 -7.59375 7.5625 -7.75 8.109375 -7.765625 C 8.1875 -7.765625 8.390625 -7.78125 8.390625 -7.96875 C 8.390625 -8.1875 8.21875 -8.1875 8 -8.1875 L 6.25 -8.1875 C 6.03125 -8.1875 5.84375 -8.1875 5.84375 -7.96875 C 5.84375 -7.765625 6.0625 -7.765625 6.1875 -7.765625 C 6.859375 -7.75 6.953125 -7.515625 6.953125 -6.890625 L 6.953125 -3.140625 L 3.34375 -8.015625 C 3.234375 -8.1875 3.1875 -8.1875 2.921875 -8.1875 L 0.84375 -8.1875 C 0.625 -8.1875 0.4375 -8.1875 0.4375 -7.96875 C 0.4375 -7.796875 0.625 -7.765625 0.6875 -7.765625 C 1.015625 -7.734375 1.25 -7.546875 1.359375 -7.40625 C 1.34375 -7.296875 1.34375 -7.28125 1.34375 -7.109375 Z M 7.046875 -0.609375 L 1.84375 -7.484375 C 1.71875 -7.625 1.71875 -7.65625 1.59375 -7.765625 L 3.015625 -7.765625 L 7.046875 -2.328125 Z M 7.046875 -0.609375 "/>
</g>
</g>
<clipPath id="clip-0">
<path clip-rule="nonzero" d="M 1 0 L 6 0 L 6 12.953125 L 1 12.953125 Z M 1 0 "/>
</clipPath>
<clipPath id="clip-1">
<path clip-rule="nonzero" d="M 58 0 L 64 0 L 64 12.953125 L 58 12.953125 Z M 58 0 "/>
</clipPath>
</defs>
<g clip-path="url(#clip-0)">
<g fill="rgb(0%, 0%, 0%)" fill-opacity="1">
<use xlink:href="#glyph-0-1" x="0.5" y="9.466"/>
</g>
</g>
<g fill="rgb(0%, 0%, 0%)" fill-opacity="1">
<use xlink:href="#glyph-1-1" x="6.478" y="9.466"/>
</g>
<g fill="rgb(0%, 0%, 0%)" fill-opacity="1">
<use xlink:href="#glyph-2-1" x="12.248" y="11.259"/>
</g>
<g fill="rgb(0%, 0%, 0%)" fill-opacity="1">
<use xlink:href="#glyph-3-1" x="21.205" y="9.466"/>
</g>
<g fill="rgb(0%, 0%, 0%)" fill-opacity="1">
<use xlink:href="#glyph-1-2" x="27.777" y="9.466"/>
</g>
<g fill="rgb(0%, 0%, 0%)" fill-opacity="1">
<use xlink:href="#glyph-0-2" x="38.086" y="9.466"/>
</g>
<g fill="rgb(0%, 0%, 0%)" fill-opacity="1">
<use xlink:href="#glyph-4-1" x="49.377" y="9.466"/>
</g>
<g clip-path="url(#clip-1)">
<g fill="rgb(0%, 0%, 0%)" fill-opacity="1">
<use xlink:href="#glyph-0-3" x="58.011" y="9.466"/>
</g>
</g>
</svg>
