<?xml version="1.0" encoding="UTF-8"?>
<svg xmlns="http://www.w3.org/2000/svg" xmlns:xlink="http://www.w3.org/1999/xlink" viewBox="0 0 10.105 9.169">
<defs>
<g>
<g id="glyph-0-0">
</g>
<g id="glyph-0-1">
<path d="M 4.96875 -7.25 C 4.96875 -7.671875 5 -7.8125 6.03125 -7.8125 L 6.390625 -7.8125 L 6.390625 -8.15625 C 6.078125 -8.140625 4.90625 -8.140625 4.515625 -8.140625 C 4.125 -8.140625 2.96875 -8.140625 2.640625 -8.15625 L 2.640625 -7.8125 L 3 -7.8125 C 4.046875 -7.8125 4.0625 -7.671875 4.0625 -7.25 L 4.0625 -1.859375 C 2.4375 -2.265625 2.40625 -4.203125 2.40625 -4.953125 C 2.390625 -6.140625 2.03125 -6.640625 1.328125 -6.640625 L 0.9375 -6.640625 C 0.75 -6.640625 0.65625 -6.640625 0.65625 -6.515625 C 0.65625 -6.421875 0.734375 -6.40625 0.78125 -6.390625 C 1.328125 -6.3125 1.484375 -5.8125 1.5 -4.75 C 1.5 -3.03125 2.375 -1.8125 4.0625 -1.59375 L 4.0625 -0.921875 C 4.0625 -0.484375 4.046875 -0.34375 3 -0.34375 L 2.640625 -0.34375 L 2.640625 0 C 2.96875 -0.03125 4.125 -0.03125 4.515625 -0.03125 C 4.90625 -0.03125 6.078125 -0.03125 6.390625 0 L 6.390625 -0.34375 L 6.03125 -0.34375 C 5 -0.34375 4.96875 -0.484375 4.96875 -0.921875 L 4.96875 -1.59375 C 7.296875 -1.875 7.59375 -3.765625 7.609375 -5.015625 C 7.609375 -5.5625 7.71875 -6.3125 8.3125 -6.390625 C 8.375 -6.40625 8.453125 -6.421875 8.453125 -6.515625 C 8.453125 -6.640625 8.359375 -6.640625 8.15625 -6.640625 L 7.765625 -6.640625 C 7.203125 -6.640625 6.703125 -6.4375 6.6875 -4.796875 C 6.6875 -3.515625 6.328125 -2.171875 4.96875 -1.859375 Z M 4.96875 -7.25 "/>
</g>
</g>
</defs>
<g fill="rgb(0%, 0%, 0%)" fill-opacity="1">
<use xlink:href="#glyph-0-1" x="0.5" y="8.669"/>
</g>
</svg>
