<?xml version="1.0" encoding="UTF-8"?>
<svg xmlns="http://www.w3.org/2000/svg" xmlns:xlink="http://www.w3.org/1999/xlink" viewBox="0 0 13.486 10.963">
<defs>
<g>
<g id="glyph-0-0">
</g>
<g id="glyph-0-1">
<path d="M 4.96875 -7.25 C 4.96875 -7.671875 5 -7.8125 6.03125 -7.8125 L 6.390625 -7.8125 L 6.390625 -8.15625 C 6.078125 -8.140625 4.90625 -8.140625 4.515625 -8.140625 C 4.125 -8.140625 2.96875 -8.140625 2.640625 -8.15625 L 2.640625 -7.8125 L 3 -7.8125 C 4.046875 -7.8125 4.0625 -7.671875 4.0625 -7.25 L 4.0625 -1.859375 C 2.4375 -2.265625 2.40625 -4.203125 2.40625 -4.953125 C 2.390625 -6.140625 2.03125 -6.640625 1.328125 -6.640625 L 0.9375 -6.640625 C 0.75 -6.640625 0.65625 -6.640625 0.65625 -6.515625 C 0.65625 -6.421875 0.734375 -6.40625 0.78125 -6.390625 C 1.328125 -6.3125 1.484375 -5.8125 1.5 -4.75 C 1.5 -3.03125 2.375 -1.8125 4.0625 -1.59375 L 4.0625 -0.921875 C 4.0625 -0.484375 4.046875 -0.34375 3 -0.34375 L 2.640625 -0.34375 L 2.640625 0 C 2.96875 -0.03125 4.125 -0.03125 4.515625 -0.03125 C 4.90625 -0.03125 6.078125 -0.03125 6.390625 0 L 6.390625 -0.34375 L 6.03125 -0.34375 C 5 -0.34375 4.96875 -0.484375 4.96875 -0.921875 L 4.96875 -1.59375 C 7.296875 -1.875 7.59375 -3.765625 7.609375 -5.015625 C 7.609375 -5.5625 7.71875 -6.3125 8.3125 -6.390625 C 8.375 -6.40625 8.453125 -6.421875 8.453125 -6.515625 C 8.453125 -6.640625 8.359375 -6.640625 8.15625 -6.640625 L 7.765625 -6.640625 C 7.203125 -6.640625 6.703125 -6.4375 6.6875 -4.796875 C 6.6875 -3.515625 6.328125 -2.171875 4.96875 -1.859375 Z M 4.96875 -7.25 "/>
</g>
<g id="glyph-1-0">
</g>
<g id="glyph-1-1">
<path d="M 2.375 -4.96875 C 2.375 -5.140625 2.25 -5.28125 2.0625 -5.28125 C 1.859375 -5.28125 1.625 -5.078125 1.625 -4.84375 C 1.625 -4.671875 1.75 -4.546875 1.9375 -4.546875 C 2.140625 -4.546875 2.375 -4.734375 2.375 -4.96875 Z M 1.21875 -2.046875 L 0.78125 -0.953125 C 0.734375 -0.828125 0.703125 -0.734375 0.703125 -0.59375 C 0.703125 -0.203125 1 0.078125 1.421875 0.078125 C 2.203125 0.078125 2.53125 -1.03125 2.53125 -1.140625 C 2.53125 -1.21875 2.46875 -1.25 2.40625 -1.25 C 2.3125 -1.25 2.296875 -1.1875 2.265625 -1.109375 C 2.09375 -0.46875 1.765625 -0.140625 1.4375 -0.140625 C 1.34375 -0.140625 1.25 -0.1875 1.25 -0.390625 C 1.25 -0.59375 1.3125 -0.734375 1.40625 -0.984375 C 1.484375 -1.1875 1.5625 -1.40625 1.65625 -1.625 L 1.90625 -2.265625 C 1.96875 -2.453125 2.078125 -2.703125 2.078125 -2.84375 C 2.078125 -3.234375 1.75 -3.515625 1.34375 -3.515625 C 0.578125 -3.515625 0.234375 -2.40625 0.234375 -2.296875 C 0.234375 -2.21875 0.296875 -2.1875 0.359375 -2.1875 C 0.46875 -2.1875 0.46875 -2.234375 0.5 -2.3125 C 0.71875 -3.078125 1.078125 -3.296875 1.328125 -3.296875 C 1.4375 -3.296875 1.515625 -3.25 1.515625 -3.03125 C 1.515625 -2.953125 1.5 -2.84375 1.421875 -2.59375 Z M 1.21875 -2.046875 "/>
</g>
</g>
<clipPath id="clip-0">
<path clip-rule="nonzero" d="M 9 5 L 13 5 L 13 10.964844 L 9 10.964844 Z M 9 5 "/>
</clipPath>
</defs>
<g fill="rgb(0%, 0%, 0%)" fill-opacity="1">
<use xlink:href="#glyph-0-1" x="0.5" y="8.67"/>
</g>
<g clip-path="url(#clip-0)">
<g fill="rgb(0%, 0%, 0%)" fill-opacity="1">
<use xlink:href="#glyph-1-1" x="9.605" y="10.463"/>
</g>
</g>
</svg>
