<?xml version="1.0" encoding="UTF-8"?>
<svg xmlns="http://www.w3.org/2000/svg" xmlns:xlink="http://www.w3.org/1999/xlink" viewBox="0 0 84.645 12.955">
<defs>
<g>
<g id="glyph-0-0">
</g>
<g id="glyph-0-1">
<path d="M 4.96875 -7.25 C 4.96875 -7.671875 5 -7.8125 6.03125 -7.8125 L 6.390625 -7.8125 L 6.390625 -8.15625 C 6.078125 -8.140625 4.90625 -8.140625 4.515625 -8.140625 C 4.125 -8.140625 2.96875 -8.140625 2.640625 -8.15625 L 2.640625 -7.8125 L 3 -7.8125 C 4.046875 -7.8125 4.0625 -7.671875 4.0625 -7.25 L 4.0625 -1.859375 C 2.4375 -2.265625 2.40625 -4.203125 2.40625 -4.953125 C 2.390625 -6.140625 2.03125 -6.640625 1.328125 -6.640625 L 0.9375 -6.640625 C 0.75 -6.640625 0.65625 -6.640625 0.65625 -6.515625 C 0.65625 -6.421875 0.734375 -6.40625 0.78125 -6.390625 C 1.328125 -6.3125 1.484375 -5.8125 1.5 -4.75 C 1.5 -3.03125 2.375 -1.8125 4.0625 -1.59375 L 4.0625 -0.921875 C 4.0625 -0.484375 4.046875 -0.34375 3 -0.34375 L 2.640625 -0.34375 L 2.640625 0 C 2.96875 -0.03125 4.125 -0.03125 4.515625 -0.03125 C 4.90625 -0.03125 6.078125 -0.03125 6.390625 0 L 6.390625 -0.34375 L 6.03125 -0.34375 C 5 -0.34375 4.96875 -0.484375 4.96875 -0.921875 L 4.96875 -1.59375 C 7.296875 -1.875 7.59375 -3.765625 7.609375 -5.015625 C 7.609375 -5.5625 7.71875 -6.3125 8.3125 -6.390625 C 8.375 -6.40625 8.453125 -6.421875 8.453125 -6.515625 C 8.453125 -6.640625 8.359375 -6.640625 8.15625 -6.640625 L 7.765625 -6.640625 C 7.203125 -6.640625 6.703125 -6.4375 6.6875 -4.796875 C 6.6875 -3.515625 6.328125 -2.171875 4.96875 -1.859375 Z M 4.96875 -7.25 "/>
</g>
<g id="glyph-0-2">
<path d="M 8.0625 -3.875 C 8.234375 -3.875 8.453125 -3.875 8.453125 -4.09375 C 8.453125 -4.3125 8.25 -4.3125 8.0625 -4.3125 L 1.03125 -4.3125 C 0.859375 -4.3125 0.640625 -4.3125 0.640625 -4.09375 C 0.640625 -3.875 0.84375 -3.875 1.03125 -3.875 Z M 8.0625 -1.65625 C 8.234375 -1.65625 8.453125 -1.65625 8.453125 -1.859375 C 8.453125 -2.09375 8.25 -2.09375 8.0625 -2.09375 L 1.03125 -2.09375 C 0.859375 -2.09375 0.640625 -2.09375 0.640625 -1.875 C 0.640625 -1.65625 0.84375 -1.65625 1.03125 -1.65625 Z M 8.0625 -1.65625 "/>
</g>
<g id="glyph-0-3">
<path d="M 4.65625 -1.578125 C 6.46875 -1.734375 7.796875 -2.84375 7.796875 -4.078125 C 7.796875 -5.359375 6.4375 -6.4375 4.65625 -6.59375 L 4.65625 -7.25 C 4.65625 -7.671875 4.671875 -7.8125 5.71875 -7.8125 L 6.078125 -7.8125 L 6.078125 -8.15625 C 5.75 -8.140625 4.59375 -8.140625 4.203125 -8.140625 C 3.796875 -8.140625 2.640625 -8.140625 2.3125 -8.15625 L 2.3125 -7.8125 L 2.671875 -7.8125 C 3.71875 -7.8125 3.734375 -7.671875 3.734375 -7.25 L 3.734375 -6.578125 C 1.890625 -6.40625 0.640625 -5.265625 0.640625 -4.09375 C 0.640625 -2.859375 1.921875 -1.75 3.734375 -1.59375 L 3.734375 -0.921875 C 3.734375 -0.484375 3.71875 -0.34375 2.671875 -0.34375 L 2.3125 -0.34375 L 2.3125 0 C 2.640625 -0.03125 3.796875 -0.03125 4.203125 -0.03125 C 4.59375 -0.03125 5.75 -0.03125 6.078125 0 L 6.078125 -0.34375 L 5.71875 -0.34375 C 4.671875 -0.34375 4.65625 -0.484375 4.65625 -0.921875 Z M 3.734375 -1.84375 C 2.4375 -2.015625 1.734375 -2.765625 1.734375 -4.078125 C 1.734375 -5.390625 2.421875 -6.15625 3.734375 -6.328125 Z M 4.65625 -6.328125 C 6.046875 -6.15625 6.703125 -5.359375 6.703125 -4.09375 C 6.703125 -2.84375 6.09375 -2.015625 4.65625 -1.828125 Z M 4.65625 -6.328125 "/>
</g>
<g id="glyph-1-0">
</g>
<g id="glyph-1-1">
<path d="M 2.375 -4.96875 C 2.375 -5.140625 2.25 -5.28125 2.0625 -5.28125 C 1.859375 -5.28125 1.625 -5.078125 1.625 -4.84375 C 1.625 -4.671875 1.75 -4.546875 1.9375 -4.546875 C 2.140625 -4.546875 2.375 -4.734375 2.375 -4.96875 Z M 1.21875 -2.046875 L 0.78125 -0.953125 C 0.734375 -0.828125 0.703125 -0.734375 0.703125 -0.59375 C 0.703125 -0.203125 1 0.078125 1.421875 0.078125 C 2.203125 0.078125 2.53125 -1.03125 2.53125 -1.140625 C 2.53125 -1.21875 2.46875 -1.25 2.40625 -1.25 C 2.3125 -1.25 2.296875 -1.1875 2.265625 -1.109375 C 2.09375 -0.46875 1.765625 -0.140625 1.4375 -0.140625 C 1.34375 -0.140625 1.25 -0.1875 1.25 -0.390625 C 1.25 -0.59375 1.3125 -0.734375 1.40625 -0.984375 C 1.484375 -1.1875 1.5625 -1.40625 1.65625 -1.625 L 1.90625 -2.265625 C 1.96875 -2.453125 2.078125 -2.703125 2.078125 -2.84375 C 2.078125 -3.234375 1.75 -3.515625 1.34375 -3.515625 C 0.578125 -3.515625 0.234375 -2.40625 0.234375 -2.296875 C 0.234375 -2.21875 0.296875 -2.1875 0.359375 -2.1875 C 0.46875 -2.1875 0.46875 -2.234375 0.5 -2.3125 C 0.71875 -3.078125 1.078125 -3.296875 1.328125 -3.296875 C 1.4375 -3.296875 1.515625 -3.25 1.515625 -3.03125 C 1.515625 -2.953125 1.5 -2.84375 1.421875 -2.59375 Z M 1.21875 -2.046875 "/>
</g>
<g id="glyph-2-0">
</g>
<g id="glyph-2-1">
<path d="M 7.875 -7.125 C 8.078125 -7.125 8.296875 -7.125 8.296875 -7.359375 C 8.296875 -7.609375 8.078125 -7.609375 7.875 -7.609375 L 4.65625 -7.609375 C 2.609375 -7.609375 0.984375 -6.03125 0.984375 -4.140625 C 0.984375 -2.21875 2.640625 -0.6875 4.65625 -0.6875 L 7.875 -0.6875 C 8.078125 -0.6875 8.296875 -0.6875 8.296875 -0.921875 C 8.296875 -1.15625 8.078125 -1.15625 7.875 -1.15625 L 4.6875 -1.15625 C 2.796875 -1.15625 1.46875 -2.5625 1.46875 -4.140625 C 1.46875 -5.765625 2.828125 -7.125 4.6875 -7.125 Z M 1.65625 1.15625 C 1.453125 1.15625 1.234375 1.15625 1.234375 1.40625 C 1.234375 1.640625 1.453125 1.640625 1.65625 1.640625 L 7.875 1.640625 C 8.078125 1.640625 8.296875 1.640625 8.296875 1.40625 C 8.296875 1.15625 8.078125 1.15625 7.875 1.15625 Z M 1.65625 1.15625 "/>
</g>
<g id="glyph-2-2">
<path d="M 4.796875 2.703125 C 4.859375 2.875 4.90625 2.984375 5.0625 2.984375 C 5.203125 2.984375 5.3125 2.875 5.3125 2.75 C 5.3125 2.71875 5.3125 2.703125 5.25 2.5625 L 1.15625 -8.671875 C 1.09375 -8.875 1.046875 -8.96875 0.890625 -8.96875 C 0.765625 -8.96875 0.65625 -8.859375 0.65625 -8.71875 C 0.65625 -8.703125 0.65625 -8.671875 0.71875 -8.53125 Z M 4.796875 2.703125 "/>
</g>
<g id="glyph-3-0">
</g>
<g id="glyph-3-1">
<path d="M 8.84375 -6.90625 C 8.984375 -7.421875 9.171875 -7.78125 10.078125 -7.8125 C 10.109375 -7.8125 10.25 -7.828125 10.25 -8.03125 C 10.25 -8.15625 10.140625 -8.15625 10.09375 -8.15625 C 9.859375 -8.15625 9.25 -8.140625 9.015625 -8.140625 L 8.4375 -8.140625 C 8.265625 -8.140625 8.0625 -8.15625 7.890625 -8.15625 C 7.8125 -8.15625 7.671875 -8.15625 7.671875 -7.9375 C 7.671875 -7.8125 7.765625 -7.8125 7.859375 -7.8125 C 8.578125 -7.796875 8.625 -7.515625 8.625 -7.296875 C 8.625 -7.203125 8.609375 -7.15625 8.578125 -7 L 7.21875 -1.609375 L 4.65625 -7.953125 C 4.578125 -8.15625 4.5625 -8.15625 4.296875 -8.15625 L 2.84375 -8.15625 C 2.609375 -8.15625 2.5 -8.15625 2.5 -7.9375 C 2.5 -7.8125 2.578125 -7.8125 2.8125 -7.8125 C 2.875 -7.8125 3.578125 -7.8125 3.578125 -7.703125 C 3.578125 -7.6875 3.546875 -7.59375 3.53125 -7.546875 L 1.953125 -1.21875 C 1.8125 -0.640625 1.515625 -0.375 0.734375 -0.34375 C 0.671875 -0.34375 0.546875 -0.328125 0.546875 -0.125 C 0.546875 0 0.671875 0 0.703125 0 C 0.9375 0 1.546875 -0.03125 1.796875 -0.03125 L 2.359375 -0.03125 C 2.53125 -0.03125 2.734375 0 2.90625 0 C 2.984375 0 3.125 0 3.125 -0.234375 C 3.125 -0.328125 3 -0.34375 2.953125 -0.34375 C 2.5625 -0.359375 2.171875 -0.4375 2.171875 -0.859375 C 2.171875 -0.953125 2.203125 -1.0625 2.21875 -1.15625 L 3.84375 -7.546875 C 3.90625 -7.4375 3.90625 -7.40625 3.953125 -7.296875 L 6.796875 -0.21875 C 6.859375 -0.078125 6.890625 0 7 0 C 7.109375 0 7.125 -0.03125 7.171875 -0.234375 Z M 8.84375 -6.90625 "/>
</g>
</g>
<clipPath id="clip-0">
<path clip-rule="nonzero" d="M 65 0 L 71 0 L 71 12.953125 L 65 12.953125 Z M 65 0 "/>
</clipPath>
</defs>
<g fill="rgb(0%, 0%, 0%)" fill-opacity="1">
<use xlink:href="#glyph-0-1" x="0.5" y="9.466"/>
</g>
<g fill="rgb(0%, 0%, 0%)" fill-opacity="1">
<use xlink:href="#glyph-1-1" x="9.605" y="11.259"/>
</g>
<g fill="rgb(0%, 0%, 0%)" fill-opacity="1">
<use xlink:href="#glyph-2-1" x="16.307" y="9.466"/>
</g>
<g fill="rgb(0%, 0%, 0%)" fill-opacity="1">
<use xlink:href="#glyph-0-1" x="28.926" y="9.466"/>
</g>
<g fill="rgb(0%, 0%, 0%)" fill-opacity="1">
<use xlink:href="#glyph-0-2" x="41.354626" y="9.466"/>
</g>
<g fill="rgb(0%, 0%, 0%)" fill-opacity="1">
<use xlink:href="#glyph-0-3" x="53.771297" y="9.466"/>
</g>
<g clip-path="url(#clip-0)">
<g fill="rgb(0%, 0%, 0%)" fill-opacity="1">
<use xlink:href="#glyph-2-2" x="64.888" y="9.466"/>
</g>
</g>
<g fill="rgb(0%, 0%, 0%)" fill-opacity="1">
<use xlink:href="#glyph-3-1" x="73.522" y="9.466"/>
</g>
</svg>
