<?xml version="1.0" encoding="UTF-8"?>
<svg xmlns="http://www.w3.org/2000/svg" xmlns:xlink="http://www.w3.org/1999/xlink" viewBox="0 0 85.101 21.428">
<defs>
<g>
<g id="glyph-0-0">
</g>
<g id="glyph-0-1">
<path d="M 5.53125 -3.03125 C 5.53125 -4.1875 4.875 -5.265625 3.609375 -5.265625 C 2.046875 -5.265625 0.484375 -3.5625 0.484375 -1.859375 C 0.484375 -0.828125 1.125 0.125 2.34375 0.125 C 3.078125 0.125 3.96875 -0.171875 4.8125 -0.890625 C 4.984375 -0.21875 5.359375 0.125 5.875 0.125 C 6.515625 0.125 6.84375 -0.546875 6.84375 -0.703125 C 6.84375 -0.8125 6.75 -0.8125 6.71875 -0.8125 C 6.625 -0.8125 6.609375 -0.78125 6.578125 -0.6875 C 6.46875 -0.375 6.1875 -0.125 5.90625 -0.125 C 5.53125 -0.125 5.53125 -0.890625 5.53125 -1.609375 C 6.75 -3.078125 7.046875 -4.578125 7.046875 -4.59375 C 7.046875 -4.703125 6.9375 -4.703125 6.90625 -4.703125 C 6.796875 -4.703125 6.796875 -4.65625 6.734375 -4.453125 C 6.59375 -3.921875 6.28125 -2.984375 5.53125 -2.015625 Z M 4.78125 -1.171875 C 3.734375 -0.234375 2.78125 -0.125 2.359375 -0.125 C 1.515625 -0.125 1.28125 -0.875 1.28125 -1.4375 C 1.28125 -1.953125 1.546875 -3.171875 1.90625 -3.828125 C 2.40625 -4.65625 3.078125 -5.03125 3.609375 -5.03125 C 4.765625 -5.03125 4.765625 -3.515625 4.765625 -2.515625 C 4.765625 -2.21875 4.75 -1.90625 4.75 -1.609375 C 4.75 -1.359375 4.765625 -1.296875 4.78125 -1.171875 Z M 4.78125 -1.171875 "/>
</g>
<g id="glyph-0-2">
<path d="M 5.328125 -4.8125 C 5.5625 -4.8125 5.671875 -4.8125 5.671875 -5.03125 C 5.671875 -5.15625 5.5625 -5.15625 5.359375 -5.15625 L 4.390625 -5.15625 C 4.609375 -6.390625 4.78125 -7.234375 4.875 -7.609375 C 4.953125 -7.90625 5.203125 -8.171875 5.515625 -8.171875 C 5.765625 -8.171875 6.015625 -8.0625 6.125 -7.953125 C 5.671875 -7.90625 5.515625 -7.5625 5.515625 -7.359375 C 5.515625 -7.125 5.703125 -6.984375 5.921875 -6.984375 C 6.171875 -6.984375 6.53125 -7.1875 6.53125 -7.640625 C 6.53125 -8.140625 6.03125 -8.421875 5.5 -8.421875 C 4.984375 -8.421875 4.484375 -8.03125 4.25 -7.5625 C 4.03125 -7.140625 3.90625 -6.71875 3.640625 -5.15625 L 2.828125 -5.15625 C 2.609375 -5.15625 2.484375 -5.15625 2.484375 -4.9375 C 2.484375 -4.8125 2.5625 -4.8125 2.796875 -4.8125 L 3.5625 -4.8125 C 3.34375 -3.6875 2.859375 -0.984375 2.578125 0.28125 C 2.375 1.328125 2.203125 2.203125 1.609375 2.203125 C 1.5625 2.203125 1.21875 2.203125 1 1.96875 C 1.609375 1.921875 1.609375 1.40625 1.609375 1.390625 C 1.609375 1.140625 1.4375 1 1.203125 1 C 0.96875 1 0.609375 1.203125 0.609375 1.65625 C 0.609375 2.171875 1.140625 2.4375 1.609375 2.4375 C 2.828125 2.4375 3.328125 0.25 3.453125 -0.34375 C 3.671875 -1.265625 4.25 -4.453125 4.3125 -4.8125 Z M 5.328125 -4.8125 "/>
</g>
<g id="glyph-0-3">
<path d="M 5.671875 -4.875 C 5.28125 -4.8125 5.140625 -4.515625 5.140625 -4.296875 C 5.140625 -4 5.359375 -3.90625 5.53125 -3.90625 C 5.890625 -3.90625 6.140625 -4.21875 6.140625 -4.546875 C 6.140625 -5.046875 5.5625 -5.265625 5.0625 -5.265625 C 4.34375 -5.265625 3.9375 -4.546875 3.828125 -4.328125 C 3.546875 -5.21875 2.8125 -5.265625 2.59375 -5.265625 C 1.375 -5.265625 0.734375 -3.703125 0.734375 -3.4375 C 0.734375 -3.390625 0.78125 -3.328125 0.859375 -3.328125 C 0.953125 -3.328125 0.984375 -3.40625 1 -3.453125 C 1.40625 -4.78125 2.21875 -5.03125 2.5625 -5.03125 C 3.09375 -5.03125 3.203125 -4.53125 3.203125 -4.25 C 3.203125 -3.984375 3.125 -3.703125 2.984375 -3.125 L 2.578125 -1.5 C 2.40625 -0.78125 2.0625 -0.125 1.421875 -0.125 C 1.359375 -0.125 1.0625 -0.125 0.8125 -0.28125 C 1.25 -0.359375 1.34375 -0.71875 1.34375 -0.859375 C 1.34375 -1.09375 1.15625 -1.25 0.9375 -1.25 C 0.640625 -1.25 0.328125 -0.984375 0.328125 -0.609375 C 0.328125 -0.109375 0.890625 0.125 1.40625 0.125 C 1.984375 0.125 2.390625 -0.328125 2.640625 -0.828125 C 2.828125 -0.125 3.4375 0.125 3.875 0.125 C 5.09375 0.125 5.734375 -1.453125 5.734375 -1.703125 C 5.734375 -1.765625 5.6875 -1.8125 5.625 -1.8125 C 5.515625 -1.8125 5.5 -1.75 5.46875 -1.65625 C 5.140625 -0.609375 4.453125 -0.125 3.90625 -0.125 C 3.484375 -0.125 3.265625 -0.4375 3.265625 -0.921875 C 3.265625 -1.1875 3.3125 -1.375 3.5 -2.15625 L 3.921875 -3.796875 C 4.09375 -4.5 4.5 -5.03125 5.0625 -5.03125 C 5.078125 -5.03125 5.421875 -5.03125 5.671875 -4.875 Z M 5.671875 -4.875 "/>
</g>
<g id="glyph-1-0">
</g>
<g id="glyph-1-1">
<path d="M 8.0625 -3.875 C 8.234375 -3.875 8.453125 -3.875 8.453125 -4.09375 C 8.453125 -4.3125 8.25 -4.3125 8.0625 -4.3125 L 1.03125 -4.3125 C 0.859375 -4.3125 0.640625 -4.3125 0.640625 -4.09375 C 0.640625 -3.875 0.84375 -3.875 1.03125 -3.875 Z M 8.0625 -1.65625 C 8.234375 -1.65625 8.453125 -1.65625 8.453125 -1.859375 C 8.453125 -2.09375 8.25 -2.09375 8.0625 -2.09375 L 1.03125 -2.09375 C 0.859375 -2.09375 0.640625 -2.09375 0.640625 -1.875 C 0.640625 -1.65625 0.84375 -1.65625 1.03125 -1.65625 Z M 8.0625 -1.65625 "/>
</g>
<g id="glyph-1-2">
<path d="M 4.609375 -3.1875 C 4.609375 -3.84375 4.609375 -4.3125 4.09375 -4.78125 C 3.671875 -5.15625 3.125 -5.328125 2.609375 -5.328125 C 1.625 -5.328125 0.875 -4.6875 0.875 -3.90625 C 0.875 -3.5625 1.09375 -3.390625 1.375 -3.390625 C 1.65625 -3.390625 1.859375 -3.59375 1.859375 -3.890625 C 1.859375 -4.375 1.4375 -4.375 1.25 -4.375 C 1.53125 -4.875 2.109375 -5.09375 2.578125 -5.09375 C 3.125 -5.09375 3.84375 -4.640625 3.84375 -3.5625 L 3.84375 -3.078125 C 1.4375 -3.046875 0.53125 -2.046875 0.53125 -1.125 C 0.53125 -0.171875 1.625 0.125 2.359375 0.125 C 3.140625 0.125 3.6875 -0.359375 3.90625 -0.9375 C 3.953125 -0.375 4.328125 0.0625 4.84375 0.0625 C 5.09375 0.0625 5.78125 -0.109375 5.78125 -1.0625 L 5.78125 -1.734375 L 5.515625 -1.734375 L 5.515625 -1.0625 C 5.515625 -0.375 5.234375 -0.28125 5.0625 -0.28125 C 4.609375 -0.28125 4.609375 -0.921875 4.609375 -1.09375 Z M 3.84375 -1.6875 C 3.84375 -0.515625 2.96875 -0.125 2.453125 -0.125 C 1.859375 -0.125 1.375 -0.546875 1.375 -1.125 C 1.375 -2.703125 3.40625 -2.84375 3.84375 -2.875 Z M 3.84375 -1.6875 "/>
</g>
<g id="glyph-1-3">
<path d="M 2 -2.78125 C 2 -3.9375 2.46875 -5.03125 3.390625 -5.03125 C 3.484375 -5.03125 3.515625 -5.03125 3.5625 -5.015625 C 3.46875 -4.96875 3.28125 -4.90625 3.28125 -4.578125 C 3.28125 -4.234375 3.546875 -4.09375 3.734375 -4.09375 C 3.984375 -4.09375 4.21875 -4.25 4.21875 -4.578125 C 4.21875 -4.9375 3.890625 -5.265625 3.375 -5.265625 C 2.359375 -5.265625 2.015625 -4.171875 1.953125 -3.9375 L 1.9375 -3.9375 L 1.9375 -5.265625 L 0.328125 -5.140625 L 0.328125 -4.796875 C 1.140625 -4.796875 1.25 -4.703125 1.25 -4.125 L 1.25 -0.890625 C 1.25 -0.34375 1.109375 -0.34375 0.328125 -0.34375 L 0.328125 0 C 0.671875 -0.03125 1.328125 -0.03125 1.6875 -0.03125 C 2.015625 -0.03125 2.859375 -0.03125 3.125 0 L 3.125 -0.34375 L 2.890625 -0.34375 C 2.015625 -0.34375 2 -0.484375 2 -0.90625 Z M 2 -2.78125 "/>
</g>
<g id="glyph-1-4">
<path d="M 1.421875 -2.15625 C 1.984375 -1.796875 2.46875 -1.796875 2.59375 -1.796875 C 3.671875 -1.796875 4.46875 -2.609375 4.46875 -3.53125 C 4.46875 -3.84375 4.375 -4.296875 4 -4.6875 C 4.453125 -5.15625 5.015625 -5.15625 5.078125 -5.15625 C 5.125 -5.15625 5.1875 -5.15625 5.234375 -5.140625 C 5.109375 -5.09375 5.0625 -4.96875 5.0625 -4.84375 C 5.0625 -4.671875 5.171875 -4.53125 5.359375 -4.53125 C 5.46875 -4.53125 5.671875 -4.59375 5.671875 -4.859375 C 5.671875 -5.0625 5.515625 -5.40625 5.09375 -5.40625 C 4.46875 -5.40625 4 -5.015625 3.84375 -4.84375 C 3.484375 -5.109375 3.0625 -5.265625 2.609375 -5.265625 C 1.53125 -5.265625 0.734375 -4.453125 0.734375 -3.53125 C 0.734375 -2.859375 1.140625 -2.421875 1.265625 -2.3125 C 1.125 -2.125 0.90625 -1.78125 0.90625 -1.3125 C 0.90625 -0.625 1.328125 -0.328125 1.421875 -0.265625 C 0.875 -0.109375 0.328125 0.328125 0.328125 0.9375 C 0.328125 1.765625 1.453125 2.453125 2.921875 2.453125 C 4.34375 2.453125 5.515625 1.8125 5.515625 0.921875 C 5.515625 0.625 5.4375 -0.078125 4.71875 -0.453125 C 4.109375 -0.765625 3.515625 -0.765625 2.484375 -0.765625 C 1.75 -0.765625 1.671875 -0.765625 1.453125 -0.984375 C 1.34375 -1.109375 1.234375 -1.34375 1.234375 -1.59375 C 1.234375 -1.796875 1.296875 -2 1.421875 -2.15625 Z M 2.609375 -2.046875 C 1.546875 -2.046875 1.546875 -3.25 1.546875 -3.53125 C 1.546875 -3.734375 1.546875 -4.234375 1.75 -4.546875 C 1.984375 -4.90625 2.34375 -5.015625 2.59375 -5.015625 C 3.640625 -5.015625 3.640625 -3.8125 3.640625 -3.53125 C 3.640625 -3.328125 3.640625 -2.828125 3.4375 -2.515625 C 3.21875 -2.15625 2.859375 -2.046875 2.609375 -2.046875 Z M 2.921875 2.203125 C 1.78125 2.203125 0.90625 1.609375 0.90625 0.9375 C 0.90625 0.84375 0.9375 0.375 1.390625 0.0625 C 1.65625 -0.109375 1.75 -0.109375 2.59375 -0.109375 C 3.578125 -0.109375 4.9375 -0.109375 4.9375 0.9375 C 4.9375 1.640625 4.03125 2.203125 2.921875 2.203125 Z M 2.921875 2.203125 "/>
</g>
<g id="glyph-1-5">
<path d="M 3.921875 -5.0625 C 3.921875 -5.265625 3.921875 -5.328125 3.796875 -5.328125 C 3.703125 -5.328125 3.484375 -5.0625 3.390625 -4.953125 C 3.03125 -5.265625 2.65625 -5.328125 2.265625 -5.328125 C 0.828125 -5.328125 0.390625 -4.546875 0.390625 -3.890625 C 0.390625 -3.75 0.390625 -3.328125 0.84375 -2.921875 C 1.234375 -2.578125 1.640625 -2.5 2.1875 -2.390625 C 2.84375 -2.265625 3 -2.21875 3.296875 -1.984375 C 3.515625 -1.8125 3.671875 -1.546875 3.671875 -1.203125 C 3.671875 -0.6875 3.375 -0.125 2.3125 -0.125 C 1.53125 -0.125 0.953125 -0.578125 0.6875 -1.765625 C 0.640625 -1.984375 0.640625 -2 0.640625 -2.015625 C 0.609375 -2.0625 0.5625 -2.0625 0.53125 -2.0625 C 0.390625 -2.0625 0.390625 -2 0.390625 -1.78125 L 0.390625 -0.15625 C 0.390625 0.0625 0.390625 0.125 0.515625 0.125 C 0.578125 0.125 0.578125 0.109375 0.78125 -0.140625 C 0.84375 -0.234375 0.84375 -0.25 1.03125 -0.4375 C 1.484375 0.125 2.125 0.125 2.328125 0.125 C 3.578125 0.125 4.203125 -0.578125 4.203125 -1.515625 C 4.203125 -2.15625 3.8125 -2.546875 3.703125 -2.65625 C 3.28125 -3.03125 2.953125 -3.09375 2.15625 -3.234375 C 1.8125 -3.3125 0.9375 -3.484375 0.9375 -4.203125 C 0.9375 -4.5625 1.1875 -5.109375 2.265625 -5.109375 C 3.5625 -5.109375 3.640625 -4 3.65625 -3.640625 C 3.671875 -3.53125 3.75 -3.53125 3.796875 -3.53125 C 3.921875 -3.53125 3.921875 -3.59375 3.921875 -3.8125 Z M 3.921875 -5.0625 "/>
</g>
<g id="glyph-1-6">
<path d="M 3.640625 -5.140625 L 3.640625 -4.796875 C 4.453125 -4.796875 4.546875 -4.703125 4.546875 -4.125 L 4.546875 -1.984375 C 4.546875 -0.96875 4 -0.125 3.109375 -0.125 C 2.125 -0.125 2.0625 -0.6875 2.0625 -1.3125 L 2.0625 -5.265625 L 0.375 -5.140625 L 0.375 -4.796875 C 1.296875 -4.796875 1.296875 -4.75 1.296875 -3.6875 L 1.296875 -1.90625 C 1.296875 -1.15625 1.296875 -0.734375 1.65625 -0.328125 C 1.9375 -0.03125 2.421875 0.125 3.03125 0.125 C 3.234375 0.125 3.625 0.125 4.03125 -0.234375 C 4.375 -0.5 4.5625 -0.953125 4.5625 -0.953125 L 4.5625 0.125 L 6.234375 0 L 6.234375 -0.34375 C 5.421875 -0.34375 5.3125 -0.4375 5.3125 -1.015625 L 5.3125 -5.265625 Z M 3.640625 -5.140625 "/>
</g>
<g id="glyph-1-7">
<path d="M 2.921875 1.96875 C 2.15625 1.96875 2.015625 1.96875 2.015625 1.4375 L 2.015625 -0.640625 C 2.234375 -0.34375 2.71875 0.125 3.484375 0.125 C 4.859375 0.125 6.078125 -1.046875 6.078125 -2.578125 C 6.078125 -4.09375 4.953125 -5.265625 3.640625 -5.265625 C 2.59375 -5.265625 2.03125 -4.515625 2 -4.46875 L 2 -5.265625 L 0.328125 -5.140625 L 0.328125 -4.796875 C 1.171875 -4.796875 1.25 -4.703125 1.25 -4.1875 L 1.25 1.4375 C 1.25 1.96875 1.109375 1.96875 0.328125 1.96875 L 0.328125 2.3125 C 0.640625 2.296875 1.296875 2.296875 1.625 2.296875 C 1.96875 2.296875 2.625 2.296875 2.921875 2.3125 Z M 2.015625 -3.8125 C 2.015625 -4.046875 2.015625 -4.046875 2.15625 -4.25 C 2.515625 -4.78125 3.09375 -5.015625 3.546875 -5.015625 C 4.453125 -5.015625 5.15625 -3.921875 5.15625 -2.578125 C 5.15625 -1.15625 4.34375 -0.125 3.4375 -0.125 C 3.0625 -0.125 2.71875 -0.28125 2.46875 -0.5 C 2.203125 -0.78125 2.015625 -1.015625 2.015625 -1.34375 Z M 2.015625 -3.8125 "/>
</g>
<g id="glyph-1-8">
<path d="M 3.890625 2.90625 C 3.890625 2.875 3.890625 2.84375 3.6875 2.640625 C 2.484375 1.4375 1.8125 -0.53125 1.8125 -2.96875 C 1.8125 -5.296875 2.375 -7.296875 3.765625 -8.703125 C 3.890625 -8.8125 3.890625 -8.828125 3.890625 -8.875 C 3.890625 -8.9375 3.828125 -8.96875 3.78125 -8.96875 C 3.625 -8.96875 2.640625 -8.109375 2.0625 -6.9375 C 1.453125 -5.71875 1.171875 -4.453125 1.171875 -2.96875 C 1.171875 -1.90625 1.34375 -0.484375 1.953125 0.78125 C 2.671875 2.21875 3.640625 3 3.78125 3 C 3.828125 3 3.890625 2.96875 3.890625 2.90625 Z M 3.890625 2.90625 "/>
</g>
<g id="glyph-1-9">
<path d="M 3.375 -2.96875 C 3.375 -3.890625 3.25 -5.359375 2.578125 -6.75 C 1.875 -8.1875 0.890625 -8.96875 0.765625 -8.96875 C 0.71875 -8.96875 0.65625 -8.9375 0.65625 -8.875 C 0.65625 -8.828125 0.65625 -8.8125 0.859375 -8.609375 C 2.0625 -7.40625 2.71875 -5.421875 2.71875 -2.984375 C 2.71875 -0.671875 2.15625 1.328125 0.78125 2.734375 C 0.65625 2.84375 0.65625 2.875 0.65625 2.90625 C 0.65625 2.96875 0.71875 3 0.765625 3 C 0.921875 3 1.90625 2.140625 2.484375 0.96875 C 3.09375 -0.25 3.375 -1.546875 3.375 -2.96875 Z M 3.375 -2.96875 "/>
</g>
<g id="glyph-2-0">
</g>
<g id="glyph-2-1">
<path d="M 5.734375 -1.3125 L 5.484375 -1.3125 C 5.46875 -1.234375 5.375 -0.828125 5.328125 -0.6875 C 5.28125 -0.609375 5.265625 -0.546875 4.796875 -0.546875 L 4.140625 -0.546875 C 4.28125 -1.015625 4.515625 -1.359375 4.875 -1.859375 C 5.234375 -2.359375 5.640625 -2.9375 5.640625 -3.625 C 5.640625 -4.703125 4.515625 -5.609375 3.046875 -5.609375 C 1.578125 -5.609375 0.46875 -4.703125 0.46875 -3.625 C 0.46875 -2.921875 0.859375 -2.375 1.296875 -1.765625 C 1.578125 -1.359375 1.828125 -1 1.953125 -0.546875 L 1.3125 -0.546875 C 0.84375 -0.546875 0.828125 -0.609375 0.78125 -0.6875 C 0.71875 -0.828125 0.640625 -1.234375 0.625 -1.3125 L 0.375 -1.3125 L 0.65625 0 L 2.015625 0 C 2.1875 0 2.234375 0 2.234375 -0.171875 C 2.234375 -0.75 1.953125 -1.4375 1.75 -1.921875 C 1.53125 -2.46875 1.296875 -3.046875 1.296875 -3.625 C 1.296875 -4.8125 2.203125 -5.390625 3.046875 -5.390625 C 3.90625 -5.390625 4.8125 -4.796875 4.8125 -3.625 C 4.8125 -3.046875 4.578125 -2.5 4.375 -2.015625 C 4.140625 -1.421875 3.859375 -0.75 3.859375 -0.1875 C 3.859375 0 3.90625 0 4.09375 0 L 5.453125 0 Z M 5.734375 -1.3125 "/>
</g>
<g id="glyph-3-0">
</g>
<g id="glyph-3-1">
<path d="M 4 -3.171875 C 3.640625 -3.09375 3.625 -2.78125 3.625 -2.75 C 3.625 -2.578125 3.765625 -2.453125 3.9375 -2.453125 C 4.109375 -2.453125 4.375 -2.59375 4.375 -2.9375 C 4.375 -3.390625 3.875 -3.515625 3.578125 -3.515625 C 3.21875 -3.515625 2.90625 -3.25 2.71875 -2.9375 C 2.546875 -3.359375 2.140625 -3.515625 1.8125 -3.515625 C 0.9375 -3.515625 0.453125 -2.515625 0.453125 -2.296875 C 0.453125 -2.21875 0.515625 -2.1875 0.578125 -2.1875 C 0.671875 -2.1875 0.6875 -2.234375 0.703125 -2.328125 C 0.890625 -2.90625 1.375 -3.296875 1.78125 -3.296875 C 2.09375 -3.296875 2.25 -3.0625 2.25 -2.78125 C 2.25 -2.625 2.15625 -2.25 2.09375 -2 C 2.03125 -1.765625 1.859375 -1.0625 1.8125 -0.90625 C 1.703125 -0.484375 1.421875 -0.140625 1.0625 -0.140625 C 1.03125 -0.140625 0.828125 -0.140625 0.65625 -0.25 C 1.015625 -0.34375 1.015625 -0.671875 1.015625 -0.6875 C 1.015625 -0.875 0.875 -0.984375 0.703125 -0.984375 C 0.484375 -0.984375 0.25 -0.796875 0.25 -0.5 C 0.25 -0.125 0.640625 0.078125 1.046875 0.078125 C 1.46875 0.078125 1.765625 -0.234375 1.90625 -0.5 C 2.09375 -0.109375 2.453125 0.078125 2.84375 0.078125 C 3.703125 0.078125 4.1875 -0.921875 4.1875 -1.140625 C 4.1875 -1.21875 4.125 -1.25 4.0625 -1.25 C 3.96875 -1.25 3.953125 -1.1875 3.921875 -1.109375 C 3.765625 -0.578125 3.3125 -0.140625 2.859375 -0.140625 C 2.59375 -0.140625 2.40625 -0.3125 2.40625 -0.65625 C 2.40625 -0.8125 2.453125 -1 2.5625 -1.4375 C 2.609375 -1.6875 2.78125 -2.375 2.828125 -2.53125 C 2.9375 -2.953125 3.21875 -3.296875 3.578125 -3.296875 C 3.625 -3.296875 3.828125 -3.296875 4 -3.171875 Z M 4 -3.171875 "/>
</g>
<g id="glyph-3-2">
<path d="M 1.46875 -0.953125 C 1.109375 -0.359375 0.78125 -0.28125 0.5 -0.265625 C 0.421875 -0.25 0.3125 -0.25 0.3125 -0.109375 C 0.3125 -0.09375 0.328125 0 0.4375 0 C 0.5 0 0.546875 -0.03125 1.109375 -0.03125 C 1.65625 -0.03125 1.828125 0 1.875 0 C 1.90625 0 2.03125 0 2.03125 -0.15625 C 2.03125 -0.25 1.921875 -0.265625 1.890625 -0.265625 C 1.71875 -0.265625 1.546875 -0.328125 1.546875 -0.515625 C 1.546875 -0.625 1.625 -0.734375 1.765625 -0.96875 L 2.3125 -1.84375 L 4.5 -1.84375 L 4.65625 -0.5 C 4.65625 -0.375 4.515625 -0.265625 4.140625 -0.265625 C 4.03125 -0.265625 3.921875 -0.265625 3.921875 -0.109375 C 3.921875 -0.109375 3.921875 0 4.0625 0 C 4.140625 0 4.4375 -0.015625 4.515625 -0.03125 L 5.015625 -0.03125 C 5.734375 -0.03125 5.859375 0 5.921875 0 C 5.953125 0 6.09375 0 6.09375 -0.15625 C 6.09375 -0.265625 5.984375 -0.265625 5.859375 -0.265625 C 5.421875 -0.265625 5.40625 -0.328125 5.390625 -0.53125 L 4.75 -5.453125 C 4.734375 -5.640625 4.71875 -5.6875 4.59375 -5.6875 C 4.453125 -5.6875 4.40625 -5.609375 4.34375 -5.53125 Z M 2.484375 -2.109375 L 4.125 -4.71875 L 4.46875 -2.109375 Z M 2.484375 -2.109375 "/>
</g>
<g id="glyph-4-0">
</g>
<g id="glyph-4-1">
<path d="M 4.625 -1.8125 C 4.75 -1.8125 4.9375 -1.8125 4.9375 -1.984375 C 4.9375 -2.171875 4.75 -2.171875 4.625 -2.171875 L 1.078125 -2.171875 C 1.171875 -3.28125 2.109375 -4.125 3.3125 -4.125 L 4.625 -4.125 C 4.75 -4.125 4.9375 -4.125 4.9375 -4.3125 C 4.9375 -4.5 4.75 -4.5 4.625 -4.5 L 3.296875 -4.5 C 1.859375 -4.5 0.703125 -3.375 0.703125 -1.984375 C 0.703125 -0.59375 1.859375 0.515625 3.296875 0.515625 L 4.625 0.515625 C 4.75 0.515625 4.9375 0.515625 4.9375 0.328125 C 4.9375 0.140625 4.75 0.140625 4.625 0.140625 L 3.3125 0.140625 C 2.109375 0.140625 1.171875 -0.703125 1.078125 -1.8125 Z M 4.625 -1.8125 "/>
</g>
</g>
</defs>
<g fill="rgb(0%, 0%, 0%)" fill-opacity="1">
<use xlink:href="#glyph-0-1" x="0.5" y="9.466"/>
</g>
<g fill="rgb(0%, 0%, 0%)" fill-opacity="1">
<use xlink:href="#glyph-1-1" x="11.343" y="9.466"/>
</g>
<g fill="rgb(0%, 0%, 0%)" fill-opacity="1">
<use xlink:href="#glyph-1-2" x="23.771626" y="9.466"/>
<use xlink:href="#glyph-1-3" x="29.624892" y="9.466"/>
<use xlink:href="#glyph-1-4" x="34.177432" y="9.466"/>
</g>
<g fill="rgb(0%, 0%, 0%)" fill-opacity="1">
<use xlink:href="#glyph-2-1" x="28.92" y="19.229"/>
</g>
<g fill="rgb(0%, 0%, 0%)" fill-opacity="1">
<use xlink:href="#glyph-1-5" x="42.181" y="9.466"/>
<use xlink:href="#glyph-1-6" x="46.798098" y="9.466"/>
<use xlink:href="#glyph-1-7" x="53.301727" y="9.466"/>
</g>
<g fill="rgb(0%, 0%, 0%)" fill-opacity="1">
<use xlink:href="#glyph-3-1" x="42.616" y="19.229"/>
</g>
<g fill="rgb(0%, 0%, 0%)" fill-opacity="1">
<use xlink:href="#glyph-4-1" x="47.383" y="19.229"/>
</g>
<g fill="rgb(0%, 0%, 0%)" fill-opacity="1">
<use xlink:href="#glyph-3-2" x="53.028" y="19.229"/>
</g>
<g fill="rgb(0%, 0%, 0%)" fill-opacity="1">
<use xlink:href="#glyph-0-2" x="61.798" y="9.466"/>
</g>
<g fill="rgb(0%, 0%, 0%)" fill-opacity="1">
<use xlink:href="#glyph-1-8" x="68.844" y="9.466"/>
</g>
<g fill="rgb(0%, 0%, 0%)" fill-opacity="1">
<use xlink:href="#glyph-0-3" x="73.397" y="9.466"/>
</g>
<g fill="rgb(0%, 0%, 0%)" fill-opacity="1">
<use xlink:href="#glyph-1-9" x="80.049" y="9.466"/>
</g>
</svg>
