<?xml version="1.0" encoding="UTF-8"?>
<svg xmlns="http://www.w3.org/2000/svg" xmlns:xlink="http://www.w3.org/1999/xlink" viewBox="0 0 47.713 12.955">
<defs>
<g>
<g id="glyph-0-0">
</g>
<g id="glyph-0-1">
<path d="M 5.328125 -4.8125 C 5.5625 -4.8125 5.671875 -4.8125 5.671875 -5.03125 C 5.671875 -5.15625 5.5625 -5.15625 5.359375 -5.15625 L 4.390625 -5.15625 C 4.609375 -6.390625 4.78125 -7.234375 4.875 -7.609375 C 4.953125 -7.90625 5.203125 -8.171875 5.515625 -8.171875 C 5.765625 -8.171875 6.015625 -8.0625 6.125 -7.953125 C 5.671875 -7.90625 5.515625 -7.5625 5.515625 -7.359375 C 5.515625 -7.125 5.703125 -6.984375 5.921875 -6.984375 C 6.171875 -6.984375 6.53125 -7.1875 6.53125 -7.640625 C 6.53125 -8.140625 6.03125 -8.421875 5.5 -8.421875 C 4.984375 -8.421875 4.484375 -8.03125 4.25 -7.5625 C 4.03125 -7.140625 3.90625 -6.71875 3.640625 -5.15625 L 2.828125 -5.15625 C 2.609375 -5.15625 2.484375 -5.15625 2.484375 -4.9375 C 2.484375 -4.8125 2.5625 -4.8125 2.796875 -4.8125 L 3.5625 -4.8125 C 3.34375 -3.6875 2.859375 -0.984375 2.578125 0.28125 C 2.375 1.328125 2.203125 2.203125 1.609375 2.203125 C 1.5625 2.203125 1.21875 2.203125 1 1.96875 C 1.609375 1.921875 1.609375 1.40625 1.609375 1.390625 C 1.609375 1.140625 1.4375 1 1.203125 1 C 0.96875 1 0.609375 1.203125 0.609375 1.65625 C 0.609375 2.171875 1.140625 2.4375 1.609375 2.4375 C 2.828125 2.4375 3.328125 0.25 3.453125 -0.34375 C 3.671875 -1.265625 4.25 -4.453125 4.3125 -4.8125 Z M 5.328125 -4.8125 "/>
</g>
<g id="glyph-0-2">
<path d="M 5.671875 -4.875 C 5.28125 -4.8125 5.140625 -4.515625 5.140625 -4.296875 C 5.140625 -4 5.359375 -3.90625 5.53125 -3.90625 C 5.890625 -3.90625 6.140625 -4.21875 6.140625 -4.546875 C 6.140625 -5.046875 5.5625 -5.265625 5.0625 -5.265625 C 4.34375 -5.265625 3.9375 -4.546875 3.828125 -4.328125 C 3.546875 -5.21875 2.8125 -5.265625 2.59375 -5.265625 C 1.375 -5.265625 0.734375 -3.703125 0.734375 -3.4375 C 0.734375 -3.390625 0.78125 -3.328125 0.859375 -3.328125 C 0.953125 -3.328125 0.984375 -3.40625 1 -3.453125 C 1.40625 -4.78125 2.21875 -5.03125 2.5625 -5.03125 C 3.09375 -5.03125 3.203125 -4.53125 3.203125 -4.25 C 3.203125 -3.984375 3.125 -3.703125 2.984375 -3.125 L 2.578125 -1.5 C 2.40625 -0.78125 2.0625 -0.125 1.421875 -0.125 C 1.359375 -0.125 1.0625 -0.125 0.8125 -0.28125 C 1.25 -0.359375 1.34375 -0.71875 1.34375 -0.859375 C 1.34375 -1.09375 1.15625 -1.25 0.9375 -1.25 C 0.640625 -1.25 0.328125 -0.984375 0.328125 -0.609375 C 0.328125 -0.109375 0.890625 0.125 1.40625 0.125 C 1.984375 0.125 2.390625 -0.328125 2.640625 -0.828125 C 2.828125 -0.125 3.4375 0.125 3.875 0.125 C 5.09375 0.125 5.734375 -1.453125 5.734375 -1.703125 C 5.734375 -1.765625 5.6875 -1.8125 5.625 -1.8125 C 5.515625 -1.8125 5.5 -1.75 5.46875 -1.65625 C 5.140625 -0.609375 4.453125 -0.125 3.90625 -0.125 C 3.484375 -0.125 3.265625 -0.4375 3.265625 -0.921875 C 3.265625 -1.1875 3.3125 -1.375 3.5 -2.15625 L 3.921875 -3.796875 C 4.09375 -4.5 4.5 -5.03125 5.0625 -5.03125 C 5.078125 -5.03125 5.421875 -5.03125 5.671875 -4.875 Z M 5.671875 -4.875 "/>
</g>
<g id="glyph-1-0">
</g>
<g id="glyph-1-1">
<path d="M 3.890625 2.90625 C 3.890625 2.875 3.890625 2.84375 3.6875 2.640625 C 2.484375 1.4375 1.8125 -0.53125 1.8125 -2.96875 C 1.8125 -5.296875 2.375 -7.296875 3.765625 -8.703125 C 3.890625 -8.8125 3.890625 -8.828125 3.890625 -8.875 C 3.890625 -8.9375 3.828125 -8.96875 3.78125 -8.96875 C 3.625 -8.96875 2.640625 -8.109375 2.0625 -6.9375 C 1.453125 -5.71875 1.171875 -4.453125 1.171875 -2.96875 C 1.171875 -1.90625 1.34375 -0.484375 1.953125 0.78125 C 2.671875 2.21875 3.640625 3 3.78125 3 C 3.828125 3 3.890625 2.96875 3.890625 2.90625 Z M 3.890625 2.90625 "/>
</g>
<g id="glyph-1-2">
<path d="M 3.375 -2.96875 C 3.375 -3.890625 3.25 -5.359375 2.578125 -6.75 C 1.875 -8.1875 0.890625 -8.96875 0.765625 -8.96875 C 0.71875 -8.96875 0.65625 -8.9375 0.65625 -8.875 C 0.65625 -8.828125 0.65625 -8.8125 0.859375 -8.609375 C 2.0625 -7.40625 2.71875 -5.421875 2.71875 -2.984375 C 2.71875 -0.671875 2.15625 1.328125 0.78125 2.734375 C 0.65625 2.84375 0.65625 2.875 0.65625 2.90625 C 0.65625 2.96875 0.71875 3 0.765625 3 C 0.921875 3 1.90625 2.140625 2.484375 0.96875 C 3.09375 -0.25 3.375 -1.546875 3.375 -2.96875 Z M 3.375 -2.96875 "/>
</g>
<g id="glyph-2-0">
</g>
<g id="glyph-2-1">
<path d="M 6.546875 -2.75 C 6.75 -2.75 6.96875 -2.75 6.96875 -2.984375 C 6.96875 -3.234375 6.75 -3.234375 6.546875 -3.234375 L 1.484375 -3.234375 C 1.625 -4.828125 3 -5.96875 4.6875 -5.96875 L 6.546875 -5.96875 C 6.75 -5.96875 6.96875 -5.96875 6.96875 -6.21875 C 6.96875 -6.453125 6.75 -6.453125 6.546875 -6.453125 L 4.65625 -6.453125 C 2.625 -6.453125 0.984375 -4.90625 0.984375 -2.984375 C 0.984375 -1.078125 2.625 0.484375 4.65625 0.484375 L 6.546875 0.484375 C 6.75 0.484375 6.96875 0.484375 6.96875 0.234375 C 6.96875 0 6.75 0 6.546875 0 L 4.6875 0 C 3 0 1.625 -1.140625 1.484375 -2.75 Z M 6.546875 -2.75 "/>
</g>
<g id="glyph-3-0">
</g>
<g id="glyph-3-1">
<path d="M 4.9375 -4.96875 L 5.71875 -5.71875 C 7.015625 -7 7.734375 -7.703125 8.46875 -7.765625 C 8.578125 -7.78125 8.734375 -7.796875 8.734375 -7.96875 C 8.734375 -8.1875 8.5625 -8.1875 8.34375 -8.1875 L 5.828125 -8.1875 C 5.609375 -8.1875 5.421875 -8.1875 5.421875 -7.96875 C 5.421875 -7.796875 5.59375 -7.78125 5.671875 -7.765625 C 6 -7.71875 6.125 -7.4375 6.125 -7.171875 C 6.125 -6.84375 5.9375 -6.640625 5.828125 -6.53125 L 4.53125 -5.296875 C 4.25 -5.03125 3.578125 -4.34375 3.28125 -4.09375 L 3.28125 -7.09375 C 3.28125 -7.6875 3.328125 -7.765625 4.03125 -7.765625 C 4.140625 -7.765625 4.34375 -7.765625 4.34375 -7.96875 C 4.34375 -8.1875 4.15625 -8.1875 3.9375 -8.1875 L 0.6875 -8.1875 C 0.484375 -8.1875 0.28125 -8.1875 0.28125 -7.96875 C 0.28125 -7.765625 0.515625 -7.765625 0.609375 -7.765625 C 1.296875 -7.765625 1.34375 -7.671875 1.34375 -7.09375 L 1.34375 -1.09375 C 1.34375 -0.53125 1.296875 -0.421875 0.671875 -0.421875 C 0.484375 -0.421875 0.28125 -0.421875 0.28125 -0.21875 C 0.28125 0 0.484375 0 0.6875 0 L 3.9375 0 C 4.15625 0 4.34375 0 4.34375 -0.21875 C 4.34375 -0.421875 4.140625 -0.421875 4 -0.421875 C 3.328125 -0.421875 3.28125 -0.53125 3.28125 -1.09375 L 3.28125 -3.40625 L 3.625 -3.71875 L 5.734375 -1.1875 L 6.046875 -0.828125 C 6.1875 -0.65625 6.1875 -0.640625 6.234375 -0.484375 C 6.171875 -0.46875 6.140625 -0.4375 6.09375 -0.4375 C 5.8125 -0.375 5.734375 -0.375 5.734375 -0.21875 C 5.734375 0 5.921875 0 6.125 0 L 8.796875 0 C 9.015625 0 9.1875 0 9.1875 -0.21875 C 9.1875 -0.375 9.046875 -0.40625 8.96875 -0.421875 C 8.78125 -0.4375 8.734375 -0.484375 8.640625 -0.578125 C 8.53125 -0.6875 8.453125 -0.765625 8.390625 -0.84375 Z M 7.375 -7.765625 C 7 -7.5 6.984375 -7.5 6.546875 -7.109375 C 6.546875 -7.296875 6.546875 -7.515625 6.390625 -7.765625 Z M 1.65625 -0.421875 C 1.75 -0.640625 1.75 -0.9375 1.75 -1.078125 L 1.75 -7.109375 C 1.75 -7.25 1.75 -7.546875 1.65625 -7.765625 L 2.96875 -7.765625 C 2.875 -7.546875 2.875 -7.25 2.875 -7.109375 L 2.875 -1.078125 C 2.875 -0.9375 2.875 -0.640625 2.96875 -0.421875 Z M 4.640625 -4.703125 L 8.203125 -0.421875 L 6.65625 -0.421875 C 6.640625 -0.625 6.640625 -0.734375 6.328125 -1.125 C 6.078125 -1.453125 5.390625 -2.265625 5.109375 -2.578125 C 4.875 -2.875 4.046875 -3.875 3.9375 -4 Z M 4.640625 -4.703125 "/>
</g>
</g>
<clipPath id="clip-0">
<path clip-rule="nonzero" d="M 8 0 L 12 0 L 12 12.953125 L 8 12.953125 Z M 8 0 "/>
</clipPath>
<clipPath id="clip-1">
<path clip-rule="nonzero" d="M 19 0 L 23 0 L 23 12.953125 L 19 12.953125 Z M 19 0 "/>
</clipPath>
<clipPath id="clip-2">
<path clip-rule="nonzero" d="M 38 1 L 47.714844 1 L 47.714844 10 L 38 10 Z M 38 1 "/>
</clipPath>
</defs>
<g fill="rgb(0%, 0%, 0%)" fill-opacity="1">
<use xlink:href="#glyph-0-1" x="0.5" y="9.466"/>
</g>
<g clip-path="url(#clip-0)">
<g fill="rgb(0%, 0%, 0%)" fill-opacity="1">
<use xlink:href="#glyph-1-1" x="7.546" y="9.466"/>
</g>
</g>
<g fill="rgb(0%, 0%, 0%)" fill-opacity="1">
<use xlink:href="#glyph-0-2" x="12.099" y="9.466"/>
</g>
<g clip-path="url(#clip-1)">
<g fill="rgb(0%, 0%, 0%)" fill-opacity="1">
<use xlink:href="#glyph-1-2" x="18.751" y="9.466"/>
</g>
</g>
<g fill="rgb(0%, 0%, 0%)" fill-opacity="1">
<use xlink:href="#glyph-2-1" x="26.624" y="9.466"/>
</g>
<g clip-path="url(#clip-2)">
<g fill="rgb(0%, 0%, 0%)" fill-opacity="1">
<use xlink:href="#glyph-3-1" x="37.915" y="9.466"/>
</g>
</g>
</svg>
