<?xml version="1.0" encoding="UTF-8"?>
<svg xmlns="http://www.w3.org/2000/svg" xmlns:xlink="http://www.w3.org/1999/xlink" viewBox="0 0 36.988 10.795">
<defs>
<g>
<g id="glyph-0-0">
</g>
<g id="glyph-0-1">
<path d="M 5.671875 -4.859375 L 4.546875 -7.46875 C 4.703125 -7.75 5.0625 -7.8125 5.21875 -7.8125 C 5.28125 -7.8125 5.421875 -7.828125 5.421875 -8.03125 C 5.421875 -8.15625 5.3125 -8.15625 5.234375 -8.15625 C 5.03125 -8.15625 4.796875 -8.140625 4.59375 -8.140625 L 3.890625 -8.140625 C 3.171875 -8.140625 2.640625 -8.15625 2.625 -8.15625 C 2.53125 -8.15625 2.421875 -8.15625 2.421875 -7.9375 C 2.421875 -7.8125 2.515625 -7.8125 2.671875 -7.8125 C 3.375 -7.8125 3.421875 -7.703125 3.53125 -7.40625 L 4.953125 -4.09375 L 2.359375 -1.3125 C 1.9375 -0.84375 1.421875 -0.390625 0.53125 -0.34375 C 0.390625 -0.328125 0.296875 -0.328125 0.296875 -0.125 C 0.296875 -0.078125 0.3125 0 0.4375 0 C 0.609375 0 0.78125 -0.03125 0.953125 -0.03125 L 1.515625 -0.03125 C 1.90625 -0.03125 2.3125 0 2.6875 0 C 2.765625 0 2.921875 0 2.921875 -0.21875 C 2.921875 -0.328125 2.828125 -0.34375 2.765625 -0.34375 C 2.515625 -0.375 2.359375 -0.5 2.359375 -0.6875 C 2.359375 -0.890625 2.515625 -1.046875 2.859375 -1.40625 L 3.921875 -2.5625 C 4.1875 -2.828125 4.8125 -3.53125 5.078125 -3.796875 L 6.328125 -0.84375 C 6.34375 -0.828125 6.390625 -0.703125 6.390625 -0.6875 C 6.390625 -0.578125 6.125 -0.375 5.75 -0.34375 C 5.671875 -0.34375 5.546875 -0.328125 5.546875 -0.125 C 5.546875 0 5.671875 0 5.71875 0 C 5.921875 0 6.171875 -0.03125 6.375 -0.03125 L 7.6875 -0.03125 C 7.90625 -0.03125 8.125 0 8.328125 0 C 8.421875 0 8.546875 0 8.546875 -0.234375 C 8.546875 -0.34375 8.421875 -0.34375 8.3125 -0.34375 C 7.609375 -0.359375 7.578125 -0.421875 7.375 -0.859375 L 5.796875 -4.5625 L 7.3125 -6.1875 C 7.4375 -6.3125 7.703125 -6.609375 7.8125 -6.734375 C 8.328125 -7.265625 8.8125 -7.75 9.78125 -7.8125 C 9.890625 -7.828125 10.015625 -7.828125 10.015625 -8.03125 C 10.015625 -8.15625 9.90625 -8.15625 9.859375 -8.15625 C 9.6875 -8.15625 9.515625 -8.140625 9.34375 -8.140625 L 8.796875 -8.140625 C 8.421875 -8.140625 8 -8.15625 7.625 -8.15625 C 7.546875 -8.15625 7.40625 -8.15625 7.40625 -7.953125 C 7.40625 -7.828125 7.484375 -7.8125 7.546875 -7.8125 C 7.75 -7.796875 7.953125 -7.703125 7.953125 -7.46875 L 7.9375 -7.453125 C 7.921875 -7.359375 7.90625 -7.25 7.765625 -7.09375 Z M 5.671875 -4.859375 "/>
</g>
<g id="glyph-0-2">
<path d="M 7.03125 -6.84375 L 7.296875 -7.109375 C 7.828125 -7.65625 8.265625 -7.78125 8.6875 -7.8125 C 8.828125 -7.828125 8.921875 -7.84375 8.921875 -8.046875 C 8.921875 -8.15625 8.8125 -8.15625 8.78125 -8.15625 C 8.640625 -8.15625 8.484375 -8.140625 8.34375 -8.140625 L 7.859375 -8.140625 C 7.5 -8.140625 7.140625 -8.15625 6.796875 -8.15625 C 6.71875 -8.15625 6.59375 -8.15625 6.59375 -7.9375 C 6.59375 -7.828125 6.703125 -7.8125 6.734375 -7.8125 C 7.09375 -7.796875 7.09375 -7.609375 7.09375 -7.546875 C 7.09375 -7.40625 7 -7.234375 6.765625 -6.953125 L 3.921875 -3.6875 L 2.5625 -7.328125 C 2.5 -7.5 2.5 -7.515625 2.5 -7.546875 C 2.5 -7.796875 2.984375 -7.8125 3.125 -7.8125 C 3.28125 -7.8125 3.40625 -7.8125 3.40625 -8.03125 C 3.40625 -8.15625 3.296875 -8.15625 3.234375 -8.15625 C 3.03125 -8.15625 2.78125 -8.140625 2.578125 -8.140625 L 1.25 -8.140625 C 1.046875 -8.140625 0.8125 -8.15625 0.609375 -8.15625 C 0.53125 -8.15625 0.390625 -8.15625 0.390625 -7.9375 C 0.390625 -7.8125 0.5 -7.8125 0.6875 -7.8125 C 1.265625 -7.8125 1.375 -7.703125 1.484375 -7.4375 L 2.96875 -3.453125 C 2.96875 -3.421875 3.015625 -3.28125 3.015625 -3.25 C 3.015625 -3.21875 2.421875 -0.859375 2.390625 -0.734375 C 2.296875 -0.421875 2.171875 -0.359375 1.40625 -0.34375 C 1.203125 -0.34375 1.109375 -0.34375 1.109375 -0.125 C 1.109375 0 1.25 0 1.28125 0 C 1.5 0 1.75 -0.03125 1.96875 -0.03125 L 3.375 -0.03125 C 3.59375 -0.03125 3.84375 0 4.0625 0 C 4.140625 0 4.296875 0 4.296875 -0.21875 C 4.296875 -0.34375 4.203125 -0.34375 4 -0.34375 C 3.265625 -0.34375 3.265625 -0.4375 3.265625 -0.5625 C 3.265625 -0.640625 3.359375 -1.03125 3.421875 -1.265625 L 3.84375 -2.984375 C 3.921875 -3.234375 3.921875 -3.265625 4.03125 -3.375 Z M 7.03125 -6.84375 "/>
</g>
<g id="glyph-1-0">
</g>
<g id="glyph-1-1">
<path d="M 7.875 -7.125 C 8.078125 -7.125 8.296875 -7.125 8.296875 -7.359375 C 8.296875 -7.609375 8.078125 -7.609375 7.875 -7.609375 L 4.65625 -7.609375 C 2.609375 -7.609375 0.984375 -6.03125 0.984375 -4.140625 C 0.984375 -2.21875 2.640625 -0.6875 4.65625 -0.6875 L 7.875 -0.6875 C 8.078125 -0.6875 8.296875 -0.6875 8.296875 -0.921875 C 8.296875 -1.15625 8.078125 -1.15625 7.875 -1.15625 L 4.6875 -1.15625 C 2.796875 -1.15625 1.46875 -2.5625 1.46875 -4.140625 C 1.46875 -5.765625 2.828125 -7.125 4.6875 -7.125 Z M 1.65625 1.15625 C 1.453125 1.15625 1.234375 1.15625 1.234375 1.40625 C 1.234375 1.640625 1.453125 1.640625 1.65625 1.640625 L 7.875 1.640625 C 8.078125 1.640625 8.296875 1.640625 8.296875 1.40625 C 8.296875 1.15625 8.078125 1.15625 7.875 1.15625 Z M 1.65625 1.15625 "/>
</g>
</g>
<clipPath id="clip-0">
<path clip-rule="nonzero" d="M 15 1 L 23 1 L 23 10.796875 L 15 10.796875 Z M 15 1 "/>
</clipPath>
<clipPath id="clip-1">
<path clip-rule="nonzero" d="M 27 0 L 36.988281 0 L 36.988281 9 L 27 9 Z M 27 0 "/>
</clipPath>
</defs>
<g fill="rgb(0%, 0%, 0%)" fill-opacity="1">
<use xlink:href="#glyph-0-1" x="0.5" y="8.669"/>
</g>
<g clip-path="url(#clip-0)">
<g fill="rgb(0%, 0%, 0%)" fill-opacity="1">
<use xlink:href="#glyph-1-1" x="14.476" y="8.669"/>
</g>
</g>
<g clip-path="url(#clip-1)">
<g fill="rgb(0%, 0%, 0%)" fill-opacity="1">
<use xlink:href="#glyph-0-2" x="27.095" y="8.669"/>
</g>
</g>
</svg>
