<?xml version="1.0" encoding="UTF-8"?>
<svg xmlns="http://www.w3.org/2000/svg" xmlns:xlink="http://www.w3.org/1999/xlink" viewBox="0 0 359.98 38.77">
<defs>
<g>
<g id="glyph-0-0">
</g>
<g id="glyph-0-1">
<path d="M 6.015625 -8 C 6.03125 -8.046875 6.046875 -8.109375 6.046875 -8.171875 C 6.046875 -8.296875 5.921875 -8.296875 5.90625 -8.296875 C 5.890625 -8.296875 5.3125 -8.25 5.25 -8.234375 C 5.046875 -8.21875 4.859375 -8.203125 4.65625 -8.1875 C 4.34375 -8.15625 4.265625 -8.15625 4.265625 -7.9375 C 4.265625 -7.8125 4.359375 -7.8125 4.53125 -7.8125 C 5.109375 -7.8125 5.125 -7.703125 5.125 -7.59375 C 5.125 -7.515625 5.109375 -7.421875 5.09375 -7.390625 L 4.359375 -4.484375 C 4.234375 -4.796875 3.90625 -5.265625 3.28125 -5.265625 C 1.9375 -5.265625 0.484375 -3.53125 0.484375 -1.75 C 0.484375 -0.578125 1.171875 0.125 1.984375 0.125 C 2.640625 0.125 3.203125 -0.390625 3.53125 -0.78125 C 3.65625 -0.078125 4.21875 0.125 4.578125 0.125 C 4.9375 0.125 5.21875 -0.09375 5.4375 -0.53125 C 5.625 -0.9375 5.796875 -1.65625 5.796875 -1.703125 C 5.796875 -1.765625 5.75 -1.8125 5.671875 -1.8125 C 5.5625 -1.8125 5.5625 -1.75 5.515625 -1.578125 C 5.328125 -0.875 5.109375 -0.125 4.609375 -0.125 C 4.265625 -0.125 4.25 -0.4375 4.25 -0.671875 C 4.25 -0.71875 4.25 -0.96875 4.328125 -1.296875 Z M 3.59375 -1.421875 C 3.53125 -1.21875 3.53125 -1.1875 3.375 -0.96875 C 3.109375 -0.640625 2.578125 -0.125 2.015625 -0.125 C 1.53125 -0.125 1.25 -0.5625 1.25 -1.265625 C 1.25 -1.921875 1.625 -3.265625 1.859375 -3.765625 C 2.265625 -4.609375 2.828125 -5.03125 3.28125 -5.03125 C 4.078125 -5.03125 4.234375 -4.046875 4.234375 -3.953125 C 4.234375 -3.9375 4.203125 -3.796875 4.1875 -3.765625 Z M 3.59375 -1.421875 "/>
</g>
<g id="glyph-0-2">
<path d="M 4.984375 -7.296875 C 5.0625 -7.578125 5.078125 -7.6875 5.265625 -7.734375 C 5.359375 -7.75 5.75 -7.75 6 -7.75 C 7.203125 -7.75 7.75 -7.703125 7.75 -6.78125 C 7.75 -6.59375 7.703125 -6.140625 7.640625 -5.703125 L 7.625 -5.5625 C 7.625 -5.515625 7.671875 -5.4375 7.75 -5.4375 C 7.859375 -5.4375 7.859375 -5.5 7.90625 -5.6875 L 8.25 -7.8125 C 8.265625 -7.90625 8.265625 -7.9375 8.265625 -7.96875 C 8.265625 -8.109375 8.203125 -8.109375 7.953125 -8.109375 L 1.421875 -8.109375 C 1.140625 -8.109375 1.140625 -8.09375 1.0625 -7.875 L 0.328125 -5.71875 C 0.328125 -5.703125 0.28125 -5.5625 0.28125 -5.5625 C 0.28125 -5.5 0.328125 -5.4375 0.40625 -5.4375 C 0.5 -5.4375 0.53125 -5.484375 0.578125 -5.640625 C 1.078125 -7.09375 1.328125 -7.75 2.921875 -7.75 L 3.71875 -7.75 C 4 -7.75 4.125 -7.75 4.125 -7.625 C 4.125 -7.59375 4.125 -7.5625 4.0625 -7.34375 L 2.46875 -0.9375 C 2.34375 -0.46875 2.3125 -0.34375 1.046875 -0.34375 C 0.75 -0.34375 0.671875 -0.34375 0.671875 -0.125 C 0.671875 0 0.796875 0 0.859375 0 C 1.15625 0 1.46875 -0.03125 1.765625 -0.03125 L 3.640625 -0.03125 C 3.9375 -0.03125 4.25 0 4.546875 0 C 4.6875 0 4.8125 0 4.8125 -0.234375 C 4.8125 -0.34375 4.71875 -0.34375 4.40625 -0.34375 C 3.328125 -0.34375 3.328125 -0.453125 3.328125 -0.640625 C 3.328125 -0.640625 3.328125 -0.734375 3.375 -0.921875 Z M 4.984375 -7.296875 "/>
</g>
<g id="glyph-0-3">
<path d="M 2.140625 -2.765625 C 2.46875 -2.765625 3.28125 -2.796875 3.84375 -3.015625 C 4.75 -3.359375 4.84375 -4.046875 4.84375 -4.265625 C 4.84375 -4.796875 4.390625 -5.265625 3.59375 -5.265625 C 2.34375 -5.265625 0.53125 -4.140625 0.53125 -2.015625 C 0.53125 -0.75 1.25 0.125 2.34375 0.125 C 3.96875 0.125 5 -1.140625 5 -1.296875 C 5 -1.375 4.921875 -1.4375 4.875 -1.4375 C 4.84375 -1.4375 4.828125 -1.421875 4.71875 -1.3125 C 3.953125 -0.296875 2.828125 -0.125 2.359375 -0.125 C 1.6875 -0.125 1.328125 -0.65625 1.328125 -1.546875 C 1.328125 -1.703125 1.328125 -2.015625 1.5 -2.765625 Z M 1.5625 -3.015625 C 2.078125 -4.859375 3.21875 -5.03125 3.59375 -5.03125 C 4.125 -5.03125 4.484375 -4.71875 4.484375 -4.265625 C 4.484375 -3.015625 2.5625 -3.015625 2.0625 -3.015625 Z M 1.5625 -3.015625 "/>
</g>
<g id="glyph-0-4">
<path d="M 3.375 -1.703125 C 3.375 -1.765625 3.328125 -1.8125 3.265625 -1.8125 C 3.15625 -1.8125 3.140625 -1.78125 3.078125 -1.578125 C 2.765625 -0.484375 2.28125 -0.125 1.890625 -0.125 C 1.75 -0.125 1.578125 -0.15625 1.578125 -0.515625 C 1.578125 -0.84375 1.71875 -1.1875 1.859375 -1.546875 L 2.6875 -3.78125 C 2.71875 -3.875 2.8125 -4.09375 2.8125 -4.3125 C 2.8125 -4.8125 2.453125 -5.265625 1.859375 -5.265625 C 0.765625 -5.265625 0.328125 -3.53125 0.328125 -3.4375 C 0.328125 -3.390625 0.375 -3.328125 0.453125 -3.328125 C 0.5625 -3.328125 0.578125 -3.375 0.625 -3.546875 C 0.90625 -4.546875 1.359375 -5.03125 1.828125 -5.03125 C 1.9375 -5.03125 2.140625 -5.015625 2.140625 -4.640625 C 2.140625 -4.328125 1.984375 -3.9375 1.890625 -3.671875 L 1.046875 -1.453125 C 0.984375 -1.25 0.90625 -1.0625 0.90625 -0.84375 C 0.90625 -0.3125 1.28125 0.125 1.859375 0.125 C 2.953125 0.125 3.375 -1.625 3.375 -1.703125 Z M 3.28125 -7.453125 C 3.28125 -7.640625 3.140625 -7.859375 2.875 -7.859375 C 2.609375 -7.859375 2.296875 -7.59375 2.296875 -7.28125 C 2.296875 -6.984375 2.546875 -6.890625 2.6875 -6.890625 C 3.015625 -6.890625 3.28125 -7.203125 3.28125 -7.453125 Z M 3.28125 -7.453125 "/>
</g>
<g id="glyph-0-5">
<path d="M 2.46875 -3.5 C 2.484375 -3.578125 2.78125 -4.171875 3.234375 -4.546875 C 3.53125 -4.84375 3.9375 -5.03125 4.40625 -5.03125 C 4.890625 -5.03125 5.0625 -4.671875 5.0625 -4.203125 C 5.0625 -4.125 5.0625 -3.890625 4.90625 -3.328125 L 4.609375 -2.09375 C 4.515625 -1.734375 4.296875 -0.84375 4.265625 -0.71875 C 4.21875 -0.53125 4.140625 -0.234375 4.140625 -0.171875 C 4.140625 -0.015625 4.28125 0.125 4.453125 0.125 C 4.8125 0.125 4.875 -0.15625 4.984375 -0.578125 L 5.703125 -3.4375 C 5.71875 -3.53125 6.34375 -5.03125 7.65625 -5.03125 C 8.140625 -5.03125 8.3125 -4.671875 8.3125 -4.203125 C 8.3125 -3.53125 7.84375 -2.21875 7.578125 -1.5 C 7.46875 -1.21875 7.40625 -1.0625 7.40625 -0.84375 C 7.40625 -0.3125 7.78125 0.125 8.359375 0.125 C 9.46875 0.125 9.890625 -1.640625 9.890625 -1.703125 C 9.890625 -1.765625 9.84375 -1.8125 9.765625 -1.8125 C 9.65625 -1.8125 9.640625 -1.78125 9.59375 -1.578125 C 9.3125 -0.625 8.875 -0.125 8.390625 -0.125 C 8.265625 -0.125 8.078125 -0.125 8.078125 -0.515625 C 8.078125 -0.828125 8.21875 -1.203125 8.265625 -1.34375 C 8.484375 -1.90625 9.03125 -3.328125 9.03125 -4.015625 C 9.03125 -4.734375 8.609375 -5.265625 7.703125 -5.265625 C 6.890625 -5.265625 6.25 -4.8125 5.765625 -4.109375 C 5.734375 -4.75 5.34375 -5.265625 4.453125 -5.265625 C 3.375 -5.265625 2.828125 -4.515625 2.609375 -4.21875 C 2.5625 -4.90625 2.078125 -5.265625 1.546875 -5.265625 C 1.203125 -5.265625 0.9375 -5.109375 0.703125 -4.65625 C 0.484375 -4.21875 0.328125 -3.484375 0.328125 -3.4375 C 0.328125 -3.390625 0.375 -3.328125 0.453125 -3.328125 C 0.546875 -3.328125 0.5625 -3.34375 0.640625 -3.625 C 0.8125 -4.328125 1.046875 -5.03125 1.515625 -5.03125 C 1.796875 -5.03125 1.890625 -4.84375 1.890625 -4.484375 C 1.890625 -4.21875 1.765625 -3.75 1.6875 -3.375 L 1.34375 -2.09375 C 1.296875 -1.859375 1.171875 -1.328125 1.109375 -1.109375 C 1.03125 -0.796875 0.890625 -0.234375 0.890625 -0.171875 C 0.890625 -0.015625 1.03125 0.125 1.203125 0.125 C 1.34375 0.125 1.515625 0.046875 1.609375 -0.125 C 1.640625 -0.1875 1.75 -0.609375 1.8125 -0.84375 L 2.0625 -1.921875 Z M 2.46875 -3.5 "/>
</g>
<g id="glyph-0-6">
<path d="M 3.359375 -8 C 3.375 -8.046875 3.390625 -8.109375 3.390625 -8.171875 C 3.390625 -8.296875 3.28125 -8.296875 3.25 -8.296875 C 3.234375 -8.296875 2.8125 -8.265625 2.59375 -8.234375 C 2.390625 -8.21875 2.21875 -8.203125 2 -8.1875 C 1.703125 -8.15625 1.625 -8.15625 1.625 -7.9375 C 1.625 -7.8125 1.75 -7.8125 1.859375 -7.8125 C 2.46875 -7.8125 2.46875 -7.703125 2.46875 -7.59375 C 2.46875 -7.546875 2.46875 -7.515625 2.421875 -7.296875 L 0.703125 -0.46875 C 0.65625 -0.28125 0.65625 -0.265625 0.65625 -0.1875 C 0.65625 0.078125 0.859375 0.125 0.984375 0.125 C 1.3125 0.125 1.390625 -0.140625 1.484375 -0.515625 L 2.046875 -2.75 C 2.90625 -2.65625 3.421875 -2.296875 3.421875 -1.71875 C 3.421875 -1.65625 3.421875 -1.609375 3.375 -1.421875 C 3.328125 -1.25 3.328125 -1.09375 3.328125 -1.046875 C 3.328125 -0.34375 3.796875 0.125 4.40625 0.125 C 4.953125 0.125 5.234375 -0.375 5.328125 -0.546875 C 5.578125 -0.984375 5.734375 -1.65625 5.734375 -1.703125 C 5.734375 -1.765625 5.6875 -1.8125 5.625 -1.8125 C 5.515625 -1.8125 5.5 -1.765625 5.453125 -1.578125 C 5.28125 -0.953125 5.03125 -0.125 4.421875 -0.125 C 4.1875 -0.125 4.03125 -0.234375 4.03125 -0.6875 C 4.03125 -0.921875 4.078125 -1.1875 4.125 -1.359375 C 4.171875 -1.578125 4.171875 -1.59375 4.171875 -1.734375 C 4.171875 -2.4375 3.53125 -2.828125 2.4375 -2.96875 C 2.875 -3.234375 3.296875 -3.703125 3.46875 -3.890625 C 4.140625 -4.65625 4.609375 -5.03125 5.15625 -5.03125 C 5.4375 -5.03125 5.515625 -4.953125 5.59375 -4.890625 C 5.15625 -4.84375 4.984375 -4.53125 4.984375 -4.296875 C 4.984375 -4 5.21875 -3.90625 5.375 -3.90625 C 5.703125 -3.90625 5.984375 -4.1875 5.984375 -4.5625 C 5.984375 -4.90625 5.71875 -5.265625 5.171875 -5.265625 C 4.515625 -5.265625 3.984375 -4.8125 3.125 -3.84375 C 3.015625 -3.703125 2.5625 -3.25 2.125 -3.078125 Z M 3.359375 -8 "/>
</g>
<g id="glyph-0-7">
<path d="M 5.671875 -4.875 C 5.28125 -4.8125 5.140625 -4.515625 5.140625 -4.296875 C 5.140625 -4 5.359375 -3.90625 5.53125 -3.90625 C 5.890625 -3.90625 6.140625 -4.21875 6.140625 -4.546875 C 6.140625 -5.046875 5.5625 -5.265625 5.0625 -5.265625 C 4.34375 -5.265625 3.9375 -4.546875 3.828125 -4.328125 C 3.546875 -5.21875 2.8125 -5.265625 2.59375 -5.265625 C 1.375 -5.265625 0.734375 -3.703125 0.734375 -3.4375 C 0.734375 -3.390625 0.78125 -3.328125 0.859375 -3.328125 C 0.953125 -3.328125 0.984375 -3.40625 1 -3.453125 C 1.40625 -4.78125 2.21875 -5.03125 2.5625 -5.03125 C 3.09375 -5.03125 3.203125 -4.53125 3.203125 -4.25 C 3.203125 -3.984375 3.125 -3.703125 2.984375 -3.125 L 2.578125 -1.5 C 2.40625 -0.78125 2.0625 -0.125 1.421875 -0.125 C 1.359375 -0.125 1.0625 -0.125 0.8125 -0.28125 C 1.25 -0.359375 1.34375 -0.71875 1.34375 -0.859375 C 1.34375 -1.09375 1.15625 -1.25 0.9375 -1.25 C 0.640625 -1.25 0.328125 -0.984375 0.328125 -0.609375 C 0.328125 -0.109375 0.890625 0.125 1.40625 0.125 C 1.984375 0.125 2.390625 -0.328125 2.640625 -0.828125 C 2.828125 -0.125 3.4375 0.125 3.875 0.125 C 5.09375 0.125 5.734375 -1.453125 5.734375 -1.703125 C 5.734375 -1.765625 5.6875 -1.8125 5.625 -1.8125 C 5.515625 -1.8125 5.5 -1.75 5.46875 -1.65625 C 5.140625 -0.609375 4.453125 -0.125 3.90625 -0.125 C 3.484375 -0.125 3.265625 -0.4375 3.265625 -0.921875 C 3.265625 -1.1875 3.3125 -1.375 3.5 -2.15625 L 3.921875 -3.796875 C 4.09375 -4.5 4.5 -5.03125 5.0625 -5.03125 C 5.078125 -5.03125 5.421875 -5.03125 5.671875 -4.875 Z M 5.671875 -4.875 "/>
</g>
<g id="glyph-0-8">
<path d="M 4.1875 -3.796875 C 4.234375 -3.984375 4.234375 -4.140625 4.234375 -4.203125 C 4.234375 -4.890625 3.71875 -5.265625 3.171875 -5.265625 C 1.96875 -5.265625 1.328125 -3.53125 1.328125 -3.4375 C 1.328125 -3.375 1.375 -3.328125 1.453125 -3.328125 C 1.546875 -3.328125 1.546875 -3.375 1.609375 -3.5 C 2.09375 -4.65625 2.6875 -5.03125 3.140625 -5.03125 C 3.390625 -5.03125 3.53125 -4.90625 3.53125 -4.484375 C 3.53125 -4.203125 3.484375 -4.078125 3.4375 -3.859375 L 2.3125 0.640625 C 2.078125 1.53125 1.515625 2.203125 0.859375 2.203125 C 0.8125 2.203125 0.5625 2.203125 0.328125 2.078125 C 0.625 2.015625 0.84375 1.796875 0.84375 1.5 C 0.84375 1.3125 0.703125 1.125 0.4375 1.125 C 0.125 1.125 -0.15625 1.390625 -0.15625 1.75 C -0.15625 2.234375 0.375 2.4375 0.859375 2.4375 C 1.6875 2.4375 2.765625 1.828125 3.078125 0.640625 Z M 4.671875 -7.453125 C 4.671875 -7.75 4.421875 -7.859375 4.28125 -7.859375 C 3.953125 -7.859375 3.6875 -7.546875 3.6875 -7.28125 C 3.6875 -7.09375 3.828125 -6.890625 4.09375 -6.890625 C 4.359375 -6.890625 4.671875 -7.140625 4.671875 -7.453125 Z M 4.671875 -7.453125 "/>
</g>
<g id="glyph-0-9">
<path d="M 3.140625 1.34375 C 2.828125 1.796875 2.359375 2.203125 1.765625 2.203125 C 1.625 2.203125 1.046875 2.171875 0.875 1.625 C 0.90625 1.640625 0.96875 1.640625 0.984375 1.640625 C 1.34375 1.640625 1.59375 1.328125 1.59375 1.046875 C 1.59375 0.78125 1.359375 0.6875 1.1875 0.6875 C 0.984375 0.6875 0.578125 0.828125 0.578125 1.40625 C 0.578125 2.015625 1.09375 2.4375 1.765625 2.4375 C 2.96875 2.4375 4.171875 1.34375 4.5 0.015625 L 5.671875 -4.65625 C 5.6875 -4.703125 5.71875 -4.78125 5.71875 -4.859375 C 5.71875 -5.03125 5.5625 -5.15625 5.390625 -5.15625 C 5.28125 -5.15625 5.03125 -5.109375 4.9375 -4.75 L 4.046875 -1.234375 C 4 -1.015625 4 -0.984375 3.890625 -0.859375 C 3.65625 -0.53125 3.265625 -0.125 2.6875 -0.125 C 2.015625 -0.125 1.953125 -0.78125 1.953125 -1.09375 C 1.953125 -1.78125 2.28125 -2.703125 2.609375 -3.5625 C 2.734375 -3.90625 2.8125 -4.078125 2.8125 -4.3125 C 2.8125 -4.8125 2.453125 -5.265625 1.859375 -5.265625 C 0.765625 -5.265625 0.328125 -3.53125 0.328125 -3.4375 C 0.328125 -3.390625 0.375 -3.328125 0.453125 -3.328125 C 0.5625 -3.328125 0.578125 -3.375 0.625 -3.546875 C 0.90625 -4.546875 1.359375 -5.03125 1.828125 -5.03125 C 1.9375 -5.03125 2.140625 -5.03125 2.140625 -4.640625 C 2.140625 -4.328125 2.015625 -3.984375 1.828125 -3.53125 C 1.25 -1.953125 1.25 -1.5625 1.25 -1.28125 C 1.25 -0.140625 2.0625 0.125 2.65625 0.125 C 3 0.125 3.4375 0.015625 3.84375 -0.4375 L 3.859375 -0.421875 C 3.6875 0.28125 3.5625 0.75 3.140625 1.34375 Z M 3.140625 1.34375 "/>
</g>
<g id="glyph-1-0">
</g>
<g id="glyph-1-1">
<path d="M 8.0625 -3.875 C 8.234375 -3.875 8.453125 -3.875 8.453125 -4.09375 C 8.453125 -4.3125 8.25 -4.3125 8.0625 -4.3125 L 1.03125 -4.3125 C 0.859375 -4.3125 0.640625 -4.3125 0.640625 -4.09375 C 0.640625 -3.875 0.84375 -3.875 1.03125 -3.875 Z M 8.0625 -1.65625 C 8.234375 -1.65625 8.453125 -1.65625 8.453125 -1.859375 C 8.453125 -2.09375 8.25 -2.09375 8.0625 -2.09375 L 1.03125 -2.09375 C 0.859375 -2.09375 0.640625 -2.09375 0.640625 -1.875 C 0.640625 -1.65625 0.84375 -1.65625 1.03125 -1.65625 Z M 8.0625 -1.65625 "/>
</g>
<g id="glyph-1-2">
<path d="M 4.765625 -2.765625 L 8.0625 -2.765625 C 8.234375 -2.765625 8.453125 -2.765625 8.453125 -2.96875 C 8.453125 -3.203125 8.25 -3.203125 8.0625 -3.203125 L 4.765625 -3.203125 L 4.765625 -6.5 C 4.765625 -6.671875 4.765625 -6.890625 4.546875 -6.890625 C 4.328125 -6.890625 4.328125 -6.6875 4.328125 -6.5 L 4.328125 -3.203125 L 1.03125 -3.203125 C 0.859375 -3.203125 0.640625 -3.203125 0.640625 -2.984375 C 0.640625 -2.765625 0.84375 -2.765625 1.03125 -2.765625 L 4.328125 -2.765625 L 4.328125 0.53125 C 4.328125 0.703125 4.328125 0.921875 4.546875 0.921875 C 4.765625 0.921875 4.765625 0.71875 4.765625 0.53125 Z M 4.765625 -2.765625 "/>
</g>
<g id="glyph-2-0">
</g>
<g id="glyph-2-1">
<path d="M 15.125 16.734375 L 16.578125 12.90625 L 16.28125 12.90625 C 15.8125 14.15625 14.546875 14.96875 13.171875 15.328125 C 12.921875 15.390625 11.75 15.6875 9.453125 15.6875 L 2.25 15.6875 L 8.328125 8.5625 C 8.421875 8.46875 8.4375 8.421875 8.4375 8.359375 C 8.4375 8.34375 8.4375 8.3125 8.359375 8.1875 L 2.78125 0.578125 L 9.328125 0.578125 C 10.9375 0.578125 12.03125 0.734375 12.125 0.765625 C 12.78125 0.859375 13.8125 1.0625 14.765625 1.65625 C 15.0625 1.859375 15.875 2.390625 16.28125 3.359375 L 16.578125 3.359375 L 15.125 0 L 1 0 C 0.734375 0 0.71875 0.015625 0.6875 0.078125 C 0.671875 0.125 0.671875 0.34375 0.671875 0.484375 L 7 9.125 L 0.796875 16.390625 C 0.6875 16.53125 0.6875 16.59375 0.6875 16.609375 C 0.6875 16.734375 0.78125 16.734375 1 16.734375 Z M 15.125 16.734375 "/>
</g>
<g id="glyph-2-2">
<path d="M 3.28125 35.375 L 6.828125 35.375 L 6.828125 34.625 L 4.03125 34.625 L 4.03125 0.265625 L 6.828125 0.265625 L 6.828125 -0.484375 L 3.28125 -0.484375 Z M 3.28125 35.375 "/>
</g>
<g id="glyph-2-3">
<path d="M 4.96875 17.796875 C 4.96875 17.234375 4.96875 16.359375 4.21875 15.390625 C 3.75 14.78125 3.078125 14.234375 2.25 13.859375 C 4.578125 12.734375 4.96875 11.015625 4.96875 10.34375 L 4.96875 3.453125 C 4.96875 2.71875 4.96875 1.1875 7.296875 0.03125 C 7.390625 -0.015625 7.390625 -0.03125 7.390625 -0.21875 C 7.390625 -0.46875 7.390625 -0.484375 7.125 -0.484375 C 6.953125 -0.484375 6.9375 -0.484375 6.625 -0.328125 C 5.4375 0.25 4.265625 1.1875 4.015625 2.65625 C 3.984375 2.890625 3.984375 3 3.984375 3.796875 L 3.984375 9.328125 C 3.984375 9.6875 3.984375 10.3125 3.96875 10.453125 C 3.859375 11.703125 3.125 12.796875 1.765625 13.546875 C 1.578125 13.65625 1.5625 13.65625 1.5625 13.859375 C 1.5625 14.0625 1.578125 14.0625 1.75 14.171875 C 2.546875 14.609375 3.6875 15.46875 3.9375 16.96875 C 3.984375 17.234375 3.984375 17.265625 3.984375 17.390625 L 3.984375 24.484375 C 3.984375 26.21875 5.171875 27.359375 6.65625 28.0625 C 6.921875 28.203125 6.9375 28.203125 7.125 28.203125 C 7.375 28.203125 7.390625 28.203125 7.390625 27.9375 C 7.390625 27.75 7.375 27.734375 7.28125 27.671875 C 6.796875 27.4375 5.25 26.65625 5 24.9375 C 4.96875 24.765625 4.96875 24.640625 4.96875 23.921875 Z M 4.96875 17.796875 "/>
</g>
<g id="glyph-2-4">
<path d="M 4.96875 17.609375 C 4.96875 16.203125 5.6875 14.984375 7.296875 14.109375 C 7.375 14.0625 7.390625 14.0625 7.390625 13.859375 C 7.390625 13.65625 7.375 13.65625 7.25 13.578125 C 5.09375 12.4375 4.96875 10.671875 4.96875 10.328125 L 4.96875 3.234375 C 4.96875 1.5 3.78125 0.359375 2.296875 -0.34375 C 2.03125 -0.484375 2.015625 -0.484375 1.828125 -0.484375 C 1.578125 -0.484375 1.5625 -0.46875 1.5625 -0.21875 C 1.5625 -0.03125 1.5625 -0.015625 1.671875 0.046875 C 2.1875 0.296875 3.71875 1.078125 3.953125 2.78125 C 3.984375 2.953125 3.984375 3.078125 3.984375 3.796875 L 3.984375 9.921875 C 3.984375 10.484375 3.984375 11.375 4.734375 12.328125 C 5.203125 12.9375 5.875 13.484375 6.703125 13.859375 C 4.375 14.984375 3.984375 16.703125 3.984375 17.375 L 3.984375 24.265625 C 3.984375 24.890625 3.984375 25.578125 3.28125 26.453125 C 2.75 27.125 2.15625 27.4375 1.65625 27.6875 C 1.5625 27.734375 1.5625 27.78125 1.5625 27.9375 C 1.5625 28.1875 1.578125 28.203125 1.828125 28.203125 C 2 28.203125 2.015625 28.203125 2.328125 28.046875 C 3.515625 27.46875 4.6875 26.53125 4.9375 25.0625 C 4.96875 24.828125 4.96875 24.71875 4.96875 23.921875 Z M 4.96875 17.609375 "/>
</g>
<g id="glyph-2-5">
<path d="M 2.921875 34.625 L 0.125 34.625 L 0.125 35.375 L 3.671875 35.375 L 3.671875 -0.484375 L 0.125 -0.484375 L 0.125 0.265625 L 2.921875 0.265625 Z M 2.921875 34.625 "/>
</g>
<g id="glyph-3-0">
</g>
<g id="glyph-3-1">
<path d="M 2.375 -4.96875 C 2.375 -5.140625 2.25 -5.28125 2.0625 -5.28125 C 1.859375 -5.28125 1.625 -5.078125 1.625 -4.84375 C 1.625 -4.671875 1.75 -4.546875 1.9375 -4.546875 C 2.140625 -4.546875 2.375 -4.734375 2.375 -4.96875 Z M 1.21875 -2.046875 L 0.78125 -0.953125 C 0.734375 -0.828125 0.703125 -0.734375 0.703125 -0.59375 C 0.703125 -0.203125 1 0.078125 1.421875 0.078125 C 2.203125 0.078125 2.53125 -1.03125 2.53125 -1.140625 C 2.53125 -1.21875 2.46875 -1.25 2.40625 -1.25 C 2.3125 -1.25 2.296875 -1.1875 2.265625 -1.109375 C 2.09375 -0.46875 1.765625 -0.140625 1.4375 -0.140625 C 1.34375 -0.140625 1.25 -0.1875 1.25 -0.390625 C 1.25 -0.59375 1.3125 -0.734375 1.40625 -0.984375 C 1.484375 -1.1875 1.5625 -1.40625 1.65625 -1.625 L 1.90625 -2.265625 C 1.96875 -2.453125 2.078125 -2.703125 2.078125 -2.84375 C 2.078125 -3.234375 1.75 -3.515625 1.34375 -3.515625 C 0.578125 -3.515625 0.234375 -2.40625 0.234375 -2.296875 C 0.234375 -2.21875 0.296875 -2.1875 0.359375 -2.1875 C 0.46875 -2.1875 0.46875 -2.234375 0.5 -2.3125 C 0.71875 -3.078125 1.078125 -3.296875 1.328125 -3.296875 C 1.4375 -3.296875 1.515625 -3.25 1.515625 -3.03125 C 1.515625 -2.953125 1.5 -2.84375 1.421875 -2.59375 Z M 1.21875 -2.046875 "/>
</g>
<g id="glyph-3-2">
<path d="M 1.484375 -0.125 C 1.484375 0.390625 1.375 0.859375 0.890625 1.34375 C 0.859375 1.375 0.84375 1.390625 0.84375 1.421875 C 0.84375 1.484375 0.90625 1.53125 0.953125 1.53125 C 1.046875 1.53125 1.71875 0.90625 1.71875 -0.03125 C 1.71875 -0.53125 1.515625 -0.890625 1.171875 -0.890625 C 0.890625 -0.890625 0.734375 -0.65625 0.734375 -0.453125 C 0.734375 -0.21875 0.890625 0 1.171875 0 C 1.375 0 1.484375 -0.109375 1.484375 -0.125 Z M 1.484375 -0.125 "/>
</g>
<g id="glyph-3-3">
<path d="M 3.296875 -4.96875 C 3.296875 -5.125 3.171875 -5.28125 2.984375 -5.28125 C 2.734375 -5.28125 2.53125 -5.046875 2.53125 -4.84375 C 2.53125 -4.6875 2.65625 -4.546875 2.84375 -4.546875 C 3.078125 -4.546875 3.296875 -4.765625 3.296875 -4.96875 Z M 1.625 0.390625 C 1.5 0.890625 1.109375 1.40625 0.625 1.40625 C 0.5 1.40625 0.375 1.375 0.359375 1.359375 C 0.609375 1.25 0.640625 1.03125 0.640625 0.953125 C 0.640625 0.765625 0.5 0.65625 0.328125 0.65625 C 0.109375 0.65625 -0.109375 0.859375 -0.109375 1.125 C -0.109375 1.421875 0.1875 1.625 0.640625 1.625 C 1.125 1.625 2 1.328125 2.234375 0.359375 L 2.953125 -2.484375 C 2.984375 -2.578125 3 -2.640625 3 -2.765625 C 3 -3.203125 2.640625 -3.515625 2.1875 -3.515625 C 1.34375 -3.515625 0.84375 -2.40625 0.84375 -2.296875 C 0.84375 -2.21875 0.90625 -2.1875 0.96875 -2.1875 C 1.046875 -2.1875 1.0625 -2.21875 1.109375 -2.328125 C 1.359375 -2.890625 1.765625 -3.296875 2.15625 -3.296875 C 2.328125 -3.296875 2.421875 -3.171875 2.421875 -2.921875 C 2.421875 -2.8125 2.40625 -2.6875 2.375 -2.578125 Z M 1.625 0.390625 "/>
</g>
<g id="glyph-3-4">
<path d="M 2.328125 -5.296875 C 2.328125 -5.3125 2.359375 -5.40625 2.359375 -5.421875 C 2.359375 -5.453125 2.328125 -5.53125 2.234375 -5.53125 C 2.203125 -5.53125 1.953125 -5.5 1.765625 -5.484375 L 1.328125 -5.453125 C 1.140625 -5.4375 1.0625 -5.4375 1.0625 -5.296875 C 1.0625 -5.171875 1.171875 -5.171875 1.28125 -5.171875 C 1.65625 -5.171875 1.65625 -5.125 1.65625 -5.0625 C 1.65625 -5.03125 1.65625 -5.015625 1.625 -4.875 L 0.484375 -0.34375 C 0.453125 -0.21875 0.453125 -0.171875 0.453125 -0.171875 C 0.453125 -0.03125 0.5625 0.078125 0.71875 0.078125 C 0.984375 0.078125 1.046875 -0.171875 1.078125 -0.28125 C 1.15625 -0.625 1.375 -1.46875 1.453125 -1.796875 C 1.890625 -1.75 2.4375 -1.609375 2.4375 -1.140625 C 2.4375 -1.109375 2.4375 -1.0625 2.421875 -0.984375 C 2.390625 -0.890625 2.375 -0.765625 2.375 -0.734375 C 2.375 -0.265625 2.71875 0.078125 3.1875 0.078125 C 3.515625 0.078125 3.734375 -0.171875 3.828125 -0.3125 C 4.03125 -0.609375 4.15625 -1.09375 4.15625 -1.140625 C 4.15625 -1.21875 4.09375 -1.25 4.03125 -1.25 C 3.9375 -1.25 3.921875 -1.1875 3.890625 -1.046875 C 3.78125 -0.671875 3.578125 -0.140625 3.203125 -0.140625 C 3 -0.140625 2.953125 -0.3125 2.953125 -0.53125 C 2.953125 -0.640625 2.953125 -0.734375 3 -0.921875 C 3 -0.953125 3.03125 -1.078125 3.03125 -1.15625 C 3.03125 -1.8125 2.21875 -1.953125 1.8125 -2.015625 C 2.109375 -2.1875 2.375 -2.46875 2.46875 -2.5625 C 2.90625 -3 3.265625 -3.296875 3.65625 -3.296875 C 3.75 -3.296875 3.84375 -3.265625 3.90625 -3.1875 C 3.484375 -3.125 3.484375 -2.75 3.484375 -2.75 C 3.484375 -2.578125 3.625 -2.453125 3.796875 -2.453125 C 4.015625 -2.453125 4.25 -2.625 4.25 -2.953125 C 4.25 -3.234375 4.0625 -3.515625 3.65625 -3.515625 C 3.203125 -3.515625 2.78125 -3.15625 2.328125 -2.703125 C 1.859375 -2.25 1.671875 -2.171875 1.53125 -2.109375 Z M 2.328125 -5.296875 "/>
</g>
<g id="glyph-3-5">
<path d="M 1.59375 -1.3125 C 1.625 -1.421875 1.703125 -1.734375 1.71875 -1.84375 C 1.75 -1.921875 1.796875 -2.125 1.8125 -2.203125 C 1.828125 -2.234375 2.09375 -2.75 2.4375 -3.015625 C 2.703125 -3.234375 2.96875 -3.296875 3.203125 -3.296875 C 3.484375 -3.296875 3.65625 -3.109375 3.65625 -2.75 C 3.65625 -2.5625 3.609375 -2.375 3.515625 -2.015625 C 3.453125 -1.8125 3.328125 -1.28125 3.28125 -1.0625 L 3.15625 -0.578125 C 3.109375 -0.453125 3.0625 -0.203125 3.0625 -0.171875 C 3.0625 0.015625 3.21875 0.078125 3.3125 0.078125 C 3.453125 0.078125 3.578125 -0.015625 3.640625 -0.109375 C 3.65625 -0.15625 3.71875 -0.4375 3.765625 -0.59375 L 3.9375 -1.3125 C 3.96875 -1.421875 4.046875 -1.734375 4.078125 -1.84375 C 4.1875 -2.28125 4.1875 -2.28125 4.359375 -2.546875 C 4.625 -2.9375 5 -3.296875 5.53125 -3.296875 C 5.828125 -3.296875 6 -3.125 6 -2.75 C 6 -2.3125 5.65625 -1.390625 5.5 -1.015625 C 5.421875 -0.8125 5.40625 -0.75 5.40625 -0.59375 C 5.40625 -0.140625 5.78125 0.078125 6.125 0.078125 C 6.90625 0.078125 7.234375 -1.03125 7.234375 -1.140625 C 7.234375 -1.21875 7.15625 -1.25 7.109375 -1.25 C 7.015625 -1.25 7 -1.1875 6.96875 -1.109375 C 6.78125 -0.453125 6.453125 -0.140625 6.140625 -0.140625 C 6.015625 -0.140625 5.953125 -0.21875 5.953125 -0.40625 C 5.953125 -0.59375 6.015625 -0.765625 6.09375 -0.96875 C 6.21875 -1.265625 6.5625 -2.1875 6.5625 -2.625 C 6.5625 -3.234375 6.15625 -3.515625 5.578125 -3.515625 C 5.03125 -3.515625 4.578125 -3.234375 4.21875 -2.734375 C 4.15625 -3.375 3.640625 -3.515625 3.234375 -3.515625 C 2.859375 -3.515625 2.375 -3.390625 1.9375 -2.8125 C 1.875 -3.296875 1.5 -3.515625 1.125 -3.515625 C 0.84375 -3.515625 0.640625 -3.34375 0.515625 -3.078125 C 0.3125 -2.703125 0.234375 -2.3125 0.234375 -2.296875 C 0.234375 -2.21875 0.296875 -2.1875 0.359375 -2.1875 C 0.46875 -2.1875 0.46875 -2.21875 0.53125 -2.4375 C 0.625 -2.828125 0.765625 -3.296875 1.09375 -3.296875 C 1.3125 -3.296875 1.359375 -3.09375 1.359375 -2.921875 C 1.359375 -2.765625 1.3125 -2.625 1.25 -2.359375 C 1.234375 -2.296875 1.109375 -1.828125 1.078125 -1.71875 L 0.78125 -0.515625 C 0.75 -0.390625 0.703125 -0.203125 0.703125 -0.171875 C 0.703125 0.015625 0.859375 0.078125 0.96875 0.078125 C 1.109375 0.078125 1.234375 -0.015625 1.28125 -0.109375 C 1.3125 -0.15625 1.375 -0.4375 1.40625 -0.59375 Z M 1.59375 -1.3125 "/>
</g>
<g id="glyph-4-0">
</g>
<g id="glyph-4-1">
<path d="M 8.625 -2.984375 C 8.625 -5.1875 6.84375 -6.96875 4.65625 -6.96875 C 2.421875 -6.96875 0.65625 -5.15625 0.65625 -2.984375 C 0.65625 -0.78125 2.453125 0.984375 4.640625 0.984375 C 6.859375 0.984375 8.625 -0.8125 8.625 -2.984375 Z M 2.265625 -5.5625 C 2.25 -5.578125 2.15625 -5.671875 2.15625 -5.6875 C 2.15625 -5.734375 3.125 -6.671875 4.640625 -6.671875 C 5.0625 -6.671875 6.15625 -6.609375 7.140625 -5.6875 L 4.65625 -3.1875 Z M 1.921875 -0.484375 C 1.1875 -1.296875 0.953125 -2.21875 0.953125 -2.984375 C 0.953125 -3.90625 1.296875 -4.78125 1.921875 -5.484375 L 4.421875 -2.984375 Z M 7.34375 -5.484375 C 7.921875 -4.875 8.328125 -3.96875 8.328125 -2.984375 C 8.328125 -2.0625 7.984375 -1.1875 7.359375 -0.484375 L 4.859375 -2.984375 Z M 7.015625 -0.421875 C 7.046875 -0.390625 7.125 -0.3125 7.125 -0.28125 C 7.125 -0.234375 6.15625 0.6875 4.65625 0.6875 C 4.234375 0.6875 3.125 0.640625 2.15625 -0.28125 L 4.640625 -2.78125 Z M 7.015625 -0.421875 "/>
</g>
</g>
</defs>
<g fill="rgb(0%, 0%, 0%)" fill-opacity="1">
<use xlink:href="#glyph-0-1" x="0.5" y="21.422"/>
<use xlink:href="#glyph-0-2" x="6.582806" y="21.422"/>
</g>
<g fill="rgb(0%, 0%, 0%)" fill-opacity="1">
<use xlink:href="#glyph-1-1" x="18.39" y="21.422"/>
</g>
<g fill="rgb(0%, 0%, 0%)" fill-opacity="1">
<use xlink:href="#glyph-2-1" x="30.816" y="10.065"/>
</g>
<g fill="rgb(0%, 0%, 0%)" fill-opacity="1">
<use xlink:href="#glyph-3-1" x="34.89" y="35.259"/>
<use xlink:href="#glyph-3-2" x="37.772785" y="35.259"/>
<use xlink:href="#glyph-3-3" x="40.124762" y="35.259"/>
</g>
<g fill="rgb(0%, 0%, 0%)" fill-opacity="1">
<use xlink:href="#glyph-0-3" x="50.077" y="21.422"/>
</g>
<g fill="rgb(0%, 0%, 0%)" fill-opacity="1">
<use xlink:href="#glyph-3-1" x="55.502" y="23.215"/>
</g>
<g fill="rgb(0%, 0%, 0%)" fill-opacity="1">
<use xlink:href="#glyph-4-1" x="61.54" y="21.422"/>
</g>
<g fill="rgb(0%, 0%, 0%)" fill-opacity="1">
<use xlink:href="#glyph-0-3" x="73.495" y="21.422"/>
</g>
<g fill="rgb(0%, 0%, 0%)" fill-opacity="1">
<use xlink:href="#glyph-3-3" x="78.921" y="16.486"/>
</g>
<g fill="rgb(0%, 0%, 0%)" fill-opacity="1">
<use xlink:href="#glyph-2-2" x="85.296" y="0.978"/>
</g>
<g fill="rgb(0%, 0%, 0%)" fill-opacity="1">
<use xlink:href="#glyph-0-1" x="92.269" y="21.422"/>
<use xlink:href="#glyph-0-2" x="98.351806" y="21.422"/>
</g>
<g fill="rgb(0%, 0%, 0%)" fill-opacity="1">
<use xlink:href="#glyph-3-1" x="106.839" y="16.486"/>
</g>
<g fill="rgb(0%, 0%, 0%)" fill-opacity="1">
<use xlink:href="#glyph-3-3" x="105.213" y="24.378"/>
</g>
<g fill="rgb(0%, 0%, 0%)" fill-opacity="1">
<use xlink:href="#glyph-1-2" x="112.877" y="21.422"/>
</g>
<g fill="rgb(0%, 0%, 0%)" fill-opacity="1">
<use xlink:href="#glyph-2-1" x="124.638" y="10.065"/>
</g>
<g fill="rgb(0%, 0%, 0%)" fill-opacity="1">
<use xlink:href="#glyph-3-4" x="126.04" y="35.525"/>
</g>
<g fill="rgb(0%, 0%, 0%)" fill-opacity="1">
<use xlink:href="#glyph-3-2" x="130.664252" y="35.525"/>
<use xlink:href="#glyph-3-5" x="133.016229" y="35.525"/>
</g>
<g fill="rgb(0%, 0%, 0%)" fill-opacity="1">
<use xlink:href="#glyph-2-3" x="143.899" y="4.565"/>
</g>
<g fill="rgb(0%, 0%, 0%)" fill-opacity="1">
<use xlink:href="#glyph-0-4" x="164.215" y="14.099"/>
</g>
<g fill="rgb(0%, 0%, 0%)" fill-opacity="1">
<use xlink:href="#glyph-0-5" x="157.847" y="28.545"/>
<use xlink:href="#glyph-0-6" x="168.086629" y="28.545"/>
</g>
<g fill="rgb(0%, 0%, 0%)" fill-opacity="1">
<use xlink:href="#glyph-2-4" x="179.557" y="4.565"/>
</g>
<g fill="rgb(0%, 0%, 0%)" fill-opacity="1">
<use xlink:href="#glyph-0-2" x="194.417" y="21.422"/>
</g>
<g fill="rgb(0%, 0%, 0%)" fill-opacity="1">
<use xlink:href="#glyph-3-5" x="202.904" y="16.486"/>
</g>
<g fill="rgb(0%, 0%, 0%)" fill-opacity="1">
<use xlink:href="#glyph-3-3" x="201.278" y="24.378"/>
</g>
<g fill="rgb(0%, 0%, 0%)" fill-opacity="1">
<use xlink:href="#glyph-0-1" x="214.794" y="21.422"/>
<use xlink:href="#glyph-0-7" x="220.876806" y="21.422"/>
</g>
<g fill="rgb(0%, 0%, 0%)" fill-opacity="1">
<use xlink:href="#glyph-3-4" x="227.528" y="16.486"/>
</g>
<g fill="rgb(0%, 0%, 0%)" fill-opacity="1">
<use xlink:href="#glyph-1-2" x="235.305" y="21.422"/>
</g>
<g fill="rgb(0%, 0%, 0%)" fill-opacity="1">
<use xlink:href="#glyph-2-1" x="247.066" y="10.065"/>
</g>
<g fill="rgb(0%, 0%, 0%)" fill-opacity="1">
<use xlink:href="#glyph-3-4" x="248.468" y="35.525"/>
</g>
<g fill="rgb(0%, 0%, 0%)" fill-opacity="1">
<use xlink:href="#glyph-3-2" x="253.092252" y="35.525"/>
<use xlink:href="#glyph-3-5" x="255.444229" y="35.525"/>
</g>
<g fill="rgb(0%, 0%, 0%)" fill-opacity="1">
<use xlink:href="#glyph-2-3" x="266.327" y="4.565"/>
</g>
<g fill="rgb(0%, 0%, 0%)" fill-opacity="1">
<use xlink:href="#glyph-0-5" x="280.275" y="14.099"/>
<use xlink:href="#glyph-0-6" x="290.514629" y="14.099"/>
</g>
<g fill="rgb(0%, 0%, 0%)" fill-opacity="1">
<use xlink:href="#glyph-0-8" x="285.882" y="28.545"/>
</g>
<g fill="rgb(0%, 0%, 0%)" fill-opacity="1">
<use xlink:href="#glyph-2-4" x="301.985" y="4.565"/>
</g>
<g fill="rgb(0%, 0%, 0%)" fill-opacity="1">
<use xlink:href="#glyph-0-2" x="316.845" y="21.422"/>
</g>
<g fill="rgb(0%, 0%, 0%)" fill-opacity="1">
<use xlink:href="#glyph-3-1" x="325.332" y="16.486"/>
</g>
<g fill="rgb(0%, 0%, 0%)" fill-opacity="1">
<use xlink:href="#glyph-3-5" x="323.706" y="24.378"/>
</g>
<g fill="rgb(0%, 0%, 0%)" fill-opacity="1">
<use xlink:href="#glyph-0-1" x="335.596" y="21.422"/>
<use xlink:href="#glyph-0-9" x="341.678806" y="21.422"/>
</g>
<g fill="rgb(0%, 0%, 0%)" fill-opacity="1">
<use xlink:href="#glyph-3-4" x="347.386" y="23.215"/>
</g>
<g fill="rgb(0%, 0%, 0%)" fill-opacity="1">
<use xlink:href="#glyph-2-5" x="352.506" y="0.978"/>
</g>
</svg>
